File group: SelectedEE_ttbar_M700to1000.root	
isSelPassed	GENEvt_weight * nPileUp fix	crossection weight	Full event weight	nVertices	InvM
Lepton 1:	pT	phi	eta	Energy	reco_scale	ID_scale	ISO_scale	Trigger_scale
Lepton 2:	pT	phi	eta	Energy	reco_scale	ID_scale	ISO_scale	Trigger_scale

true	1.88668	0.134372	7	234.631
Lepton 1:	75.2078	0.342172	0.667181	92.5767
Lepton 2:	62.9551	2.79727	-1.63341	167.353

true	0.416856	0.029689	33	244.225
Lepton 1:	80.8836	2.61046	0.668572	99.6441
Lepton 2:	65.8045	0.287233	-1.60734	170.762

true	1.15643	0.0823619	9	438.411
Lepton 1:	92.4935	-2.94085	1.77217	279.958
Lepton 2:	66.4929	-0.896578	-1.6392	177.709

true	0.846499	0.0602886	28	405.546
Lepton 1:	257.621	-2.81643	-0.133744	259.929
Lepton 2:	61.5723	-0.475363	-2.31562	314.941

true	0.501101	0.035689	29	117.323
Lepton 1:	83.6652	0.556763	-0.876584	117.921
Lepton 2:	35.1543	-2.40874	-0.0566095	35.2107

true	1.27882	0.0910792	20	236.563
Lepton 1:	133.528	-0.697686	-0.607345	158.921
Lepton 2:	109.614	1.82209	-0.166154	111.13

true	0.789133	0.0562029	20	75.7819
Lepton 1:	92.7765	0.418852	0.120274	93.4484
Lepton 2:	23.599	-1.42673	-0.162188	23.9101

true	0.659609	0.0469781	23	283.895
Lepton 1:	48.9299	1.96001	-1.90486	168.008
Lepton 2:	45.8467	-1.89367	1.63276	121.8

true	1.3653	0.0972382	24	122.578
Lepton 1:	62.8658	2.26386	0.306243	65.8369
Lepton 2:	34.9474	0.162681	-1.42548	76.8886

true	1.15643	0.0823619	23	82.3979
Lepton 1:	41.5186	0.686338	0.0748444	41.635
Lepton 2:	18.6807	-2.76779	1.97717	68.7518

