1
Photon_
p_T [GeV/c]
pT_pT_order
9
0
0
10
QCD W + Jets WW WZ ZZ #bar{t}W tW t#bar{t} Drell Yan #rightarrow #tau#tau Drell Yan #rightarrow #mu#mu 

100 0 200
0 0 0 0 0 0 1.58123 0 4.11354 0 0.0430997 141.722 0 0 0 0 0 0 0 0 58.8751 0 0.186 6.73289e-06 0 0 0 0 0 0 0 0 0 0 0 0 0 0 0 0 0 0 0 0 0 0 5.32439 0 8.66607 0 0 0 0 0.00970345 8.18939 0 0 0 0 0 0 0 0 0 0 0 0 0 0 27.1286 0 0 0 0 0 0 0 0 0 0 0 0 0 0.00723985 0 0 0 0 0.367465 0 0 0 0 0 0 0 0 0 0 0 
0 0 0 0 4.49891 27.5773 38.269 50.2025 118.706 11.9952 38.6383 53.9559 19.4868 -1.06412 14.5769 15.0449 9.80431 -2.11474 19.3689 -0.716101 1.03867 6.4663 5.03795 -6.41146 3.96422 -5.37797 -0.962918 -0.581249 -13.3365 0.679378 0.215042 0 0 5.08778 0 4.46469 0 0 0 0 4.54741 0 3.75296 0 -4.13159 0 0 -4.82488 -0.633912 3.12356 0 0 0 0 0 0 0 3.57023 0 0 0 0 0 0 0 0 0 0 2.18782 0 0 0 0 0 0 0 0 0 0 0 0 0 -2.00809 0 0 0 0 0 0 0 0.903322 0 0 0 0 0 0 0 -3.88059 0 
0 0 0 1.76563 10.9274 80.7634 354.468 267.362 231.047 213.168 147.652 123.028 115.633 98.9158 83.7018 63.5746 65.9172 44.6529 43.0915 42.1539 35.5101 35.3434 24.2871 23.9282 20.9689 19.2993 16.8355 17.6128 15.665 17.0162 11.1536 12.8103 12.6936 15.5906 11.7644 10.3925 10.7263 7.60758 9.09815 8.4652 6.91238 9.24558 7.27894 10.9214 6.61857 4.5625 3.15969 6.0594 5.67355 3.26423 2.25327 4.54522 2.45833 2.94911 2.20397 5.21657 2.1704 1.58959 2.45386 0.830484 3.36407 4.50221 2.67424 6.3876 3.80141 0.808204 5.39099 2.91146 3.29425 3.22477 2.43315 0 1.4244 0.913326 0.540128 2.80411 0.350136 3.79495 3.55744 3.04418 0 0.571201 3.04332 3.3796 0 2.41688 1.14958 2.20464 0.525241 0 0.148327 0.606712 1.3076 0.614167 0 0.751619 0.554576 0 0.56234 1.86807 
0 0 0 0.731749 9.40213 112.85 624.934 629.427 695.95 687.42 558.316 508.442 470.238 399.922 387.478 329.366 306.805 264.449 268.419 202.475 203.659 180.292 171.653 160.916 141.271 139.136 108.094 103.118 94.5159 83.7767 87.5601 83.4832 66.4441 58.2753 44.3723 51.13 49.6777 46.5979 40.5144 41.5928 28.8642 31.0393 27.3588 36.0562 26.0199 28.8843 24.4709 18.8786 17.239 20.6971 21.136 19.2602 17.519 12.9844 12.5567 14.0951 15.435 16.2618 9.21636 13.8489 10.4461 10.8566 9.86179 7.31444 9.5789 15.7281 8.0642 8.87639 5.84827 4.86679 5.09971 6.96579 2.91986 3.5991 7.26583 5.04633 3.29667 2.93936 3.58897 3.68626 4.23973 4.10491 2.71529 8.00522 1.08973 4.51599 3.74405 2.1775 4.13235 1.91929 4.21619 3.52002 0 4.35049 1.2835 5.74018 2.19838 2.45428 4.45949 4.77589 
0 0 0 0.967388 6.7911 83.4222 375.532 369.144 453.492 424.036 372.091 316.219 284.662 259.098 228.37 184.794 154.237 134.28 110.9 103.242 108.627 92.7753 91.7905 90.9984 82.3257 72.3344 83.1141 57.8176 55.6158 55.9546 42.5496 47.4391 46.7798 38.2844 38.1276 33.4159 33.5062 23.9119 25.5215 29.0845 26.7493 20.8432 25.1743 17.8431 19.3177 16.3058 11.5906 14.2689 11.5344 12.5618 10.3973 14.3817 6.68684 8.34738 8.94547 9.83754 7.40817 5.28756 5.97975 7.93718 6.8694 11.5901 5.35579 6.12114 4.51097 7.31266 5.75268 3.2626 2.56474 7.81639 1.51119 3.02392 4.30247 1.22708 2.36224 2.71368 6.12931 2.02165 3.83089 5.14148 1.82921 2.01906 3.31837 1.01114 2.23552 2.55905 1.76641 2.61897 2.04397 0.656097 1.47995 0.332634 2.47422 1.97992 3.89197 0.425562 2.65946 2.10921 1.58426 1.1222 
0 0 0 0.551419 5.64833 34.7038 208.441 183.197 271.328 263.861 222.113 203.426 167.828 141.5 122.664 115.188 94.4139 86.4359 69.7733 54.9526 62.4577 51.9801 42.6346 43.896 37.7604 34.8523 37.2135 26.6598 28.926 24.8517 22.4384 21.9082 21.2365 18.4334 15.2371 16.0489 14.6515 14.676 12.3683 11.4159 9.4681 11.3535 8.7504 7.18437 8.01277 8.09725 5.87016 7.4768 7.13174 5.74046 6.17426 7.25941 5.29814 3.68736 3.74663 3.23313 3.74633 4.98234 4.17998 3.14927 2.97279 2.17382 2.99532 3.15028 3.033 4.12321 2.14919 2.17437 0.720596 1.9083 1.64943 2.80271 2.76049 1.49913 2.94372 1.44232 2.16601 1.47333 2.25053 0.964666 1.85235 0.943263 0.376023 1.54706 2.00193 2.43034 2.49842 0.84171 0.230744 1.90114 0.717573 0.656852 1.81661 1.30892 0.990664 1.28479 0.305215 0.824175 1.3425 1.87305 
0 0 0 0.848432 5.51686 43.9818 196.009 195.813 261.005 256.302 216.585 194.163 166.377 138.667 118.899 110.604 88.0915 82.2253 75.6854 58.313 64.8153 56.0899 47.2143 45.7513 42.6454 36.3001 35.3898 31.8443 27.9675 23.3101 24.7204 22.6058 23.4065 20.7534 14.3725 18.1292 13.2398 13.4696 12.6184 10.0916 9.37246 8.52171 10.5505 11.3265 6.09456 7.35321 6.70971 6.17532 7.24988 6.3447 8.0076 5.28432 4.09286 5.24987 4.86903 5.54371 3.79491 3.29315 4.58932 4.4972 3.06614 4.87945 4.25462 2.89408 3.00313 2.13058 5.02808 1.48163 2.25729 2.00913 1.83066 1.89825 1.24587 1.58759 2.77552 1.06222 2.94475 1.44983 1.46395 1.88314 1.52651 1.92932 1.94292 1.5525 0.490142 1.31412 1.30935 1.54976 1.83105 1.55799 1.24086 0.795139 0.975049 1.45534 1.4269 0.565804 1.41968 0.735321 1.80014 1.63824 
0 0 0 10.3674 88.6554 883.136 4433.89 4312.45 6864.05 6559.44 5933.24 5279.03 4614.16 4153.07 3631.92 3269.23 2866.63 2567.88 2294.49 2006.88 1860.84 1669.76 1505.91 1380.74 1228.34 1147.86 1103.79 985.078 925.523 828.841 785.27 733.29 650.627 595.751 538.63 510.076 463.959 437.984 397.008 364.484 347.687 330.821 309.13 274.611 256.35 248.112 221.566 221.838 207.814 187.817 169.776 164.551 159.702 161.981 146.369 142.771 129.348 115.938 120.13 107.169 109.097 105.345 99.7046 94.3185 90.7432 87.4892 76.7073 73.8764 73.6294 66.2258 63.2349 62.968 66.6436 62.4651 53.2664 52.9438 47.5331 52.2023 50.4204 48.3305 46.5572 41.7584 41.6652 40.1786 35.7016 37.4919 34.9122 34.6043 34.1024 32.5854 32.8897 31.1084 31.6052 30.6892 31.4113 27.6108 22.0118 21.9856 24.2739 22.8185 
0 0 0 4.80811 29.1201 174.121 659.67 523.287 507.701 388.6 377.425 273.28 180.108 195.925 117.057 158.55 86.5598 53.9338 87.5436 95.4126 17.2097 42.0184 52.8231 43.1494 45.6598 49.5817 46.2443 16.581 43.5376 41.3504 33.022 28.0079 61.0453 25.2798 10.701 43.2222 18.9597 12.2236 38.4416 31.7012 -0.176851 4.83632 4.45495 4.26374 22.0377 27.3854 9.48911 18.7765 2.44225 -1.00362 -7.0318 11.6809 12.5348 -0.701904 11.1918 16.8895 5.51805 3.43493 16.2645 6.28854 1.60693 -0.27721 13.3691 4.77158 -1.66286 5.43112 15.854 1.13184 4.5441 1.65526 3.63762 0.201141 -5.46586 -2.96096 0 7.00995 -9.28489 6.4127 3.90368 12.844 0 -2.13117 5.89002 2.9967 7.9245 0 -5.26586 7.31265 6.62945 -1.49017 8.2626 8.52394 0.0604649 -3.6242 0.787316 -2.07429 0.843743 4.96084 4.48592 2.08278 
0 0 0 1940.44 10726.8 87276.7 385717 290697 262615 208470 165591 130202 106081 86353.9 69772.4 57500.7 47141.9 40818.9 34698.2 29605.6 25005.7 22393.6 19887.4 18063.6 15661 13411 12927.8 11276.4 10310.2 9399.6 8699.23 7697.37 6878.35 6728.77 5993.71 5722.17 4975.02 4789.41 4567.1 3929.58 3453.67 3164.01 3365.95 2977.62 2853.32 2449.93 2389.78 2465.92 1829.2 2023.87 1795.13 1632.49 1616.56 1393.63 1462.08 1268.95 1481.76 1104.76 1289.38 1343.12 1088.88 1045.37 806.961 910.381 916.496 633.855 897.261 717.512 731.122 668.089 696.373 533.622 628.757 559.934 577.419 543.503 466.236 477.153 576.074 465.094 431 377.814 465.624 425.201 444.536 304.194 375.447 399.932 410.038 376.923 356.722 360.17 233.91 258.651 206.842 330.043 302.189 339.951 274.753 224.744 

100 0 200
0 0 0 0 0 0 0 0.367465 0.0430997 0 8.66607 141.722 0 0.0403373 0 0 0 58.8658 0 0 0 0 0.00569781 0 0 0 0 0 0 0 0 0 0 0 0 0 0 0 0 0 0 0 0 0 0 0 0 0 0 0 0 0 0 0 0 0 0 0 0 0 0 0 0 0 0 0 0 0 0 0 0 0 0 0 0 0 0 0 0 0 0 0 0 0 0 0 0 0 0 0 0 0 0 0 0 0 0 0 0 0 
0 0 0 0 0 5.03243 36.9157 29.9254 3.3122 -4.01115 -2.49783 -3.88059 3.12356 0 -1.98205 0 -1.94518 0 0 0 0 0 0 -8.5521 0 0 0 0 0 0 0 0 0 0 0 0 0 0 0 0 0 0 0 0 0 0 0 0 0 0 0 0 0 0 0 0 0 0 0 0 0 0 0 0 0 0 0 0 0 0 0 0 0 0 0 0 0 0 0 0 0 0 0 0 0 0 0 0 0 0 0 0 0 0 0 0 0 0 0 0 
0 0 0 0 0.694955 17.9967 67.2182 48.624 45.351 31.8963 25.5749 23.7076 16.3553 14.2588 14.4692 8.63457 6.86588 5.06401 3.59535 4.68716 1.96765 4.97071 5.56627 1.17422 1.44303 1.63547 2.70026 0.795212 1.69426 0 0 0.998964 0 0.667513 2.16565 0.941069 0 0.798052 0 0 0 0 0 0.00547355 0 0 1.48278 0 0 0 0 0 0 0 0 0.796575 0 0 0 0 0 0 0 0 0 0 0 0 0 0 0 0 0 0 0 0 0 0 0 0 0 0 0 0 0 0 0 0 0 0 0 0 0 0 0 0 0 0 0 0 
0 0 0 1.96881 3.73743 50.5613 256.929 193.59 241.014 174.945 151.46 106.907 91.0404 72.528 49.6237 40.4786 35.7269 23.2113 29.5633 18.687 17.3111 14.0636 12.5732 9.65772 3.47059 9.46426 8.95166 5.58463 9.01942 8.27845 5.255 3.78462 2.49748 6.30203 1.15987 1.70704 3.58922 2.31832 1.65294 1.19311 1.50314 1.71065 0.50856 0.576165 0.484783 0 0 0.737404 0.568375 0 0.139689 1.17075 0 1.15415 0.567583 0 0 0.883296 0 1.13584 0 0 0 0 0 0 0.577623 1.02024 0.90289 0.627992 0 0 0 0 0 0 1.03023 0 0 0 0 0 0 0.58238 0 0.505424 0 0 0 0 0 0 0 0 0 0 0 0 0 0 
0 0 0 1.7082 1.88145 33.5918 161.495 138.92 185.24 146.408 101.398 97.0575 76.8202 64.1827 72.6845 46.936 45.7606 43.327 43.7236 32.6402 33.2097 25.8212 26.1105 23.2767 11.0698 5.69718 10.0153 9.4902 6.7154 3.33588 4.36576 1.4519 3.48678 3.61477 2.34842 1.76892 3.47473 0.605611 3.55156 1.32224 2.91715 0.419641 0.458535 0.912275 0 0.637814 0 0 0 1.64633 0.0172952 0 2.20864 0 1.40729 0 0 0.840855 0 0 0 0 0.613229 0.692765 0 0 0.868824 1.19681 0 0 0 0 0 0.192247 0 0 0 0 0 0 0 0 0 0 0 0.738741 0 0 0 0.661194 0 0 0 0 0 0 0 0 0 0 
0 0 0 0 0.962161 21.3836 92.1011 73.367 102.138 82.8955 63.2298 54.0448 45.1716 34.5916 25.1523 23.1214 15.8476 12.7099 11.3042 8.64708 6.90988 5.39913 4.83223 5.21039 3.91859 2.97919 2.10167 2.28048 2.02352 2.08697 2.45271 3.0692 2.99143 1.25635 2.03081 0.52019 1.33766 1.76405 0.187482 0.9723 0.34882 0.36149 0.543258 0.462653 0.458319 0.577084 0.302705 0.208527 0.114676 0 0.713997 0.919743 0.476569 0.374432 0.2858 0.357429 0.000439183 0.230706 0 0.0898958 0.183749 0 0.103867 0 0.300202 0 0 0.155235 0.208872 0.217511 0.284847 0 0.256862 0.306544 0.411381 0 0 0.0741332 0.117658 0 0 0 0.153958 0.221857 0 0 0 0 0 0 0 0 0 0.20843 0.150347 0 0.0150145 0 0 0 
0 0 0 0.566913 2.0647 21.6049 88.3924 76.7006 100.171 82.8621 64.9251 54.13 47.3041 33.5749 24.9664 19.2985 17.7285 16.7476 10.3799 9.30444 9.37239 5.81299 6.36713 4.16971 3.87447 4.32503 3.9543 3.09122 2.37953 2.31618 1.62151 0.975107 1.8807 1.8747 0.965522 1.35471 0.6277 0.851012 0.448919 0.451343 0.340929 0.462279 0.409693 0.280644 0.446521 0.351363 0 0 0.357693 0.668956 0.769414 0.316208 0.854063 0.405209 0.650861 0.253532 0 0.20651 0.148366 0 0.00543231 0.172132 0.0751915 0 0.209045 0 0 0.189332 0 0 0 0.000873108 0.215197 0 0 0 0 0 0.271032 0 0 0.11743 0 0 0.197343 0.246625 0 0 0 0 0 0 0 0 0 0.00910343 0 0 0 0 
0 0 0 8.71788 53.6979 569.117 2634.16 2389.14 3765.19 3188.22 2590.36 2064.19 1634.97 1269.55 1044.23 858.629 693.334 559.616 473.467 376.289 334.699 280.044 242.172 211.497 179.67 159.218 138.144 112.056 107.217 95.1543 78.5716 69.4947 61.09 57.9133 47.4051 40.7094 33.2435 35.0476 29.3741 25.1131 27.0299 22.5123 17.6299 20.1662 17.7556 14.1723 13.7467 12.7318 11.3131 9.19646 8.46269 9.07523 6.80246 8.27285 8.26112 5.69913 5.90241 5.64452 5.06084 3.87784 4.53751 4.69452 3.83803 2.95974 3.11307 3.75863 3.78422 2.38355 2.38478 1.82288 1.25643 1.66894 3.24817 3.05112 1.61262 1.66004 2.12009 1.68962 2.23257 1.34399 1.30564 1.83264 1.21874 1.10124 0.511608 0.468237 0.919306 0.843481 0.899063 1.03674 1.24991 0.732681 0.921409 0.537636 0.393659 0.491969 0.852258 0.464814 0.233577 0.967381 
0 0 0 0 -2.49311 60.7947 165.986 66.6499 91.6493 53.8318 69.89 75.3318 46.839 12.1348 6.14977 23.2713 23.931 24.159 8.70007 -8.80446 1.18209 7.26726 -3.70611 10.1471 -6.97323 12.091 2.08188 -0.0347014 5.55135 1.3679 3.93386 -4.20217 1.02414 0 -3.61913 -2.86799 0 0 0 0.00148552 -4.32651 3.29196 0.126807 3.0713 0 0 1.0109 -2.35342 0 0 0 0 2.14851 0 0 0 0 0 0 0 2.37527 0 0 0 0 0 0 0 0 0 0 0 0 0 0 0 0 -3.85647 0 0 0 0 0 0 0 0 0 0 0 0 0 0 0 0 0 0 0 0 0 0 
0 0 0 264.808 1480.9 12986.5 51954.1 36606 36280.3 26302 19662.1 14296.6 11222 8640.51 7168.31 5614.23 4393.44 3652.7 2649.12 2436.61 1974.08 1551.29 1301.11 1243.7 1009.38 803.631 574.653 630.08 419.028 424.004 355.608 329.254 285.539 216.581 198.918 225.746 209.564 140.15 132.527 160.046 146.391 106.827 76.843 112.135 63.4805 93.802 112.706 64.0988 64.0785 23.7568 64.7884 84.6592 36.8351 6.89542 48.2708 44.734 59.1177 49.7547 27.9585 12.3221 46.2036 25.0224 30.709 53.5819 32.7414 9.67996 45.8107 4.62989 21.7598 19.1309 19.3159 26.0521 11.7116 21.5916 13.6311 5.42024 12.6528 11.3836 1.42589 21.5724 13.2085 -8.58885 12.3856 2.78376 11.0096 4.04492 13.3049 8.51988 0.929062 -2.98184 18.3639 -6.8523 6.81224 0.906983 5.00398 12.736 11.1701 -3.60331 4.07965 -2.6599 

100 0 200
0 0 0 0 0 0.367465 0 0 0 0 0 0 0 0 0 0 0.0562044 0 0 0 0 0 0 0 0 0 0 0 0 0 0 0 0 0 0 0 0 0 0 0 0 0 0 0 0 0 0 0 0 0 0 0 0 0 0 0 0 0 0 0 0 0 0 0 0 0 0 0 0 0 0 0 0 0 0 0 0 0 0 0 0 0 0 0 0 0 0 0 0 0 0 0 0 0 0 0 0 0 0 0 
0 0 0 0 0 0 6.54152 0 -3.46498 0 0 0 0 0 0 -6.23222 0 0 0 0 0 0 0 0 0 0 0 0 0 0 0 0 0 0 0 0 0 0 0 0 0 0 0 0 0 0 0 0 0 0 0 0 0 0 0 0 0 0 0 0 0 0 0 0 0 0 0 0 0 0 0 0 0 0 0 0 0 0 0 0 0 0 0 0 0 0 0 0 0 0 0 0 0 0 0 0 0 0 0 0 
0 0 0 0 1.76319 2.19507 10.915 6.36424 10.9556 8.47751 2.73267 1.81185 3.02742 0.91071 2.04157 1.094 1.37465 0.795212 1.01831 0.867893 0.597306 0 0 1.02175 0 0 0 0 0 0 0 0 0 0 0 0 0 0 0 0 0 0 0 0 0 0 0 0 0 0 0 0 0 0 0 0 0 0 0 0 0 0 0 0 0 0 0 0 0 0 0 0 0 0 0 0 0 0 0 0 0 0 0 0 0 0 0 0 0 0 0 0 0 0 0 0 0 0 0 0 
0 0 0 0.00924379 0 8.05674 50.7285 40.5926 38.6675 25.5067 23.8054 22.1766 15 6.40799 8.28975 2.23368 3.81364 4.92235 5.20214 3.66608 0.494562 0.53631 0.540947 2.48052 0 0.593981 0.542309 0.544172 0.654374 0 0 0.527526 0 0 1.02024 0 0 0 0 0 0 0 0 0 0 0 0 0 0 0 0 0 0 0 0 0 0 0 0 0 0 0 0 0 0 0 0 0 0 0 0 0 0 0 0 0 0 0 0 0 0 0 0 0 0 0 0 0 0 0 0 0 0 0 0 0 0 0 0 0 
0 0 0 0.0174537 3.1835 6.46007 46.8758 41.0004 32.1712 28.0572 20.653 16.1048 7.30289 5.34298 4.09037 2.74709 5.32093 4.09159 0 0 0.895824 0 0.528775 0.579883 0.580188 0.686725 0.514797 0 0 0.103757 0.856509 0.893699 0 0 0 0.983561 0 0 0 0 0 0 0 0 0 0 0 0 0 0 0 0 0 0 0 0 0 0 0 0 0 0 0 0 0 0 0 0 0 0 0 0 0 0 0 0 0 0 0 0 0 0 0 0 0 0 0 0 0 0 0 0 0 0 0 0 0 0 0 0 
0 0 0 6.23401e-05 0.159702 5.76038 21.4703 17.7125 27.1633 20.1963 12.7105 9.12431 7.7599 5.78194 3.92385 2.50089 1.57015 2.20527 2.41336 2.32855 0.445333 0.849704 2.17245 0.457812 0.357388 0.3823 0.215244 0.155235 0 0.194706 0.403063 0 0.161733 0.165768 0 0.175449 0 0 0 0 0 0 0 0 0 0 0 0 0 0 0 0 0 0 0 0 0 0 0 0 0 0 0 0 0 0 0 0 0 0 0 0 0 0 0 0 0 0 0 0 0 0 0 0 0 0 0 0 0 0 0 0 0 0 0 0 0 0 0 0 
0 0 0 0 0.339149 3.80319 22.7141 16.8015 28.0261 20.0873 12.536 10.1415 7.31262 4.50105 4.4107 4.93011 3.27456 1.56376 1.0578 1.22367 1.22485 0.641367 0.367716 0.187092 0.214771 0.502803 0.207918 0 0.0149948 0 0 0.0751915 0.239806 0 0.148366 0 0 0 0 0 0.000873108 0 0 0 0 0 0 0.172287 0 0 0 0 0 0 0 0 0 0 0 0 0 0 0 0 0 0 0 0 0 0 0 0 0 0 0 0 0 0 0 0 0 0 0 0 0 0 0 0 0 0 0 0 0 0 0 0 0 0 0 0 
0 0 0 3.69444 17.1742 208.529 887.763 787.419 1178.31 908.252 638.615 460.944 330.101 254.908 194.592 153.227 104.081 85.5827 69.422 48.9571 38.5143 33.5898 26.6519 21.9916 17.4921 14.1355 12.4803 9.80522 7.8461 6.83202 4.05748 5.13938 3.76336 3.80853 2.25521 2.19521 2.24074 0.805804 1.44058 1.02728 2.74784 0.984994 1.24282 1.52624 0.927261 0.698824 0.270809 0.365998 0.441965 1.37238 0.26255 0.112676 0.33763 0.206795 0.204751 0.313763 0.0806534 0.371842 0.085437 0.143246 0.0274103 0.097747 0.0933008 0.0665582 0.0753207 0.0678374 0.0496024 0.0165268 0.152793 0.0403929 0.12352 0 0 0.126925 0 0.0393614 0.0927333 0 0.000277864 0.0989869 0.123927 0.0413671 0 0 0 0 0.0309623 0 0 0 0 0 0 0 0.0709142 0 0 0 0 0 
0 0 0 0 0.448325 19.0626 29.0191 18.5264 18.5067 4.43343 8.4321 3.69867 -1.3042 5.9579 4.88563 1.58785 -6.84485 2.99506 0.125664 2.23491 -2.11879 1.81411 0 0 -1.42401 -2.40392 0 0 0 0 0 0 0 0 0 0 0 0 0 0 0 0 0 0 0 0 0 0 0 0 0 0 0 0 0 0 0 0 0 0 0 0 0 0 0 0 0 0 0 0 0 0 0 0 0 0 0 0 0 0 0 0 0 0 0 0 0 0 0 0 0 0 0 0 0 0 0 0 0 0 
0 0 0 31.0702 240.878 1772.31 6783.65 4555.92 5499.4 3785.15 2572.49 1636.41 1388.48 923.062 887.118 564.933 407.064 302.648 180.04 160.204 132.507 111.125 106.563 48.5611 59.4764 41.0772 16.1109 30.5289 57.9414 40.9128 9.45436 4.96089 23.9173 18.2307 9.87312 5.02088 -3.03168 4.03224 -2.65457 2.16057 3.40777 5.81909 -4.28318 -0.597557 -1.07991 14.5498 2.52103 -2.84364 -0.118249 2.86799 -0.345936 0 10.48 0.00119891 -0.170677 -0.0107442 0.000548463 0.0122388 2.38341 0.000374277 -0.000216113 -0.000649647 -5.96375 0 -6.44967 -0.0010505 0 0 -2.4644 0.706423 0 -0.000499877 0 0 0 -0.24261 0.656459 0 0 0 0 0 1.61184 0 0 0 0 1.06e-07 0 0 0 0 0 0 0 0 -3.61893 0 0 0 

100 0 200
0 0 0 0 0 0 0 0 0 0 0 0 0 0 0 0 0 0 0 0 0 0 0 0 0 0 0 0 0 0 0 0 0 0 0 0 0 0 0 0 0 0 0 0 0 0 0 0 0 0 0 0 0 0 0 0 0 0 0 0 0 0 0 0 0 0 0 0 0 0 0 0 0 0 0 0 0 0 0 0 0 0 0 0 0 0 0 0 0 0 0 0 0 0 0 0 0 0 0 0 
0 0 0 0 0 0 0.90095 0 0 0 0 0 0 0 0 0 0 0 0 0 0 0 0 0 0 0 0 0 0 0 0 0 0 0 0 0 0 0 0 0 0 0 0 0 0 0 0 0 0 0 0 0 0 0 0 0 0 0 0 0 0 0 0 0 0 0 0 0 0 0 0 0 0 0 0 0 0 0 0 0 0 0 0 0 0 0 0 0 0 0 0 0 0 0 0 0 0 0 0 0 
0 0 0 0 0 1.53565 3.37623 1.25848 0.674269 2.83178 0 0.867893 0 0 0.506141 1.02175 0 0 0 0 0 0 0 0 0 0 0 0 0 0 0 0 0 0 0 0 0 0 0 0 0 0 0 0 0 0 0 0 0 0 0 0 0 0 0 0 0 0 0 0 0 0 0 0 0 0 0 0 0 0 0 0 0 0 0 0 0 0 0 0 0 0 0 0 0 0 0 0 0 0 0 0 0 0 0 0 0 0 0 0 
0 0 0 0 0.598549 2.86823 7.57964 5.95418 8.08792 6.89333 3.58811 1.81142 2.81308 0.000269935 0 0 1.01508 0.636542 1.24958 0.0459344 0 0 0 0 0 0 0 0 0 0 0 0 0 0 0 0 0 0 0 0 0 0 0 0 0 0 0 0 0 0 0 0 0 0 0 0 0 0 0 0 0 0 0 0 0 0 0 0 0 0 0 0 0 0 0 0 0 0 0 0 0 0 0 0 0 0 0 0 0 0 0 0 0 0 0 0 0 0 0 0 
0 0 0 0 0.607876 0.853519 6.53749 6.62759 7.82399 2.30119 2.92218 3.8214 1.0749 0 0.577797 0.514797 0 0 1.87726 0 0 0 0 0 0 0 0 0.664262 0 0 0 0 0 0 0 0 0 0 0 0 0 0 0 0 0 0 0 0 0 0 0 0 0 0 0 0 0 0 0 0 0 0 0 0 0 0 0 0 0 0 0 0 0 0 0 0 0 0 0 0 0 0 0 0 0 0 0 0 0 0 0 0 0 0 0 0 0 0 0 0 
0 0 0 0 0 1.11608 6.8093 2.66042 5.79058 5.98089 1.72487 2.03432 0.556454 0.846548 0.774237 1.18587 0.760172 0 0.18945 0 0.227646 0.117658 0.165768 0 0.175416 0 0 0 0 0 0 0 0 0 0 0 0 0 0 0 0 0 0 0 0 0 0 0 0 0 0 0 0 0 0 0 0 0 0 0 0 0 0 0 0 0 0 0 0 0 0 0 0 0 0 0 0 0 0 0 0 0 0 0 0 0 0 0 0 0 0 0 0 0 0 0 0 0 0 0 
0 0 0 0 0.173393 0.674095 3.56827 3.32218 6.36439 4.2273 2.92045 1.85863 1.0933 0.225754 0.49006 0.198118 0.555671 0.440261 0.154422 0 0.0751915 0 0 0 0 0.360973 0 0 0 0 0 0 0 0 0 0 0 0 0 0 0 0 0 0 0 0 0 0 0 0 0 0 0 0 0 0 0 0 0 0 0 0 0 0 0 0 0 0 0 0 0 0 0 0 0 0 0 0 0 0 0 0 0 0 0 0 0 0 0 0 0 0 0 0 0 0 0 0 0 0 
0 0 0 1.44446 5.95989 53.8189 224.055 185.309 281.413 189.707 124.932 82.3545 62.4108 42.8229 26.8097 19.8777 15.2703 11.4841 6.31415 4.88428 3.77174 2.58919 1.72744 1.24032 2.23476 0.773319 0.722033 1.22769 0.53664 0.254367 0.327097 0.222333 0.102379 0 0.30616 0.299812 0 0 0 0.190292 0 0.216256 0.0274103 0 0 0 0 0 0 0 0.208358 0 0 0.0710803 0 0 0 0 0 0 0.0762082 0 0 0.0393614 0 0 0 0.0620255 0 0 0 0 0 0 0 0 0 0 0 0 0 0 0 0 0 0 0 0 0 0 0 0 0 0 0 0 0 0 0 0 
0 0 0 0 0 2.31915 2.33857 10.3283 0.577025 0 0 0 2.23403 0 1.81411 2.99506 0 0 0 -3.5428 0 0 0 0 0 0 0 0 0 0 0 0 0 0 0 0 0 0 0 0 0 0 0 0 0 0 0 0 0 0 0 0 0 0 0 0 0 0 0 0 0 0 0 0 0 0 0 0 0 0 0 0 0 0 0 0 0 0 0 0 0 0 0 0 0 0 0 0 0 0 0 0 0 0 0 0 0 0 0 0 
0 0 0 5.32568 28.3011 199.716 862.093 638.168 758.293 475.577 378.859 190.149 161.865 101.428 84.6839 63.5943 38.2648 21.1276 10.3444 18.9668 5.49733 11.127 8.80751 2.3788 2.93256 4.8662 3.97412 1.02186 8.63021 -1.12488 0.00544539 3.87131 0 -2.26508 -6.37438 0.171078 0 0 0 0.0139952 -3.99972 0 0 0 0 0 0 0 0 0 0 0 0 0 0 0 0 0 0 0 0 0 0 0 0 0 0 0 0 0 0 0 0 0 0 0 0 0 0 0 0 0 0 0 0 0 0 0 0 0 0 0 0 0 0 0 0 0 0 0 

100 0 200
0 0 0 0 0 0 0 0 0 0 0 0 0 0 0 0 0 0 0 0 0 0 0 0 0 0 0 0 0 0 0 0 0 0 0 0 0 0 0 0 0 0 0 0 0 0 0 0 0 0 0 0 0 0 0 0 0 0 0 0 0 0 0 0 0 0 0 0 0 0 0 0 0 0 0 0 0 0 0 0 0 0 0 0 0 0 0 0 0 0 0 0 0 0 0 0 0 0 0 0 
0 0 0 0 0 0 0 0 0 0 0 0 0 0 0 0 0 0 0 0 0 0 0 0 0 0 0 0 0 0 0 0 0 0 0 0 0 0 0 0 0 0 0 0 0 0 0 0 0 0 0 0 0 0 0 0 0 0 0 0 0 0 0 0 0 0 0 0 0 0 0 0 0 0 0 0 0 0 0 0 0 0 0 0 0 0 0 0 0 0 0 0 0 0 0 0 0 0 0 0 
0 0 0 0 0 0 0 0 0 0 0 0 0 0 0 0 0 0 0 0 0 0 0 0 0 0 0 0 0 0 0 0 0 0 0 0 0 0 0 0 0 0 0 0 0 0 0 0 0 0 0 0 0 0 0 0 0 0 0 0 0 0 0 0 0 0 0 0 0 0 0 0 0 0 0 0 0 0 0 0 0 0 0 0 0 0 0 0 0 0 0 0 0 0 0 0 0 0 0 0 
0 0 0 0 0 0 1.82627 2.21352 3.09198 1.6742 0.664631 0 0 0.100233 0 0 0.544172 0 0 0 0 0 0 0 0 0 0 0 0 0 0 0 0 0 0 0 0 0 0 0 0 0 0 0 0 0 0 0 0 0 0 0 0 0 0 0 0 0 0 0 0 0 0 0 0 0 0 0 0 0 0 0 0 0 0 0 0 0 0 0 0 0 0 0 0 0 0 0 0 0 0 0 0 0 0 0 0 0 0 0 
0 0 0 0 0 0.558768 0.603306 0.536689 1.69152 1.51098 0 0 0.664262 0 0 0 0 0.983561 0 0 0 0 0 0 0 0 0 0 0 0 0 0 0 0 0 0 0 0 0 0 0 0 0 0 0 0 0 0 0 0 0 0 0 0 0 0 0 0 0 0 0 0 0 0 0 0 0 0 0 0 0 0 0 0 0 0 0 0 0 0 0 0 0 0 0 0 0 0 0 0 0 0 0 0 0 0 0 0 0 0 
0 0 0 0 0.408862 0.169927 1.06311 0.629923 1.44132 0.593542 0.390998 0.0898958 0.184711 0.415318 0 0 0 0 0 0 0 0 0 0 0 0 0 0 0 0 0 0 0 0 0 0 0 0 0 0 0 0 0 0 0 0 0 0 0 0 0 0 0 0 0 0 0 0 0 0 0 0 0 0 0 0 0 0 0 0 0 0 0 0 0 0 0 0 0 0 0 0 0 0 0 0 0 0 0 0 0 0 0 0 0 0 0 0 0 0 
0 0 0 0 0 0.089765 0.825694 0.475634 1.94884 1.74692 0.156661 0.683295 0 0.172287 0.241554 0 0.2836 0 0 0 0 0 0 0 0 0 0 0 0 0 0 0 0 0 0 0 0 0 0 0 0 0 0 0 0 0 0 0 0 0 0 0 0 0 0 0 0 0 0 0 0 0 0 0 0 0 0 0 0 0 0 0 0 0 0 0 0 0 0 0 0 0 0 0 0 0 0 0 0 0 0 0 0 0 0 0 0 0 0 0 
0 0 0 0.663645 2.48333 10.7642 53.6572 41.3949 58.6828 35.1497 23.6511 12.6345 10.2685 5.33508 3.05929 1.95979 2.26011 1.07679 0.709405 0.633779 0.274492 0.0889887 0 0 0.138313 0.0570816 0 0 0.205298 0.0274103 0 0 0 0 0 0 0 0 0 0.0253134 0 0 0 0 0 0 0 0 0 0 0 0 0 0 0 0 0 0 0 0 0 0 0 0 0 0 0 0 0 0 0 0 0 0 0 0 0 0 0 0 0 0 0 0 0 0 0 0 0 0 0 0 0 0 0 0 0 0 0 0 
0 0 0 0 0 0 -1.80351 0 0 0 2.99506 0 0 0 0 0 0 0 0 0 0 0 0 0 0 0 0 0 0 0 0 0 0 0 0 0 0 0 0 0 0 0 0 0 0 0 0 0 0 0 0 0 0 0 0 0 0 0 0 0 0 0 0 0 0 0 0 0 0 0 0 0 0 0 0 0 0 0 0 0 0 0 0 0 0 0 0 0 0 0 0 0 0 0 0 0 0 0 0 0 
0 0 0 5.61401 9.79352 32.9389 88.8869 97.1795 109.876 109.66 17.7228 40.2547 4.98075 31.6292 24.9236 6.76653 -8.89404 -0.880033 3.17606 3.54311 0.000165247 0 0 0 0 0 0 0 0 0 0 0 0 0 0 0 0 0 0 0 0 0 0 0 0 0 0 0 0 0 0 0 0 0 0 0 0 0 0 0 0 0 0 0 0 0 0 0 0 0 0 0 0 0 0 0 0 0 0 0 0 0 0 0 0 0 0 0 0 0 0 0 0 0 0 0 0 0 0 0 

100 0 200
0 0 0 0 0 0 0 0 0 0 0 0 0 0 0 0 0 0 0 0 0 0 0 0 0 0 0 0 0 0 0 0 0 0 0 0 0 0 0 0 0 0 0 0 0 0 0 0 0 0 0 0 0 0 0 0 0 0 0 0 0 0 0 0 0 0 0 0 0 0 0 0 0 0 0 0 0 0 0 0 0 0 0 0 0 0 0 0 0 0 0 0 0 0 0 0 0 0 0 0 
0 0 0 0 0 0 0 0 0 0 0 0 0 0 0 0 0 0 0 0 0 0 0 0 0 0 0 0 0 0 0 0 0 0 0 0 0 0 0 0 0 0 0 0 0 0 0 0 0 0 0 0 0 0 0 0 0 0 0 0 0 0 0 0 0 0 0 0 0 0 0 0 0 0 0 0 0 0 0 0 0 0 0 0 0 0 0 0 0 0 0 0 0 0 0 0 0 0 0 0 
0 0 0 0 0 0 0 0 0 0 0 0 0 0 0 0 0 0 0 0 0 0 0 0 0 0 0 0 0 0 0 0 0 0 0 0 0 0 0 0 0 0 0 0 0 0 0 0 0 0 0 0 0 0 0 0 0 0 0 0 0 0 0 0 0 0 0 0 0 0 0 0 0 0 0 0 0 0 0 0 0 0 0 0 0 0 0 0 0 0 0 0 0 0 0 0 0 0 0 0 
0 0 0 0 0 0 0 0 0 0.544172 0 0 0 0 0 0 0 0 0 0 0 0 0 0 0 0 0 0 0 0 0 0 0 0 0 0 0 0 0 0 0 0 0 0 0 0 0 0 0 0 0 0 0 0 0 0 0 0 0 0 0 0 0 0 0 0 0 0 0 0 0 0 0 0 0 0 0 0 0 0 0 0 0 0 0 0 0 0 0 0 0 0 0 0 0 0 0 0 0 0 
0 0 0 0 0 0.558768 0 0.720639 0 0 0 0 0 0 0 0 0 0 0 0 0 0 0 0 0 0 0 0 0 0 0 0 0 0 0 0 0 0 0 0 0 0 0 0 0 0 0 0 0 0 0 0 0 0 0 0 0 0 0 0 0 0 0 0 0 0 0 0 0 0 0 0 0 0 0 0 0 0 0 0 0 0 0 0 0 0 0 0 0 0 0 0 0 0 0 0 0 0 0 0 
0 0 0 0 0 0 0.30298 0.282865 0 0.225868 0.184711 0 0.18945 0 0 0 0 0 0 0 0 0 0 0 0 0 0 0 0 0 0 0 0 0 0 0 0 0 0 0 0 0 0 0 0 0 0 0 0 0 0 0 0 0 0 0 0 0 0 0 0 0 0 0 0 0 0 0 0 0 0 0 0 0 0 0 0 0 0 0 0 0 0 0 0 0 0 0 0 0 0 0 0 0 0 0 0 0 0 0 
0 0 0 0 0 0 0.0875736 0 0.530223 0.314117 0 0.241554 0 0 0 0 0 0 0 0 0 0 0 0 0 0 0 0 0 0 0 0 0 0 0 0 0 0 0 0 0 0 0 0 0 0 0 0 0 0 0 0 0 0 0 0 0 0 0 0 0 0 0 0 0 0 0 0 0 0 0 0 0 0 0 0 0 0 0 0 0 0 0 0 0 0 0 0 0 0 0 0 0 0 0 0 0 0 0 0 
0 0 0 0 1.10915 2.51845 10.6041 8.48634 9.58842 8.14454 4.17316 1.0187 1.38208 0.517968 0.0932355 0.0938464 0 0.0450343 0 0 0 0 0 0 0 0 0 0 0 0 0 0 0 0 0 0 0 0 0 0 0 0 0 0 0 0 0 0 0 0 0 0 0 0 0 0 0 0 0 0 0 0 0 0 0 0 0 0 0 0 0 0 0 0 0 0 0 0 0 0 0 0 0 0 0 0 0 0 0 0 0 0 0 0 0 0 0 0 0 0 
0 0 0 0 0 0 0 0 0 0 0 0 0 0 0 0 0 0 0 0 0 0 0 0 0 0 0 0 0 0 0 0 0 0 0 0 0 0 0 0 0 0 0 0 0 0 0 0 0 0 0 0 0 0 0 0 0 0 0 0 0 0 0 0 0 0 0 0 0 0 0 0 0 0 0 0 0 0 0 0 0 0 0 0 0 0 0 0 0 0 0 0 0 0 0 0 0 0 0 0 
0 0 0 0 0.623279 9.62791 19.1521 16.2542 9.51139 29.2346 1.81939 3.01599 -1.63962 7.91076 -1.23778 4.33498 2.6204 0 0 -0.000807602 0 0 0 0 0 0 0 0 0 0 0 0 0 0 0 0 0 0 0 0 0 0 0 0 0 0 0 0 0 0 0 0 0 0 0 0 0 0 0 0 0 0 0 0 0 0 0 0 0 0 0 0 0 0 0 0 0 0 0 0 0 0 0 0 0 0 0 0 0 0 0 0 0 0 0 0 0 0 0 0 

100 0 200
0 0 0 0 0 0 0 0 0 0 0 0 0 0 0 0 0 0 0 0 0 0 0 0 0 0 0 0 0 0 0 0 0 0 0 0 0 0 0 0 0 0 0 0 0 0 0 0 0 0 0 0 0 0 0 0 0 0 0 0 0 0 0 0 0 0 0 0 0 0 0 0 0 0 0 0 0 0 0 0 0 0 0 0 0 0 0 0 0 0 0 0 0 0 0 0 0 0 0 0 
0 0 0 0 0 0 0 0 0 0 0 0 0 0 0 0 0 0 0 0 0 0 0 0 0 0 0 0 0 0 0 0 0 0 0 0 0 0 0 0 0 0 0 0 0 0 0 0 0 0 0 0 0 0 0 0 0 0 0 0 0 0 0 0 0 0 0 0 0 0 0 0 0 0 0 0 0 0 0 0 0 0 0 0 0 0 0 0 0 0 0 0 0 0 0 0 0 0 0 0 
0 0 0 0 0 0 0 0 0 0 0 0 0 0 0 0 0 0 0 0 0 0 0 0 0 0 0 0 0 0 0 0 0 0 0 0 0 0 0 0 0 0 0 0 0 0 0 0 0 0 0 0 0 0 0 0 0 0 0 0 0 0 0 0 0 0 0 0 0 0 0 0 0 0 0 0 0 0 0 0 0 0 0 0 0 0 0 0 0 0 0 0 0 0 0 0 0 0 0 0 
0 0 0 0 0 0 0 0 0 0.544172 0 0 0 0 0 0 0 0 0 0 0 0 0 0 0 0 0 0 0 0 0 0 0 0 0 0 0 0 0 0 0 0 0 0 0 0 0 0 0 0 0 0 0 0 0 0 0 0 0 0 0 0 0 0 0 0 0 0 0 0 0 0 0 0 0 0 0 0 0 0 0 0 0 0 0 0 0 0 0 0 0 0 0 0 0 0 0 0 0 0 
0 0 0 0 0 0 0 0.720639 0 0 0 0 0 0 0 0 0 0 0 0 0 0 0 0 0 0 0 0 0 0 0 0 0 0 0 0 0 0 0 0 0 0 0 0 0 0 0 0 0 0 0 0 0 0 0 0 0 0 0 0 0 0 0 0 0 0 0 0 0 0 0 0 0 0 0 0 0 0 0 0 0 0 0 0 0 0 0 0 0 0 0 0 0 0 0 0 0 0 0 0 
0 0 0 0 0 0 0 0 0.225868 0.184711 0 0 0.18945 0 0 0 0 0 0 0 0 0 0 0 0 0 0 0 0 0 0 0 0 0 0 0 0 0 0 0 0 0 0 0 0 0 0 0 0 0 0 0 0 0 0 0 0 0 0 0 0 0 0 0 0 0 0 0 0 0 0 0 0 0 0 0 0 0 0 0 0 0 0 0 0 0 0 0 0 0 0 0 0 0 0 0 0 0 0 0 
0 0 0 0 0 0 0 0 0 0 0 0 0 0 0 0 0 0 0 0 0 0 0 0 0 0 0 0 0 0 0 0 0 0 0 0 0 0 0 0 0 0 0 0 0 0 0 0 0 0 0 0 0 0 0 0 0 0 0 0 0 0 0 0 0 0 0 0 0 0 0 0 0 0 0 0 0 0 0 0 0 0 0 0 0 0 0 0 0 0 0 0 0 0 0 0 0 0 0 0 
0 0 0 0 0.168688 0.16029 2.06793 0.919559 2.12937 1.60283 0.094518 0.204432 0 0 0.04221 0 0 0 0 0 0 0 0 0 0 0 0 0 0 0 0 0 0 0 0 0 0 0 0 0 0 0 0 0 0 0 0 0 0 0 0 0 0 0 0 0 0 0 0 0 0 0 0 0 0 0 0 0 0 0 0 0 0 0 0 0 0 0 0 0 0 0 0 0 0 0 0 0 0 0 0 0 0 0 0 0 0 0 0 0 
0 0 0 0 0 0 0 0 0 0 0 0 0 0 0 0 0 0 0 0 0 0 0 0 0 0 0 0 0 0 0 0 0 0 0 0 0 0 0 0 0 0 0 0 0 0 0 0 0 0 0 0 0 0 0 0 0 0 0 0 0 0 0 0 0 0 0 0 0 0 0 0 0 0 0 0 0 0 0 0 0 0 0 0 0 0 0 0 0 0 0 0 0 0 0 0 0 0 0 0 
0 0 0 0 0 1.48362 4.45371 4.02276 4.80569 -3.41887 0.00423319 0 3.6747 0 0 0 -0.000807602 0 0 0 0 0 0 0 0 0 0 0 0 0 0 0 0 0 0 0 0 0 0 0 0 0 0 0 0 0 0 0 0 0 0 0 0 0 0 0 0 0 0 0 0 0 0 0 0 0 0 0 0 0 0 0 0 0 0 0 0 0 0 0 0 0 0 0 0 0 0 0 0 0 0 0 0 0 0 0 0 0 0 0 

100 0 200
0 0 0 0 0 0 0 0 0 0 0 0 0 0 0 0 0 0 0 0 0 0 0 0 0 0 0 0 0 0 0 0 0 0 0 0 0 0 0 0 0 0 0 0 0 0 0 0 0 0 0 0 0 0 0 0 0 0 0 0 0 0 0 0 0 0 0 0 0 0 0 0 0 0 0 0 0 0 0 0 0 0 0 0 0 0 0 0 0 0 0 0 0 0 0 0 0 0 0 0 
0 0 0 0 0 0 0 0 0 0 0 0 0 0 0 0 0 0 0 0 0 0 0 0 0 0 0 0 0 0 0 0 0 0 0 0 0 0 0 0 0 0 0 0 0 0 0 0 0 0 0 0 0 0 0 0 0 0 0 0 0 0 0 0 0 0 0 0 0 0 0 0 0 0 0 0 0 0 0 0 0 0 0 0 0 0 0 0 0 0 0 0 0 0 0 0 0 0 0 0 
0 0 0 0 0 0 0 0 0 0 0 0 0 0 0 0 0 0 0 0 0 0 0 0 0 0 0 0 0 0 0 0 0 0 0 0 0 0 0 0 0 0 0 0 0 0 0 0 0 0 0 0 0 0 0 0 0 0 0 0 0 0 0 0 0 0 0 0 0 0 0 0 0 0 0 0 0 0 0 0 0 0 0 0 0 0 0 0 0 0 0 0 0 0 0 0 0 0 0 0 
0 0 0 0 0 0 0 0 0 0 0 0 0 0 0 0 0 0 0 0 0 0 0 0 0 0 0 0 0 0 0 0 0 0 0 0 0 0 0 0 0 0 0 0 0 0 0 0 0 0 0 0 0 0 0 0 0 0 0 0 0 0 0 0 0 0 0 0 0 0 0 0 0 0 0 0 0 0 0 0 0 0 0 0 0 0 0 0 0 0 0 0 0 0 0 0 0 0 0 0 
0 0 0 0 0 0 0 0 0 0 0 0 0 0 0 0 0 0 0 0 0 0 0 0 0 0 0 0 0 0 0 0 0 0 0 0 0 0 0 0 0 0 0 0 0 0 0 0 0 0 0 0 0 0 0 0 0 0 0 0 0 0 0 0 0 0 0 0 0 0 0 0 0 0 0 0 0 0 0 0 0 0 0 0 0 0 0 0 0 0 0 0 0 0 0 0 0 0 0 0 
0 0 0 0 0 0 0 0 0 0 0 0.18945 0 0 0 0 0 0 0 0 0 0 0 0 0 0 0 0 0 0 0 0 0 0 0 0 0 0 0 0 0 0 0 0 0 0 0 0 0 0 0 0 0 0 0 0 0 0 0 0 0 0 0 0 0 0 0 0 0 0 0 0 0 0 0 0 0 0 0 0 0 0 0 0 0 0 0 0 0 0 0 0 0 0 0 0 0 0 0 0 
0 0 0 0 0 0 0 0 0 0 0 0 0 0 0 0 0 0 0 0 0 0 0 0 0 0 0 0 0 0 0 0 0 0 0 0 0 0 0 0 0 0 0 0 0 0 0 0 0 0 0 0 0 0 0 0 0 0 0 0 0 0 0 0 0 0 0 0 0 0 0 0 0 0 0 0 0 0 0 0 0 0 0 0 0 0 0 0 0 0 0 0 0 0 0 0 0 0 0 0 
0 0 0 0 0 0 0 0 0.0270612 0 0.04221 0 0 0 0 0 0 0 0 0 0 0 0 0 0 0 0 0 0 0 0 0 0 0 0 0 0 0 0 0 0 0 0 0 0 0 0 0 0 0 0 0 0 0 0 0 0 0 0 0 0 0 0 0 0 0 0 0 0 0 0 0 0 0 0 0 0 0 0 0 0 0 0 0 0 0 0 0 0 0 0 0 0 0 0 0 0 0 0 0 
0 0 0 0 0 0 0 0 0 0 0 0 0 0 0 0 0 0 0 0 0 0 0 0 0 0 0 0 0 0 0 0 0 0 0 0 0 0 0 0 0 0 0 0 0 0 0 0 0 0 0 0 0 0 0 0 0 0 0 0 0 0 0 0 0 0 0 0 0 0 0 0 0 0 0 0 0 0 0 0 0 0 0 0 0 0 0 0 0 0 0 0 0 0 0 0 0 0 0 0 
0 0 0 0 0 1.95783 0 0 0.00949424 3.6747 0 0 0 0 0 0 -0.000807602 0 0 0 0 0 0 0 0 0 0 0 0 0 0 0 0 0 0 0 0 0 0 0 0 0 0 0 0 0 0 0 0 0 0 0 0 0 0 0 0 0 0 0 0 0 0 0 0 0 0 0 0 0 0 0 0 0 0 0 0 0 0 0 0 0 0 0 0 0 0 0 0 0 0 0 0 0 0 0 0 0 0 0 

100 0 200
0 0 0 0 0 0 0 0 0 0 0 0 0 0 0 0 0 0 0 0 0 0 0 0 0 0 0 0 0 0 0 0 0 0 0 0 0 0 0 0 0 0 0 0 0 0 0 0 0 0 0 0 0 0 0 0 0 0 0 0 0 0 0 0 0 0 0 0 0 0 0 0 0 0 0 0 0 0 0 0 0 0 0 0 0 0 0 0 0 0 0 0 0 0 0 0 0 0 0 0 
0 0 0 0 0 0 0 0 0 0 0 0 0 0 0 0 0 0 0 0 0 0 0 0 0 0 0 0 0 0 0 0 0 0 0 0 0 0 0 0 0 0 0 0 0 0 0 0 0 0 0 0 0 0 0 0 0 0 0 0 0 0 0 0 0 0 0 0 0 0 0 0 0 0 0 0 0 0 0 0 0 0 0 0 0 0 0 0 0 0 0 0 0 0 0 0 0 0 0 0 
0 0 0 0 0 0 0 0 0 0 0 0 0 0 0 0 0 0 0 0 0 0 0 0 0 0 0 0 0 0 0 0 0 0 0 0 0 0 0 0 0 0 0 0 0 0 0 0 0 0 0 0 0 0 0 0 0 0 0 0 0 0 0 0 0 0 0 0 0 0 0 0 0 0 0 0 0 0 0 0 0 0 0 0 0 0 0 0 0 0 0 0 0 0 0 0 0 0 0 0 
0 0 0 0 0 0 0 0 0 0 0 0 0 0 0 0 0 0 0 0 0 0 0 0 0 0 0 0 0 0 0 0 0 0 0 0 0 0 0 0 0 0 0 0 0 0 0 0 0 0 0 0 0 0 0 0 0 0 0 0 0 0 0 0 0 0 0 0 0 0 0 0 0 0 0 0 0 0 0 0 0 0 0 0 0 0 0 0 0 0 0 0 0 0 0 0 0 0 0 0 
0 0 0 0 0 0 0 0 0 0 0 0 0 0 0 0 0 0 0 0 0 0 0 0 0 0 0 0 0 0 0 0 0 0 0 0 0 0 0 0 0 0 0 0 0 0 0 0 0 0 0 0 0 0 0 0 0 0 0 0 0 0 0 0 0 0 0 0 0 0 0 0 0 0 0 0 0 0 0 0 0 0 0 0 0 0 0 0 0 0 0 0 0 0 0 0 0 0 0 0 
0 0 0 0 0 0 0 0 0 0 0 0 0 0 0 0 0 0 0 0 0 0 0 0 0 0 0 0 0 0 0 0 0 0 0 0 0 0 0 0 0 0 0 0 0 0 0 0 0 0 0 0 0 0 0 0 0 0 0 0 0 0 0 0 0 0 0 0 0 0 0 0 0 0 0 0 0 0 0 0 0 0 0 0 0 0 0 0 0 0 0 0 0 0 0 0 0 0 0 0 
0 0 0 0 0 0 0 0 0 0 0 0 0 0 0 0 0 0 0 0 0 0 0 0 0 0 0 0 0 0 0 0 0 0 0 0 0 0 0 0 0 0 0 0 0 0 0 0 0 0 0 0 0 0 0 0 0 0 0 0 0 0 0 0 0 0 0 0 0 0 0 0 0 0 0 0 0 0 0 0 0 0 0 0 0 0 0 0 0 0 0 0 0 0 0 0 0 0 0 0 
0 0 0 0 0 0 0 0 0.0270612 0 0 0 0 0 0 0 0 0 0 0 0 0 0 0 0 0 0 0 0 0 0 0 0 0 0 0 0 0 0 0 0 0 0 0 0 0 0 0 0 0 0 0 0 0 0 0 0 0 0 0 0 0 0 0 0 0 0 0 0 0 0 0 0 0 0 0 0 0 0 0 0 0 0 0 0 0 0 0 0 0 0 0 0 0 0 0 0 0 0 0 
0 0 0 0 0 0 0 0 0 0 0 0 0 0 0 0 0 0 0 0 0 0 0 0 0 0 0 0 0 0 0 0 0 0 0 0 0 0 0 0 0 0 0 0 0 0 0 0 0 0 0 0 0 0 0 0 0 0 0 0 0 0 0 0 0 0 0 0 0 0 0 0 0 0 0 0 0 0 0 0 0 0 0 0 0 0 0 0 0 0 0 0 0 0 0 0 0 0 0 0 
0 0 0 0 0 0 0 0.00868481 0 0 0 0 0 0 0 0 0 0 0 0 0 0 0 0 0 0 0 0 0 0 0 0 0 0 0 0 0 0 0 0 0 0 0 0 0 0 0 0 0 0 0 0 0 0 0 0 0 0 0 0 0 0 0 0 0 0 0 0 0 0 0 0 0 0 0 0 0 0 0 0 0 0 0 0 0 0 0 0 0 0 0 0 0 0 0 0 0 0 0 0 
