1
Photon_
p_T [GeV/c]
pT_dr_cut_high_pT_order
9
0
0
10
QCD W + Jets WW WZ ZZ #bar{t}W tW t#bar{t} Drell Yan #rightarrow #tau#tau Drell Yan #rightarrow #mu#mu 

100 0 200
0 0 0 0 0 0 0 0 3.55035 0 0 0 0 0 0 0 0 0 0 0 0 0 0 0 0 0 0 0 0 0 0 0 0 0 0 0 0 0 0 0 0 0 0 0 0 0 0 0 0 0 0 0 0 0 0 0 0 0 0 0 0 0 0 0 0 0 0 0 0 0 0 0 0 0 0 0 0 0 0 0 0 0 0 0 0 0 0 0 0 0 0 0 0 0 0 0 0 0 0 0 
0 0 0 0 0 0 -5.039 4.2879 8.25939 -9.40422 -2.29595 7.141 -8.06919 0 0 0.90095 0 0 1.6258 0 0 0 0 0 0 0 6.25348 0 0 0 0 0 0 0 0 4.46469 0 0 0 0 0 0 0 0 0 0 0 0 0 3.12356 0 0 0 0 0 0 0 3.57023 0 0 0 0 0 0 0 0 0 0 0 0 0 0 0 0 0 0 0 0 0 0 0 0 0 0 0 0 0 0 0 0 0 0 0 0 0 0 0 0 0 0 
0 0 0 0 0 9.60789 40.7141 30.4376 26.1908 30.2111 16.6492 10.1047 14.0092 14.2129 11.3926 4.38259 9.04468 4.2217 3.52719 1.14878 3.09884 3.69113 2.4647 3.09584 3.20475 2.68419 1.06612 2.63752 0.523006 4.10243 0.943394 2.39201 0.534183 0.527521 0 1.6362 0.656774 0.423415 0.574519 0.506433 0 1.49114 0 0.610598 0.760537 0.609885 0 1.49325 0 0.640688 0 1.55654 0.650299 0 0 0.496837 0.342989 0 0 0 1.2098 0 0 0 0 0 0 0 0 0 0 0 0 0 0 0 0 0.61009 0.921032 0 0 0 0 0 0 0 0 0 0 0 0 0 0 0 0 0 0 0 0 0 
0 0 0 0 1.60358 12.0815 67.2521 69.1045 73.2564 69.6242 53.0404 57.6316 43.6538 35.281 44.9856 32.5058 27.3627 22.0105 26.6872 18.3489 19.7406 13.2943 13.1149 11.9191 12.7807 9.93167 9.2384 7.79026 6.33477 6.52839 6.81008 3.95825 4.06676 3.50168 2.56503 2.59897 3.51073 2.73751 2.6581 2.80406 1.03783 1.37665 0.46321 1.74323 1.90477 2.42281 0.692799 0.634232 0 0.624866 0 0.57018 0.770195 1.30245 0.591832 0.69207 0.486179 1.50145 1.31781 0.737404 0 0 0 0 0 0.704312 0 0.975761 0 0 0 0.426803 0 0 0.577633 0 0 0 0 0.39866 0 0 0 0 0 0 0 0.90289 0 0 0 0 0 0 0 0 1.04764 0.178312 0.688005 0 
0 0 0 0 1.40802 13.8873 55.4566 61.9263 53.8325 70.3114 57.3239 42.8633 29.7691 27.5942 31.6744 23.9056 15.4133 14.4347 15.1561 10.8098 8.12328 11.4703 10.8772 7.80465 10.285 10.9917 9.7871 4.61236 4.68398 3.92531 0.783767 4.00903 4.36381 4.97727 5.53911 1.45568 1.7991 1.87206 3.10914 0.650094 0 1.7142 1.70636 0.540033 1.35018 1.18706 0 1.88322 0.912118 0.462383 0.522413 0.967637 0 0 0 0 1.47441 1.11336 0 0 0.474825 0.778815 0 0.777168 0.632702 1.98993 1.091 0 1.16948 0.516565 0 0 0.52307 0 0 0.602764 0 0 0 0 0 0 0.584575 0 0 0 0.780718 0 0 0 0 0 0 0 0 0 0 0 0 0 
0 0 0 0.160933 0.181688 3.56836 19.2144 20.4632 29.0065 28.1663 21.2797 21.825 16.2884 14.0188 12.6258 13.2559 8.81172 10.0428 9.61918 6.38841 9.56037 5.7763 7.52043 4.07995 4.46225 5.10161 3.76645 4.01224 3.10333 4.08174 3.92498 3.34203 3.36457 2.94224 2.44495 3.49176 2.04852 1.67682 2.65679 1.38316 1.92095 1.98699 0.984174 1.94617 1.20287 0.967656 0.478828 1.57924 1.24295 1.05978 1.00116 1.19958 1.34799 1.66219 1.24948 0.571343 0.43888 0.870604 1.02394 0.568824 0.786943 0.51649 1.44854 0.961079 1.44087 0.511884 0.19863 1.06676 0 0.692974 0.597359 0.156492 0 0.305502 0.190937 0 0.473026 0 0.692304 0 0.491674 0 0 0.584919 0.311205 1.35293 0.533995 0.167127 0 0.231662 0.136337 0 0.16377 0.329074 0 0.574673 0 0.247071 0 0.193099 
0 0 0 0.11789 0.0327807 3.34704 22.1605 20.6743 29.3081 27.1338 22.3709 15.1752 17.2828 18.8816 12.0358 13.3686 10.3707 9.73875 10.5794 5.53263 6.98963 5.24437 7.85017 6.98651 6.51369 6.68868 5.92851 2.76549 3.14261 3.59033 5.22589 3.03961 4.10161 3.24777 3.10142 3.14525 2.01878 1.96939 1.4692 1.30086 0.997637 1.55261 2.38276 1.43528 1.75846 2.03521 1.3337 1.50927 1.5818 1.26569 1.03357 0.479947 0.568993 0.282148 1.34393 0.927414 0.353083 0.2494 1.32121 0.560615 0.834343 1.4659 0.581244 0.660116 0.361471 0.247617 0.966338 0.148366 0.303509 0.214682 0.54388 0 0.470886 0.18786 0.426443 0.210688 0.756051 0.327591 0.643784 1.00623 0.244795 0 0.243523 0.205133 0.188144 0.249619 0.47515 0.369576 0.279893 0.116146 0.698383 0.282312 0.155453 0.632213 0.446233 0.160623 0.335954 0 0 0 
0 0 0 1.22102 5.87396 93.6123 491.999 488.083 856.088 839.515 785.501 687.371 647.988 588.197 542.956 477.302 468.456 413.05 365.373 344.066 323.1 296.867 282.797 253.192 238.141 223.058 209.899 199.997 190.501 179.97 178.096 163.418 150.738 138.357 118.909 124.426 114.697 97.3376 95.377 88.8968 83.4261 82.3801 79.4209 70.9429 65.5412 64.4925 62.303 59.8952 60.6934 57.6773 47.7769 46.6932 44.0932 46.5351 39.8872 42.6015 35.1586 31.6935 34.1711 35.5635 34.0654 30.0574 30.9864 25.7371 25.6893 25.2828 23.689 22.6755 23.7862 22.1236 16.5106 16.4823 21.6592 17.3343 16.3117 12.6663 17.3293 15.4615 14.3515 13.2254 13.852 12.5024 12.4839 11.1597 11.5832 10.9174 11.0799 10.6919 10.3017 8.54491 8.19058 8.28243 10.0948 8.91329 8.29901 8.19188 7.40044 6.19628 7.25238 6.73513 
0 0 0 0.0712483 0 34.9505 74.4315 72.324 79.1507 36.5037 23.6694 28.0119 18.3685 39.6263 22.6529 11.6755 11.1553 2.09012 6.99095 -6.00932 -13.7326 -1.85842 2.55103 0.211199 2.58859 -3.60026 7.33666 -4.36047 2.61983 -3.44555 4.47011 0 7.77916 3.4532 2.09103 0 7.18488 1.22594 0.125664 2.99017 -1.6325 4.13806 0 0 0 1.21507 4.26596 -0.20536 0 -1.92534 0 0 1.9304 0 0 2.39401 0 0 0 0 0 0 3.0713 0 0 1.7695 0 0 0 0 0 0 0 0 0 0 0 0 0 0 0 0 -2.35144 0 0 0 0 0 0 0 0 0 0 0 0 0 0 2.53624 -3.91046 0 
0 0 0 164.222 851.936 11921.3 56447.5 41464.9 36281.6 28070.9 22052.7 17709.5 13434.9 11030.2 8922.35 6384.94 5375.09 4694.81 3575.79 3182.43 2599.83 2440.92 1966.13 1606.22 1298.28 1209.66 1050.68 911.612 791.579 741.173 695.046 520.565 522.751 384.954 403.759 340.364 392.046 255.646 256.895 218.461 320.694 220.684 171.695 161.928 90.0841 188.452 164.182 182.89 108.053 79.8655 114.133 54.7873 101.198 76.0226 99.0818 78.7804 69.5322 37.2991 54.4661 70.7549 44.6738 83.5511 45.6182 28.6221 82.739 24.2316 39.5451 59.4884 16.9475 80.6589 62.2991 31.969 33.5874 35.4449 34.6024 40.6126 29.3304 26.9747 23.9096 41.042 36.6712 14.6804 27.4659 38.5928 32.091 34.3181 14.8199 45.6176 17.9897 20.0456 2.08574 36.6157 4.00933 10.3792 33.9904 9.39176 14.5175 20.8463 0.353886 3.48849 

100 0 200
0 0 0 0 0 0 0 0 0.0430997 0 8.66607 0 0 0 0 0 0 0 0 0 0 0 0 0 0 0 0 0 0 0 0 0 0 0 0 0 0 0 0 0 0 0 0 0 0 0 0 0 0 0 0 0 0 0 0 0 0 0 0 0 0 0 0 0 0 0 0 0 0 0 0 0 0 0 0 0 0 0 0 0 0 0 0 0 0 0 0 0 0 0 0 0 0 0 0 0 0 0 0 0 
0 0 0 0 0 5.03243 0 0 0 0 -4.7844 0 3.12356 0 0 0 0 0 0 0 0 0 0 0 0 0 0 0 0 0 0 0 0 0 0 0 0 0 0 0 0 0 0 0 0 0 0 0 0 0 0 0 0 0 0 0 0 0 0 0 0 0 0 0 0 0 0 0 0 0 0 0 0 0 0 0 0 0 0 0 0 0 0 0 0 0 0 0 0 0 0 0 0 0 0 0 0 0 0 0 
0 0 0 0 0 2.3068 8.30223 9.35111 2.72124 2.19748 3.21825 2.28835 0.964795 0.672807 1.73976 2.78286 0.597298 0 0 0.604494 0.0485819 1.93286 0.756947 0 0.699457 0.523006 0 0 0 0 0 0 0 0 0 0 0 0 0 0 0 0 0 0 0 0 0 0 0 0 0 0 0 0 0 0 0 0 0 0 0 0 0 0 0 0 0 0 0 0 0 0 0 0 0 0 0 0 0 0 0 0 0 0 0 0 0 0 0 0 0 0 0 0 0 0 0 0 0 0 
0 0 0 0 0.653243 4.71471 35.1341 23.8656 25.6626 18.0413 15.5191 12.4792 5.10299 8.58167 3.20729 2.16807 3.8385 2.50406 3.36722 1.51023 2.94652 2.49522 3.60324 2.25877 0.862081 2.66561 0.596189 0 1.75502 0.575639 0 0.570289 0.431922 0.909354 0 0 1.1896 0.00273295 0.69207 0.799932 0.581798 0.675724 0 0 0 0 0 0 0 0 0 0.544172 0 0.0689893 0 0 0 0 0 0 0 0 0 0 0 0 0 0 0 0 0 0 0 0 0 0 0.514134 0 0 0 0 0 0 0 0 0 0 0 0 0 0 0 0 0 0 0 0 0 0 0 
0 0 0 0 0.186608 3.35452 24.8781 20.6526 33.3809 22.2185 12.1257 14.2005 6.89486 8.8769 14.6398 5.94898 6.79165 6.54409 4.97473 7.30021 8.27122 4.35608 6.34061 4.68768 1.2386 0.530953 1.27275 3.01316 0 0 0 0.631214 0.103757 0 0.580188 0 0.483807 0.602764 0 0 0.607876 0 0 0 0 0 0 0 0 0 0 0 0 0 0 0 0 0 0 0 0 0 0 0 0 0 0 0 0 0 0 0 0 0 0 0 0 0 0 0 0 0 0 0 0 0 0 0 0 0 0 0 0 0 0 0 0 0 0 0 
0 0 0 0 0 2.74073 8.92024 9.11941 13.086 10.0529 7.2633 8.12598 6.3672 4.94299 3.3939 2.04693 2.84166 3.36148 1.48046 0.505543 0.278057 1.09292 1.47839 0.836921 0.42533 0.373838 0.204963 0.495828 0 0.336354 0.16713 1.02514 0 0.362369 0.446257 0.175466 0 0.00906015 0 0.150244 0 0 0.279716 0 0.196428 0.347647 0.302705 0 0 0 0.205894 0 0 0 0 0 0 0 0 0.0898958 0 0 0 0 0 0 0 0 0 0 0 0 0 0 0 0 0 0.0741332 0 0 0 0 0 0.0601236 0 0 0 0 0 0 0 0 0 0 0 0 0 0 0 0 
0 0 0 0 0.175687 2.46951 8.63227 8.47044 13.7806 9.13653 8.67334 7.58032 7.3957 3.74824 3.97392 2.64561 2.20674 1.98399 2.27415 0.335445 1.2849 1.88356 1.30837 0.747962 1.19079 0.705879 1.24361 0.528256 0.30927 0.190497 0.370731 0.361525 0.536845 0.367874 0 0.198707 0 0.1539 0.220973 0 0 0 0.247118 0.280644 0 0 0 0 0.101757 0.304174 0.13064 0 0 0.223618 0 0 0 0 0 0 0 0 0 0 0 0 0 0 0 0 0 0 0.215197 0 0 0 0 0 0.0587539 0 0 0.11743 0 0 0 0 0 0 0 0 0 0 0 0 0 0 0 0 0 0 
0 0 0 0.577497 5.78974 64.373 317.796 294.159 539.801 472.022 408.326 324.476 285.571 221.828 192.705 169.981 142.05 118.316 97.2006 84.7037 76.4854 67.1644 57.2848 51.0517 39.8889 41.2787 35.6373 30.1609 29.7881 28.0094 22.7045 21.4487 18.8836 15.0688 14.0753 13.9073 11.2643 11.6907 9.16865 7.75062 7.57555 6.38193 6.11838 7.9541 6.28518 5.48176 4.62616 3.81896 4.72859 3.07292 3.31542 3.83614 2.5484 2.51912 3.11062 1.48639 2.14317 2.54108 1.95672 1.16707 1.11329 1.9481 1.18663 0.88067 0.998196 1.36218 1.46224 1.38139 0.741496 0.741942 0.548086 0.604597 1.18674 1.57506 0.870553 0.602304 1.37822 0.314868 0.519881 0.756428 0.590494 0.286471 0.563061 0.369344 0.201985 0.158387 0.288137 0.465242 0.481062 0.31001 1.00874 0.429047 0.0813047 0.110087 0.102052 0.179228 0.405488 0.0339814 0.233577 0.565888 
0 0 0 0 0 2.13415 23.6716 0.504958 17.1861 4.61284 9.81589 3.8658 2.23403 -0.561386 -8.2848 2.52216 0 -4.13183 -1.9283 0 0 0 0 0 4.4592 0 0 0 0 0 0 0 0 0 0 0 0 0 0 0 -4.32651 0 0 3.0713 0 0 0 0 0 0 0 0 0 0 0 0 0 0 0 0 2.37527 0 0 0 0 0 0 0 0 0 0 0 0 0 0 0 0 -3.85647 0 0 0 0 0 0 0 0 0 0 0 0 0 0 0 0 0 0 0 0 0 0 
0 0 0 20.974 153.635 1747.39 6651.83 4642.63 3756.73 2966.74 2287.61 1341.38 954.245 832.144 816.601 678 437.548 403.434 260.629 218.438 252.286 188.46 217.21 97.682 119.331 117.933 87.8445 76.8047 59.2801 46.2093 43.0434 27.2414 48.8103 -2.20408 2.70968 23.8085 7.47227 19.4641 5.11548 24.2971 6.54197 12.6113 -3.428 15.6183 3.81828 8.64802 12.5339 2.08246 -2.36607 10.7384 7.25984 4.13875 7.16906 -9.42787 1.96676 7.41306 4.71979 3.40991 -4.86719 -8.47521 13.5088 15.4974 3.49156 7.53598 8.69214 12.6165 9.74582 3.30804 -1.57219 -0.61209 2.59225 -0.430767 -4.80727 0.764608 1.85058 1.69667 1.02861e-05 4.02312 -2.00305 0.55455 2.30731 0.0847349 1.14446 2.40499 3.66152 5.84775 0 -1.95856 2.96931 -2.69175 2.18613 -3.94923 0 0.00181338 2.44052 2.379 0.000635017 -2.46296 2.08376 0 

100 0 200
0 0 0 0 0 0.367465 0 0 0 0 0 0 0 0 0 0 0 0 0 0 0 0 0 0 0 0 0 0 0 0 0 0 0 0 0 0 0 0 0 0 0 0 0 0 0 0 0 0 0 0 0 0 0 0 0 0 0 0 0 0 0 0 0 0 0 0 0 0 0 0 0 0 0 0 0 0 0 0 0 0 0 0 0 0 0 0 0 0 0 0 0 0 0 0 0 0 0 0 0 0 
0 0 0 0 0 0 0 0 0 0 0 0 0 0 0 0 0 0 0 0 0 0 0 0 0 0 0 0 0 0 0 0 0 0 0 0 0 0 0 0 0 0 0 0 0 0 0 0 0 0 0 0 0 0 0 0 0 0 0 0 0 0 0 0 0 0 0 0 0 0 0 0 0 0 0 0 0 0 0 0 0 0 0 0 0 0 0 0 0 0 0 0 0 0 0 0 0 0 0 0 
0 0 0 0 0 0 0.99653 0 0.379776 0 0.345928 0 0.531618 0 0 0 0 0 0 0 0 0 0 0 0 0 0 0 0 0 0 0 0 0 0 0 0 0 0 0 0 0 0 0 0 0 0 0 0 0 0 0 0 0 0 0 0 0 0 0 0 0 0 0 0 0 0 0 0 0 0 0 0 0 0 0 0 0 0 0 0 0 0 0 0 0 0 0 0 0 0 0 0 0 0 0 0 0 0 0 
0 0 0 0 0 0.391512 7.22848 4.30546 0.718347 0.0155492 2.67295 3.87379 0.569766 0.72089 0 0 0 0 0 0 0 0 0 0.514134 0 0 0 0 0.654374 0 0 0 0 0 0 0 0 0 0 0 0 0 0 0 0 0 0 0 0 0 0 0 0 0 0 0 0 0 0 0 0 0 0 0 0 0 0 0 0 0 0 0 0 0 0 0 0 0 0 0 0 0 0 0 0 0 0 0 0 0 0 0 0 0 0 0 0 0 0 0 
0 0 0 0 0.406841 1.85761 4.90773 5.27357 2.82894 5.93987 1.07982 1.3435 1.21017 0 0.72681 0 0.881786 0.503311 0 0 0 0 0.528775 0.579883 0.580188 0 0 0 0 0 0 0.893699 0 0 0 0 0 0 0 0 0 0 0 0 0 0 0 0 0 0 0 0 0 0 0 0 0 0 0 0 0 0 0 0 0 0 0 0 0 0 0 0 0 0 0 0 0 0 0 0 0 0 0 0 0 0 0 0 0 0 0 0 0 0 0 0 0 0 0 0 
0 0 0 0 0.115249 0 1.47864 2.17304 2.44901 3.45635 1.62153 1.89385 1.90735 0.981698 0.059841 0.436151 0.154639 0.165513 0.599802 0.410789 0.169759 0.430483 0.4749 0 0 0.151595 0 0 0 0 0 0 0 0 0 0 0 0 0 0 0 0 0 0 0 0 0 0 0 0 0 0 0 0 0 0 0 0 0 0 0 0 0 0 0 0 0 0 0 0 0 0 0 0 0 0 0 0 0 0 0 0 0 0 0 0 0 0 0 0 0 0 0 0 0 0 0 0 0 0 
0 0 0 0 0 0.188242 2.59623 3.03138 4.07166 2.6423 1.09228 0.796024 0.953423 0.641215 0.532349 0.882636 0.489706 0.509535 0 0.554336 0.455668 0.309264 0 0.187092 0.214771 0.188686 0 0 0 0 0 0 0.239806 0 0 0 0 0 0 0 0.000873108 0 0 0 0 0 0 0 0 0 0 0 0 0 0 0 0 0 0 0 0 0 0 0 0 0 0 0 0 0 0 0 0 0 0 0 0 0 0 0 0 0 0 0 0 0 0 0 0 0 0 0 0 0 0 0 0 0 0 0 
0 0 0 0.390081 0.797 24.8647 107.478 104.991 181.69 143.542 115.668 82.1907 61.9388 53.5397 45.1852 35.0806 21.3757 23.4611 17.0927 13.3666 9.21242 6.15142 6.75172 5.53241 5.0923 4.03552 4.56521 3.22954 2.22576 2.41382 0.352221 1.71832 0.856464 1.60717 0.927339 1.34921 0.484565 0.338612 0.859809 0.360295 0.538604 0.189162 0.355675 0.200743 0.42047 0.148666 0 0.212 0.171721 0.22175 0.108759 0.0688682 0.261708 0.0281336 0.129492 0.313763 0 0.100863 0.0266833 0.113978 0 0 0 0.0665582 0.0753207 0.0678374 0 0.0165268 0.0353569 0 0 0 0 0.0507168 0 0 0 0 0.000277864 0.0989869 0.123927 0.0413671 0 0 0 0 0 0 0 0 0 0 0 0 0 0 0 0 0 0 
0 0 0 0 0 0 0.00151798 6.51428 0 2.53624 2.94137 0 0 3.33506 0 0 -4.13183 0 0 0 0 0 0 0 0 0 0 0 0 0 0 0 0 0 0 0 0 0 0 0 0 0 0 0 0 0 0 0 0 0 0 0 0 0 0 0 0 0 0 0 0 0 0 0 0 0 0 0 0 0 0 0 0 0 0 0 0 0 0 0 0 0 0 0 0 0 0 0 0 0 0 0 0 0 0 0 0 0 0 0 
0 0 0 2.09479 25.7052 186.358 771.182 564.095 515.213 341.329 252.842 114.173 179.819 45.5091 87.3537 73.6735 63.7497 19.9289 15.7468 -4.96125 11.8912 10.4948 6.00025 -8.38763 33.7854 -2.94179 -0.519864 4.30601 11.4726 6.17256 -1.47675 1.03645 0.226188 4.07005 5.30413 0.000392634 -0.127757 2.61393 -2.84592 -4.31358 0 4.36374 0.000656692 9.24005e-05 0.193881 2.58088 0.0523446 0 0.733053 2.3165 0.0116179 0 0 0 -0.170869 0 0.000548463 0 0 0 -0.000216113 0 0 0 -6.45028 0 0 0 0 0.706423 0 -0.000665124 0 0 0 0 0 0 0 0 0 0 0 0 0 0 0 1.06e-07 0 0 0 0 0 0 0 0 0 0 0 0 

100 0 200
0 0 0 0 0 0 0 0 0 0 0 0 0 0 0 0 0 0 0 0 0 0 0 0 0 0 0 0 0 0 0 0 0 0 0 0 0 0 0 0 0 0 0 0 0 0 0 0 0 0 0 0 0 0 0 0 0 0 0 0 0 0 0 0 0 0 0 0 0 0 0 0 0 0 0 0 0 0 0 0 0 0 0 0 0 0 0 0 0 0 0 0 0 0 0 0 0 0 0 0 
0 0 0 0 0 0 0 0 0 0 0 0 0 0 0 0 0 0 0 0 0 0 0 0 0 0 0 0 0 0 0 0 0 0 0 0 0 0 0 0 0 0 0 0 0 0 0 0 0 0 0 0 0 0 0 0 0 0 0 0 0 0 0 0 0 0 0 0 0 0 0 0 0 0 0 0 0 0 0 0 0 0 0 0 0 0 0 0 0 0 0 0 0 0 0 0 0 0 0 0 
0 0 0 0 0 0 0.345928 0 0 0 0 0 0 0 0 0 0 0 0 0 0 0 0 0 0 0 0 0 0 0 0 0 0 0 0 0 0 0 0 0 0 0 0 0 0 0 0 0 0 0 0 0 0 0 0 0 0 0 0 0 0 0 0 0 0 0 0 0 0 0 0 0 0 0 0 0 0 0 0 0 0 0 0 0 0 0 0 0 0 0 0 0 0 0 0 0 0 0 0 0 
0 0 0 0 0.598549 0 0.690046 0 1.01616 0.936506 0.553254 0 1.49332 0 0 0 0.0993709 0 0 0 0 0 0 0 0 0 0 0 0 0 0 0 0 0 0 0 0 0 0 0 0 0 0 0 0 0 0 0 0 0 0 0 0 0 0 0 0 0 0 0 0 0 0 0 0 0 0 0 0 0 0 0 0 0 0 0 0 0 0 0 0 0 0 0 0 0 0 0 0 0 0 0 0 0 0 0 0 0 0 0 
0 0 0 0 0 0.0730475 1.8789 0 2.13245 0.332256 0.288223 0 0 0 0.577797 0 0 0 0 0 0 0 0 0 0 0 0 0 0 0 0 0 0 0 0 0 0 0 0 0 0 0 0 0 0 0 0 0 0 0 0 0 0 0 0 0 0 0 0 0 0 0 0 0 0 0 0 0 0 0 0 0 0 0 0 0 0 0 0 0 0 0 0 0 0 0 0 0 0 0 0 0 0 0 0 0 0 0 0 0 
0 0 0 0 0 0.167176 0.789386 0.194591 0.763926 0.682747 0.165679 0.204274 0 0 0.132152 0 0 0 0 0 0 0 0 0 0 0 0 0 0 0 0 0 0 0 0 0 0 0 0 0 0 0 0 0 0 0 0 0 0 0 0 0 0 0 0 0 0 0 0 0 0 0 0 0 0 0 0 0 0 0 0 0 0 0 0 0 0 0 0 0 0 0 0 0 0 0 0 0 0 0 0 0 0 0 0 0 0 0 0 0 
0 0 0 0 0 0.448498 0.338367 0.433725 1.35467 0.834727 0.748333 0.20015 0.182616 0 0 0 0 0 0 0 0 0 0 0 0 0.188686 0 0 0 0 0 0 0 0 0 0 0 0 0 0 0 0 0 0 0 0 0 0 0 0 0 0 0 0 0 0 0 0 0 0 0 0 0 0 0 0 0 0 0 0 0 0 0 0 0 0 0 0 0 0 0 0 0 0 0 0 0 0 0 0 0 0 0 0 0 0 0 0 0 0 
0 0 0 0 0.987604 8.61565 27.3561 25.4867 48.7935 34.7223 21.4715 14.8114 15.6854 10.7581 4.79691 5.11836 4.6107 3.49943 1.80473 1.86565 0.752904 0.915704 0.682539 0.680644 0.707233 0.183654 0 0.144418 0.228823 0 0.136148 0.222333 0.0266833 0 0.30616 0 0 0 0 0.164979 0 0 0.0274103 0 0 0 0 0 0 0 0.208358 0 0 0.0710803 0 0 0 0 0 0 0 0 0 0 0 0 0 0 0 0 0 0 0 0 0 0 0 0 0 0 0 0 0 0 0 0 0 0 0 0 0 0 0 0 0 0 0 0 0 0 
0 0 0 0 0 0 0 3.29971 0 0 0 0 0 0 0 0 0 0 0 0 0 0 0 0 0 0 0 0 0 0 0 0 0 0 0 0 0 0 0 0 0 0 0 0 0 0 0 0 0 0 0 0 0 0 0 0 0 0 0 0 0 0 0 0 0 0 0 0 0 0 0 0 0 0 0 0 0 0 0 0 0 0 0 0 0 0 0 0 0 0 0 0 0 0 0 0 0 0 0 0 
0 0 0 0 3.18115 30.6328 150.222 98.0821 95.0637 52.9848 39.1663 36.5489 12.5357 10.7097 13.0554 4.86539 11.3977 6.19081 -1.28469 1.76251 3.18797 -4.31358 -2.49446 -3.89173 0 0 0 0.17073 2.25599 0 0 0 0 0 -6.45028 0 0 0 0 0 0 0 0 0 0 0 0 0 0 0 0 0 0 0 0 0 0 0 0 0 0 0 0 0 0 0 0 0 0 0 0 0 0 0 0 0 0 0 0 0 0 0 0 0 0 0 0 0 0 0 0 0 0 0 0 0 0 0 0 0 

100 0 200
0 0 0 0 0 0 0 0 0 0 0 0 0 0 0 0 0 0 0 0 0 0 0 0 0 0 0 0 0 0 0 0 0 0 0 0 0 0 0 0 0 0 0 0 0 0 0 0 0 0 0 0 0 0 0 0 0 0 0 0 0 0 0 0 0 0 0 0 0 0 0 0 0 0 0 0 0 0 0 0 0 0 0 0 0 0 0 0 0 0 0 0 0 0 0 0 0 0 0 0 
0 0 0 0 0 0 0 0 0 0 0 0 0 0 0 0 0 0 0 0 0 0 0 0 0 0 0 0 0 0 0 0 0 0 0 0 0 0 0 0 0 0 0 0 0 0 0 0 0 0 0 0 0 0 0 0 0 0 0 0 0 0 0 0 0 0 0 0 0 0 0 0 0 0 0 0 0 0 0 0 0 0 0 0 0 0 0 0 0 0 0 0 0 0 0 0 0 0 0 0 
0 0 0 0 0 0 0 0 0 0 0 0 0 0 0 0 0 0 0 0 0 0 0 0 0 0 0 0 0 0 0 0 0 0 0 0 0 0 0 0 0 0 0 0 0 0 0 0 0 0 0 0 0 0 0 0 0 0 0 0 0 0 0 0 0 0 0 0 0 0 0 0 0 0 0 0 0 0 0 0 0 0 0 0 0 0 0 0 0 0 0 0 0 0 0 0 0 0 0 0 
0 0 0 0 0 0 0.574054 0 0.576165 0 0 0 0 0 0 0 0 0 0 0 0 0 0 0 0 0 0 0 0 0 0 0 0 0 0 0 0 0 0 0 0 0 0 0 0 0 0 0 0 0 0 0 0 0 0 0 0 0 0 0 0 0 0 0 0 0 0 0 0 0 0 0 0 0 0 0 0 0 0 0 0 0 0 0 0 0 0 0 0 0 0 0 0 0 0 0 0 0 0 0 
0 0 0 0 0 0 0 0 0.288223 0 0 0 0 0 0 0 0 0 0 0 0 0 0 0 0 0 0 0 0 0 0 0 0 0 0 0 0 0 0 0 0 0 0 0 0 0 0 0 0 0 0 0 0 0 0 0 0 0 0 0 0 0 0 0 0 0 0 0 0 0 0 0 0 0 0 0 0 0 0 0 0 0 0 0 0 0 0 0 0 0 0 0 0 0 0 0 0 0 0 0 
0 0 0 0 0 0 0.238187 0 0 0 0 0 0 0 0 0 0 0 0 0 0 0 0 0 0 0 0 0 0 0 0 0 0 0 0 0 0 0 0 0 0 0 0 0 0 0 0 0 0 0 0 0 0 0 0 0 0 0 0 0 0 0 0 0 0 0 0 0 0 0 0 0 0 0 0 0 0 0 0 0 0 0 0 0 0 0 0 0 0 0 0 0 0 0 0 0 0 0 0 0 
0 0 0 0 0 0 0 0.294283 0.180948 0 0 0 0 0 0 0 0 0 0 0 0 0 0 0 0 0 0 0 0 0 0 0 0 0 0 0 0 0 0 0 0 0 0 0 0 0 0 0 0 0 0 0 0 0 0 0 0 0 0 0 0 0 0 0 0 0 0 0 0 0 0 0 0 0 0 0 0 0 0 0 0 0 0 0 0 0 0 0 0 0 0 0 0 0 0 0 0 0 0 0 
0 0 0 0 0 1.24832 8.29487 5.54828 11.7215 6.55256 4.2057 3.70248 1.71848 1.04949 0.923148 0.777714 0.382562 0.499432 0.0270612 0.200121 0 0 0 0 0 0 0 0 0.205298 0 0 0 0 0 0 0 0 0 0 0.0253134 0 0 0 0 0 0 0 0 0 0 0 0 0 0 0 0 0 0 0 0 0 0 0 0 0 0 0 0 0 0 0 0 0 0 0 0 0 0 0 0 0 0 0 0 0 0 0 0 0 0 0 0 0 0 0 0 0 0 0 0 
0 0 0 0 0 0 0 0 0 0 0 0 0 0 0 0 0 0 0 0 0 0 0 0 0 0 0 0 0 0 0 0 0 0 0 0 0 0 0 0 0 0 0 0 0 0 0 0 0 0 0 0 0 0 0 0 0 0 0 0 0 0 0 0 0 0 0 0 0 0 0 0 0 0 0 0 0 0 0 0 0 0 0 0 0 0 0 0 0 0 0 0 0 0 0 0 0 0 0 0 
0 0 0 0 5.45522 -1.92767 7.66545 9.52321 0.317748 7.44532 -3.9159 7.26471 -1.83643 11.9783 3.0117 4.33498 0 2.6204 0 0 0 0 0 0 0 0 0 0 0 0 0 0 0 0 0 0 0 0 0 0 0 0 0 0 0 0 0 0 0 0 0 0 0 0 0 0 0 0 0 0 0 0 0 0 0 0 0 0 0 0 0 0 0 0 0 0 0 0 0 0 0 0 0 0 0 0 0 0 0 0 0 0 0 0 0 0 0 0 0 0 

100 0 200
0 0 0 0 0 0 0 0 0 0 0 0 0 0 0 0 0 0 0 0 0 0 0 0 0 0 0 0 0 0 0 0 0 0 0 0 0 0 0 0 0 0 0 0 0 0 0 0 0 0 0 0 0 0 0 0 0 0 0 0 0 0 0 0 0 0 0 0 0 0 0 0 0 0 0 0 0 0 0 0 0 0 0 0 0 0 0 0 0 0 0 0 0 0 0 0 0 0 0 0 
0 0 0 0 0 0 0 0 0 0 0 0 0 0 0 0 0 0 0 0 0 0 0 0 0 0 0 0 0 0 0 0 0 0 0 0 0 0 0 0 0 0 0 0 0 0 0 0 0 0 0 0 0 0 0 0 0 0 0 0 0 0 0 0 0 0 0 0 0 0 0 0 0 0 0 0 0 0 0 0 0 0 0 0 0 0 0 0 0 0 0 0 0 0 0 0 0 0 0 0 
0 0 0 0 0 0 0 0 0 0 0 0 0 0 0 0 0 0 0 0 0 0 0 0 0 0 0 0 0 0 0 0 0 0 0 0 0 0 0 0 0 0 0 0 0 0 0 0 0 0 0 0 0 0 0 0 0 0 0 0 0 0 0 0 0 0 0 0 0 0 0 0 0 0 0 0 0 0 0 0 0 0 0 0 0 0 0 0 0 0 0 0 0 0 0 0 0 0 0 0 
0 0 0 0 0 0 0 0 0 0 0 0 0 0 0 0 0 0 0 0 0 0 0 0 0 0 0 0 0 0 0 0 0 0 0 0 0 0 0 0 0 0 0 0 0 0 0 0 0 0 0 0 0 0 0 0 0 0 0 0 0 0 0 0 0 0 0 0 0 0 0 0 0 0 0 0 0 0 0 0 0 0 0 0 0 0 0 0 0 0 0 0 0 0 0 0 0 0 0 0 
0 0 0 0 0 0 0 0 0 0 0 0 0 0 0 0 0 0 0 0 0 0 0 0 0 0 0 0 0 0 0 0 0 0 0 0 0 0 0 0 0 0 0 0 0 0 0 0 0 0 0 0 0 0 0 0 0 0 0 0 0 0 0 0 0 0 0 0 0 0 0 0 0 0 0 0 0 0 0 0 0 0 0 0 0 0 0 0 0 0 0 0 0 0 0 0 0 0 0 0 
0 0 0 0 0 0 0.149607 0 0 0 0 0 0 0 0 0 0 0 0 0 0 0 0 0 0 0 0 0 0 0 0 0 0 0 0 0 0 0 0 0 0 0 0 0 0 0 0 0 0 0 0 0 0 0 0 0 0 0 0 0 0 0 0 0 0 0 0 0 0 0 0 0 0 0 0 0 0 0 0 0 0 0 0 0 0 0 0 0 0 0 0 0 0 0 0 0 0 0 0 0 
0 0 0 0 0 0 0 0 0 0 0 0 0 0 0 0 0 0 0 0 0 0 0 0 0 0 0 0 0 0 0 0 0 0 0 0 0 0 0 0 0 0 0 0 0 0 0 0 0 0 0 0 0 0 0 0 0 0 0 0 0 0 0 0 0 0 0 0 0 0 0 0 0 0 0 0 0 0 0 0 0 0 0 0 0 0 0 0 0 0 0 0 0 0 0 0 0 0 0 0 
0 0 0 0 0.404487 0.786216 0.949027 1.27826 1.88716 2.24999 0.697358 0.043064 0.250452 0.246398 0.0510255 0 0 0.0450343 0 0 0 0 0 0 0 0 0 0 0 0 0 0 0 0 0 0 0 0 0 0 0 0 0 0 0 0 0 0 0 0 0 0 0 0 0 0 0 0 0 0 0 0 0 0 0 0 0 0 0 0 0 0 0 0 0 0 0 0 0 0 0 0 0 0 0 0 0 0 0 0 0 0 0 0 0 0 0 0 0 0 
0 0 0 0 0 0 0 0 0 0 0 0 0 0 0 0 0 0 0 0 0 0 0 0 0 0 0 0 0 0 0 0 0 0 0 0 0 0 0 0 0 0 0 0 0 0 0 0 0 0 0 0 0 0 0 0 0 0 0 0 0 0 0 0 0 0 0 0 0 0 0 0 0 0 0 0 0 0 0 0 0 0 0 0 0 0 0 0 0 0 0 0 0 0 0 0 0 0 0 0 
0 0 0 0 0 0 5.41786 0 -1.54246 2.53484 1.77517 0 -0.805248 0 0 0 0 0 0 0 0 0 0 0 0 0 0 0 0 0 0 0 0 0 0 0 0 0 0 0 0 0 0 0 0 0 0 0 0 0 0 0 0 0 0 0 0 0 0 0 0 0 0 0 0 0 0 0 0 0 0 0 0 0 0 0 0 0 0 0 0 0 0 0 0 0 0 0 0 0 0 0 0 0 0 0 0 0 0 0 

100 0 200
0 0 0 0 0 0 0 0 0 0 0 0 0 0 0 0 0 0 0 0 0 0 0 0 0 0 0 0 0 0 0 0 0 0 0 0 0 0 0 0 0 0 0 0 0 0 0 0 0 0 0 0 0 0 0 0 0 0 0 0 0 0 0 0 0 0 0 0 0 0 0 0 0 0 0 0 0 0 0 0 0 0 0 0 0 0 0 0 0 0 0 0 0 0 0 0 0 0 0 0 
0 0 0 0 0 0 0 0 0 0 0 0 0 0 0 0 0 0 0 0 0 0 0 0 0 0 0 0 0 0 0 0 0 0 0 0 0 0 0 0 0 0 0 0 0 0 0 0 0 0 0 0 0 0 0 0 0 0 0 0 0 0 0 0 0 0 0 0 0 0 0 0 0 0 0 0 0 0 0 0 0 0 0 0 0 0 0 0 0 0 0 0 0 0 0 0 0 0 0 0 
0 0 0 0 0 0 0 0 0 0 0 0 0 0 0 0 0 0 0 0 0 0 0 0 0 0 0 0 0 0 0 0 0 0 0 0 0 0 0 0 0 0 0 0 0 0 0 0 0 0 0 0 0 0 0 0 0 0 0 0 0 0 0 0 0 0 0 0 0 0 0 0 0 0 0 0 0 0 0 0 0 0 0 0 0 0 0 0 0 0 0 0 0 0 0 0 0 0 0 0 
0 0 0 0 0 0 0 0 0 0 0 0 0 0 0 0 0 0 0 0 0 0 0 0 0 0 0 0 0 0 0 0 0 0 0 0 0 0 0 0 0 0 0 0 0 0 0 0 0 0 0 0 0 0 0 0 0 0 0 0 0 0 0 0 0 0 0 0 0 0 0 0 0 0 0 0 0 0 0 0 0 0 0 0 0 0 0 0 0 0 0 0 0 0 0 0 0 0 0 0 
0 0 0 0 0 0 0 0 0 0 0 0 0 0 0 0 0 0 0 0 0 0 0 0 0 0 0 0 0 0 0 0 0 0 0 0 0 0 0 0 0 0 0 0 0 0 0 0 0 0 0 0 0 0 0 0 0 0 0 0 0 0 0 0 0 0 0 0 0 0 0 0 0 0 0 0 0 0 0 0 0 0 0 0 0 0 0 0 0 0 0 0 0 0 0 0 0 0 0 0 
0 0 0 0 0 0 0 0 0 0 0 0 0 0 0 0 0 0 0 0 0 0 0 0 0 0 0 0 0 0 0 0 0 0 0 0 0 0 0 0 0 0 0 0 0 0 0 0 0 0 0 0 0 0 0 0 0 0 0 0 0 0 0 0 0 0 0 0 0 0 0 0 0 0 0 0 0 0 0 0 0 0 0 0 0 0 0 0 0 0 0 0 0 0 0 0 0 0 0 0 
0 0 0 0 0 0 0 0 0 0 0 0 0 0 0 0 0 0 0 0 0 0 0 0 0 0 0 0 0 0 0 0 0 0 0 0 0 0 0 0 0 0 0 0 0 0 0 0 0 0 0 0 0 0 0 0 0 0 0 0 0 0 0 0 0 0 0 0 0 0 0 0 0 0 0 0 0 0 0 0 0 0 0 0 0 0 0 0 0 0 0 0 0 0 0 0 0 0 0 0 
0 0 0 0 0.168688 0.126103 0.26539 0 0.0528767 0.0682893 0.061034 0 0 0 0 0 0 0 0 0 0 0 0 0 0 0 0 0 0 0 0 0 0 0 0 0 0 0 0 0 0 0 0 0 0 0 0 0 0 0 0 0 0 0 0 0 0 0 0 0 0 0 0 0 0 0 0 0 0 0 0 0 0 0 0 0 0 0 0 0 0 0 0 0 0 0 0 0 0 0 0 0 0 0 0 0 0 0 0 0 
0 0 0 0 0 0 0 0 0 0 0 0 0 0 0 0 0 0 0 0 0 0 0 0 0 0 0 0 0 0 0 0 0 0 0 0 0 0 0 0 0 0 0 0 0 0 0 0 0 0 0 0 0 0 0 0 0 0 0 0 0 0 0 0 0 0 0 0 0 0 0 0 0 0 0 0 0 0 0 0 0 0 0 0 0 0 0 0 0 0 0 0 0 0 0 0 0 0 0 0 
0 0 0 0 0 0 0 0 0 -1.12719 0.00423319 0 0 0 0 0 0 0 0 0 0 0 0 0 0 0 0 0 0 0 0 0 0 0 0 0 0 0 0 0 0 0 0 0 0 0 0 0 0 0 0 0 0 0 0 0 0 0 0 0 0 0 0 0 0 0 0 0 0 0 0 0 0 0 0 0 0 0 0 0 0 0 0 0 0 0 0 0 0 0 0 0 0 0 0 0 0 0 0 0 

100 0 200
0 0 0 0 0 0 0 0 0 0 0 0 0 0 0 0 0 0 0 0 0 0 0 0 0 0 0 0 0 0 0 0 0 0 0 0 0 0 0 0 0 0 0 0 0 0 0 0 0 0 0 0 0 0 0 0 0 0 0 0 0 0 0 0 0 0 0 0 0 0 0 0 0 0 0 0 0 0 0 0 0 0 0 0 0 0 0 0 0 0 0 0 0 0 0 0 0 0 0 0 
0 0 0 0 0 0 0 0 0 0 0 0 0 0 0 0 0 0 0 0 0 0 0 0 0 0 0 0 0 0 0 0 0 0 0 0 0 0 0 0 0 0 0 0 0 0 0 0 0 0 0 0 0 0 0 0 0 0 0 0 0 0 0 0 0 0 0 0 0 0 0 0 0 0 0 0 0 0 0 0 0 0 0 0 0 0 0 0 0 0 0 0 0 0 0 0 0 0 0 0 
0 0 0 0 0 0 0 0 0 0 0 0 0 0 0 0 0 0 0 0 0 0 0 0 0 0 0 0 0 0 0 0 0 0 0 0 0 0 0 0 0 0 0 0 0 0 0 0 0 0 0 0 0 0 0 0 0 0 0 0 0 0 0 0 0 0 0 0 0 0 0 0 0 0 0 0 0 0 0 0 0 0 0 0 0 0 0 0 0 0 0 0 0 0 0 0 0 0 0 0 
0 0 0 0 0 0 0 0 0 0 0 0 0 0 0 0 0 0 0 0 0 0 0 0 0 0 0 0 0 0 0 0 0 0 0 0 0 0 0 0 0 0 0 0 0 0 0 0 0 0 0 0 0 0 0 0 0 0 0 0 0 0 0 0 0 0 0 0 0 0 0 0 0 0 0 0 0 0 0 0 0 0 0 0 0 0 0 0 0 0 0 0 0 0 0 0 0 0 0 0 
0 0 0 0 0 0 0 0 0 0 0 0 0 0 0 0 0 0 0 0 0 0 0 0 0 0 0 0 0 0 0 0 0 0 0 0 0 0 0 0 0 0 0 0 0 0 0 0 0 0 0 0 0 0 0 0 0 0 0 0 0 0 0 0 0 0 0 0 0 0 0 0 0 0 0 0 0 0 0 0 0 0 0 0 0 0 0 0 0 0 0 0 0 0 0 0 0 0 0 0 
0 0 0 0 0 0 0 0 0 0 0 0 0 0 0 0 0 0 0 0 0 0 0 0 0 0 0 0 0 0 0 0 0 0 0 0 0 0 0 0 0 0 0 0 0 0 0 0 0 0 0 0 0 0 0 0 0 0 0 0 0 0 0 0 0 0 0 0 0 0 0 0 0 0 0 0 0 0 0 0 0 0 0 0 0 0 0 0 0 0 0 0 0 0 0 0 0 0 0 0 
0 0 0 0 0 0 0 0 0 0 0 0 0 0 0 0 0 0 0 0 0 0 0 0 0 0 0 0 0 0 0 0 0 0 0 0 0 0 0 0 0 0 0 0 0 0 0 0 0 0 0 0 0 0 0 0 0 0 0 0 0 0 0 0 0 0 0 0 0 0 0 0 0 0 0 0 0 0 0 0 0 0 0 0 0 0 0 0 0 0 0 0 0 0 0 0 0 0 0 0 
0 0 0 0 0 0 0 0 0 0 0 0 0 0 0 0 0 0 0 0 0 0 0 0 0 0 0 0 0 0 0 0 0 0 0 0 0 0 0 0 0 0 0 0 0 0 0 0 0 0 0 0 0 0 0 0 0 0 0 0 0 0 0 0 0 0 0 0 0 0 0 0 0 0 0 0 0 0 0 0 0 0 0 0 0 0 0 0 0 0 0 0 0 0 0 0 0 0 0 0 
0 0 0 0 0 0 0 0 0 0 0 0 0 0 0 0 0 0 0 0 0 0 0 0 0 0 0 0 0 0 0 0 0 0 0 0 0 0 0 0 0 0 0 0 0 0 0 0 0 0 0 0 0 0 0 0 0 0 0 0 0 0 0 0 0 0 0 0 0 0 0 0 0 0 0 0 0 0 0 0 0 0 0 0 0 0 0 0 0 0 0 0 0 0 0 0 0 0 0 0 
0 0 0 0 0 0 0 0 0 0 0 0 0 0 0 0 -0.000807602 0 0 0 0 0 0 0 0 0 0 0 0 0 0 0 0 0 0 0 0 0 0 0 0 0 0 0 0 0 0 0 0 0 0 0 0 0 0 0 0 0 0 0 0 0 0 0 0 0 0 0 0 0 0 0 0 0 0 0 0 0 0 0 0 0 0 0 0 0 0 0 0 0 0 0 0 0 0 0 0 0 0 0 

100 0 200
0 0 0 0 0 0 0 0 0 0 0 0 0 0 0 0 0 0 0 0 0 0 0 0 0 0 0 0 0 0 0 0 0 0 0 0 0 0 0 0 0 0 0 0 0 0 0 0 0 0 0 0 0 0 0 0 0 0 0 0 0 0 0 0 0 0 0 0 0 0 0 0 0 0 0 0 0 0 0 0 0 0 0 0 0 0 0 0 0 0 0 0 0 0 0 0 0 0 0 0 
0 0 0 0 0 0 0 0 0 0 0 0 0 0 0 0 0 0 0 0 0 0 0 0 0 0 0 0 0 0 0 0 0 0 0 0 0 0 0 0 0 0 0 0 0 0 0 0 0 0 0 0 0 0 0 0 0 0 0 0 0 0 0 0 0 0 0 0 0 0 0 0 0 0 0 0 0 0 0 0 0 0 0 0 0 0 0 0 0 0 0 0 0 0 0 0 0 0 0 0 
0 0 0 0 0 0 0 0 0 0 0 0 0 0 0 0 0 0 0 0 0 0 0 0 0 0 0 0 0 0 0 0 0 0 0 0 0 0 0 0 0 0 0 0 0 0 0 0 0 0 0 0 0 0 0 0 0 0 0 0 0 0 0 0 0 0 0 0 0 0 0 0 0 0 0 0 0 0 0 0 0 0 0 0 0 0 0 0 0 0 0 0 0 0 0 0 0 0 0 0 
0 0 0 0 0 0 0 0 0 0 0 0 0 0 0 0 0 0 0 0 0 0 0 0 0 0 0 0 0 0 0 0 0 0 0 0 0 0 0 0 0 0 0 0 0 0 0 0 0 0 0 0 0 0 0 0 0 0 0 0 0 0 0 0 0 0 0 0 0 0 0 0 0 0 0 0 0 0 0 0 0 0 0 0 0 0 0 0 0 0 0 0 0 0 0 0 0 0 0 0 
0 0 0 0 0 0 0 0 0 0 0 0 0 0 0 0 0 0 0 0 0 0 0 0 0 0 0 0 0 0 0 0 0 0 0 0 0 0 0 0 0 0 0 0 0 0 0 0 0 0 0 0 0 0 0 0 0 0 0 0 0 0 0 0 0 0 0 0 0 0 0 0 0 0 0 0 0 0 0 0 0 0 0 0 0 0 0 0 0 0 0 0 0 0 0 0 0 0 0 0 
0 0 0 0 0 0 0 0 0 0 0 0 0 0 0 0 0 0 0 0 0 0 0 0 0 0 0 0 0 0 0 0 0 0 0 0 0 0 0 0 0 0 0 0 0 0 0 0 0 0 0 0 0 0 0 0 0 0 0 0 0 0 0 0 0 0 0 0 0 0 0 0 0 0 0 0 0 0 0 0 0 0 0 0 0 0 0 0 0 0 0 0 0 0 0 0 0 0 0 0 
0 0 0 0 0 0 0 0 0 0 0 0 0 0 0 0 0 0 0 0 0 0 0 0 0 0 0 0 0 0 0 0 0 0 0 0 0 0 0 0 0 0 0 0 0 0 0 0 0 0 0 0 0 0 0 0 0 0 0 0 0 0 0 0 0 0 0 0 0 0 0 0 0 0 0 0 0 0 0 0 0 0 0 0 0 0 0 0 0 0 0 0 0 0 0 0 0 0 0 0 
0 0 0 0 0 0 0 0 0 0 0 0 0 0 0 0 0 0 0 0 0 0 0 0 0 0 0 0 0 0 0 0 0 0 0 0 0 0 0 0 0 0 0 0 0 0 0 0 0 0 0 0 0 0 0 0 0 0 0 0 0 0 0 0 0 0 0 0 0 0 0 0 0 0 0 0 0 0 0 0 0 0 0 0 0 0 0 0 0 0 0 0 0 0 0 0 0 0 0 0 
0 0 0 0 0 0 0 0 0 0 0 0 0 0 0 0 0 0 0 0 0 0 0 0 0 0 0 0 0 0 0 0 0 0 0 0 0 0 0 0 0 0 0 0 0 0 0 0 0 0 0 0 0 0 0 0 0 0 0 0 0 0 0 0 0 0 0 0 0 0 0 0 0 0 0 0 0 0 0 0 0 0 0 0 0 0 0 0 0 0 0 0 0 0 0 0 0 0 0 0 
0 0 0 0 0 0 0 0 0 0 0 0 0 0 0 0 0 0 0 0 0 0 0 0 0 0 0 0 0 0 0 0 0 0 0 0 0 0 0 0 0 0 0 0 0 0 0 0 0 0 0 0 0 0 0 0 0 0 0 0 0 0 0 0 0 0 0 0 0 0 0 0 0 0 0 0 0 0 0 0 0 0 0 0 0 0 0 0 0 0 0 0 0 0 0 0 0 0 0 0 
