1
Photon_
#phi
phi_dr_cut_low_pT_order
9
0
0
10
QCD W + Jets WW WZ ZZ #bar{t}W tW t#bar{t} Drell Yan #rightarrow #tau#tau Drell Yan #rightarrow #mu#mu 

100 -4 4
0 0 0 0 0 0 0 0 0 0 0 0 0 0 0 0 0 0 0 0 0 0 0 0 0 0 0 0 0 0 0 0 0 0 0 0 0.186 0 0 0 0 0 0 0 0 0 0 0 0 0 0 0 0 0 0 0 0 0 0 0 0 0 0 0 0 0 0 0 0 0 0 0 0 0 0 0 0 0 0 0 0 0 0 0.00723985 0 0 0 0 0 0 0 0 0 0 0 0 0 0 0 0 
0 0 0 0 0 0 0 0 0 0 0 0 0 0 0 0 0 0 0 0 0 0 0 7.92828 0 -7.21232 0 0 0 0 0 5.02948 0 0 0 0 5.39909 0 0 6.17534 0 0 0 0 -4.13159 0 0 -4.1395 0 0 8.46247 0 0 0 0 0 0 5.76489 0 0 0 0 0 0 0 0 -9.62354 0 0 5.05462 0 0 0 5.32528 0 0 0 0 -0.818573 0 0 0 0 0 0 0 0 0 0 -4.58115 0 0 0 0 0 0 0 0 0 0 
0 0 0 0 0 0 0 0 0 0 0 0 0.49624 1.16262 2.30611 0 0.804073 0.522154 3.23652 2.04117 0.916442 0.559788 0.926121 1.34173 3.49613 0.339074 1.13253 0 1.01786 0.951115 2.93705 0.629579 1.52425 1.70143 0 0.568113 1.3308 0 0.601174 0.686925 0.0483839 0.726889 2.39653 1.35156 0.339288 1.98613 0.501637 0.708822 1.23481 2.05084 1.27095 0.603932 1.06402 1.91165 0.70349 0.953824 1.76474 0 0 0 0 1.95806 0 4.30583 0.839303 1.60052 2.8481 2.69146 0.684678 0.548116 2.49622 2.45128 1.67535 0.623039 1.59171 1.52879 4.23955 0.902958 0.92682 0.715942 0.233413 2.4423 0.644755 2.44915 1.1118 1.39303 2.15549 1.68273 0 0.542971 0 0 0 0 0 0 0 0 0 0 
0 0 0 0 0 0 0 0 0 0 0 0 1.06117 2.50949 2.54244 1.96207 0.58837 1.63571 1.00153 1.60951 1.21856 0.531044 1.98152 0.594135 0 1.09203 1.8539 0 0 1.34612 0.87257 1.17065 2.36253 0.591996 1.36895 0 0.027517 0 2.26336 0.523131 0.270525 2.20151 1.65524 0.785861 1.42303 2.47168 0 0.751823 1.51579 1.25655 1.70298 1.27602 0.507529 0.642225 1.02602 0.547548 1.30754 1.69743 0.506569 0 1.01456 0.608227 4.22109 1.58627 0.38778 0 2.8363 0 1.03746 2.5774 0.0450248 1.1438 1.27681 0.83059 0.811157 1.8546 0.755706 0.593934 0.506596 0.268927 0.941138 0.00133645 0.353805 0 0.283793 0.993482 0.597245 1.37027 0.100729 0 0 0 0 0 0 0 0 0 0 0 
0 0 0 0 0 0 0 0 0 0 0 0 0 0 0.659367 0 3.36023 0.418039 1.81143 0 0 0 0.143631 2.67061 1.29596 1.35875 1.41682 0.54446 0.54456 0 0.514547 0 1.52457 0.220419 1.53165 0 0.549893 1.01442 1.2161 0 0.844521 1.5834 0.73152 1.44148 1.30102 1.67749 0.54617 1.45803 0 1.45513 1.74083 0.589478 0.476672 0.479483 0 1.05346 1.31472 0 0.000714464 0.601893 1.20074 2.48953 1.85904 1.27673 0.574415 0.853838 1.24488 1.21246 0 0.627458 1.09712 0.835808 1.3761 0.69143 0.690196 0.580024 0.456988 0 1.45746 0 0.650843 0.727091 1.5903 0 0 1.09825 0 3.49151 0.530919 1.17797 1.74399 0 0 0 0 0 0 0 0 0 
0 0 0 0 0 0 0 0 0 0 0 0 0.913462 0.156229 0.485771 0.30119 0.338509 0.396625 0.371979 1.37265 0.559248 1.1051 1.04162 0.19035 0.718909 0.359234 0.650704 0.646246 1.02515 0.343346 1.01255 0.654486 0.581239 0.375414 0.367718 0.186402 0.206287 0.10526 0.849726 0 0.968766 0.564867 0.806226 0.437264 0.350259 0.593412 0.769239 0.416392 0.719176 0.0587166 0.906263 0.235501 0.798505 0.89677 0.845449 0.75459 0.639914 0.00310711 0.17441 0.712715 0.34028 0.477793 0.670831 0.472352 1.06551 1.07024 0.304288 0.743417 0.683332 0.48162 0.459031 0.68771 1.50734 0.336021 1.51182 0.497123 0.75607 0.784607 1.41789 0.659264 0.685962 0.411687 1.42952 0.305796 1.19593 0.183274 0.622199 0.357285 0.746415 1.36609 0 0 0 0 0 0 0 0 0 0 
0 0 0 0 0 0 0 0 0 0 0 0 0.727107 0.191452 0.769548 0.925553 0.667033 0.616088 0.543607 0.994911 0.376884 0.872105 0.932303 0.61436 0.399697 0.27471 0.690489 1.19611 0.195277 0 0.228278 0.6798 0.58209 1.17178 0 0 0.603879 1.94001 0.871725 0.357206 0.710402 0.791492 0.140783 0.772289 0.630005 0.557661 1.24054 0.67378 0.276404 0.330508 1.22887 0.491968 0.207789 0.804955 0.375434 0.377113 0.409294 0.692778 0.369968 1.03438 0.608398 1.17449 0.31785 0.157586 0.562382 0.614847 0.461703 0.610237 0.326656 0.733113 0.420964 1.47875 0.361132 0.202631 0.389326 0.636364 1.02368 0.978264 0.985931 1.22064 0.683411 0.295737 0.942673 0.33574 0.73089 0.717993 0.902378 0.374356 0.764236 0.564354 0.205701 0 0 0 0 0 0 0 0 0 
0 0 0 0 0 0 0 0 0 0 0 1.54624 9.86481 11.9055 13.5886 8.80328 8.67259 10.5131 10.3194 7.5547 9.76173 10.8532 13.5722 8.21936 10.621 7.0249 12.4942 10.0107 9.44027 9.89975 9.67579 12.1044 9.98279 10.0641 9.27023 8.56387 10.625 8.75925 9.8503 8.4912 8.34875 12.4951 12.3096 10.0921 9.80445 8.38733 10.9969 11.5644 9.73024 10.427 11.9011 9.11948 9.07564 9.30179 12.0656 10.7899 9.33615 9.4585 12.9197 10.4518 8.69896 9.96488 11.2336 10.6978 10.1019 10.3677 8.75819 9.04513 8.12906 12.1127 9.28889 11.9315 11.1877 8.76116 9.74445 9.14244 8.11268 11.1028 10.3687 10.912 10.1558 9.00561 8.66595 13.6185 8.90788 9.4005 9.24336 12.3307 8.15826 11.535 2.99649 0 0 0 0 0 0 0 0 0 
0 0 0 0 0 0 0 0 0 0 0 0 0 0 2.1894 0 0 0 0 0 0 0 0 0 0 0 0 0 0 0 0 0 -2.59202 0 0 0 0 0 0 0 0 0 0 0 0 2.09665 0 0 0 0 1.61704 0 0 0 0 2.06579 0 0 0 0 0 0 0 0 0 3.86385 0 0 0 2.0277 0 0 0 0 0 0 0 0 0 0 2.12575 0 0 0 0 0 0 0 0 0 0 0 0 0 0 0 0 0 0 0 
0 0 0 0 0 0 0 0 0 0 0 171.854 892.645 939.306 827.248 988.833 798.168 893.564 865.487 795.877 776.085 838.046 859.869 918.025 829.305 861.903 928.343 922.213 918.468 843.408 931.953 846.882 821.99 750.501 824.407 848.774 884.837 745.578 990.964 964.468 950.244 806.206 838.726 823.272 1002.38 807.333 848.869 817.905 901.463 999.717 872.561 773.325 921.335 886.158 801.569 840.986 1008 1023.46 845.601 844.359 845.407 852.548 855.483 873.231 861.523 938.032 774.382 842.467 912.934 767.674 742.068 960.573 914.137 838.601 727.012 853.264 909.536 908.621 949.839 781.114 979.747 950.42 914.742 797.699 936.891 816.042 880.446 871.374 928.53 947.349 199.348 0 0 0 0 0 0 0 0 0 

100 -4 4
0 0 0 0 0 0 0 0 0 0 0 0 0 0 0 0 0 0 0 0 0 0 0 0 0 0 0 0 0 0 0 0 0 0 0 0 0 0 0 0 0 0 0 0 0 0 0 0 0 0 0 0 0 0 0 0 0 0 0 0 0 0 0 0 0 0 0 0 0 0 0 0 0 0 0 0 0 0 0 0 0 0 0 0 0 0 0 0 0 0 0 0 0 0 0 0 0 0 0 0 
0 0 0 0 0 0 0 0 0 0 0 0 0 0 0 0 0 0 0 0 0 0 0 0 0 0 0 0 0 0 0 0 0 0 0 0 0 0 0 0 0 0 0 0 0 0 0 0 0 0 0 0 0 0 0 0 0 0 0 0 0 3.57023 0 0 0 0 0 0 -3.7282 0 0 0 0 0 2.85709 0 0 0 0 0 0 0 0 0 0 0 0 0 -3.88059 0 0 0 0 0 0 0 0 0 0 0 
0 0 0 0 0 0 0 0 0 0 0 0 0 0 0 0 0 0.557019 0 0 0 0 0 0 0 0 0 0 0.551146 0 0 0 0 0 0 0 0 0.61624 0 0 0 0 0.503681 0 0.530633 0 0 0 0.644968 0 0 0 0 0 0 0 0 0 0 0 0 0.858061 0 0 0 0 0 0 0 0.808131 1.88591 0 0 0 0 0 0 0.716388 0 0 0 0 1.06773 0 0 0 0 0 0 1.08672 0 0 0 0 0 0 0 0 0 0 
0 0 0 0 0 0 0 0 0 0 0 0 0 0 1.04764 0.599284 1.00322 0 0 0.629438 0.490287 0 0.542731 0.573782 0.737177 0 0 0.531999 0.569677 0.738566 0 1.3655 0.226536 0 0.54766 0 0.65703 0 0.483762 0 0.0331264 0 0 0 0.425524 0.223892 0 0.612779 0 1.5643 0 0 0 0 1.87016 0.68555 0 0.587072 0.584743 1.07668 0 0.00506668 0.494483 0.514821 0 1.9997 0.740433 0 0.485391 0 1.40067 0.466949 0.653539 0 0.269302 0 0 0 0 0.313632 0.638182 0.00265726 1.61112 0 0 0.470028 0.528804 0.511976 1.03161 0.320013 0.477642 0 0 0 0 0 0 0 0 0 
0 0 0 0 0 0 0 0 0 0 0 0 1.01876 0 0 0 0.612455 0 0 0.315935 0 0 1.22807 0 0 0 0 0.73056 0 0.52168 0 0.633799 0 0.539147 0 0 0 0 1.0016 0 0 0 0 0 0.682559 0.630638 0 0.882311 0.5538 0.00954033 0 0 0.613367 0 0 0.535941 0 0.237567 0 1.63674 0.189201 0 0.656914 0 0 0 0 1.90777 0 0 1.50263 0 0.567263 0 0 0 0.563741 0 0 0 0 0.591203 0 0 0 0 0 0 0 0.597827 0 0 0 0 0 0 0 0 0 0 
0 0 0 0 0 0 0 0 0 0 0 0 0.201149 0.519413 0 0.0885221 0 0 0 0.212124 0 0 0 0 0 0.226561 0.749638 0 0.335769 0.225366 0.284381 0.169256 0.191825 0 0.529349 0.186314 0.075085 0.0106976 0.208323 0 0 0.183439 0.260873 0.33954 0.208872 0.45205 0.161613 0 0 0.211479 0.262087 0.0890339 0.160899 0 2.7547e-05 0.238652 0.207805 0 0.0149549 0 0 0.432703 0.157923 0.301337 0.116859 0 0.39141 0 0 0.206712 0 0.187982 0 0.000873268 0 0.214592 0.56047 0 0 0 0 0 0 0.173289 0.11794 0.426457 0 0 0.225308 0.197591 5.8671e-05 0 0 0 0 0 0 0 0 0 
0 0 0 0 0 0 0 0 0 0 0 0.139257 0.167182 0 0 0.283312 0.450882 0 0 0.172578 0 0.189297 0 0.185283 0.489117 0.367459 0.306807 0 0 0 0 0 0.0149948 0.239069 0.306702 0.178154 0.401418 0 0.150021 0 0 0 0 0.168149 0 0.0147679 0.176589 0 0 0 0.210553 0 0 0 0.190901 0 0 0 0 0.187007 0.137719 0.12922 0 0.456719 0.510337 0.280857 0.557979 0.188689 0.0441217 0.448677 0.23999 0 0.212381 0 0 0.238815 0.18784 0 0.0890867 0 0 0 0.169748 0 0.177474 0.200237 0 0.139566 0.307755 0 0 0 0 0 0 0 0 0 0 0 
0 0 0 0 0 0 0 0 0 0 0 0.482398 3.578 4.27177 3.59837 2.21397 3.16496 4.10263 4.24526 2.79858 3.76376 3.97065 3.21468 4.30042 4.61644 3.51306 2.2226 4.10785 3.12357 2.89333 3.76298 1.67696 3.78314 3.64668 3.4193 4.32693 2.38771 3.60992 3.32817 2.51434 2.99618 4.20645 4.86573 2.85352 2.91015 3.90328 3.33991 3.56919 2.32553 4.41837 4.34883 5.1507 3.56166 3.94725 6.5832 3.09598 3.09084 1.67577 3.84319 4.1716 5.42575 3.10198 2.57114 4.40518 3.11954 3.43462 4.12514 4.41937 3.14422 3.29809 3.6782 4.49885 2.97483 1.68202 3.32159 3.2493 3.47136 3.83538 2.20052 3.03674 4.15243 2.89331 3.89591 3.25115 4.27396 1.9288 3.18727 3.91037 2.88994 2.76394 0.34588 0 0 0 0 0 0 0 0 0 
0 0 0 0 0 0 0 0 0 0 0 0 0 0 0 0 0 0 0 0 0 0 0 0 0 0 0 0 0 0 0 0 0 0 0 0 0 0 0 0 0 0 0 0 0 0 0 0 0 0 0 0 0 0 0 0.0121947 0 0 0 0 -2.87205 0 0 0 0 0 0 0 0 0 0 0 0 0 0 0 0 0 0 0 0 0 0 0 0 0 0 0 0 0 0 0 0 0 0 0 0 0 0 0 
0 0 0 0 0 0 0 0 0 0 0 17.9955 29.9 67.7334 72.8136 57.6877 87.8416 79.5533 90.3738 47.3176 57.56 61.2378 59.4884 63.0676 52.5011 78.7401 51.5109 74.0452 61.8718 56.8152 88.1135 63.4332 58.5714 45.5743 78.5695 50.1756 64.6707 87.2985 67.3165 59.4719 97.3285 104.675 56.1861 87.3655 86.0431 10.5037 43.5069 57.0116 38.1464 68.8453 77.0761 79.0015 24.552 87.53 65.2707 67.3477 61.5557 50.0894 45.039 51.1081 35.1426 35.0174 48.7315 56.2206 56.5242 55.9603 61.6679 56.9223 78.2719 69.6063 67.7679 53.0211 69.0227 47.1774 61.3289 29.6501 116.117 47.4086 67.4945 75.4084 90.1759 56.7669 53.5609 78.1764 63.9904 69.1364 87.5161 90.0232 72.7839 108.021 4.61203 0 0 0 0 0 0 0 0 0 

100 -4 4
0 0 0 0 0 0 0 0 0 0 0 0 0 0 0 0 0 0 0 0 0 0 0 0 0 0 0 0 0 0 0 0 0 0 0 0 0 0 0 0 0 0 0 0 0 0 0 0 0 0 0 0 0 0 0 0 0 0 0 0 0 0 0 0 0 0 0 0 0 0 0 0 0 0 0 0 0 0 0 0 0 0 0 0 0 0 0 0 0 0 0 0 0 0 0 0 0 0 0 0 
0 0 0 0 0 0 0 0 0 0 0 0 0 0 0 0 0 0 0 0 0 0 0 0 0 0 0 0 0 0 0 0 0 0 0 0 0 0 0 0 0 0 0 0 0 0 0 0 0 0 0 0 0 0 0 0 0 0 0 0 0 0 0 0 0 0 0 0 0 0 0 0 0 0 0 0 0 0 0 0 0 0 0 0 0 0 0 0 0 0 0 0 0 0 0 0 0 0 0 0 
0 0 0 0 0 0 0 0 0 0 0 0 0 0 0 0 0 0 0 0 0 0 0 0 0 0 0 0 0 0 0 0 0 0 0 0 0 0 0 0 0 0 0 0 0 0 0 0 0 0 0 0 0 0 0 0 0 0 0 0 0 0 0 0 0 0 0 0 0 0 0 0 0 0 0 0 0 0 0 0 0 0 0 0 0 0 0 0 0 0 0 0 0 0 0 0 0 0 0 0 
0 0 0 0 0 0 0 0 0 0 0 0 0 0 0 0 0 0 0 0 0 0 0 0 0 0 0 0 0 0 0 0.749458 0 0 0 0 0 0 0 0 0 0 0 0 0 0 0 0 0 0 0 0 0 0 0 0 0 0 0 0 0 0 0 0 0 0 0 0 0 0 0 0 0 0 0 0 0 0 0 0 0 0 0 0 0 0 0 0 0 0 0 0 0 0 0 0 0 0 0 0 
0 0 0 0 0 0 0 0 0 0 0 0 0 0.788526 0 0 0 0 0 0 0 0 0 0.722575 0.498005 0 0 0 0 1.29113 0 0 0 0 0 0 0 0 0 0 0 0 0 0 0 0.902029 0 0 0 0 0 0 0 0 0 0 0 0 0 0 0 0 0 0 0 0 0 0 0 0 0 0 0 0 0 0 0 0.693045 0.976196 0 0 0 0 0 0 0 0 0 0 0 0 0 0 0 0 0 0 0 0 0 
0 0 0 0 0 0 0 0 0 0 0 0 0 0 0.207076 0 0 0 0 0 0 0 0 0 0 0 0 0 0 0 0 0 0.000868063 0 0.114676 0 0 0.259786 0.187482 0 0 0 0 0 0 0 0 0.117498 0 0 0.150737 0 0 0 0 0 0 0 0 0.215244 0 0 0.140836 0 0 0 0.000438866 0 0 0 0 0 0 0 0 0.207413 0 0.172001 0.168488 0 0 0 0 0 0 0 0 0 0 0 0 0 0 0 0 0 0 0 0 0 
0 0 0 0 0 0 0 0 0 0 0 0 0.229079 0.165386 0 0 0 0 0.125898 0.309702 0 0 0 0.00927685 0 0 0.140802 0 0 0 0 0 0 0 0.620526 0.316748 0.413339 0 0 0 0 0 0.118046 0 0 0.214574 0 0 0.226804 0 0 0 0 0 0 0.153965 0 0 0 0 0 0 0 0 0 0 0 0 0 0 0 0 0 0 0 0 0 0 0 0 0 0.0887634 0 0 0 0 0 0 0 0 0 0 0 0 0 0 0 0 0 0 
0 0 0 0 0 0 0 0 0 0 0 0.336873 0.78639 1.02595 0.701484 0.660622 0.670012 0.565154 1.269 1.07708 0.735658 0.679853 0.556473 0.605763 0.79175 0.372699 1.39343 0.368071 1.08204 1.33813 1.44764 0.544589 1.0659 1.07651 0.727637 1.01962 1.17957 0.254303 1.33315 0.897531 0.796477 1.25917 0.330685 0.511297 0.950542 0.522821 1.20311 1.08751 1.32031 0.536503 1.46692 0.775322 0.539241 0.537636 0.59553 0.757496 0.804478 1.45222 0.40276 0.353122 1.3658 0.426872 1.79498 1.09014 0.335486 0.420184 1.0791 1.10276 0.94318 0.834327 0.653734 1.05111 0.943154 0.586177 0.916438 0.91815 1.07387 0.85271 1.00124 1.10057 0.680333 1.32003 1.09697 0.586511 0.705701 1.70344 1.04974 0.68498 1.06261 1.11544 0.0545741 0 0 0 0 0 0 0 0 0 
0 0 0 0 0 0 0 0 0 0 0 0 0 0 0 0 0 0 0 0 0 0 0 0 0 0 0 0 0 0 0 0 0 0 0 0 0 0 0 0 0 0 0 0 0 0 0 0 0 0 0 0 0 0 0 0 0 0 0 0 0 0 0 0 0 0 0 0 0 0 0 0 0 0 0 0 0 0 0 0 0 0 0 0 0 0 0 0 0 0 0 0 0 0 0 0 0 0 0 0 
0 0 0 0 0 0 0 0 0 0 0 0 5.16455 1.13652 12.8973 4.72297 4.07262 13.9254 9.13846 5.96676 17.4235 2.76493 12.6752 13.8507 2.47943 -0.846831 -0.31645 7.0535 10.1803 11.8046 19.1556 13.147 9.27951 1.67023 7.93467 0.291674 10.9332 -0.0397856 17.4445 19.7057 5.38925 19.1559 8.3031 -2.11265 9.42873 8.17971 -1.38391 18.1312 13.3195 -0.409088 9.02055 17.8516 9.60554 14.672 -9.2406 8.76196 -4.61697 7.98296 11.4957 8.33717 6.14094 12.6599 7.53481 2.17923 11.0312 24.6204 1.64044 2.70541 9.12632 5.00736 -1.88455 7.72443 7.22916 8.97506 9.51053 -3.15176 11.6458 12.9281 9.84165 2.13969 8.61432 11.8579 -0.117622 6.95348 -3.96453 4.42258 7.35456 5.30275 13.2062 -2.01911 5.46584 0 0 0 0 0 0 0 0 0 

100 -4 4
0 0 0 0 0 0 0 0 0 0 0 0 0 0 0 0 0 0 0 0 0 0 0 0 0 0 0 0 0 0 0 0 0 0 0 0 0 0 0 0 0 0 0 0 0 0 0 0 0 0 0 0 0 0 0 0 0 0 0 0 0 0 0 0 0 0 0 0 0 0 0 0 0 0 0 0 0 0 0 0 0 0 0 0 0 0 0 0 0 0 0 0 0 0 0 0 0 0 0 0 
0 0 0 0 0 0 0 0 0 0 0 0 0 0 0 0 0 0 0 0 0 0 0 0 0 0 0 0 0 0 0 0 0 0 0 0 0 0 0 0 0 0 0 0 0 0 0 0 0 0 0 0 0 0 0 0 0 0 0 0 0 0 0 0 0 0 0 0 0 0 0 0 0 0 0 0 0 0 0 0 0 0 0 0 0 0 0 0 0 0 0 0 0 0 0 0 0 0 0 0 
0 0 0 0 0 0 0 0 0 0 0 0 0 0 0 0 0 0 0 0 0 0 0 0 0 0 0 0 0 0 0 0 0 0 0 0 0 0 0 0 0 0 0 0 0 0 0 0 0 0 0 0 0 0 0 0 0 0 0 0 0 0 0 0 0 0 0 0 0 0 0 0 0 0 0 0 0 0 0 0 0 0 0 0 0 0 0 0 0 0 0 0 0 0 0 0 0 0 0 0 
0 0 0 0 0 0 0 0 0 0 0 0 0 0 0 0 0 0 0 0 0 0 0 0 0 0 0 0 0 0 0 0 0 0 0 0 0 0 0 0 0 0 0 0 0 0 0 0 0 0 0 0 0 0 0 0 0 0 0 0 0 0 0 0 0 0 0 0 0 0 0 0 0 0 0 0 0 0 0 0 0 0 0 0 0 0 0 0 0 0 0 0 0 0 0 0 0 0 0 0 
0 0 0 0 0 0 0 0 0 0 0 0 0 0 0 0 0 0 0 0 0 0 0 0 0 0 0 0 0 0 0 0 0.837112 0 0 0 0 0.656097 0 0 0 0 0 0 0 0 0 0 0 0 0 0 0 0 0 0 0 0 0 0 0 0 0 0 0 0 0 0 0 0 0 0 0 0 0 0 0 0 0 0 0 0 0 0 0 0 0.983561 0 0 0 0 0 0 0 0 0 0 0 0 0 
0 0 0 0 0 0 0 0 0 0 0 0 0 0 0 0 0 0 0 0 0 0 0 0 0 0 0 0 0 0 0 0 0 0 0 0 0 0 0 0 0 0 0.213737 0 0 0 0 0 0 0 0 0 0 0 0 0 0 0 0 0 0 0 0 0 0 0 0 0 0 0.176556 0 0 0 0 0 0 0 0 0 0.212873 0 0 0.0898958 0 0 0 0 0 0 0 0 0 0 0 0 0 0 0 0 0 
0 0 0 0 0 0 0 0 0 0 0 0 0 0 0 0 0 0 0 0 0.166908 0 0 0 0 0 0 0 0 0 0 0 0 0 0 0 0 0 0.090057 0 0 0 0 0 0 0 0 0 0 0.0883623 0 0 0 0 0 0 0 0 0 0 0 0 0 0 0 0 0 0 0 0 0 0 0 0 0 0 0 0 0 0 0 0.208596 0 0 0 0 0 0 0.206709 0 0 0 0 0 0 0 0 0 0 0 
0 0 0 0 0 0 0 0 0 0 0 0 0.0422108 0.426002 0.215428 0.117523 0.31442 0.0262131 0 0 0.0752234 0.243688 0.313102 0.0299337 0.4205 0.0434563 0.485759 0.369604 0.07813 0.103402 0.354747 0.247319 0.220102 0.0292549 0.278362 0 0.0322071 0.20675 0.205088 0 0.330675 0.150557 0.0712029 0.114036 0 0.347455 0 0.145036 0.245263 0.217723 0.0639311 0.25809 0.0395993 0.357971 0.0951244 0.324903 0.236153 0.365869 0.0631523 0 0.255236 0.211013 0.242809 0.230826 0.128449 0.448208 0 0.0813608 0.0758026 0.186927 0 0.0709361 0 0 0.0384852 0.147049 0.193298 0.667386 0.231831 0.284525 0.0823963 0.76646 0.162919 0.0280512 0 0 0.363723 0 0.399291 0.226168 0 0 0 0 0 0 0 0 0 0 
0 0 0 0 0 0 0 0 0 0 0 0 0 0 0 0 0 0 0 0 0 0 0 0 0 0 0 0 0 0 0 0 0 0 0 0 0 0 0 0 0 0 0 0 0 0 0 0 0 0 0 0 0 0 0 0 0 0 0 0 0 0 0 0 0 0 0 0 0 0 0 0 0 0 0 0 0 0 0 0 0 0 0 0 0 0 0 0 0 0 0 0 0 0 0 0 0 0 0 0 
0 0 0 0 0 0 0 0 0 0 0 5.39162 3.20394 0 0 -0.962868 0 1.60705 1.08958 -4.2233 3.34982 1.21121 0.456215 0 -0.170995 5.61447 0 -0.0670871 3.81964 5.56607 0.00853901 0.129772 4.01055 0.257382 0 0 2.59887 0 -3.81573 -3.60427 2.16142 3.92824 0 -2.66187 6.84653 1.00563 1.19262 -2.84136 2.82906 -0.165131 0 2.13737 3.15171 -0.848865 0.153173 3.39155 5.81114 0 -2.65775 0.0907893 -2.26751 0.000955119 1.96789 -2.54137 0.00689998 3.16867 -0.848461 3.12847 -1.24294 -0.198228 -2.33348 -2.54844 2.23292 0.000825915 0.567532 0.0777889 0 2.34282 -5.79696 0.0885696 2.45574 2.2404 2.36018 2.99476e-06 5.77196 0 -0.59747 0.000872431 -1.87195 -0.194124 0.0945188 0 0 0 0 0 0 0 0 0 

100 -4 4
0 0 0 0 0 0 0 0 0 0 0 0 0 0 0 0 0 0 0 0 0 0 0 0 0 0 0 0 0 0 0 0 0 0 0 0 0 0 0 0 0 0 0 0 0 0 0 0 0 0 0 0 0 0 0 0 0 0 0 0 0 0 0 0 0 0 0 0 0 0 0 0 0 0 0 0 0 0 0 0 0 0 0 0 0 0 0 0 0 0 0 0 0 0 0 0 0 0 0 0 
0 0 0 0 0 0 0 0 0 0 0 0 0 0 0 0 0 0 0 0 0 0 0 0 0 0 0 0 0 0 0 0 0 0 0 0 0 0 0 0 0 0 0 0 0 0 0 0 0 0 0 0 0 0 0 0 0 0 0 0 0 0 0 0 0 0 0 0 0 0 0 0 0 0 0 0 0 0 0 0 0 0 0 0 0 0 0 0 0 0 0 0 0 0 0 0 0 0 0 0 
0 0 0 0 0 0 0 0 0 0 0 0 0 0 0 0 0 0 0 0 0 0 0 0 0 0 0 0 0 0 0 0 0 0 0 0 0 0 0 0 0 0 0 0 0 0 0 0 0 0 0 0 0 0 0 0 0 0 0 0 0 0 0 0 0 0 0 0 0 0 0 0 0 0 0 0 0 0 0 0 0 0 0 0 0 0 0 0 0 0 0 0 0 0 0 0 0 0 0 0 
0 0 0 0 0 0 0 0 0 0 0 0 0 0 0 0 0 0 0 0 0 0 0 0 0 0 0 0 0 0 0 0 0 0 0 0 0 0 0 0 0 0 0 0 0 0 0 0 0 0 0 0 0 0 0 0 0 0 0 0 0 0 0 0 0 0 0 0 0 0 0 0 0 0 0 0 0 0 0 0 0 0 0 0 0 0 0 0 0 0 0 0 0 0 0 0 0 0 0 0 
0 0 0 0 0 0 0 0 0 0 0 0 0 0 0 0 0 0 0 0 0 0 0 0 0 0 0 0 0 0 0 0 0 0 0 0 0 0 0 0 0 0 0 0 0 0 0 0 0 0 0 0 0 0 0 0 0 0 0 0 0 0 0 0 0 0 0 0 0 0 0 0 0 0 0 0 0 0 0 0 0 0 0 0 0 0 0 0 0 0 0 0 0 0 0 0 0 0 0 0 
0 0 0 0 0 0 0 0 0 0 0 0 0 0 0 0 0 0 0 0 0 0 0 0 0 0 0 0 0 0 0 0 0 0 0 0 0 0 0 0 0 0 0 0 0 0 0 0 0 0 0 0 0 0 0 0 0 0 0 0 0 0 0 0 0 0 0 0 0 0 0 0 0 0 0 0 0 0 0 0 0 0 0 0 0 0 0 0 0 0 0 0 0 0 0 0 0 0 0 0 
0 0 0 0 0 0 0 0 0 0 0 0 0 0 0 0 0 0 0 0 0 0 0 0 0 0 0 0 0 0 0 0 0 0 0 0 0 0 0 0 0 0 0 0 0 0 0 0 0 0 0 0 0 0 0 0 0 0 0 0 0 0 0 0 0 0 0 0 0 0 0 0 0 0 0 0 0 0 0 0 0 0 0 0 0 0 0 0 0 0 0 0 0 0 0 0 0 0 0 0 
0 0 0 0 0 0 0 0 0 0 0 0 0 0.175431 0 0 0 0 0 0 0 0 0 0 0 0 0 0 0 0 0 0 0.156546 0 0 0 0.322007 0.107949 0 0.124768 0.0749466 0 0.00736871 0 0 0 0 0 0.160986 0 0.140296 0.0127613 0 0 0.0371495 0.0420845 0 0.454418 0 0 0 0 0 0.0436375 0 0.253425 0 0 0 0 0.118069 0 0 0.22492 0 0 0 0 0 0 0 0 0 0 0.0279242 0 0 0 0.0272978 0 0 0 0 0 0 0 0 0 0 0 
0 0 0 0 0 0 0 0 0 0 0 0 0 0 0 0 0 0 0 0 0 0 0 0 0 0 0 0 0 0 0 0 0 0 0 0 0 0 0 0 0 0 0 0 0 0 0 0 0 0 0 0 0 0 0 0 0 0 0 0 0 0 0 0 0 0 0 0 0 0 0 0 0 0 0 0 0 0 0 0 0 0 0 0 0 0 0 0 0 0 0 0 0 0 0 0 0 0 0 0 
0 0 0 0 0 0 0 0 0 0 0 0 0.164802 0 0 0 0 0 0 0 2.52358 0 0 -0.10792 0 0 0 0 0 0 0 0 0 0.0602989 0 0 0 0 0 0 0 0 0.107511 0 0 0 0 0 0 2.34541 0 0 0 0 0 0 0 0 0 0 0 -0.707247 0 0 0 0 -0.211064 0 0 0 4.74098 0 -0.117671 0 0 0 0.754657 0 0 0 0.00610581 0.0141169 0 2.09257 0 0.181417 0 0 0 0 0 0 0 0 0 0 0 0 0 0 

100 -4 4
0 0 0 0 0 0 0 0 0 0 0 0 0 0 0 0 0 0 0 0 0 0 0 0 0 0 0 0 0 0 0 0 0 0 0 0 0 0 0 0 0 0 0 0 0 0 0 0 0 0 0 0 0 0 0 0 0 0 0 0 0 0 0 0 0 0 0 0 0 0 0 0 0 0 0 0 0 0 0 0 0 0 0 0 0 0 0 0 0 0 0 0 0 0 0 0 0 0 0 0 
0 0 0 0 0 0 0 0 0 0 0 0 0 0 0 0 0 0 0 0 0 0 0 0 0 0 0 0 0 0 0 0 0 0 0 0 0 0 0 0 0 0 0 0 0 0 0 0 0 0 0 0 0 0 0 0 0 0 0 0 0 0 0 0 0 0 0 0 0 0 0 0 0 0 0 0 0 0 0 0 0 0 0 0 0 0 0 0 0 0 0 0 0 0 0 0 0 0 0 0 
0 0 0 0 0 0 0 0 0 0 0 0 0 0 0 0 0 0 0 0 0 0 0 0 0 0 0 0 0 0 0 0 0 0 0 0 0 0 0 0 0 0 0 0 0 0 0 0 0 0 0 0 0 0 0 0 0 0 0 0 0 0 0 0 0 0 0 0 0 0 0 0 0 0 0 0 0 0 0 0 0 0 0 0 0 0 0 0 0 0 0 0 0 0 0 0 0 0 0 0 
0 0 0 0 0 0 0 0 0 0 0 0 0 0 0 0 0 0 0 0 0 0 0 0 0 0 0 0 0 0 0 0 0 0 0 0 0 0 0 0 0 0 0 0 0 0 0 0 0 0 0 0 0 0 0 0 0 0 0 0 0 0 0 0 0 0 0 0 0 0 0 0 0 0 0 0 0 0 0 0 0 0 0 0 0 0 0 0 0 0 0 0 0 0 0 0 0 0 0 0 
0 0 0 0 0 0 0 0 0 0 0 0 0 0 0 0 0 0 0 0 0 0 0 0 0 0 0 0 0 0 0 0 0 0 0 0 0 0 0 0 0 0 0 0 0 0 0 0 0 0 0 0 0 0 0 0 0 0 0 0 0 0 0 0 0 0 0 0 0 0 0 0 0 0 0 0 0 0 0 0 0 0 0 0 0 0 0 0 0 0 0 0 0 0 0 0 0 0 0 0 
0 0 0 0 0 0 0 0 0 0 0 0 0 0 0 0 0 0 0 0 0 0 0 0 0 0 0 0 0 0 0 0 0 0 0 0 0 0 0 0 0 0 0 0 0 0 0 0 0 0 0 0 0 0 0 0 0 0 0 0 0 0 0 0 0 0 0 0 0 0 0 0 0 0 0 0 0 0 0 0 0 0 0 0 0 0 0 0 0 0 0 0 0 0 0 0 0 0 0 0 
0 0 0 0 0 0 0 0 0 0 0 0 0 0 0 0 0 0 0 0 0 0 0 0 0 0 0 0 0 0 0 0 0 0 0 0 0 0 0 0 0 0 0 0 0 0 0 0 0 0 0 0 0 0 0 0 0 0 0 0 0 0 0 0 0 0 0 0 0 0 0 0 0 0 0 0 0 0 0 0 0 0 0 0 0 0 0 0 0 0 0 0 0 0 0 0 0 0 0 0 
0 0 0 0 0 0 0 0 0 0 0 0 0 0 0 0 0.0209675 0 0 0.0346902 0 0 0 0 0 0 0.0929584 0 0 0 0 0 0 0 0 0 0 0 0 0 0 0 0 0 0 0 0 0 0 0 0 0 0 0 0 0 0 0 0 0 0 0 0 0 0 0 0 0 0.0750914 0 0 0 0 0 0 0 0 0 0 0 0 0 0 0 0 0 0 0 0 0 0 0 0 0 0 0 0 0 0 0 
0 0 0 0 0 0 0 0 0 0 0 0 0 0 0 0 0 0 0 0 0 0 0 0 0 0 0 0 0 0 0 0 0 0 0 0 0 0 0 0 0 0 0 0 0 0 0 0 0 0 0 0 0 0 0 0 0 0 0 0 0 0 0 0 0 0 0 0 0 0 0 0 0 0 0 0 0 0 0 0 0 0 0 0 0 0 0 0 0 0 0 0 0 0 0 0 0 0 0 0 
0 0 0 0 0 0 0 0 0 0 0 0 2.79953 0 0 0 0 0 0 0 0 0 0 0 0 0 0.110587 0 0 0 0 0 0 2.9153 0 0 0 0 0 0 0 0 0 0 0 0 0 0 0 0 0 0 0 0 0 0 0 0 0 0 0 0 0 0 0 -0.000175969 0 0 0 0 0 3.14072 0 0 0 0 0 0 0 0 0 0 0 0 0 0 0 0 0 0 0 0 0 0 0 0 0 0 0 0 

100 -4 4
0 0 0 0 0 0 0 0 0 0 0 0 0 0 0 0 0 0 0 0 0 0 0 0 0 0 0 0 0 0 0 0 0 0 0 0 0 0 0 0 0 0 0 0 0 0 0 0 0 0 0 0 0 0 0 0 0 0 0 0 0 0 0 0 0 0 0 0 0 0 0 0 0 0 0 0 0 0 0 0 0 0 0 0 0 0 0 0 0 0 0 0 0 0 0 0 0 0 0 0 
0 0 0 0 0 0 0 0 0 0 0 0 0 0 0 0 0 0 0 0 0 0 0 0 0 0 0 0 0 0 0 0 0 0 0 0 0 0 0 0 0 0 0 0 0 0 0 0 0 0 0 0 0 0 0 0 0 0 0 0 0 0 0 0 0 0 0 0 0 0 0 0 0 0 0 0 0 0 0 0 0 0 0 0 0 0 0 0 0 0 0 0 0 0 0 0 0 0 0 0 
0 0 0 0 0 0 0 0 0 0 0 0 0 0 0 0 0 0 0 0 0 0 0 0 0 0 0 0 0 0 0 0 0 0 0 0 0 0 0 0 0 0 0 0 0 0 0 0 0 0 0 0 0 0 0 0 0 0 0 0 0 0 0 0 0 0 0 0 0 0 0 0 0 0 0 0 0 0 0 0 0 0 0 0 0 0 0 0 0 0 0 0 0 0 0 0 0 0 0 0 
0 0 0 0 0 0 0 0 0 0 0 0 0 0 0 0 0 0 0 0 0 0 0 0 0 0 0 0 0 0 0 0 0 0 0 0 0 0 0 0 0 0 0 0 0 0 0 0 0 0 0 0 0 0 0 0 0 0 0 0 0 0 0 0 0 0 0 0 0 0 0 0 0 0 0 0 0 0 0 0 0 0 0 0 0 0 0 0 0 0 0 0 0 0 0 0 0 0 0 0 
0 0 0 0 0 0 0 0 0 0 0 0 0 0 0 0 0 0 0 0 0 0 0 0 0 0 0 0 0 0 0 0 0 0 0 0 0 0 0 0 0 0 0 0 0 0 0 0 0 0 0 0 0 0 0 0 0 0 0 0 0 0 0 0 0 0 0 0 0 0 0 0 0 0 0 0 0 0 0 0 0 0 0 0 0 0 0 0 0 0 0 0 0 0 0 0 0 0 0 0 
0 0 0 0 0 0 0 0 0 0 0 0 0 0 0 0 0 0 0 0 0 0 0 0 0 0 0 0 0 0 0 0 0 0 0 0 0 0 0 0 0 0 0 0 0 0 0 0 0 0 0 0 0 0 0 0 0 0 0 0 0 0 0 0 0 0 0 0 0 0 0 0 0 0 0 0 0 0 0 0 0 0 0 0 0 0 0 0 0 0 0 0 0 0 0 0 0 0 0 0 
0 0 0 0 0 0 0 0 0 0 0 0 0 0 0 0 0 0 0 0 0 0 0 0 0 0 0 0 0 0 0 0 0 0 0 0 0 0 0 0 0 0 0 0 0 0 0 0 0 0 0 0 0 0 0 0 0 0 0 0 0 0 0 0 0 0 0 0 0 0 0 0 0 0 0 0 0 0 0 0 0 0 0 0 0 0 0 0 0 0 0 0 0 0 0 0 0 0 0 0 
0 0 0 0 0 0 0 0 0 0 0 0 0 0 0 0 0 0 0 0 0 0 0 0 0 0 0 0 0 0 0 0 0 0 0 0 0 0 0 0 0 0 0 0 0 0 0 0 0 0 0 0 0 0 0 0 0 0 0 0 0 0 0 0 0 0 0 0 0 0 0 0 0 0 0 0 0 0 0 0 0 0 0 0 0 0 0 0 0 0 0 0 0 0 0 0 0 0 0 0 
0 0 0 0 0 0 0 0 0 0 0 0 0 0 0 0 0 0 0 0 0 0 0 0 0 0 0 0 0 0 0 0 0 0 0 0 0 0 0 0 0 0 0 0 0 0 0 0 0 0 0 0 0 0 0 0 0 0 0 0 0 0 0 0 0 0 0 0 0 0 0 0 0 0 0 0 0 0 0 0 0 0 0 0 0 0 0 0 0 0 0 0 0 0 0 0 0 0 0 0 
0 0 0 0 0 0 0 0 0 0 0 0 0 0 0 0 0 0 0 0 0 0 0 0 0 0 0 0 0 0 0 0 0 0 0 0 0 0 0 0 0 0 0 0 0 0 0 0 0 0 0 0 0 0 0 0 0 0 0 0 0 0 0 0 0 0 0 0 0 0 0 0 0 0 0 0 0 0 0 0 0 0 0 0 0 0 0 0 0 0 0 0 0 0 0 0 0 0 0 0 

100 -4 4
0 0 0 0 0 0 0 0 0 0 0 0 0 0 0 0 0 0 0 0 0 0 0 0 0 0 0 0 0 0 0 0 0 0 0 0 0 0 0 0 0 0 0 0 0 0 0 0 0 0 0 0 0 0 0 0 0 0 0 0 0 0 0 0 0 0 0 0 0 0 0 0 0 0 0 0 0 0 0 0 0 0 0 0 0 0 0 0 0 0 0 0 0 0 0 0 0 0 0 0 
0 0 0 0 0 0 0 0 0 0 0 0 0 0 0 0 0 0 0 0 0 0 0 0 0 0 0 0 0 0 0 0 0 0 0 0 0 0 0 0 0 0 0 0 0 0 0 0 0 0 0 0 0 0 0 0 0 0 0 0 0 0 0 0 0 0 0 0 0 0 0 0 0 0 0 0 0 0 0 0 0 0 0 0 0 0 0 0 0 0 0 0 0 0 0 0 0 0 0 0 
0 0 0 0 0 0 0 0 0 0 0 0 0 0 0 0 0 0 0 0 0 0 0 0 0 0 0 0 0 0 0 0 0 0 0 0 0 0 0 0 0 0 0 0 0 0 0 0 0 0 0 0 0 0 0 0 0 0 0 0 0 0 0 0 0 0 0 0 0 0 0 0 0 0 0 0 0 0 0 0 0 0 0 0 0 0 0 0 0 0 0 0 0 0 0 0 0 0 0 0 
0 0 0 0 0 0 0 0 0 0 0 0 0 0 0 0 0 0 0 0 0 0 0 0 0 0 0 0 0 0 0 0 0 0 0 0 0 0 0 0 0 0 0 0 0 0 0 0 0 0 0 0 0 0 0 0 0 0 0 0 0 0 0 0 0 0 0 0 0 0 0 0 0 0 0 0 0 0 0 0 0 0 0 0 0 0 0 0 0 0 0 0 0 0 0 0 0 0 0 0 
0 0 0 0 0 0 0 0 0 0 0 0 0 0 0 0 0 0 0 0 0 0 0 0 0 0 0 0 0 0 0 0 0 0 0 0 0 0 0 0 0 0 0 0 0 0 0 0 0 0 0 0 0 0 0 0 0 0 0 0 0 0 0 0 0 0 0 0 0 0 0 0 0 0 0 0 0 0 0 0 0 0 0 0 0 0 0 0 0 0 0 0 0 0 0 0 0 0 0 0 
0 0 0 0 0 0 0 0 0 0 0 0 0 0 0 0 0 0 0 0 0 0 0 0 0 0 0 0 0 0 0 0 0 0 0 0 0 0 0 0 0 0 0 0 0 0 0 0 0 0 0 0 0 0 0 0 0 0 0 0 0 0 0 0 0 0 0 0 0 0 0 0 0 0 0 0 0 0 0 0 0 0 0 0 0 0 0 0 0 0 0 0 0 0 0 0 0 0 0 0 
0 0 0 0 0 0 0 0 0 0 0 0 0 0 0 0 0 0 0 0 0 0 0 0 0 0 0 0 0 0 0 0 0 0 0 0 0 0 0 0 0 0 0 0 0 0 0 0 0 0 0 0 0 0 0 0 0 0 0 0 0 0 0 0 0 0 0 0 0 0 0 0 0 0 0 0 0 0 0 0 0 0 0 0 0 0 0 0 0 0 0 0 0 0 0 0 0 0 0 0 
0 0 0 0 0 0 0 0 0 0 0 0 0 0 0 0 0 0 0 0 0 0 0 0 0 0 0 0 0 0 0 0 0 0 0 0 0 0 0 0 0 0 0 0 0 0 0 0 0 0 0 0 0 0 0 0 0 0 0 0 0 0 0 0 0 0 0 0 0 0 0 0 0 0 0 0 0 0 0 0 0 0 0 0 0 0 0 0 0 0 0 0 0 0 0 0 0 0 0 0 
0 0 0 0 0 0 0 0 0 0 0 0 0 0 0 0 0 0 0 0 0 0 0 0 0 0 0 0 0 0 0 0 0 0 0 0 0 0 0 0 0 0 0 0 0 0 0 0 0 0 0 0 0 0 0 0 0 0 0 0 0 0 0 0 0 0 0 0 0 0 0 0 0 0 0 0 0 0 0 0 0 0 0 0 0 0 0 0 0 0 0 0 0 0 0 0 0 0 0 0 
0 0 0 0 0 0 0 0 0 0 0 0 0 0 0 0 0 0 0 0 0 0 0 0 0 0 0 0 0 0 0 0 0 0 0 0 0 0 0 0 0 0 0 0 0 0 0 0 0 0 0 0 0 0 0 0 0 0 0 0 0 0 0 0 0 0 0 0 0 0 0 0 0 0 0 0 0 0 0 0 0 0 0 0 0 0 0 0 0 0 0 0 0 0 0 0 0 0 0 0 

100 -4 4
0 0 0 0 0 0 0 0 0 0 0 0 0 0 0 0 0 0 0 0 0 0 0 0 0 0 0 0 0 0 0 0 0 0 0 0 0 0 0 0 0 0 0 0 0 0 0 0 0 0 0 0 0 0 0 0 0 0 0 0 0 0 0 0 0 0 0 0 0 0 0 0 0 0 0 0 0 0 0 0 0 0 0 0 0 0 0 0 0 0 0 0 0 0 0 0 0 0 0 0 
0 0 0 0 0 0 0 0 0 0 0 0 0 0 0 0 0 0 0 0 0 0 0 0 0 0 0 0 0 0 0 0 0 0 0 0 0 0 0 0 0 0 0 0 0 0 0 0 0 0 0 0 0 0 0 0 0 0 0 0 0 0 0 0 0 0 0 0 0 0 0 0 0 0 0 0 0 0 0 0 0 0 0 0 0 0 0 0 0 0 0 0 0 0 0 0 0 0 0 0 
0 0 0 0 0 0 0 0 0 0 0 0 0 0 0 0 0 0 0 0 0 0 0 0 0 0 0 0 0 0 0 0 0 0 0 0 0 0 0 0 0 0 0 0 0 0 0 0 0 0 0 0 0 0 0 0 0 0 0 0 0 0 0 0 0 0 0 0 0 0 0 0 0 0 0 0 0 0 0 0 0 0 0 0 0 0 0 0 0 0 0 0 0 0 0 0 0 0 0 0 
0 0 0 0 0 0 0 0 0 0 0 0 0 0 0 0 0 0 0 0 0 0 0 0 0 0 0 0 0 0 0 0 0 0 0 0 0 0 0 0 0 0 0 0 0 0 0 0 0 0 0 0 0 0 0 0 0 0 0 0 0 0 0 0 0 0 0 0 0 0 0 0 0 0 0 0 0 0 0 0 0 0 0 0 0 0 0 0 0 0 0 0 0 0 0 0 0 0 0 0 
0 0 0 0 0 0 0 0 0 0 0 0 0 0 0 0 0 0 0 0 0 0 0 0 0 0 0 0 0 0 0 0 0 0 0 0 0 0 0 0 0 0 0 0 0 0 0 0 0 0 0 0 0 0 0 0 0 0 0 0 0 0 0 0 0 0 0 0 0 0 0 0 0 0 0 0 0 0 0 0 0 0 0 0 0 0 0 0 0 0 0 0 0 0 0 0 0 0 0 0 
0 0 0 0 0 0 0 0 0 0 0 0 0 0 0 0 0 0 0 0 0 0 0 0 0 0 0 0 0 0 0 0 0 0 0 0 0 0 0 0 0 0 0 0 0 0 0 0 0 0 0 0 0 0 0 0 0 0 0 0 0 0 0 0 0 0 0 0 0 0 0 0 0 0 0 0 0 0 0 0 0 0 0 0 0 0 0 0 0 0 0 0 0 0 0 0 0 0 0 0 
0 0 0 0 0 0 0 0 0 0 0 0 0 0 0 0 0 0 0 0 0 0 0 0 0 0 0 0 0 0 0 0 0 0 0 0 0 0 0 0 0 0 0 0 0 0 0 0 0 0 0 0 0 0 0 0 0 0 0 0 0 0 0 0 0 0 0 0 0 0 0 0 0 0 0 0 0 0 0 0 0 0 0 0 0 0 0 0 0 0 0 0 0 0 0 0 0 0 0 0 
0 0 0 0 0 0 0 0 0 0 0 0 0 0 0 0 0 0 0 0 0 0 0 0 0 0 0 0 0 0 0 0 0 0 0 0 0 0 0 0 0 0 0 0 0 0 0 0 0 0 0 0 0 0 0 0 0 0 0 0 0 0 0 0 0 0 0 0 0 0 0 0 0 0 0 0 0 0 0 0 0 0 0 0 0 0 0 0 0 0 0 0 0 0 0 0 0 0 0 0 
0 0 0 0 0 0 0 0 0 0 0 0 0 0 0 0 0 0 0 0 0 0 0 0 0 0 0 0 0 0 0 0 0 0 0 0 0 0 0 0 0 0 0 0 0 0 0 0 0 0 0 0 0 0 0 0 0 0 0 0 0 0 0 0 0 0 0 0 0 0 0 0 0 0 0 0 0 0 0 0 0 0 0 0 0 0 0 0 0 0 0 0 0 0 0 0 0 0 0 0 
0 0 0 0 0 0 0 0 0 0 0 0 0 0 0 0 0 0 0 0 0 0 0 0 0 0 0 0 0 0 0 0 0 0 0 0 0 0 0 0 0 0 0 0 0 0 0 0 0 0 0 0 0 0 0 0 0 0 0 0 0 0 0 0 0 0 0 0 0 0 0 0 0 0 0 0 0 0 0 0 0 0 0 0 0 0 0 0 0 0 0 0 0 0 0 0 0 0 0 0 
