1
Photon_
#phi
phi_dr_cut_high_pT_order
11
0
0
10
QCD W + Jets WW WZ ZZ #bar{t}W tW t#bar{t} Drell Yan #rightarrow #tau#tau Drell Yan #rightarrow ee 

100 -4 4
0 0 0 0 0 0 0 0 0 0 0 0 0 0 0 0 0 0 0 0 0 0 0 0 0 0 0 0 0 0 0 0 0 0 0 0 0 0 0 58.4618 0 0 0 0 0 0 0 0 0 0 0 0 0 0 0 0 0 0 0 0 0 0 0 0 0 0 0 0 0 0 0 0 0 0 0 0 0 0 0 0 0 0 0 0 0 0 0 0 0 0 0 0 0 0 0 0 0 0 0 0 
0 0 0 0 0 0 0 0 0 0 0 0 0 0 0 0 0 0 5.11332 0 -5.11332 0 0 0 0 0 0 0 0 0 0 0 0 0 0 0 0 0 0 0 0 0 0 0 0 0 0 0 0 0 0 0 0 0 0 0 0 0 0 0 -5.11332 0 0 5.11332 0 0 0 0 0 0 0 0 0 0 0 0 0 0 0 0 0 -5.11332 0 0 0 -5.11332 0 0 0 0 0 0 0 0 0 0 0 0 0 0 
0 0 0 0 0 0 0 0 0 0 0 0 1.21865 0 0.609323 0 0.609323 0 0.609323 0 0 0 0.609323 0 0 0 0 0 0 0.609323 0 0 0 0 0 0.609323 0 0 0.609323 0 0 0 0 0.609323 0.609323 0 0 0.609323 0 0 0 0.609323 0 0 0 0.609323 0 0 0 0 0 0 0 0 0 0 0 0 0 0 0 0.609323 0 0 0 0 0 0 0 0.609323 0 0 0.609323 0 0.609323 0 0 0.609323 0 0 1.21865 0 0 0 0 0 0 0 0 0 
0 0 0 0 0 0 0 0 0 0 0 0.564255 0 0 0 1.12851 0 0.564255 0 0 0 0 0.564255 0 0.564255 0.564255 0.564255 1.12851 1.69277 1.69277 1.12851 0 0 0.564255 0.564255 0.564255 1.12851 0 1.12851 0.564255 1.12851 0 0 1.12851 1.12851 0.564255 0.564255 2.25702 1.12851 0.564255 0.564255 0.564255 0.564255 1.12851 0 0 1.12851 0.564255 0.564255 0 0 0 0.564255 0.564255 0.564255 0.564255 0.564255 1.12851 0 1.12851 0 0.564255 0.564255 0.564255 0.564255 0.564255 0 0.564255 0 1.12851 0.564255 0 0.564255 0 0 0.564255 1.69277 0 0 0 0 0 0 0 0 0 0 0 0 0 
0 0 0 0 0 0 0 0 0 0 0 0 0 0.593798 0 0.593798 0 0 0.593798 0 0.593798 0 1.1876 0 0.593798 0 0 0.593798 0 0 0.593798 0.593798 0 0.593798 0 0 1.78139 0 0.593798 1.1876 0 0.593798 0.593798 0 0.593798 0 0 0 0 0.593798 0 0.593798 0 0 0 0.593798 0 0.593798 0.593798 0.593798 0.593798 0 0.593798 0 0 0 0 0 0 0 0.593798 1.78139 0 0 0 0 0.593798 0.593798 0.593798 0 0 0.593798 0 1.1876 0 0.593798 0 0 0.593798 0 0 0 0 0 0 0 0 0 0 0 
0 0 0 0 0 0 0 0 0 0 0 0 0.185463 0.185463 0.370926 0.370926 0.185463 0.185463 0.556389 0.370926 0.370926 0.185463 0.370926 0.370926 0.741852 0 0.556389 0.185463 0.741852 0.927315 0.927315 0 0.370926 0.741852 0.185463 0 0.185463 0.927315 0 0.556389 0.185463 0 0.556389 0.927315 0.185463 0.556389 0.556389 0.370926 0.185463 0.185463 0.556389 0.185463 0.556389 0.556389 0 0.741852 0.370926 0.556389 0.556389 0.556389 0.185463 0 0.185463 0.741852 0.556389 0.741852 0.370926 0.370926 0.370926 0.556389 0.185463 0.185463 0.370926 0.185463 0.370926 0.556389 0.370926 0.370926 0.556389 0.185463 0.185463 0.185463 0.927315 0.370926 0.185463 0 0.370926 0.370926 0 0.370926 0.370926 0 0 0 0 0 0 0 0 0 
0 0 0 0 0 0 0 0 0 0 0 0.184936 0.369873 0.739746 0.554809 0.184936 0 0.184936 0.184936 0.369873 0.184936 0.554809 0.184936 0.739746 0.369873 0.554809 0.184936 0.369873 0.739746 0.369873 0.184936 0.369873 0.739746 0.554809 0.184936 0.184936 0.369873 0.554809 0 0.369873 0.554809 0.739746 0.184936 0.554809 0.554809 0 0.924682 0.184936 0 1.10962 0.184936 0.369873 0.369873 0.554809 0.184936 0.554809 0.739746 0.369873 0.184936 0 0.184936 0.554809 0.554809 0.554809 1.10962 0 0.184936 0.369873 0.369873 0.554809 0 0.554809 0.184936 0.739746 0.369873 0.739746 0.739746 0.184936 0.184936 0.184936 0.369873 0.184936 0 0.369873 1.10962 0.184936 0 0 0.184936 0.184936 0 0 0 0 0 0 0 0 0 0 
0 0 0 0 0 0 0 0 0 0 0 8.09223 16.5703 14.7634 16.0242 18.4733 20.0726 22.7855 19.8295 21.6275 23.3562 26.2114 25.6625 29.3458 25.5211 29.4004 27.8659 28.5138 27.4635 25.0938 25.7933 27.6196 32.9233 25.943 27.2308 28.0739 28.0864 22.7055 21.768 25.5013 28.1785 24.7613 27.6723 26.0163 25.7007 29.6314 31.8628 29.93 28.5617 28.7133 27.6387 25.6839 28.2518 26.9203 30.0401 27.9305 29.444 27.8626 28.7324 23.1285 27.9996 28.4757 25.2405 26.8704 30.2294 29.9518 26.2954 21.5519 27.0469 29.399 27.7866 28.3664 28.4948 28.3829 24.0569 26.0147 27.5947 29.9228 23.1741 27.4078 21.9114 22.9251 19.0297 20.0423 18.6121 17.8551 15.1923 18.9394 14.2795 14.027 10.0326 0 0 0 0 0 0 0 0 0 
0 0 0 0 0 0 0 0 0 0 0 2.56754 2.56754 0 0 0 0 0 0 2.56754 0 0 0 2.56754 0 0 2.56754 0 0 0 2.56754 0 0 -2.56754 0 2.56754 0 -2.56754 -2.56754 0 2.56754 0 0 0 2.56754 0 0 0 0 0 0 0 7.70261 -2.56754 0 2.56754 0 0 0 0 2.56754 0 -2.56754 2.56754 0 0 0 0 0 -2.56754 2.56754 0 0 0 5.13507 0 -2.56754 2.56754 2.56754 0 0 2.56754 0 0 2.56754 0 0 0 0 0 0 0 0 0 0 0 0 0 0 0 
0 0 0 0 0 0 0 0 0 0 0 35.7799 34.1112 44.8352 61.2733 53.1992 37.452 10.2007 44.3803 49.796 82.5301 101.283 80.601 51.5042 81.143 80.8 110.309 52.1046 67.1294 93.3359 84.9306 59.7922 65.9939 87.7921 77.7269 66.9657 91.9873 45.549 74.3279 92.7146 45.456 54.1078 81.4519 72.2067 78.0864 110.734 72.6714 71.2301 74.2627 60.7573 39.2587 80.7475 53.9422 72.5666 105.793 98.0683 97.2577 79.0215 79.6714 97.1211 61.4433 86.0542 107.652 77.4095 88.758 74.4735 81.2091 69.5269 78.4998 127.345 47.9211 51.5537 54.6103 77.4681 89.9438 106.866 117.598 122.956 73.2347 69.3509 63.8431 62.0656 64.7813 78.3833 76.3001 67.1543 36.2709 25.2166 33.9485 8.93587 42.5353 0 0 0 0 0 0 0 0 0 

100 -4 4
0 0 0 0 0 0 0 0 0 0 0 0 0 0 0 0 0 0 0 0 0 0 0 0 0 0 0 0 0 0 0 0 0 0 0 0 0 0 0 0 0 0 0 0 0 0 0 0 0 0 0 0 0 0 0 0 0 0 0 0 0 0 0 0 0 0 0 0 0 0 0 0 0 0 0 0 0 0 0 0 0 0 0 0 0 0 0 0 0 0 0 0 0 0 0 0 0 0 0 0 
0 0 0 0 0 0 0 0 0 0 0 5.11332 0 0 5.11332 0 -5.11332 -5.11332 5.11332 0 0 0 0 0 0 0 0 5.11332 0 0 5.11332 5.11332 0 0 0 0 0 0 0 0 10.2266 0 0 0 0 0 0 -5.11332 0 0 0 0 0 0 -5.11332 0 0 5.11332 -5.11332 0 0 0 0 0 0 5.11332 0 0 0 0 5.11332 0 0 0 -5.11332 0 0 0 10.2266 0 -5.11332 0 10.2266 0 0 0 0 0 0 0 5.11332 0 0 0 0 0 0 0 0 0 
0 0 0 0 0 0 0 0 0 0 0 0 0 0 0.609323 0 0 1.21865 0.609323 1.21865 0 0 0 0 0.609323 1.21865 0 0.609323 0.609323 0.609323 0 0.609323 0 0.609323 0 0 0 0.609323 1.21865 0.609323 0.609323 0.609323 0.609323 0 0.609323 0.609323 0 0 2.43729 0.609323 0.609323 0.609323 0 0 0.609323 1.21865 1.82797 0.609323 0.609323 0.609323 0.609323 0 0 0 1.21865 1.21865 0.609323 0 0 0 0.609323 0.609323 0.609323 0.609323 1.21865 0.609323 0 0.609323 1.21865 0.609323 0 0 0.609323 0 0 0 0 0 0 0 0.609323 0 0 0 0 0 0 0 0 0 
0 0 0 0 0 0 0 0 0 0 0 0 1.12851 1.12851 1.12851 2.25702 0.564255 0 0 2.82128 1.12851 1.69277 1.12851 2.82128 2.25702 2.25702 1.69277 0.564255 0.564255 0 2.25702 1.12851 1.12851 4.51404 0.564255 1.69277 0.564255 0.564255 1.69277 2.25702 0.564255 1.12851 0.564255 1.12851 3.94979 2.25702 0.564255 0.564255 1.12851 1.12851 0.564255 1.12851 0.564255 1.12851 0 2.82128 1.69277 1.12851 2.25702 0 0.564255 1.69277 1.69277 2.82128 0 2.25702 2.82128 2.82128 2.25702 1.12851 1.12851 1.69277 1.69277 2.25702 2.25702 1.12851 0 1.12851 1.12851 2.82128 2.82128 3.38553 1.12851 2.82128 0.564255 0.564255 0.564255 0.564255 0.564255 1.12851 0.564255 0 0 0 0 0 0 0 0 0 
0 0 0 0 0 0 0 0 0 0 0 0 0.593798 0.593798 1.1876 0 0.593798 0 1.78139 1.78139 0.593798 0.593798 1.1876 1.78139 1.1876 1.78139 0.593798 0.593798 1.1876 1.1876 1.78139 1.1876 0.593798 0.593798 0.593798 0.593798 1.1876 1.1876 1.1876 0.593798 1.1876 2.96899 4.15658 0 1.1876 1.1876 1.1876 0 1.78139 0 0 0.593798 1.1876 3.56279 1.1876 1.1876 1.1876 0 1.1876 0 1.78139 1.78139 0.593798 1.1876 0.593798 1.1876 1.78139 0 1.1876 1.1876 1.1876 0 1.1876 0.593798 1.78139 0.593798 0.593798 0.593798 0 1.78139 1.78139 0 1.1876 1.1876 0.593798 0 0 1.1876 0.593798 1.1876 0.593798 0 0 0 0 0 0 0 0 0 
0 0 0 0 0 0 0 0 0 0 0 0.741852 0.556389 0.185463 1.11278 0.556389 0.741852 0.556389 0.741852 0.741852 0.185463 0.927315 0.556389 1.29824 0.185463 1.11278 1.4837 1.29824 0.741852 0.370926 1.29824 0.556389 0.185463 1.11278 0.927315 0.370926 0.927315 0.927315 0.927315 0.556389 2.41102 1.11278 1.4837 0.185463 0.556389 1.4837 0.370926 0.741852 0.927315 1.4837 0.741852 0.741852 1.29824 1.66917 0.370926 1.11278 0.741852 1.11278 0.927315 0.927315 0.741852 1.11278 1.11278 0.556389 1.11278 0.370926 0.556389 0.927315 1.11278 1.11278 0.741852 1.29824 0.741852 0.927315 1.11278 0.741852 1.29824 0.927315 1.29824 0.741852 0.741852 0.370926 0.370926 0 1.11278 0.370926 0.556389 0.741852 0 0.370926 0.370926 0 0 0 0 0 0 0 0 0 
0 0 0 0 0 0 0 0 0 0 0 0.184936 0 0.554809 0.739746 0.554809 0.184936 1.10962 0.554809 0.369873 1.10962 1.29456 0.369873 1.10962 0.554809 1.29456 0.369873 0.554809 1.47949 0.184936 0.739746 1.47949 1.29456 1.10962 1.29456 0.924682 1.66443 0.924682 0.739746 1.66443 0.924682 0.739746 0.554809 0.739746 0.924682 1.29456 1.10962 1.10962 1.47949 0.739746 0.739746 0.924682 0.924682 0.369873 0.184936 0.739746 0.924682 0.739746 1.10962 1.10962 1.10962 0.739746 0.184936 1.10962 0.554809 1.84936 0.554809 0.369873 1.84936 1.10962 1.47949 0.739746 0.369873 0.924682 0.924682 0.554809 0.739746 1.10962 0.554809 0.369873 1.29456 1.29456 0.369873 0.924682 0.554809 0.739746 0.554809 1.29456 0.369873 0.554809 0 0 0 0 0 0 0 0 0 0 
0 0 0 0 0 0 0 0 0 0 0 11.4677 27.4992 22.3158 28.4744 29.7334 28.377 28.0212 32.9794 35.92 37.6235 45.4157 43.2679 36.8192 41.937 46.172 40.3241 43.5286 43.6337 39.8653 42.4874 38.8092 41.0931 48.0456 39.0644 39.858 38.3246 45.3799 44.7864 40.9883 47.2297 38.797 44.1319 39.3948 42.7997 44.5073 45.3537 44.7043 39.4001 46.8619 43.7931 39.8192 43.5456 37.5279 38.2518 43.1459 42.2349 42.4055 42.2689 42.9539 41.4618 38.5063 42.3972 40.8421 43.547 41.0989 41.2423 46.1323 45.4604 41.8508 46.8383 42.5624 45.5636 38.7271 43.6114 45.5435 45.3009 43.4651 45.3886 41.2452 42.294 39.3686 35.3749 29.1117 32.3146 31.3306 29.2786 29.767 19.6745 26.8153 10.3388 0 0 0 0 0 0 0 0 0 
0 0 0 0 0 0 0 0 0 0 0 -5.13507 0 2.56754 2.56754 0 0 0 0 0 0 5.13507 0 0 2.56754 -2.56754 2.56754 0 2.56754 -2.56754 2.56754 0 -2.56754 5.13507 0 0 0 0 2.56754 0 0 0 0 0 2.56754 0 0 0 0 0 2.56754 0 0 -2.56754 -2.56754 0 2.56754 0 0 5.13507 0 2.56754 2.56754 0 2.56754 -2.56754 5.13507 0 5.13507 2.56754 2.56754 0 -2.56754 -2.56754 -2.56754 2.56754 2.56754 0 -2.56754 0 2.56754 7.70261 0 0 2.56754 2.56754 5.13507 2.56754 2.56754 0 0 0 0 0 0 0 0 0 0 0 
0 0 0 0 0 0 0 0 0 0 0 149.475 236.021 219.277 300.934 218.949 250.477 270.591 278.978 310.957 364.259 487.368 336.057 446.551 396.595 343.352 378.015 396.934 390.692 421.462 425.719 324.563 397.906 359.235 457.434 339.808 379.733 345.101 400.696 318.671 283.932 403.599 386.9 352.823 399.234 369.817 313.255 438.371 392.33 396.405 376.682 429.967 365.855 440.99 351.338 370.286 420.607 366.554 424.93 478.023 363.431 353.797 343.835 409.967 423.322 404.728 338.146 487.912 376.189 375.37 429.337 419.44 329.794 368.583 352.122 427.759 417.636 398.487 477.976 425.568 324.379 387.044 335.497 263.587 268.173 255.018 231.23 249.962 230.283 267.324 95.2127 0 0 0 0 0 0 0 0 0 

100 -4 4
0 0 0 0 0 0 0 0 0 0 0 0 0 0 0 0 0 0 0 0 0 0 0 0 0 0 0 29.0381 0 0 0 0 0 0 0 0 0 0 0 0 0 0 0 0 0 0 0 0 0 6.5667 0 0 0 0 0 0 0 0 0 0 0 161.573 0 0 0 0 0 0 0 0 0 0 0 0 0 0 0 0 0 0 0 0 0 0 0 0 0 0 0 0 0 0 0 0 0 0 0 0 0 0 
0 0 0 0 0 0 0 0 0 0 0 5.11332 0 5.11332 0 -5.11332 0 0 -5.11332 0 5.11332 0 0 5.11332 10.2266 0 5.11332 5.11332 0 5.11332 0 0 0 0 5.11332 10.2266 0 0 10.2266 20.4533 0 10.2266 10.2266 10.2266 5.11332 0 0 0 10.2266 5.11332 0 5.11332 -10.2266 5.11332 5.11332 5.11332 -5.11332 5.11332 10.2266 0 5.11332 -5.11332 0 0 0 0 10.2266 5.11332 10.2266 -5.11332 0 0 5.11332 -5.11332 0 0 0 5.11332 0 0 10.2266 10.2266 5.11332 0 -5.11332 0 5.11332 0 5.11332 0 0 0 0 0 0 0 0 0 0 0 
0 0 0 0 0 0 0 0 0 0 0 0 2.43729 0.609323 3.04661 1.82797 0.609323 1.82797 2.43729 3.04661 2.43729 1.82797 0.609323 1.21865 1.21865 1.82797 3.04661 1.82797 1.82797 1.82797 3.65594 0.609323 1.21865 0.609323 0.609323 1.21865 3.04661 1.82797 1.82797 1.82797 1.82797 1.82797 0 1.21865 1.82797 1.21865 1.82797 1.21865 3.65594 6.09323 1.21865 1.21865 1.82797 1.21865 2.43729 3.04661 1.21865 1.82797 2.43729 3.04661 3.65594 1.21865 1.21865 1.21865 0.609323 1.21865 1.21865 6.09323 1.21865 0.609323 4.26526 0.609323 1.21865 2.43729 2.43729 2.43729 1.82797 2.43729 0.609323 1.82797 3.04661 1.21865 1.21865 1.21865 1.82797 0.609323 2.43729 3.04661 1.21865 1.21865 0 0 0 0 0 0 0 0 0 0 
0 0 0 0 0 0 0 0 0 0 0 0.564255 3.38553 5.64255 3.38553 2.82128 6.20681 3.94979 1.12851 5.64255 2.82128 7.89957 4.51404 9.59234 2.25702 5.64255 4.51404 3.38553 5.64255 8.46383 6.20681 4.51404 3.38553 6.20681 11.2851 3.38553 4.51404 9.02808 5.0783 10.7208 2.25702 5.64255 2.82128 6.77106 3.94979 3.38553 7.33532 10.1566 3.94979 6.77106 7.33532 5.64255 3.94979 8.46383 7.33532 2.82128 8.46383 5.0783 2.25702 3.38553 5.0783 2.82128 4.51404 5.0783 9.02808 7.33532 4.51404 6.77106 9.02808 5.0783 6.20681 4.51404 6.77106 5.0783 6.77106 6.77106 5.0783 7.33532 3.94979 4.51404 2.82128 2.82128 5.64255 5.0783 4.51404 1.69277 3.38553 2.82128 3.94979 5.0783 0.564255 0 0 0 0 0 0 0 0 0 
0 0 0 0 0 0 0 0 0 0 0 2.37519 2.37519 5.34418 1.78139 2.96899 1.78139 5.34418 2.96899 3.56279 2.96899 1.78139 2.37519 11.2822 4.75038 6.53178 5.34418 2.37519 7.12557 5.34418 1.78139 6.53178 3.56279 5.34418 6.53178 3.56279 5.93798 2.96899 5.34418 7.12557 2.37519 3.56279 4.15658 5.34418 7.71937 7.71937 2.37519 2.37519 2.96899 5.34418 4.75038 2.96899 1.1876 4.75038 5.34418 4.15658 6.53178 4.75038 5.34418 4.15658 3.56279 5.34418 2.96899 0.593798 5.34418 4.15658 4.15658 4.15658 7.71937 5.34418 6.53178 5.34418 5.34418 2.96899 4.75038 5.34418 1.78139 4.15658 5.93798 4.15658 2.96899 7.12557 4.75038 5.34418 4.75038 3.56279 2.96899 1.1876 3.56279 1.78139 0 0 0 0 0 0 0 0 0 0 
0 0 0 0 0 0 0 0 0 0 0 0.185463 1.4837 2.41102 1.11278 1.66917 1.66917 2.22556 1.85463 1.29824 2.96741 1.85463 2.96741 2.78194 2.78194 1.66917 2.41102 1.29824 2.22556 2.96741 1.66917 2.22556 2.22556 2.22556 3.33833 2.78194 2.41102 2.96741 1.66917 1.4837 2.41102 2.59648 2.41102 2.78194 1.66917 3.70926 2.04009 2.78194 3.15287 2.59648 1.11278 3.33833 3.33833 2.22556 3.70926 1.4837 3.33833 2.78194 1.85463 1.4837 3.15287 2.78194 2.41102 2.96741 1.29824 2.41102 3.5238 2.22556 3.33833 3.15287 5.0075 3.33833 2.22556 3.89472 2.22556 3.33833 1.66917 2.22556 3.15287 2.59648 2.41102 1.85463 2.04009 1.4837 2.78194 2.41102 1.4837 1.11278 1.4837 1.11278 0.185463 0 0 0 0 0 0 0 0 0 
0 0 0 0 0 0 0 0 0 0 0 0.369873 1.47949 2.58911 2.0343 1.66443 1.84936 2.21924 1.47949 1.29456 2.0343 2.40417 2.0343 2.0343 3.32886 2.21924 2.77405 2.21924 3.32886 1.10962 2.58911 2.77405 2.21924 3.14392 2.40417 3.51379 3.51379 2.77405 1.66443 1.29456 2.40417 2.77405 1.10962 2.0343 2.95898 3.32886 2.40417 2.58911 2.95898 3.32886 1.47949 2.58911 2.21924 3.51379 2.95898 2.77405 2.40417 1.47949 2.21924 2.95898 2.77405 2.40417 2.40417 1.84936 2.0343 3.69873 3.14392 2.21924 2.58911 2.0343 3.69873 2.40417 2.21924 2.58911 2.40417 2.95898 2.40417 1.47949 3.14392 2.0343 1.84936 2.0343 1.10962 2.77405 0.554809 1.84936 1.84936 2.0343 1.10962 1.84936 0.554809 0 0 0 0 0 0 0 0 0 
0 0 0 0 0 0 0 0 0 0 0 17.1801 57.584 65.2256 68.0723 70.784 76.821 76.0691 81.5662 88.5693 96.522 102.027 100.293 110.688 108.333 113.869 115.876 104.409 111.5 113.437 117.308 109.491 111.037 107.504 104.936 101.913 110.115 117.169 119.211 107.675 112.346 112.575 107.335 107.403 107.359 103.821 105.464 103.429 98.4581 109.422 101.175 111.402 99.9037 100.57 105.911 112.44 108.03 108.348 100.399 102.246 106.323 109.946 108.703 108.84 110.802 108.858 105.906 110.717 121.67 113.722 105.595 106.058 107.082 112.054 100.318 107.793 123.857 108.931 114.301 108.613 99.3345 96.021 93.2923 77.7111 78.8365 74.9532 77.6013 68.9601 62.734 62.4602 17.0784 0 0 0 0 0 0 0 0 0 
0 0 0 0 0 0 0 0 0 0 0 2.56754 2.56754 2.56754 5.13507 0 10.2701 2.56754 0 2.56754 5.13507 -2.56754 10.2701 7.70261 2.56754 12.8377 7.70261 -2.56754 2.56754 5.13507 2.56754 7.70261 0 5.13507 5.13507 5.13507 7.70261 7.70261 -5.13507 -2.56754 5.13507 2.56754 5.13507 7.70261 0 -2.56754 2.56754 0 10.2701 2.56754 0 5.13507 2.56754 5.13507 7.70261 0 12.8377 0 5.13507 10.2701 5.13507 2.56754 2.56754 0 0 5.13507 10.2701 7.70261 15.4052 0 10.2701 2.56754 7.70261 5.13507 -5.13507 7.70261 2.56754 5.13507 -2.56754 2.56754 10.2701 5.13507 -2.56754 0 5.13507 2.56754 0 0 0 -2.56754 0 0 0 0 0 0 0 0 0 0 
0 0 0 0 0 0 0 0 0 0 0 289.551 1200.46 1313.66 1363.97 1384.93 1489.26 1675.75 1747.73 1753.63 1858.85 2252.27 1986.67 2348.69 1987.39 2263.54 2155.21 2099.66 2141.85 2182.6 2125.91 2209.41 2257.47 1992.31 2238.3 2235.57 2224.92 2258.23 2278.77 2406.63 2264.38 1911.82 2262.23 2083.19 2113.61 2358.36 2252.04 2341.97 1963.88 2121.14 2166.59 2115.87 2344.02 2124.72 2187.06 2010.49 2252.34 2113.66 2057.28 1963.15 2133.11 2115.55 2255.43 2055.76 2264.67 2189.1 2261.74 2171.25 2372.67 2086.55 2118.47 2228.02 2083.43 2077.61 2098.31 2125.24 2321.21 2186.84 2266.87 2085.97 2003.86 1874.29 1780.83 1880.55 1649 1293.24 1414.9 1209.71 1330.65 1190.77 327.015 0 0 0 0 0 0 0 0 0 

100 -4 4
0 0 0 0 0 0 0 0 0 0 0 0 0 0 0 0 0 0 0 0 0 0 0 0 0 0 0 29.0381 0 0 0 0 0 0 0 0 0 0 0 0 0 0 0 0 0 0 0 0 0 0 0 0 0 0 0 0 0 0 0 0 0 0 0 0 0 0 0 0 0 0 0 0 0 0 0 0 0 0 0 0 0 0 0 0 0 0 0 0 0 0 0 0 0 0 0 0 0 0 0 0 
0 0 0 0 0 0 0 0 0 0 0 0 0 5.11332 5.11332 0 0 0 0 0 0 0 0 0 0 0 0 0 0 0 5.11332 0 0 5.11332 0 5.11332 0 5.11332 5.11332 0 5.11332 0 0 0 5.11332 0 0 0 5.11332 0 0 5.11332 0 0 5.11332 0 5.11332 5.11332 5.11332 0 5.11332 0 0 5.11332 0 0 0 0 5.11332 0 0 0 0 0 0 0 -5.11332 0 -5.11332 5.11332 0 5.11332 0 5.11332 0 0 5.11332 0 0 0 0 0 0 0 0 0 0 0 0 0 
0 0 0 0 0 0 0 0 0 0 0 0 0 1.21865 0 0.609323 0 0.609323 0.609323 1.21865 0 0 0 0 0 1.82797 0 0 0.609323 0 0.609323 0 0 0 0 0 0 0 0.609323 0.609323 0 0 0.609323 0 0.609323 0.609323 0.609323 0 0 0.609323 0 0.609323 0 0 0 0 0.609323 0.609323 0 0 0 1.21865 0 0 0.609323 0.609323 0.609323 0.609323 0.609323 0.609323 0 0 0 0.609323 1.21865 0 0 0 0 0.609323 0 0 0.609323 0 0 0 0 0.609323 0.609323 0 0 0 0 0 0 0 0 0 0 0 
0 0 0 0 0 0 0 0 0 0 0 0 0 0 3.38553 0 1.12851 0.564255 0.564255 0 1.12851 1.69277 0.564255 1.69277 1.12851 1.12851 2.25702 0.564255 1.69277 1.69277 3.38553 1.12851 1.12851 2.25702 1.12851 2.25702 1.69277 0.564255 0.564255 0 1.69277 1.12851 2.25702 0.564255 0.564255 2.25702 0.564255 0.564255 0.564255 2.25702 1.12851 1.12851 1.69277 1.12851 1.69277 0.564255 2.82128 0 1.12851 0.564255 0 0.564255 0.564255 2.82128 0.564255 2.25702 1.12851 1.12851 1.12851 2.82128 2.25702 1.12851 1.12851 2.25702 1.12851 2.25702 1.69277 2.82128 2.82128 2.82128 2.25702 1.69277 0.564255 0.564255 1.12851 0.564255 1.12851 0.564255 0.564255 1.12851 0 0 0 0 0 0 0 0 0 0 
0 0 0 0 0 0 0 0 0 0 0 0 0 2.37519 0 0.593798 1.78139 1.1876 0.593798 1.78139 1.78139 0.593798 1.1876 1.78139 0 1.78139 0.593798 2.37519 3.56279 2.37519 1.1876 2.37519 2.37519 1.1876 0.593798 1.78139 1.1876 0 1.78139 1.1876 2.37519 0.593798 1.78139 0 2.37519 0.593798 0.593798 1.78139 1.78139 1.78139 1.1876 2.37519 1.1876 0.593798 1.1876 0.593798 2.37519 1.1876 1.1876 1.78139 0 2.96899 1.1876 3.56279 1.1876 0.593798 2.37519 1.1876 2.37519 1.1876 1.78139 0 1.78139 1.1876 0 0.593798 1.1876 1.78139 1.1876 0.593798 1.1876 0.593798 0 0.593798 0 0.593798 1.1876 0.593798 0 0.593798 0.593798 0 0 0 0 0 0 0 0 0 
0 0 0 0 0 0 0 0 0 0 0 0 0.556389 0.370926 0.556389 0.370926 1.29824 0.927315 0.370926 0.370926 0.185463 0.556389 0.741852 0.741852 0.741852 0.185463 0.556389 0.927315 0.556389 1.11278 1.11278 0.741852 1.11278 0.370926 0.185463 1.11278 0.927315 0.927315 1.29824 0.927315 1.11278 0.741852 1.29824 1.11278 1.11278 1.29824 0.556389 0.370926 0.556389 0.556389 0.741852 0.370926 0.741852 0.741852 0.556389 0.556389 0.927315 0.927315 0.927315 1.11278 0.556389 1.85463 0.927315 1.11278 0.185463 1.11278 0.927315 0.741852 0.741852 0.927315 1.11278 0.370926 1.29824 0.741852 1.29824 0.370926 1.11278 0.927315 0.741852 1.4837 0.927315 0.370926 0.556389 0.741852 0.927315 0.556389 0.927315 0.185463 0.556389 0.556389 0.370926 0 0 0 0 0 0 0 0 0 
0 0 0 0 0 0 0 0 0 0 0 0 0.369873 0.369873 0.739746 0.924682 0.739746 0.739746 0.184936 0.369873 0.369873 0.924682 0.369873 0.554809 0.924682 0.924682 0.554809 0.554809 1.47949 0.184936 1.10962 0.554809 0.369873 0.924682 0.554809 0.554809 0.739746 0.924682 0.739746 0.184936 0.924682 0.739746 1.10962 0.554809 0.924682 1.66443 1.29456 0.924682 0.554809 0.554809 0.739746 1.10962 1.10962 0.369873 0.554809 0.554809 1.10962 0.924682 0.554809 1.47949 0.369873 0.739746 0.924682 1.10962 0.554809 1.29456 0.184936 0.924682 0.739746 0 0.924682 1.47949 0.369873 0.924682 0.924682 0.924682 1.10962 0.369873 0.924682 0.554809 0.369873 1.10962 0.369873 0.739746 0.554809 0.924682 0.369873 1.84936 0 0.184936 0 0 0 0 0 0 0 0 0 0 
0 0 0 0 0 0 0 0 0 0 0 6.28266 31.6925 30.0997 28.025 32.6955 33.8359 33.4901 35.323 38.858 39.9874 43.9846 44.3059 43.8485 42.561 44.5775 46.8833 48.0524 51.8001 52.4599 48.051 46.2786 43.7282 49.4715 46.8605 49.6061 48.9849 50.9774 48.4317 48.8702 48.532 48.9637 48.3872 42.4694 43.6284 45.7268 46.8375 46.3262 41.1123 46.4642 44.0723 48.055 46.7146 41.7898 47.2006 51.7235 46.5969 43.5067 44.86 42.7034 43.2926 46.5086 43.5598 46.2525 49.8785 43.5448 46.9202 43.9518 54.7617 52.7002 43.3896 38.4675 46.7481 49.4274 43.455 42.126 48.1426 51.1494 42.1327 40.3385 44.7455 38.2611 42.608 34.415 37.5067 30.7351 32.0583 28.6813 29.3577 25.3174 5.08489 0 0 0 0 0 0 0 0 0 
0 0 0 0 0 0 0 0 0 0 0 0 0 2.56754 0 0 2.56754 -2.56754 0 0 2.56754 0 0 0 0 0 0 0 0 0 0 0 0 2.56754 0 0 10.2701 -2.56754 0 2.56754 0 -2.56754 5.13507 5.13507 0 2.56754 0 2.56754 2.56754 0 2.56754 0 2.56754 2.56754 5.13507 -2.56754 5.13507 0 0 0 2.56754 -5.13507 0 0 0 2.56754 2.56754 0 2.56754 2.56754 0 0 0 0 2.56754 0 5.13507 2.56754 0 0 0 0 0 0 0 0 0 0 0 0 0 0 0 0 0 0 0 0 0 0 
0 0 0 0 0 0 0 0 0 0 0 54.2444 169.699 138.28 175.923 165.092 169.782 142.365 165.346 198.397 187.555 233.449 213.336 218.912 239.263 188.972 201.401 286.329 242.112 190.46 187.721 233.802 234.836 234.248 350.599 269.064 271.896 185.133 244.868 240.21 176.762 271.386 220.454 241.79 185.891 238.539 225.94 208.104 265.813 283.982 191.397 240.619 216.896 242.02 252.84 313.628 196.836 305.779 265.331 273.748 198.267 263.452 229.129 327.27 286.245 215.499 237.632 277.478 300.995 292.765 226.108 229.241 190.704 186.315 202.589 211.026 222.021 264.897 258.06 194.027 227.449 251.372 277.636 210.762 202.899 228.669 151.069 229.28 137.735 197.038 40.3271 0 0 0 0 0 0 0 0 0 

100 -4 4
0 0 0 0 0 0 0 0 0 0 0 0 0 0 0 0 0 0 0 0 0 0 0 0 0 0 0 0 0 0 0 0 0 0 0 0 0 0 0 0 0 0 0 0 0 0 0 0 0 0 0 0 0 0 0 0 0 0 0 0 0 0 0 0 0 0 0 0 0 0 0 0 0 0 0 0 0 0 0 0 0 0 0 0 0 0 0 0 0 0 0 0 0 0 0 0 0 0 0 0 
0 0 0 0 0 0 0 0 0 0 0 0 0 0 0 0 0 0 0 0 0 0 0 0 0 0 0 0 0 0 0 0 0 0 0 0 0 0 0 0 0 0 0 0 0 0 0 0 0 0 0 0 0 0 0 5.11332 0 0 0 0 0 0 0 0 0 0 0 0 0 0 0 0 0 0 0 0 0 0 0 0 0 0 0 0 0 0 0 0 0 0 0 0 0 0 0 0 0 0 0 0 
0 0 0 0 0 0 0 0 0 0 0 0 0 0 0 0 0 0 0 0 0 0 0 0 0 0 0 0 0 0 0 0 0 0 0 0 0 0 0 0 0 0 0 0 0 0 0 0 0 0 0 0 0 0 0 0.609323 0 0 0 0 0 0 0 0 0 0 0 0 0 0 0 0 0 0 0 0 0 0 0.609323 0 0 0 0 0 0 0 0 0 0 0 0 0 0 0 0 0 0 0 0 0 
0 0 0 0 0 0 0 0 0 0 0 0 0.564255 0.564255 0 0 0 0.564255 0.564255 0 0 0.564255 1.12851 0 1.12851 0 0.564255 1.12851 0 1.12851 0 0 0 0.564255 1.12851 0 1.12851 0 0 0 0.564255 0 0 0.564255 0 1.12851 0 0.564255 1.12851 0 0 0 0 0 0 0.564255 0.564255 0 0 0.564255 0 0 0 0 0.564255 0 0 0 0.564255 1.12851 0 0 0 1.12851 0 0 0 0.564255 0 0 0 0 0 0 0 0 0 0 0 0 0 0 0 0 0 0 0 0 0 0 
0 0 0 0 0 0 0 0 0 0 0 0 0 0 0 0 0 0 0 0 0 0.593798 0 0 0 0.593798 1.1876 0 0.593798 0 0 0 0 0 0 1.1876 0.593798 0 0 0 0 0 0 0.593798 0 0 0.593798 0 0.593798 0.593798 0 0 0 0 0 0.593798 0.593798 0 0 0 0 0.593798 0 0 0 1.1876 0 0.593798 0.593798 0.593798 0 0 0 0.593798 0.593798 0 0 0 0 0 0 0 0 0 0 0.593798 0 0 0.593798 0 0 0 0 0 0 0 0 0 0 0 
0 0 0 0 0 0 0 0 0 0 0 0.185463 0 0.370926 0.185463 0 0 0.556389 0.185463 0 0.185463 0.185463 0.185463 0 0.370926 0 0.370926 0 0.741852 0.370926 0.185463 0.185463 0.185463 0.370926 0.185463 0.185463 0.185463 0 0 0 0.556389 0 0.370926 0.185463 0.370926 0 0 0 0.185463 0.185463 0.185463 0.185463 0 0 0 0 0 0 0.556389 0.185463 0.185463 0.370926 0.185463 0.370926 0 0 0 0 0.185463 0.185463 0.185463 0.370926 0.556389 0.185463 0.185463 0.185463 0.185463 0.370926 0 0 0 0 0 0 0 0 0.185463 0 0.185463 0.185463 0 0 0 0 0 0 0 0 0 0 
0 0 0 0 0 0 0 0 0 0 0 0.184936 0.184936 0.739746 0.184936 0 0 0.369873 0 0 0.184936 0.184936 0 0.184936 0.184936 0 0 0 0.184936 0 0.184936 0.369873 0.184936 0 0 0 0.554809 0.184936 0.184936 0.554809 0 0 0 0 0 0.369873 0.184936 0.554809 0.184936 0.184936 0.184936 0.184936 0 0 0 0.369873 0.184936 0.369873 0 0 0.184936 0.554809 0 0.554809 0.184936 0 0.184936 0.369873 0 0.184936 0.369873 0.184936 0 0.184936 0.739746 0 0.369873 0.184936 0.184936 0 0 0.369873 0 0 0.184936 0.184936 0.369873 0 0 0 0 0 0 0 0 0 0 0 0 0 
0 0 0 0 0 0 0 0 0 0 0 2.12798 7.0515 7.51125 9.74194 11.3617 8.77981 8.51428 11.7599 10.2377 10.8917 13.492 13.4416 11.9703 9.92131 12.7537 16.1384 13.2033 12.5197 15.5807 13.6529 11.382 14.0251 13.6137 13.633 13.2658 12.6742 10.6049 14.0914 11.8801 9.77835 12.7764 13.3245 13.072 10.2682 10.7561 13.8879 13.0556 14.7833 11.1766 11.9184 14.1321 12.7382 11.2677 13.7795 10.7885 13.6487 14.7033 12.1515 13.4068 12.5081 11.7987 14.0173 14.0817 12.7043 14.4674 10.9291 12.3152 11.1311 14.3836 12.2377 14.1302 14.0904 10.9984 11.0313 13.5303 12.9156 12.4369 12.7769 12.7866 12.5841 12.6418 14.0443 10.7464 8.61064 9.80349 7.61939 5.96866 8.09172 8.71191 1.74276 0 0 0 0 0 0 0 0 0 
0 0 0 0 0 0 0 0 0 0 0 0 0 0 0 0 0 0 0 0 0 0 0 0 0 0 0 2.56754 0 0 0 2.56754 0 0 0 2.56754 0 0 0 0 0 0 2.56754 0 0 2.56754 0 0 -2.56754 0 0 0 0 0 0 2.56754 0 0 0 0 0 0 0 0 0 0 0 0 0 0 0 0 0 0 0 0 -2.56754 0 0 0 0 -2.56754 0 0 0 0 0 0 2.56754 2.56754 0 0 0 0 0 0 0 0 0 0 
0 0 0 0 0 0 0 0 0 0 0 -11.1222 22.8508 5.0592 31.0026 41.6278 24.7799 31.9347 17.3716 17.4175 16.6139 24.3376 26.2832 25.9004 42.4904 25.7837 15.9219 25.5364 19.8168 19.8809 30.9556 25.3352 41.8752 23.2786 15.7688 37.991 17.9404 24.1879 31.0467 32.0342 36.7966 22.1927 26.6087 34.4908 52.0199 56.8613 36.9369 28.0012 24.8272 41.9535 21.7791 23.4921 12.6689 32.8787 7.07273 38.051 29.6441 26.3727 25.4835 25.4789 0.64799 22.4453 0.97142 42.0804 24.5095 34.8526 36.6653 23.4608 12.3004 11.8077 51.2781 22.1636 41.6543 35.9122 14.1374 53.9612 19.5545 23.5319 33.0508 17.8168 46.7218 22.8482 40.8687 15.6628 31.1294 5.10942 21.4645 22.4996 -0.500738 22.9511 0.0167013 0 0 0 0 0 0 0 0 0 

100 -4 4
0 0 0 0 0 0 0 0 0 0 0 0 0 0 0 0 0 0 0 0 0 0 0 0 0 0 0 0 0 0 0 0 0 0 0 0 0 0 0 0 0 0 0 0 0 0 0 0 0 0 0 0 0 0 0 0 0 0 0 0 0 0 0 0 0 0 0 0 0 0 0 0 0 0 0 0 0 0 0 0 0 0 0 0 0 0 0 0 0 0 0 0 0 0 0 0 0 0 0 0 
0 0 0 0 0 0 0 0 0 0 0 0 0 0 0 0 0 0 0 0 0 0 0 0 0 0 0 0 0 0 0 0 0 0 0 0 0 0 0 0 0 0 0 0 0 0 0 0 0 0 0 0 0 0 0 0 0 0 0 0 0 0 0 0 0 0 0 0 0 0 0 0 0 0 0 0 0 0 0 0 0 0 0 0 0 0 0 0 0 0 0 0 0 0 0 0 0 0 0 0 
0 0 0 0 0 0 0 0 0 0 0 0 0 0 0 0 0 0 0 0 0 0 0 0 0 0 0 0 0 0 0 0 0 0 0 0 0 0 0 0 0 0 0 0 0 0 0 0 0 0 0 0 0 0 0 0 0 0 0 0 0 0 0 0 0 0 0 0 0 0 0 0 0 0 0 0 0 0 0 0 0 0 0 0 0 0 0 0 0 0 0 0 0 0 0 0 0 0 0 0 
0 0 0 0 0 0 0 0 0 0 0 0 0 0 0 0 0 0.564255 0 0 0 0.564255 0 0 0 0 0 0 0 0.564255 0 0.564255 0 0 0 0 0 0 0.564255 0 0 0.564255 0 0 0 1.12851 0 0 0 0 0 0 0 0 0 0 0 0 0 0 0 0 0 0 0 0 0 0 0 0 0 0 0 0 0 0 0 0 0 0 0 0 0 0 0 0 0 0 0 0 0 0 0 0 0 0 0 0 0 0 
0 0 0 0 0 0 0 0 0 0 0 0 0 0 0 0 0 0 0 0 0 0 0 0 0 0.593798 0 0 0.593798 0 0 0 0 0 0.593798 0 0 0 0 0 0 0 0 0 0 0 0 0 0 0 0 0 0 0 0 0 0 0 0 0 0 0.593798 0 0.593798 0 0 0 0 0 0 0 0 0 0 0 0 0 0 0 0 0 0 0 0 0 0 0 0 0 0 0 0 0 0 0 0 0 0 0 0 
0 0 0 0 0 0 0 0 0 0 0 0 0 0 0.185463 0.185463 0 0 0 0.185463 0.185463 0 0 0.185463 0 0 0.185463 0 0 0 0 0 0.185463 0 0.185463 0 0 0 0 0 0 0 0 0 0 0 0 0 0 0 0 0 0 0.185463 0.185463 0 0 0 0 0 0 0 0 0.185463 0 0.185463 0.185463 0.185463 0 0.185463 0 0 0 0 0 0 0 0 0 0 0 0 0 0 0 0 0 0 0 0 0 0 0 0 0 0 0 0 0 0 
0 0 0 0 0 0 0 0 0 0 0 0 0 0.184936 0 0 0.184936 0 0 0 0.184936 0 0 0 0 0 0 0 0 0.184936 0 0 0.184936 0 0 0 0 0 0 0 0 0 0.184936 0 0.184936 0 0.184936 0 0 0.184936 0 0 0 0 0 0 0 0 0 0 0 0 0 0 0 0.184936 0 0 0.184936 0.184936 0 0 0 0.184936 0 0 0.184936 0 0 0 0 0 0 0.184936 0 0 0 0.184936 0 0 0 0 0 0 0 0 0 0 0 0 
0 0 0 0 0 0 0 0 0 0 0 1.19285 2.07806 1.65167 1.91669 3.09698 2.79316 2.33434 1.2515 2.27186 2.28298 2.93323 2.9671 2.58918 3.14833 3.48458 1.92543 2.38188 1.92942 2.01796 2.63815 2.04657 2.36201 3.26073 4.7186 3.11828 2.65708 2.75199 3.23942 3.19969 3.50444 2.76073 3.90223 1.74182 4.32081 2.41431 2.52432 5.05628 3.19189 2.98552 1.37408 3.18951 3.57711 3.05818 2.80191 2.22051 3.2283 3.362 2.0868 3.5558 2.57806 2.8407 3.34943 1.22146 2.81065 2.65946 1.34403 4.15468 2.57568 3.17838 3.78203 2.78696 1.55914 2.57568 1.85039 3.15801 2.4744 2.82083 3.64833 3.00683 2.4531 1.78299 3.91335 3.67838 1.82416 2.43561 1.18028 1.85421 0.386155 2.25293 0.1938 0 0 0 0 0 0 0 0 0 
0 0 0 0 0 0 0 0 0 0 0 0 0 0 0 0 0 0 0 0 0 0 0 0 0 0 0 0 0 0 0 0 0 0 0 0 0 0 0 0 0 0 0 0 0 0 0 0 0 0 0 0 0 0 0 0 0 0 0 0 0 0 0 0 0 0 0 0 0 0 0 0 0 0 0 0 0 0 0 0 0 0 0 0 0 0 0 0 0 0 0 0 0 0 0 0 0 0 0 0 
0 0 0 0 0 0 0 0 0 0 0 9.04087 -1.69848 -1.70878 0 1.87921 -5.1355 0.171147 5.71212 -2.33779 5.13621 7.7045 5.13692 7.69932 7.70432 -4.62206 3.42815 15.4086 -0.49158 -4.27527 -3.59929 -11.2674 17.1174 3.59948 2.56811 14.0873 5.31675 5.1355 8.39321 1.87921 1.70806 5.1364 0.292328 -4.27617 6.09565 7.71889 -0.0120159 8.7355 10.4436 5.99268 -6.22657 6.1674 5.13621 11.1325 0.0134373 0.760643 3.86984 5.14394 2.56811 4.27617 10.2731 3.257 4.27617 -2.56811 2.56811 5.99625 15.5918 3.42852 0.00844482 -0.00018838 5.15078 -1.53692 -6.47257 1.0319 -5.11707 0.270544 0.00090175 8.56436 7.70469 -2.55966 2.5731 12.849 3.42796 1.71765 4.28819 10.2724 3.59929 3.25681 7.61521 0 0 0 0 0 0 0 0 0 0 0 

100 -4 4
0 0 0 0 0 0 0 0 0 0 0 0 0 0 0 0 0 0 0 0 0 0 0 0 0 0 0 0 0 0 0 0 0 0 0 0 0 0 0 0 0 0 0 0 0 0 0 0 0 0 0 0 0 0 0 0 0 0 0 0 0 0 0 0 0 0 0 0 0 0 0 0 0 0 0 0 0 0 0 0 0 0 0 0 0 0 0 0 0 0 0 0 0 0 0 0 0 0 0 0 
0 0 0 0 0 0 0 0 0 0 0 0 0 0 0 0 0 0 0 0 0 0 0 0 0 0 0 0 0 0 0 0 0 0 0 0 0 0 0 0 0 0 0 0 0 0 0 0 0 0 0 0 0 0 0 0 0 0 0 0 0 0 0 0 0 0 0 0 0 0 0 0 0 0 0 0 0 0 0 0 0 0 0 0 0 0 0 0 0 0 0 0 0 0 0 0 0 0 0 0 
0 0 0 0 0 0 0 0 0 0 0 0 0 0 0 0 0 0 0 0 0 0 0 0 0 0 0 0 0 0 0 0 0 0 0 0 0 0 0 0 0 0 0 0 0 0 0 0 0 0 0 0 0 0 0 0 0 0 0 0 0 0 0 0 0 0 0 0 0 0 0 0 0 0 0 0 0 0 0 0 0 0 0 0 0 0 0 0 0 0 0 0 0 0 0 0 0 0 0 0 
0 0 0 0 0 0 0 0 0 0 0 0 0 0 0 0 0 0 0 0 0 0 0 0 0 0 0 0 0 0 0 0 0 0 0 0 0 0 0 0 0 0 0 0 0 0 0 0 0 0 0 0 0 0 0 0 0 0 0 0 0.564255 0 0 0 0.564255 0 0 0 0 0 0 0 0 0 0 0 0 0 0 0 0 0 0 0 0 0 0 0 0 0 0 0 0 0 0 0 0 0 0 0 
0 0 0 0 0 0 0 0 0 0 0 0 0 0 0 0 0 0 0 0 0 0 0 0 0 0 0 0 0 0 0 0 0 0 0 0 0 0 0 0 0 0 0 0 0 0 0 0 0 0 0 0 0 0 0 0 0 0 0 0 0 0 0 0 0 0 0 0 0 0 0 0 0 0 0 0 0 0 0 0 0 0 0 0 0 0 0 0 0 0 0 0 0 0 0 0 0 0 0 0 
0 0 0 0 0 0 0 0 0 0 0 0 0 0 0 0 0 0 0 0 0 0 0 0 0 0 0 0 0 0 0 0 0 0 0 0 0 0 0 0 0 0 0 0 0 0 0 0 0 0 0 0 0 0 0 0 0 0 0 0 0 0 0 0 0 0 0 0 0.185463 0 0 0 0 0 0 0 0 0 0 0 0 0 0 0 0 0 0 0 0 0 0 0 0 0 0 0 0 0 0 0 
0 0 0 0 0 0 0 0 0 0 0 0 0 0 0 0 0 0 0 0 0 0.184936 0 0 0 0 0 0 0 0 0 0 0 0 0 0 0 0 0 0 0 0 0 0 0 0 0.184936 0 0 0 0 0 0 0 0 0 0 0 0 0 0 0 0 0 0 0 0 0 0 0 0 0 0 0 0 0 0 0 0 0 0 0 0 0.184936 0 0 0 0 0 0 0 0 0 0 0 0 0 0 0 0 
0 0 0 0 0 0 0 0 0 0 0 0 0 0.3876 0.325121 0.682671 0.0300498 0.101271 0 0.876471 0.631313 0.437513 0.4477 0.336242 0.41765 0.731649 0.742771 0.560092 0.783942 0.4477 0.753892 0.61145 0.61145 0.753892 0.1938 0.336242 0.6415 0.22385 0.336242 0.101271 0.295071 0.0712211 0.537849 0.682671 0.458821 0.0712211 0.876471 1.09013 0.7752 0.518921 0.723842 0.366292 0.650241 0.652621 0.35517 1.0291 0.8353 0.284884 0.997605 0.601263 0.6415 0.488871 0.41765 0.457376 0.22385 0.243713 0.5814 0.876471 0.6415 0.682671 0.437513 1.19285 0.4477 0.1938 0.682671 0.906521 0.7752 0.437513 0.54897 0.530042 0.172492 1.19285 0.458821 0.671549 0.917642 0.265021 0.458821 0.295071 0.3876 0.22385 0.142442 0 0 0 0 0 0 0 0 0 
0 0 0 0 0 0 0 0 0 0 0 0 0 0 0 0 0 0 0 0 0 0 0 0 0 0 0 0 0 0 0 0 0 0 0 0 0 0 0 0 0 0 0 0 0 0 0 0 0 0 0 0 0 0 0 0 0 0 0 0 0 0 0 0 0 0 0 0 0 0 0 0 0 0 0 0 0 0 0 0 0 0 0 0 0 0 0 0 0 0 0 0 0 0 0 0 0 0 0 0 
0 0 0 0 0 0 0 0 0 0 0 0 2.56811 2.56811 0 -2.56811 0 0 -0.00844482 0 0 0 -0.86004 0.86004 1.69962 5.13621 0 0 -2.56811 0 2.57769 5.99625 7.70432 -0.171147 6.47276 5.13621 -1.70806 0 0 2.39696 2.56811 5.13621 0 0 0.0095805 0 -0.00071337 2.6675 0.86004 0 0 -5.99625 0.00018838 2.56811 0 -0.00018838 -2.56811 2.56811 -0.0909527 5.13621 0 -0.00018838 0 2.57769 2.56811 2.55852 0 -2.56811 0 -2.39696 -0.171147 5.13621 0.86004 0 2.56811 0 0.86004 2.56811 0 0 0.00499251 -0.00018838 2.56811 0 2.56829 0.86004 0 0 0 0 0 0 0 0 0 0 0 0 0 0 

100 -4 4
0 0 0 0 0 0 0 0 0 0 0 0 0 0 0 0 0 0 0 0 0 0 0 0 0 0 0 0 0 0 0 0 0 0 0 0 0 0 0 0 0 0 0 0 0 0 0 0 0 0 0 0 0 0 0 0 0 0 0 0 0 0 0 0 0 0 0 0 0 0 0 0 0 0 0 0 0 0 0 0 0 0 0 0 0 0 0 0 0 0 0 0 0 0 0 0 0 0 0 0 
0 0 0 0 0 0 0 0 0 0 0 0 0 0 0 0 0 0 0 0 0 0 0 0 0 0 0 0 0 0 0 0 0 0 0 0 0 0 0 0 0 0 0 0 0 0 0 0 0 0 0 0 0 0 0 0 0 0 0 0 0 0 0 0 0 0 0 0 0 0 0 0 0 0 0 0 0 0 0 0 0 0 0 0 0 0 0 0 0 0 0 0 0 0 0 0 0 0 0 0 
0 0 0 0 0 0 0 0 0 0 0 0 0 0 0 0 0 0 0 0 0 0 0 0 0 0 0 0 0 0 0 0 0 0 0 0 0 0 0 0 0 0 0 0 0 0 0 0 0 0 0 0 0 0 0 0 0 0 0 0 0 0 0 0 0 0 0 0 0 0 0 0 0 0 0 0 0 0 0 0 0 0 0 0 0 0 0 0 0 0 0 0 0 0 0 0 0 0 0 0 
0 0 0 0 0 0 0 0 0 0 0 0 0 0 0 0 0 0 0 0 0 0 0 0 0 0 0 0 0 0 0 0 0 0 0 0 0 0 0 0 0 0 0 0 0 0 0 0 0 0 0 0 0 0 0 0 0 0 0 0 0 0 0 0 0 0 0 0 0 0 0 0 0 0 0 0 0 0 0 0 0 0 0 0 0 0 0 0 0 0 0 0 0 0 0 0 0 0 0 0 
0 0 0 0 0 0 0 0 0 0 0 0 0 0 0 0 0 0 0 0 0 0 0 0 0 0 0 0 0 0 0 0 0 0 0 0 0 0 0 0 0 0 0 0 0 0 0 0 0 0 0 0 0 0 0 0 0 0 0 0 0 0 0 0 0 0 0 0 0 0 0 0 0 0 0 0 0 0 0 0 0 0 0 0 0 0 0 0 0 0 0 0 0 0 0 0 0 0 0 0 
0 0 0 0 0 0 0 0 0 0 0 0 0 0 0 0 0 0 0 0 0 0 0 0 0 0 0 0 0 0 0 0 0 0 0 0 0 0 0 0 0 0 0 0 0 0 0 0 0 0 0 0 0 0 0 0 0 0 0 0 0 0 0 0 0 0 0 0 0 0 0 0 0 0 0 0 0 0 0 0 0 0 0 0 0 0 0 0 0 0 0 0 0 0 0 0 0 0 0 0 
0 0 0 0 0 0 0 0 0 0 0 0 0 0 0 0 0 0 0 0 0 0 0 0 0 0 0 0 0 0 0 0 0 0 0 0 0 0 0 0 0 0 0 0 0 0 0 0 0 0 0 0 0 0 0 0 0 0 0 0 0 0 0 0 0 0 0 0 0 0 0 0 0 0 0 0 0 0 0 0 0 0 0 0 0 0 0 0 0 0 0 0 0 0 0 0 0 0 0 0 
0 0 0 0 0 0 0 0 0 0 0 0 0 0.1938 0 0 0 0 0 0.1938 0.22385 0 0 0.0300498 0.101271 0 0.0712211 0.0712211 0.0300498 0.0300498 0.1938 0 0.1938 0 0 0.1938 0.336242 0.1938 0.0300498 0.1938 0.265021 0.265021 0.0300498 0 0.0300498 0 0 0.265021 0 0 0.0300498 0 0.142442 0.7752 0.1938 0.22385 0.1938 0 0.101271 0 0 0.0300498 0 0.0712211 0.1938 0.488871 0.142442 0 0.0300498 0 0.1938 0.3876 0 0 0.3876 0.0712211 0.0712211 0.1938 0.3876 0.265021 0.1938 0.1938 0 0.1938 0 0 0 0 0 0 0.0300498 0 0 0 0 0 0 0 0 0 
0 0 0 0 0 0 0 0 0 0 0 0 0 0 0 0 0 0 0 0 0 0 0 0 0 0 0 0 0 0 0 0 0 0 0 0 0 0 0 0 0 0 0 0 0 0 0 0 0 0 0 0 0 0 0 0 0 0 0 0 0 0 0 0 0 0 0 0 0 0 0 0 0 0 0 0 0 0 0 0 0 0 0 0 0 0 0 0 0 0 0 0 0 0 0 0 0 0 0 0 
0 0 0 0 0 0 0 0 0 0 0 0 0 2.56811 0 0 0 0 0 0 0 0 0 0 0 0 0 0 0 -0.0993975 0 0 0 0 0 -2.56811 0 0 0 0 0 0 0 0 0 0 0 0 0.00018838 0 0 0 0 0 0 0 0 0 0 0 0 0 0 0 0 0 0 0 0 0 0 0 0 0 0 0 0 0 0 0 0 0.171147 0 0 0 0.86004 0 0 0 0 0 0 0 0 0 0 0 0 0 0 

100 -4 4
0 0 0 0 0 0 0 0 0 0 0 0 0 0 0 0 0 0 0 0 0 0 0 0 0 0 0 0 0 0 0 0 0 0 0 0 0 0 0 0 0 0 0 0 0 0 0 0 0 0 0 0 0 0 0 0 0 0 0 0 0 0 0 0 0 0 0 0 0 0 0 0 0 0 0 0 0 0 0 0 0 0 0 0 0 0 0 0 0 0 0 0 0 0 0 0 0 0 0 0 
0 0 0 0 0 0 0 0 0 0 0 0 0 0 0 0 0 0 0 0 0 0 0 0 0 0 0 0 0 0 0 0 0 0 0 0 0 0 0 0 0 0 0 0 0 0 0 0 0 0 0 0 0 0 0 0 0 0 0 0 0 0 0 0 0 0 0 0 0 0 0 0 0 0 0 0 0 0 0 0 0 0 0 0 0 0 0 0 0 0 0 0 0 0 0 0 0 0 0 0 
0 0 0 0 0 0 0 0 0 0 0 0 0 0 0 0 0 0 0 0 0 0 0 0 0 0 0 0 0 0 0 0 0 0 0 0 0 0 0 0 0 0 0 0 0 0 0 0 0 0 0 0 0 0 0 0 0 0 0 0 0 0 0 0 0 0 0 0 0 0 0 0 0 0 0 0 0 0 0 0 0 0 0 0 0 0 0 0 0 0 0 0 0 0 0 0 0 0 0 0 
0 0 0 0 0 0 0 0 0 0 0 0 0 0 0 0 0 0 0 0 0 0 0 0 0 0 0 0 0 0 0 0 0 0 0 0 0 0 0 0 0 0 0 0 0 0 0 0 0 0 0 0 0 0 0 0 0 0 0 0 0 0 0 0 0 0 0 0 0 0 0 0 0 0 0 0 0 0 0 0 0 0 0 0 0 0 0 0 0 0 0 0 0 0 0 0 0 0 0 0 
0 0 0 0 0 0 0 0 0 0 0 0 0 0 0 0 0 0 0 0 0 0 0 0 0 0 0 0 0 0 0 0 0 0 0 0 0 0 0 0 0 0 0 0 0 0 0 0 0 0 0 0 0 0 0 0 0 0 0 0 0 0 0 0 0 0 0 0 0 0 0 0 0 0 0 0 0 0 0 0 0 0 0 0 0 0 0 0 0 0 0 0 0 0 0 0 0 0 0 0 
0 0 0 0 0 0 0 0 0 0 0 0 0 0 0 0 0 0 0 0 0 0 0 0 0 0 0 0 0 0 0 0 0 0 0 0 0 0 0 0 0 0 0 0 0 0 0 0 0 0 0 0 0 0 0 0 0 0 0 0 0 0 0 0 0 0 0 0 0 0 0 0 0 0 0 0 0 0 0 0 0 0 0 0 0 0 0 0 0 0 0 0 0 0 0 0 0 0 0 0 
0 0 0 0 0 0 0 0 0 0 0 0 0 0 0 0 0 0 0 0 0 0 0 0 0 0 0 0 0 0 0 0 0 0 0 0 0 0 0 0 0 0 0 0 0 0 0 0 0 0 0 0 0 0 0 0 0 0 0 0 0 0 0 0 0 0 0 0 0 0 0 0 0 0 0 0 0 0 0 0 0 0 0 0 0 0 0 0 0 0 0 0 0 0 0 0 0 0 0 0 
0 0 0 0 0 0 0 0 0 0 0 0 0 0 0.1938 0 0 0.0712211 0 0 0 0 0 0 0 0 0 0 0 0 0.0300498 0 0 0 0 0 0 0.0300498 0.1938 0 0 0 0 0 0 0 0 0 0 0 0.1938 0 0 0 0 0 0 0.1938 0 0 0 0 0 0.1938 0 0.0712211 0 0 0 0 0 0 0 0.1938 0 0 0.1938 0.1938 0 0 0 0 0 0 0 0 0 0 0 0 0 0 0 0 0 0 0 0 0 0 
0 0 0 0 0 0 0 0 0 0 0 0 0 0 0 0 0 0 0 0 0 0 0 0 0 0 0 0 0 0 0 0 0 0 0 0 0 0 0 0 0 0 0 0 0 0 0 0 0 0 0 0 0 0 0 0 0 0 0 0 0 0 0 0 0 0 0 0 0 0 0 0 0 0 0 0 0 0 0 0 0 0 0 0 0 0 0 0 0 0 0 0 0 0 0 0 0 0 0 0 
0 0 0 0 0 0 0 0 0 0 0 0 0 0 0 0 0 0 0 0 0 0 0 0 0 0 0 0 0 0 0 0 0 0 0 0 0 0 0 0 0 0 0 0 0 0 0 0 0 0 0.00018838 0 0 0 0 0 0 0 0 0 0 0 0 0 2.56811 0 2.56811 0 0 0 0 0 0 0 0 0 0 0 0 0 0 0 0 0 0 0 0 0 0 0 0 0 0 0 0 0 0 0 0 0 

100 -4 4
0 0 0 0 0 0 0 0 0 0 0 0 0 0 0 0 0 0 0 0 0 0 0 0 0 0 0 0 0 0 0 0 0 0 0 0 0 0 0 0 0 0 0 0 0 0 0 0 0 0 0 0 0 0 0 0 0 0 0 0 0 0 0 0 0 0 0 0 0 0 0 0 0 0 0 0 0 0 0 0 0 0 0 0 0 0 0 0 0 0 0 0 0 0 0 0 0 0 0 0 
0 0 0 0 0 0 0 0 0 0 0 0 0 0 0 0 0 0 0 0 0 0 0 0 0 0 0 0 0 0 0 0 0 0 0 0 0 0 0 0 0 0 0 0 0 0 0 0 0 0 0 0 0 0 0 0 0 0 0 0 0 0 0 0 0 0 0 0 0 0 0 0 0 0 0 0 0 0 0 0 0 0 0 0 0 0 0 0 0 0 0 0 0 0 0 0 0 0 0 0 
0 0 0 0 0 0 0 0 0 0 0 0 0 0 0 0 0 0 0 0 0 0 0 0 0 0 0 0 0 0 0 0 0 0 0 0 0 0 0 0 0 0 0 0 0 0 0 0 0 0 0 0 0 0 0 0 0 0 0 0 0 0 0 0 0 0 0 0 0 0 0 0 0 0 0 0 0 0 0 0 0 0 0 0 0 0 0 0 0 0 0 0 0 0 0 0 0 0 0 0 
0 0 0 0 0 0 0 0 0 0 0 0 0 0 0 0 0 0 0 0 0 0 0 0 0 0 0 0 0 0 0 0 0 0 0 0 0 0 0 0 0 0 0 0 0 0 0 0 0 0 0 0 0 0 0 0 0 0 0 0 0 0 0 0 0 0 0 0 0 0 0 0 0 0 0 0 0 0 0 0 0 0 0 0 0 0 0 0 0 0 0 0 0 0 0 0 0 0 0 0 
0 0 0 0 0 0 0 0 0 0 0 0 0 0 0 0 0 0 0 0 0 0 0 0 0 0 0 0 0 0 0 0 0 0 0 0 0 0 0 0 0 0 0 0 0 0 0 0 0 0 0 0 0 0 0 0 0 0 0 0 0 0 0 0 0 0 0 0 0 0 0 0 0 0 0 0 0 0 0 0 0 0 0 0 0 0 0 0 0 0 0 0 0 0 0 0 0 0 0 0 
0 0 0 0 0 0 0 0 0 0 0 0 0 0 0 0 0 0 0 0 0 0 0 0 0 0 0 0 0 0 0 0 0 0 0 0 0 0 0 0 0 0 0 0 0 0 0 0 0 0 0 0 0 0 0 0 0 0 0 0 0 0 0 0 0 0 0 0 0 0 0 0 0 0 0 0 0 0 0 0 0 0 0 0 0 0 0 0 0 0 0 0 0 0 0 0 0 0 0 0 
0 0 0 0 0 0 0 0 0 0 0 0 0 0 0 0 0 0 0 0 0 0 0 0 0 0 0 0 0 0 0 0 0 0 0 0 0 0 0 0 0 0 0 0 0 0 0 0 0 0 0 0 0 0 0 0 0 0 0 0 0 0 0 0 0 0 0 0 0 0 0 0 0 0 0 0 0 0 0 0 0 0 0 0 0 0 0 0 0 0 0 0 0 0 0 0 0 0 0 0 
0 0 0 0 0 0 0 0 0 0 0 0 0 0 0 0 0 0 0 0 0 0.1938 0 0 0 0 0 0 0 0 0 0 0 0 0.1938 0 0 0 0 0 0 0 0 0 0 0 0 0 0.0712211 0 0 0 0 0 0 0 0 0 0 0 0 0 0 0 0 0 0 0 0 0 0 0 0 0 0 0 0 0 0 0 0 0 0 0 0 0 0 0 0 0 0 0 0 0 0 0 0 0 0 0 
0 0 0 0 0 0 0 0 0 0 0 0 0 0 0 0 0 0 0 0 0 0 0 0 0 0 0 0 0 0 0 0 0 0 0 0 0 0 0 0 0 0 0 0 0 0 0 0 0 0 0 0 0 0 0 0 0 0 0 0 0 0 0 0 0 0 0 0 0 0 0 0 0 0 0 0 0 0 0 0 0 0 0 0 0 0 0 0 0 0 0 0 0 0 0 0 0 0 0 0 
0 0 0 0 0 0 0 0 0 0 0 0 0 0 0 0 0 0 0 0 0 0 0 0 0 0 0 0 0 0 0 0 0 0 0 0 0 0 0 0 0 0 0 0 0 0 0 0 0 0 0 0 0 0 0 0 0 0 0 0 0 0 0 0 0 0 0 0 0 0 0 0 0 0 0 0 0 0 0 0 0 0 0 0 0 0 0 0 0 0 0 0 0 0 0 0 0 0 0 0 

100 -4 4
0 0 0 0 0 0 0 0 0 0 0 0 0 0 0 0 0 0 0 0 0 0 0 0 0 0 0 0 0 0 0 0 0 0 0 0 0 0 0 0 0 0 0 0 0 0 0 0 0 0 0 0 0 0 0 0 0 0 0 0 0 0 0 0 0 0 0 0 0 0 0 0 0 0 0 0 0 0 0 0 0 0 0 0 0 0 0 0 0 0 0 0 0 0 0 0 0 0 0 0 
0 0 0 0 0 0 0 0 0 0 0 0 0 0 0 0 0 0 0 0 0 0 0 0 0 0 0 0 0 0 0 0 0 0 0 0 0 0 0 0 0 0 0 0 0 0 0 0 0 0 0 0 0 0 0 0 0 0 0 0 0 0 0 0 0 0 0 0 0 0 0 0 0 0 0 0 0 0 0 0 0 0 0 0 0 0 0 0 0 0 0 0 0 0 0 0 0 0 0 0 
0 0 0 0 0 0 0 0 0 0 0 0 0 0 0 0 0 0 0 0 0 0 0 0 0 0 0 0 0 0 0 0 0 0 0 0 0 0 0 0 0 0 0 0 0 0 0 0 0 0 0 0 0 0 0 0 0 0 0 0 0 0 0 0 0 0 0 0 0 0 0 0 0 0 0 0 0 0 0 0 0 0 0 0 0 0 0 0 0 0 0 0 0 0 0 0 0 0 0 0 
0 0 0 0 0 0 0 0 0 0 0 0 0 0 0 0 0 0 0 0 0 0 0 0 0 0 0 0 0 0 0 0 0 0 0 0 0 0 0 0 0 0 0 0 0 0 0 0 0 0 0 0 0 0 0 0 0 0 0 0 0 0 0 0 0 0 0 0 0 0 0 0 0 0 0 0 0 0 0 0 0 0 0 0 0 0 0 0 0 0 0 0 0 0 0 0 0 0 0 0 
0 0 0 0 0 0 0 0 0 0 0 0 0 0 0 0 0 0 0 0 0 0 0 0 0 0 0 0 0 0 0 0 0 0 0 0 0 0 0 0 0 0 0 0 0 0 0 0 0 0 0 0 0 0 0 0 0 0 0 0 0 0 0 0 0 0 0 0 0 0 0 0 0 0 0 0 0 0 0 0 0 0 0 0 0 0 0 0 0 0 0 0 0 0 0 0 0 0 0 0 
0 0 0 0 0 0 0 0 0 0 0 0 0 0 0 0 0 0 0 0 0 0 0 0 0 0 0 0 0 0 0 0 0 0 0 0 0 0 0 0 0 0 0 0 0 0 0 0 0 0 0 0 0 0 0 0 0 0 0 0 0 0 0 0 0 0 0 0 0 0 0 0 0 0 0 0 0 0 0 0 0 0 0 0 0 0 0 0 0 0 0 0 0 0 0 0 0 0 0 0 
0 0 0 0 0 0 0 0 0 0 0 0 0 0 0 0 0 0 0 0 0 0 0 0 0 0 0 0 0 0 0 0 0 0 0 0 0 0 0 0 0 0 0 0 0 0 0 0 0 0 0 0 0 0 0 0 0 0 0 0 0 0 0 0 0 0 0 0 0 0 0 0 0 0 0 0 0 0 0 0 0 0 0 0 0 0 0 0 0 0 0 0 0 0 0 0 0 0 0 0 
0 0 0 0 0 0 0 0 0 0 0 0 0 0 0 0 0 0 0 0 0 0 0 0 0 0 0 0 0 0 0 0 0 0 0 0 0 0 0 0 0 0 0 0 0 0 0 0 0 0 0 0 0 0 0 0 0 0 0 0 0 0 0 0 0 0 0 0 0 0 0 0 0 0 0 0 0 0 0 0 0 0 0 0 0 0 0 0 0 0 0 0 0 0 0 0 0 0 0 0 
0 0 0 0 0 0 0 0 0 0 0 0 0 0 0 0 0 0 0 0 0 0 0 0 0 0 0 0 0 0 0 0 0 0 0 0 0 0 0 0 0 0 0 0 0 0 0 0 0 0 0 0 0 0 0 0 0 0 0 0 0 0 0 0 0 0 0 0 0 0 0 0 0 0 0 0 0 0 0 0 0 0 0 0 0 0 0 0 0 0 0 0 0 0 0 0 0 0 0 0 
0 0 0 0 0 0 0 0 0 0 0 0 0 0 0 0 0 0 0 0 0 0 0 0 0 0 0 0 0 0 0 0 0 0 0 0 0 0 0 0 0 0 0 0 0 0 0 0 0 0 0 0 0 0 0 0 0 0 0 0 0 0 0 0 0 0 0 0 0 0 0 0 0 0 0 0 0 0 0 0 0 0 0 0 0 0 0 0 0 0 0 0 0 0 0 0 0 0 0 0 
