1
Photon_
#eta
eta
3
3
0
10
QCD W + Jets WW WZ ZZ #bar{t}W tW t#bar{t} Drell Yan #rightarrow #tau#tau Drell Yan #rightarrow ee 
_full_dr_cut_low
100 -3 3
0 0 0 0 0 0 0 0 0 0 0 29.0381 161.573 0 29.0381 0 161.573 0 64.6429 29.0381 0 6.5667 161.573 0 6.5667 0 0 29.0381 13.1334 29.0381 0 0 0 0 29.0381 0 0 0 0 0 161.573 0 0 37977.9 190.611 0 0 0 0 0 0 0 38168.5 0 0 29.0381 0 0 0 0 0 0 0 0 0 0 0 0 0 0 0 29.0381 0 0 0 0 0 0 0 0 0 0 161.573 29.0381 190.611 0 190.611 42.1715 58.4618 0 0 0 0 0 0 0 0 0 0 0 
0 0 0 0 0 0 5.11332 5.11332 -5.11332 0 20.4533 209.646 337.479 276.119 250.553 373.272 271.006 363.046 357.932 444.859 327.253 311.913 327.253 286.346 143.173 40.9066 20.4533 219.873 219.873 291.459 178.966 209.646 204.533 286.346 173.853 184.08 204.533 219.873 173.853 194.306 194.306 173.853 276.119 286.346 132.946 209.646 163.626 168.74 199.42 214.759 178.966 245.439 214.759 158.513 214.759 143.173 173.853 199.42 148.286 250.553 138.06 127.833 173.853 158.513 148.286 204.533 204.533 230.099 224.986 204.533 143.173 199.42 230.099 260.779 204.533 30.6799 20.4533 163.626 317.026 332.366 301.686 245.439 409.066 291.459 265.893 403.952 378.386 378.386 322.139 265.893 240.326 61.3599 0 5.11332 0 5.11332 0 5.11332 0 0 
0 0 0 0 0 0.609323 0 0.609323 0 0.609323 9.13984 120.646 149.284 178.532 176.094 190.718 176.094 210.826 236.417 246.166 255.916 219.356 249.213 232.761 214.482 15.2331 26.8102 231.543 271.149 276.633 260.181 274.195 292.475 287.6 309.536 307.708 347.314 295.522 294.912 330.862 344.267 345.486 349.142 342.439 313.192 341.221 318.066 332.69 327.206 346.095 338.174 308.927 356.454 343.658 340.002 334.518 364.375 346.095 363.766 364.984 338.783 348.533 355.844 310.755 309.536 327.206 311.973 300.396 292.475 275.414 302.224 287.6 271.758 268.711 247.994 47.5272 11.5771 187.062 260.181 227.887 232.152 227.887 243.12 240.682 226.059 199.858 204.732 197.421 172.438 181.578 163.298 24.3729 0 0 0.609323 0 0 1.82797 0 0 
0 0.564255 3.38553 2.82128 1.12851 2.82128 1.69277 2.82128 2.25702 2.25702 9.02808 123.008 157.991 165.891 185.64 210.467 222.317 231.909 240.373 233.037 284.949 254.479 289.463 295.106 247.708 26.52 45.7047 288.334 324.447 360.559 335.732 371.844 391.029 427.141 431.091 413.599 418.113 411.342 409.649 462.689 460.432 476.796 490.338 437.862 474.539 470.025 511.215 463.818 473.41 483.567 446.89 471.717 490.338 459.868 437.862 486.952 490.902 469.46 489.774 454.225 489.774 483.567 483.003 436.169 431.091 444.633 383.694 416.985 426.013 359.431 379.744 387.079 362.252 354.917 287.77 71.6604 16.9277 240.373 280.999 290.027 249.401 252.786 261.814 259.557 260.686 227.959 209.903 212.16 203.132 165.891 159.12 31.034 1.12851 2.25702 2.25702 1.69277 2.25702 1.12851 1.69277 0.564255 
0 0 1.78139 0.593798 0.593798 0.593798 0.593798 0.593798 0.593798 1.1876 10.0946 69.4743 97.9766 91.4449 108.665 125.291 143.105 163.888 155.575 184.671 184.671 169.826 196.547 198.328 140.136 12.4698 26.7209 194.172 216.736 220.893 246.426 241.082 257.114 278.491 276.116 272.553 274.335 278.491 264.24 302.243 302.243 311.744 282.648 302.243 299.274 303.431 301.056 336.683 316.494 299.274 307.587 294.524 349.153 324.214 300.462 312.931 311.744 330.745 291.555 298.68 314.713 312.338 294.524 282.054 285.617 312.931 298.68 260.677 258.302 270.178 253.552 227.425 235.738 225.049 198.922 46.3162 8.31317 143.699 201.297 179.921 181.108 185.265 165.076 188.828 169.826 147.262 134.792 110.446 127.667 106.884 100.946 11.2822 0.593798 0.593798 0 1.1876 1.1876 1.1876 1.78139 0.593798 
0 0 0.370926 0.556389 0.185463 0.556389 0.556389 0.185463 0.556389 0.556389 2.59648 22.2556 33.9397 42.2856 44.3256 50.2605 57.1226 62.3156 65.283 69.5486 76.5962 83.0874 78.2654 83.2729 83.2729 5.56389 11.4987 96.2553 109.423 121.849 127.599 128.526 137.243 154.491 149.854 156.16 159.127 175.633 172.11 181.383 183.608 181.568 195.107 175.077 184.907 201.042 201.784 196.776 195.107 197.518 189.729 190.285 182.681 192.325 189.543 191.769 199.929 184.536 186.205 180.826 187.874 183.052 173.222 154.491 170.255 170.626 151.709 146.887 147.999 129.082 126.671 124.075 120.922 120.736 92.1751 17.8044 2.96741 73.0724 83.6438 72.8869 80.12 67.694 71.2178 76.9671 64.912 56.3807 50.6314 46.3657 43.3983 35.6089 33.5688 4.08019 0.927315 0.370926 0.185463 0.556389 0.741852 0.556389 0.185463 0 
0 0 0.184936 0.554809 0.184936 0.184936 0.554809 0.184936 0.554809 0.554809 1.29456 26.076 34.5831 40.3162 41.6107 53.2617 50.6726 66.0223 63.2483 73.2348 77.4884 72.865 85.8105 82.8515 80.6323 5.73303 9.6167 92.8381 103.934 121.503 126.312 132.23 131.675 142.771 162.744 164.039 165.148 164.409 162.744 172.176 184.197 176.984 186.601 183.642 186.231 186.971 192.519 192.519 195.293 186.231 203.8 194.923 198.067 214.341 193.998 201.766 201.026 198.622 185.306 196.033 173.84 180.868 187.341 163.299 162.374 156.271 152.758 150.168 152.573 133.709 135.189 123.723 120.764 104.304 99.126 20.343 3.51379 68.2416 83.9612 87.475 75.4541 70.0909 77.1185 67.5018 66.0223 58.4399 51.2274 43.2751 43.2751 37.5421 32.1789 6.47278 0.554809 1.29456 0.554809 0.369873 0.554809 0.554809 0.924682 0.184936 
0 0.846421 11.8655 21.1342 13.6577 10.7197 16.9979 12.5119 17.0351 21.1264 80.0034 677.146 872.381 988.258 1103.63 1239.37 1390.49 1497.57 1679.34 1804.79 1890.05 1957.5 2057.47 2105.98 1892.77 176.85 301.135 2327.48 2703.88 2787.5 2961.99 2976.93 3082.42 3481.37 3555.95 3542.12 3722.66 3628.46 3738.1 3973.59 4154.81 4222.1 4213.98 4122.7 4154.4 4374.71 4352.62 4304.02 4354.83 4438.26 4254.06 4291.24 4448.19 4331.7 4374.06 4322 4360.01 4269.83 4151.84 4214.36 4200.85 4052.14 4035.7 3827.29 3719.26 3738.91 3567.81 3520.51 3470.41 3136.67 3056.19 3022.37 2829.41 2760.17 2339.96 471.391 106.687 1792.39 2161.97 2012.66 1833 1819.56 1794.17 1753.07 1610.86 1446.28 1314.13 1205.41 1089.78 957.069 799.287 130.594 16.059 16.9553 15.4499 16.9805 16.759 13.4866 20.0992 11.162 
0 0 -2.56754 0 0 2.56754 2.56754 0 0 2.56754 41.0806 261.889 368.534 408.238 504.613 426.211 467.292 595.853 495.535 510.94 580.263 554.772 577.696 464.724 395.401 24.2996 79.5936 480.129 491.775 650.779 650.963 639.317 594.477 652.154 627.671 625.287 740.826 662.425 567.242 652.154 745.961 668.935 733.124 689.476 726.613 783.099 769.069 816.477 761.367 622.72 717.719 634.182 787.042 742.018 776.588 772.829 684.157 783.099 645.644 735.507 809.966 673.886 693.235 823.995 719.094 638.125 595.669 662.425 649.771 656.098 641.884 657.289 673.063 577.696 505.805 118.107 15.4052 400.536 537.991 440.425 523.962 477.562 549.637 511.124 464.724 565.042 605.939 459.589 431.346 324.885 362.023 48.7832 0 -2.56754 0 0 -5.13507 0 -2.56754 0 
0 16.3737 186.272 367.518 241.352 190.364 326.721 272.986 310.479 214.163 13344.1 124795 155434 171812 186118 200751 210581 228121 240314 253255 256629 259131 264465 259377 224069 18981.7 34946.1 266162 310655 316822 332835 334548 340909 376698 385148 386931 395511 387570 384815 416919 426648 431411 434572 421034 425791 439627 441008 440714 437401 443495 427966 426820 450973 436115 439486 438405 439467 432521 420760 437911 430101 426224 419876 402064 389832 400991 386898 383821 379533 350242 340676 339602 325835 318276 277709 52888.6 10663.8 213278 267942 260443 248784 251250 257436 253379 242066 228060 211535 203045 190694 173984 151618 22995.6 294.53 291.573 229.524 320.077 246.73 275.576 324.005 136.122 
_full_dr_cut_mid
100 -3 3
0 0 0 0 0 0 0 0 0 0 0 0 0 0 0 0 0 0 0 0 0 0 0 0 0 0 0 0 0 0 0 0 0 0 0 0 0 0 0 0 0 0 0 0 58.4618 0 0 0 0 0 0 0 0 58.4618 0 0 0 0 0 0 0 0 0 0 6.5667 0 0 0 0 0 0 0 0 0 0 0 0 0 0 0 0 0 0 0 0 0 0 0 0 0 0 0 0 0 0 0 0 0 0 0 
0 0 0 0 0 0 0 0 0 0 0 10.2266 10.2266 10.2266 -5.11332 15.34 5.11332 -5.11332 0 15.34 5.11332 0 10.2266 15.34 20.4533 0 0 0 15.34 15.34 5.11332 0 10.2266 5.11332 0 20.4533 5.11332 15.34 0 5.11332 0 0 -5.11332 5.11332 15.34 5.11332 5.11332 0 0 -5.11332 5.11332 -5.11332 5.11332 0 -5.11332 20.4533 0 -5.11332 -5.11332 5.11332 10.2266 15.34 0 0 -10.2266 10.2266 15.34 0 10.2266 15.34 25.5666 10.2266 20.4533 5.11332 15.34 5.11332 0 10.2266 10.2266 10.2266 0 10.2266 10.2266 40.9066 0 5.11332 25.5666 5.11332 15.34 10.2266 5.11332 0 0 0 0 0 0 0 0 0 
0 0 0 0 0 0 0 0 0 0 0 1.82797 1.21865 0.609323 0 0 0 0 0.609323 0.609323 0.609323 0 2.43729 0.609323 1.82797 0 0 1.21865 3.04661 6.09323 1.82797 0.609323 2.43729 0.609323 0.609323 2.43729 0.609323 1.21865 2.43729 0.609323 0.609323 1.21865 1.82797 2.43729 3.04661 0.609323 1.21865 3.04661 1.21865 1.21865 0.609323 1.82797 0.609323 2.43729 1.82797 1.21865 3.04661 1.82797 2.43729 0 0.609323 1.82797 1.82797 1.21865 0 0 1.82797 3.04661 0.609323 0.609323 1.21865 1.82797 0.609323 2.43729 1.82797 0.609323 0 3.65594 0.609323 1.21865 0.609323 0.609323 0.609323 0.609323 0 0 1.21865 0 0 0 0 0 0 0 0.609323 0 0 0 0 0 
0 0 0 0 0 0.564255 0 0 0 0 0 1.12851 0 0.564255 1.12851 0.564255 0 1.69277 0.564255 1.12851 1.69277 0 1.12851 1.69277 2.82128 0.564255 0 2.82128 4.51404 1.69277 4.51404 0.564255 2.25702 1.12851 4.51404 0.564255 1.12851 2.82128 0 1.12851 1.12851 0.564255 1.12851 2.25702 1.69277 0.564255 1.12851 3.94979 0.564255 1.12851 0.564255 1.69277 1.69277 0.564255 0.564255 1.12851 1.12851 1.12851 0.564255 2.25702 1.69277 0 1.12851 0 0.564255 1.69277 1.69277 2.25702 0.564255 1.12851 1.69277 1.69277 2.25702 0 1.69277 0.564255 0 1.69277 1.12851 1.12851 0 0.564255 0 0 0 0 0 0 0 0 0 0 0 0 0 0 0 0 0 0 
0 0 0 0 0 0 0 0 0.593798 0 0 0 0 0 0 0 0.593798 0 0 0.593798 0.593798 0.593798 1.78139 0 3.56279 0 0 0.593798 1.78139 2.37519 1.78139 1.1876 0 1.1876 0.593798 0 1.78139 0 0.593798 0 0 0 0 0.593798 0 1.1876 1.78139 0 0 0.593798 1.78139 2.37519 0 0 0.593798 1.78139 1.78139 0.593798 1.1876 1.1876 1.1876 0.593798 2.37519 0 0 0.593798 0.593798 0 0 0.593798 1.78139 1.1876 0.593798 1.1876 1.78139 0.593798 0.593798 0.593798 1.1876 0.593798 0.593798 0 0 0.593798 0.593798 0 0 0 0 0 0 0 0 0 0 0 0 0 0 0 
0 0 0 0 0.185463 0 0 0 0 0 0 0 0.185463 0 0 0 0 0 0 0 0 0 0.741852 0.370926 0.741852 0.185463 0.185463 0.741852 0.927315 1.11278 0.927315 0.370926 0.556389 1.66917 0.185463 0.185463 0.927315 0.185463 0.370926 0.370926 0.556389 0.185463 0.370926 1.11278 0.556389 0.370926 0.370926 0.370926 0 0.741852 0.370926 0.741852 0.370926 0.556389 0.370926 0.741852 0.370926 0.185463 0.741852 0 0.185463 0.370926 0.370926 0.556389 0.370926 0.556389 0.556389 0.370926 0.927315 0.741852 0.556389 0.927315 0.927315 1.29824 0.556389 0 0 0.741852 0.927315 0.927315 0.927315 0.370926 0 0.556389 0 0.370926 0.370926 0 0.370926 0.370926 0 0 0 0 0 0 0 0 0 0 
0 0 0 0 0 0 0 0 0 0 0 0.369873 0.184936 0.369873 0 0 0 0 0.184936 0.554809 0 0.369873 0.554809 0.924682 0.739746 0 0.184936 0.369873 0.554809 1.29456 1.10962 0.184936 0.739746 0.739746 0.369873 0.924682 0.184936 0.924682 0.369873 1.10962 0 0.184936 0.554809 0 0.554809 0.184936 0.739746 0.554809 0.369873 0.554809 0 0.739746 0.369873 0.554809 0.369873 0.739746 0.924682 1.10962 0 0.184936 0.184936 0.369873 0.739746 0 0.739746 0.184936 0.184936 0.369873 0.369873 0.184936 0.369873 0.739746 0.924682 0.554809 1.10962 0 0 1.10962 1.10962 0.554809 0.369873 0.184936 0.184936 0.184936 0 0.184936 0.369873 0.369873 0 0 0 0 0 0 0 0 0 0 0 0 
0 0 0 0.22385 0 0.265021 0.1938 0.0712211 0.3876 0 0.3876 3.63958 2.8935 2.71082 1.72289 2.87313 4.12846 3.41336 4.41478 5.11732 4.17837 6.24531 11.5288 14.4246 19.5656 3.28297 3.90461 18.7008 19.4824 18.0865 19.0259 17.7105 15.4334 18.0467 14.6625 15.5709 10.7472 11.5215 11.1648 12.644 8.87074 7.5655 8.59698 11.2676 11.0849 9.73847 11.4502 11.1963 10.5626 8.72685 10.0747 8.99332 9.14688 8.26948 9.49238 11.1949 11.4812 9.05342 10.4623 10.8475 10.41 11.3267 9.7782 9.99475 8.80096 10.5525 14.7647 12.3781 13.3679 11.5603 16.5162 19.6263 16.0385 23.0642 16.0351 5.68998 2.20302 19.3472 18.9741 10.8665 5.9701 4.40222 5.79906 4.4647 3.45546 2.53688 2.49665 1.86295 2.68077 3.79221 2.66184 0.917642 0 0.265021 0.458821 0.1938 0 0 0 0 
0 0 0 0 0 0 0 0 0 0 0 0 7.70261 2.56754 5.13507 2.56754 0 0 0 0 7.70261 7.70261 10.2701 17.9728 12.8377 2.56754 0 10.2701 23.1078 25.6754 20.5403 5.13507 12.8377 5.13507 12.8377 15.4052 7.70261 7.70261 10.2701 15.4052 0 15.4052 5.13507 12.8377 7.70261 10.2701 10.2701 10.2701 2.56754 2.56754 7.70261 17.9728 10.2701 5.13507 7.70261 7.70261 20.5403 5.13507 5.13507 17.9728 12.8377 5.13507 20.5403 15.4052 15.4052 17.9728 5.13507 2.56754 12.8377 7.70261 5.13507 7.70261 15.4052 19.1645 15.4052 -2.56754 0 17.9728 10.2701 12.8377 2.56754 0 0 0 5.13507 5.13507 5.13507 5.13507 0 5.13507 2.56754 0 0 2.56754 0 0 0 0 0 0 
0 0 5.13621 0 7.70432 0 0 -5.13602 -0.00844482 -2.56882 29.6167 431.105 441.369 337.703 239.401 268.825 236.735 342.443 306.791 282.041 368.066 619.36 683.284 1009.03 1418.35 180.02 318.77 1203.91 1635.08 1571.05 1593.51 1510.29 1351.82 1305.92 1558.36 1539.25 1466.4 1314.44 1405.31 1528.45 1564.33 1671.09 1633.24 1705.44 1635.99 1749.76 1816.19 1916.07 1930.9 1901.12 1942.31 1902.51 1770.23 1817.87 1806.13 1838.58 1832.35 1599.48 1626.36 1639.79 1655.64 1531.56 1720.66 1468.6 1415.72 1317.08 1344.85 1245.39 1139.22 1321.12 1250.41 1365.12 1413.04 1636.65 1413.49 354.313 85.8578 1472.98 925.301 835.221 655.364 440.014 402.507 284.674 225.818 287.123 274.428 260.868 345.504 363.672 420.058 59.0664 12.469 10.2722 5.1364 7.69455 2.56811 5.13621 -5.89704 5.13621 
_full_dr_cut_high
100 -3 3
0 0 0 0 0 0 0 0 0 0 0 0 0 0 0 0 0 0 0 0 0 0 0 0 0 0 0 0 0 0 0 0 0 58.4618 0 0 0 0 0 0 0 161.573 0 0 0 0 0 0 0 0 0 0 0 0 6.5667 0 0 0 0 0 0 29.0381 29.0381 0 0 0 0 0 0 0 0 0 0 0 0 0 0 0 0 0 0 0 0 0 0 0 0 0 0 0 0 0 0 0 0 0 0 0 0 0 
0 0 0 0 5.11332 0 0 0 0 5.11332 10.2266 0 -5.11332 10.2266 0 5.11332 15.34 0 0 0 5.11332 10.2266 10.2266 20.4533 5.11332 0 0 20.4533 -5.11332 15.34 15.34 5.11332 10.2266 0 5.11332 5.11332 5.11332 0 0 0 20.4533 -5.11332 0 5.11332 5.11332 0 5.11332 5.11332 5.11332 -5.11332 0 5.11332 10.2266 5.11332 5.11332 -10.2266 20.4533 5.11332 10.2266 0 -5.11332 5.11332 15.34 10.2266 0 5.11332 0 0 -5.11332 0 5.11332 -5.11332 5.11332 -5.11332 20.4533 -5.11332 5.11332 -5.11332 5.11332 0 10.2266 15.34 10.2266 10.2266 0 0 5.11332 0 0 5.11332 0 -5.11332 0 5.11332 -5.11332 0 0 0 0 -5.11332 
0 0 0 0.609323 0.609323 0 0 1.21865 0 0 0.609323 1.82797 1.21865 1.21865 1.21865 0 1.82797 1.21865 3.04661 1.21865 0.609323 1.21865 1.21865 3.04661 1.82797 0.609323 3.04661 3.04661 9.13984 6.70255 4.87458 0.609323 4.26526 4.87458 1.21865 3.04661 3.65594 2.43729 3.65594 3.04661 4.26526 2.43729 1.21865 1.21865 4.26526 4.26526 2.43729 1.82797 4.26526 1.82797 3.65594 1.82797 1.82797 3.65594 3.04661 2.43729 3.65594 2.43729 3.65594 1.21865 3.04661 3.04661 2.43729 3.04661 5.4839 2.43729 2.43729 2.43729 2.43729 3.04661 5.4839 6.09323 2.43729 5.4839 1.82797 2.43729 0.609323 2.43729 3.65594 0.609323 2.43729 2.43729 1.82797 0.609323 1.82797 3.04661 0.609323 0.609323 1.82797 1.82797 1.82797 0.609323 1.21865 0 0.609323 0 1.21865 0 0 0.609323 
0 0 2.25702 1.12851 3.38553 2.25702 6.20681 1.69277 5.0783 2.25702 6.20681 0.564255 1.69277 3.38553 6.77106 2.82128 6.77106 8.46383 8.46383 9.59234 5.64255 4.51404 5.64255 11.2851 5.0783 7.33532 7.89957 13.5421 8.46383 8.46383 9.02808 6.77106 9.59234 6.20681 5.64255 11.8494 6.20681 9.59234 9.59234 11.8494 7.89957 14.6706 11.2851 11.2851 12.9779 10.7208 7.89957 11.2851 12.4136 6.77106 12.9779 9.02808 8.46383 12.4136 11.2851 9.02808 7.89957 9.59234 11.8494 11.2851 10.1566 8.46383 10.1566 10.7208 6.77106 7.33532 8.46383 10.7208 7.89957 7.89957 9.02808 12.4136 7.33532 9.02808 5.64255 6.77106 3.94979 7.89957 7.33532 5.64255 4.51404 5.64255 5.64255 7.89957 2.25702 5.0783 2.25702 5.64255 2.82128 2.82128 1.69277 2.82128 2.82128 2.25702 7.89957 3.38553 3.38553 0.564255 3.38553 3.38553 
0 0 0.593798 0.593798 0.593798 1.78139 2.37519 1.78139 2.37519 2.37519 1.78139 2.37519 3.56279 4.15658 2.96899 2.96899 2.96899 1.1876 2.37519 4.15658 5.34418 7.12557 5.93798 7.12557 12.4698 7.12557 8.31317 10.6884 9.50077 7.12557 8.31317 7.71937 10.0946 5.93798 8.90697 8.31317 9.50077 7.12557 5.93798 8.90697 7.12557 8.90697 10.0946 7.12557 8.31317 5.34418 10.6884 7.71937 8.31317 11.2822 8.90697 8.90697 7.71937 9.50077 9.50077 5.34418 5.93798 10.0946 8.90697 6.53178 5.93798 8.31317 7.12557 5.93798 10.0946 10.0946 6.53178 4.75038 7.71937 5.34418 5.93798 6.53178 10.6884 5.93798 9.50077 4.15658 1.78139 5.93798 2.96899 5.34418 4.15658 5.93798 2.37519 2.96899 4.75038 5.93798 5.34418 4.15658 4.15658 1.1876 1.78139 4.75038 2.37519 1.78139 3.56279 0.593798 1.1876 1.1876 1.78139 0.593798 
0 0 0.185463 0.556389 0.370926 0.370926 0.741852 0.927315 0.370926 1.29824 1.4837 1.85463 0.185463 0 0.741852 1.11278 2.41102 2.59648 1.29824 1.29824 3.15287 3.15287 3.70926 1.4837 4.08019 1.4837 3.70926 3.5238 5.93481 4.26565 3.70926 5.56389 5.0075 4.82204 5.93481 6.86213 6.4912 5.74935 3.89472 5.0075 5.93481 6.4912 8.34583 4.26565 5.74935 6.4912 6.4912 7.23306 8.90222 7.23306 5.93481 5.37843 5.37843 8.5313 7.41852 8.5313 7.23306 6.12028 6.67667 7.78944 4.26565 6.86213 5.74935 5.74935 6.4912 5.93481 5.56389 6.30574 3.33833 5.37843 5.93481 6.30574 5.37843 4.82204 4.45111 2.41102 1.85463 3.33833 1.29824 2.41102 3.15287 2.59648 1.66917 2.59648 1.85463 0.927315 1.29824 1.66917 0.927315 0.927315 1.11278 0.741852 0.185463 1.29824 1.11278 0.927315 0.556389 0.556389 0.185463 0 
0 0.184936 0.184936 0.369873 0.739746 0 0.369873 1.10962 0.924682 0.369873 1.29456 0.739746 0.739746 0.924682 1.47949 0.554809 2.58911 2.0343 0.554809 1.84936 3.14392 3.14392 3.14392 3.69873 2.58911 1.84936 0.924682 3.32886 5.17822 2.95898 5.36316 4.99329 6.47278 5.73303 5.91797 4.80835 5.54809 6.84265 4.25354 6.1029 5.91797 8.50708 9.24682 8.32214 4.80835 6.1029 7.76733 7.95227 5.36316 7.76733 7.76733 6.28784 6.28784 7.21252 7.02759 7.5824 6.47278 5.54809 4.99329 7.21252 5.73303 4.80835 6.84265 4.62341 6.65771 4.0686 5.36316 6.28784 5.54809 4.62341 4.25354 6.1029 4.80835 5.36316 6.1029 3.14392 1.10962 2.95898 2.95898 1.29456 2.58911 1.84936 0.924682 1.29456 1.66443 1.47949 1.66443 1.29456 1.66443 0.739746 0.369873 0.554809 0.739746 0.369873 0.924682 0.369873 0.184936 0.554809 0.369873 0.369873 
0 0.0300498 7.12959 21.3107 18.1207 20.7768 25.7557 29.1652 26.196 30.9777 36.5984 38.7938 44.5057 41.0356 53.0161 57.5439 68.972 77.7406 101.681 101.414 121.499 132.569 141.803 157.245 166.476 75.0176 113.139 257.788 249.017 268.937 263.812 252.473 255.559 273.42 263.507 273.991 277.806 271.488 260.678 289.541 310.91 311.862 326.666 309.146 312.731 342.726 340.634 341.999 332.603 340.598 310.199 317.798 335.142 329.451 337.984 353.697 329.113 338.153 333.125 322.754 320.724 313.348 292.899 275.144 275.144 283.515 267.454 282.076 268.741 259.219 258.294 265.861 261.846 266.814 248.854 139.329 69.1898 154.415 155.663 144.871 122.077 113.813 98.2186 96.523 81.3194 71.3157 63.0459 63.4082 54.142 48.4442 42.4174 34.0528 30.9941 34.5925 27.2265 24.8936 18.4429 18.3561 17.173 5.68046 
0 0 0 0 0 0 7.70261 2.56754 2.56754 5.13507 0 5.13507 -5.13507 5.13507 -2.56754 2.56754 2.56754 10.2701 5.13507 2.56754 5.13507 0 2.56754 0 10.2701 2.56754 5.13507 15.4052 5.13507 7.70261 7.70261 5.13507 7.70261 7.70261 2.56754 15.4052 -2.56754 7.70261 7.70261 5.13507 10.2701 10.2701 5.13507 10.2701 5.13507 12.8377 7.70261 12.8377 7.70261 -7.70261 2.56754 7.70261 12.8377 10.2701 12.8377 7.70261 5.13507 10.2701 0 15.4052 7.70261 10.2701 15.4052 5.13507 0 5.13507 5.13507 5.13507 7.70261 -5.13507 0 12.8377 -2.56754 10.2701 0 5.13507 2.56754 0 5.13507 7.70261 5.13507 2.56754 12.8377 2.56754 0 2.56754 10.2701 0 5.13507 0 2.56754 5.13507 0 2.56754 5.13507 0 0 2.56754 0 0 
0 8.56436 142.089 437.826 542.81 435.1 631.51 596.186 658.722 641.945 855.338 902.365 970.38 1050.52 1158.24 1133.32 1257.39 1251.19 1568.74 1530.58 1920.35 1859 2316.85 2355.92 2799.82 1333.29 1561.32 3043.39 2769.53 2534.58 2744.34 2670.52 2483.43 2833.42 3060.74 2969.62 3032.6 2895.69 2706.08 3089.34 3296.32 3070.04 3384.5 3296.98 3256.69 3421.46 3566.08 3798.62 3511.81 3473.4 3468.78 3380.93 3501.11 3620.88 3507 3671.9 3581.42 3542.04 3453.1 3549.8 3567 3360.55 3080.06 3166.94 3123.6 3261.71 2981.8 2927.3 2765.82 2723.48 2907.36 3006.29 2670.48 2766.49 2916.96 1792.52 1197.65 2598.88 2300.75 1933.56 2071.29 1819.9 1640.26 1771.34 1509.14 1546.76 1247.85 1117.42 1085.55 1228.79 847.787 842.593 822.591 777.842 744.031 667.609 523.747 471.104 455.333 255.269 
