1
Photon_
Number of Interactions
nVert
1
1
0
10
QCD W + Jets WW WZ ZZ #bar{t}W tW t#bar{t} Drell Yan #rightarrow #tau#tau Drell Yan #rightarrow ee 
_full
120 0 120
0 0 0 0 0 0 0 0 0 0 6.5667 0 168.14 29.0381 0 29.0381 6.5667 35.6048 58.0762 190.611 0 64.6429 2438 0 87.4999 64.6429 161.573 0 0 29.0381 58.4618 0 190.611 29.0381 161.573 0 0 0 29.0381 0 58.4618 161.573 0 35494.6 0 0 0 0 0 0 0 0 0 0 0 0 0 0 0 0 0 0 0 0 0 0 0 0 0 0 0 0 0 0 0 0 0 0 0 0 0 0 0 0 0 0 0 0 0 0 0 0 0 0 0 0 0 0 0 0 0 0 0 0 0 0 0 0 0 0 0 0 0 0 0 0 0 0 0 0 
0 0 0 0 10.2266 20.4533 25.5666 51.1332 102.266 178.966 255.666 296.573 465.312 398.839 664.732 511.332 608.485 823.245 889.718 669.845 772.112 720.978 664.732 705.638 460.199 542.012 414.179 271.006 444.859 368.159 224.986 184.08 184.08 127.833 92.0398 66.4732 148.286 107.38 15.34 35.7932 51.1332 15.34 10.2266 25.5666 10.2266 10.2266 -5.11332 20.4533 -5.11332 5.11332 10.2266 5.11332 5.11332 0 10.2266 -5.11332 0 0 0 0 5.11332 0 0 0 0 0 -5.11332 0 0 10.2266 0 0 0 0 0 0 0 0 0 0 0 0 0 0 0 0 0 0 0 0 0 0 0 0 0 0 0 0 0 0 0 0 0 0 0 0 0 0 0 0 0 0 0 0 0 0 0 0 0 0 
0 0 0 0.609323 6.09323 14.0144 23.1543 41.4339 93.8357 151.112 221.184 279.679 376.561 500.863 531.939 629.43 700.112 762.263 786.026 791.51 793.948 723.875 673.911 615.416 563.014 480.146 458.82 409.465 343.049 301.005 246.166 213.263 184.625 160.861 127.348 102.976 85.9145 77.9933 63.9789 53.6204 35.3407 40.8246 32.2941 24.9822 17.061 18.889 22.5449 9.13984 6.09323 5.4839 8.53052 3.65594 4.87458 3.65594 1.82797 3.04661 1.82797 2.43729 1.82797 0 2.43729 1.21865 0 0 0 0 1.21865 1.21865 0 0.609323 0.609323 0 0.609323 0 0.609323 0 0 0 0 0 0 0 0 0 0 0 0 0 0 0 0 0 0 0 0 0 0 0 0 0 0 0 0 0 0 0 0 0 0 0 0 0 0 0 0 0 0 0 0 0 
0 0 1.12851 3.94979 6.20681 14.1064 27.0843 63.7608 113.98 174.919 273.1 367.894 468.332 591.904 699.112 797.293 887.574 963.184 984.061 967.698 988.011 956.413 848.64 786.008 708.14 611.088 559.741 490.338 420.934 379.744 311.469 287.206 229.652 210.467 175.483 129.779 123.572 94.7949 88.5881 64.3251 56.4255 51.3472 35.5481 38.9336 22.5702 27.0843 22.006 8.46383 9.02808 9.02808 8.46383 10.1566 5.0783 3.94979 6.20681 6.20681 1.12851 2.25702 1.69277 0 1.69277 0.564255 0 0.564255 0 1.12851 0 0 0 0 0.564255 0 0 0 0 0 0 0 0 0 0 0.564255 0 0 0 0 0 0 0 0 0 0 0 0 0 0 0 0 0 0 0 0 0 0 0 0 0 0 0 0 0 0 0 0 0 0 0 0 0 0 
0 0 0 1.78139 1.78139 6.53178 21.9705 33.8465 76.5999 101.539 182.89 223.862 309.369 416.252 479.195 543.919 581.328 577.765 624.082 656.74 629.426 588.454 543.919 509.479 488.102 421.596 386.562 314.119 276.116 252.958 202.485 168.639 164.482 126.479 121.135 93.8201 71.8495 67.0992 55.2232 47.5038 33.8465 26.1271 24.3457 19.0015 17.2201 16.6263 9.50077 8.90697 6.53178 4.75038 5.34418 4.15658 4.15658 2.37519 2.37519 2.96899 2.37519 4.75038 1.1876 1.1876 0.593798 2.96899 0.593798 0 0.593798 0 0 0 0 0 0 0 0 0.593798 0 0 0 0 0 0 0 0 0 0 0 0 0 0 0 0 0 0 0 0 0 0 0 0 0 0 0 0 0 0 0 0 0 0 0 0 0 0 0 0 0 0 0 0 0 0 
0 0 0.370926 0.556389 2.04009 4.82204 10.2005 23.7393 39.1327 60.8319 88.4658 127.042 180.085 204.751 265.397 292.104 316.214 346.63 371.668 362.951 341.252 338.099 314.916 279.122 262.616 233.127 211.799 190.841 164.506 139.283 120.18 102.005 87.5385 75.8544 66.2103 55.4534 46.3657 38.3908 29.8595 27.8194 22.0701 19.1027 19.1027 14.2806 11.4987 7.60398 8.71676 4.26565 2.96741 3.15287 3.15287 2.04009 2.22556 1.66917 1.29824 1.66917 0.927315 0.741852 0.741852 0.370926 0.927315 0.741852 0.927315 0.370926 0.185463 0.370926 0 0 0.185463 0.185463 0 0.185463 0 0 0.185463 0 0 0 0 0 0 0 0 0 0 0 0 0 0 0 0 0 0 0 0 0 0 0 0 0 0 0 0 0 0 0 0 0 0 0 0 0 0 0 0 0 0 0 0 0 
0 0 0.554809 0.369873 0.369873 2.95898 10.5414 22.9321 41.6107 63.0633 95.6122 133.154 171.806 210.088 259.466 298.487 328.447 346.386 354.338 347.866 355.263 342.872 324.564 280.734 264.274 238.938 211.567 193.813 155.347 129.825 119.284 103.01 88.9544 74.3445 58.9947 54.5563 41.0559 41.4258 27.9254 27.5555 21.0828 21.2677 15.1648 12.3907 11.0962 8.69201 7.39746 4.99329 5.17822 3.88367 2.58911 1.29456 3.32886 2.21924 1.47949 0.554809 1.29456 0.369873 0.739746 0.924682 0.924682 0.184936 0.554809 0.739746 0.184936 0.369873 0.369873 0 0 0.184936 0.554809 0 0 0 0 0 0 0 0 0 0 0 0 0.184936 0 0 0 0 0 0 0 0 0 0 0 0 0 0 0 0 0 0 0 0 0 0 0 0 0 0 0 0 0 0 0 0 0 0 0 0 
0 0 5.24864 15.851 39.3218 100.256 222.024 462.774 852.105 1417.03 2102.75 2993.16 3887.5 4905.27 5849.58 6715.81 7365.67 7885.46 8176.38 8161.17 8086.63 7826.66 7346.34 6797.6 6178.79 5522.5 4920.12 4354.47 3749 3199.35 2765.78 2392.27 2033.91 1741.37 1481.17 1241.16 1062.23 892.455 750.896 624.018 532.184 450.601 374.924 307.372 250.947 211.725 163.017 141.554 111.419 98.4748 76.4272 70.1111 55.7198 46.4048 35.7287 33.4967 25.8221 20.6224 20.2997 13.7003 11.02 9.55197 10.5723 5.45501 6.56407 5.11876 4.75103 4.76121 3.68076 2.26312 2.3857 1.86533 1.60031 2.45692 0.5814 0.712721 1.42782 0.846421 0.652621 0.5814 0.265021 0.22385 0.41765 0.0712211 0.5814 0.7752 0.1938 0.0712211 0.1938 0.1938 0 0.1938 0 0 0.1938 0 0 0 0 0 0 0 0 0.1938 0 0 0 0 0 0 0 0 0 0 0 0 0 0 0 0 
0 0 -2.56754 7.70261 7.70261 25.6754 47.4074 94.9989 177.16 367.158 505.805 822.804 1036.09 1162.09 1517.41 1708.79 2015.52 2027.35 2052.84 2204.14 1969.48 1885.95 1734.46 1594.44 1328.79 1373.82 1209.31 1019.31 776.772 652.154 762.558 597.044 469.859 432.722 313.24 272.159 215.673 207.97 178.536 125.809 77.0261 84.7287 77.0261 59.0533 41.0806 38.5131 33.378 23.1078 7.70261 17.9728 2.56754 15.4052 10.2701 10.2701 10.2701 -2.56754 12.8377 7.70261 5.13507 2.56754 0 5.13507 2.56754 2.56754 2.56754 0 0 0 2.56754 -5.13507 0 2.56754 0 0 0 0 2.56754 0 0 2.56754 0 0 0 0 0 0 0 0 0 0 0 0 0 0 0 0 0 0 0 0 0 0 0 0 0 0 0 0 0 0 0 0 0 0 0 0 0 0 0 0 
0 0 788.068 1843.95 4599.97 12273.1 26501.5 53284.9 95122.5 157953 234978 330263 431124 534782 635294 724804 790051 836017 861145 862123 843724 803736 756310 693538 630281 561405 495053 431189 374147 323631 277253 235458 200450 170563 143068 121738 102284 85842.7 72476.4 60202.3 50292.4 41715 34992.3 27825.8 23303.1 19325 15676.2 12922.1 10725.2 8917.7 7080.26 5820.22 4780.99 3691.19 3087.44 2538.7 2171.57 1876.2 1491.12 1291 911.781 978.819 721.707 603.694 556.74 413.685 345.747 277.24 212.4 253.59 168.213 144.01 142.325 101.194 74.303 62.8026 56.1687 64.7128 68.6789 44.8004 46.2259 44.1463 24.3153 17.9888 28.2534 19.2007 11.3036 21.4049 28.2542 11.1325 11.1325 11.124 2.73925 4.6597 2.56811 2.56811 5.13621 2.56811 2.73925 2.39696 7.70432 3.42815 4.96506 2.56811 2.56811 0 0 0.86004 0 0 -2.56811 2.56811 0 0 0 0 0 0 0 0 
