1
Photon_
#Delta R
low_dr
11
0
11
10
QCD W + Jets WW WZ ZZ #bar{t}W tW t#bar{t} Drell Yan #rightarrow #tau#tau Drell Yan #rightarrow ee 

100
0.00402555 0.00436083 0.00472403 0.00511748 0.0055437 0.00600542 0.00650559 0.00704742 0.00763438 0.00827023 0.00895903 0.0097052 0.0105135 0.0113892 0.0123377 0.0133653 0.0144785 0.0156843 0.0169906 0.0184057 0.0199387 0.0215993 0.0233983 0.025347 0.0274581 0.029745 0.0322224 0.0349061 0.0378133 0.0409627 0.0443744 0.0480702 0.0520738 0.0564109 0.0611092 0.0661988 0.0717123 0.077685 0.0841551 0.0911642 0.098757 0.106982 0.115892 0.125545 0.136001 0.147328 0.159599 0.172891 0.187291 0.20289 0.219788 0.238093 0.257923 0.279405 0.302676 0.327885 0.355193 0.384776 0.416823 0.451539 0.489146 0.529886 0.574019 0.621827 0.673617 0.729721 0.790497 0.856335 0.927657 1.00492 1.08862 1.17928 1.2775 1.3839 1.49916 1.62402 1.75928 1.90581 2.06454 2.23649 2.42276 2.62454 2.84313 3.07993 3.33645 3.61433 3.91536 4.24146 4.59471 4.97739 5.39195 5.84103 6.32751 6.85451 7.4254 8.04384 8.71379 9.43953 10.2257 11.0774 
0 0 0 0 0 0 0 0 0 0 0 0 0 0 0 0 0 0 0 0 0 0 0 0 0 0 0 0 0 0 0 0 0 0 0 0 0 0 0 0 0 0 0 0 0 0 0 0 0 0 0 0 0 0 0 0 0 0 0 0 0 0 0 0 0 0 0 0 0 0 0 0 0 0 0 0 0 0 0 0 0 0 0 0 0 0 0 0 0 0 0 0 0 0 0 0 0 0 0 
0 0 0 0 0 0 0 0 0 0 0 0 0 0 0 0 0 0 0 0 0 0 5.11332 0 5.11332 0 0 0 0 0 0 0 0 0 0 0 0 0 0 0 0 0 0 0 0 0 0 0 0 0 0 0 0 0 0 0 0 0 0 0 0 0 0 0 0 0 0 0 0 0 0 0 0 0 0 0 0 0 0 0 0 0 0 0 0 0 0 0 0 0 0 0 0 0 0 0 0 0 0 
0 0 0 0 0 0 0 0 0 0 0 0 0 0 0 0 0 0.609323 0 0 0 0 0 0 0 0 0 0 0 0 0 0 0 0 0 0 0 0 0 0 0 0 0 0 0 0 0 0 0 0 0 0 0 0 0 0 0 0 0 0 0 0 0 0 0 0 0 0 0 0 0 0 0 0 0 0 0 0 0 0 0 0 0 0 0 0 0 0 0 0 0 0 0 0 0 0 0 0 0 
0 0 0 0 0 0 0 0 0 0 0 0 0 0 0 0 0 0 0 0 0 0 0 0 0 0 0 0 0 0 0 0 0 0 0 0 0 0 0 0 0 0 0 0 0 0 0 0 0 0 0 0 0 0 0 0 0 0 0 0 0 0 0 0 0 0 0 0 0 0 0 0 0 0 0 0 0 0 0 0 0 0 0 0 0 0 0 0 0 0 0 0 0 0 0 0 0 0 0 
0 0 0 0 0 0 0 0 0 0 0 0.593798 0 0 0 0 0 0 0 0 0 0 0 0 0 0 0 0 0 0 0 0 0 0 0 0 0 0 0 0 0 0 0 0 0 0 0 0 0 0 0 0 0 0 0 0 0 0 0 0 0 0 0 0 0 0 0 0 0 0 0 0 0 0 0 0 0 0 0 0 0 0 0 0 0 0 0 0 0 0 0 0 0 0 0 0 0 0 0 
0 0 0 0 0 0 0 0 0 0 0 0 0 0 0 0 0 0 0 0 0 0 0 0 0 0 0 0 0 0 0 0 0 0 0 0 0 0 0 0 0 0 0 0 0 0 0 0 0 0 0 0 0 0 0 0 0 0 0 0 0 0 0 0 0 0 0 0 0 0 0 0 0 0 0 0 0 0 0 0 0 0 0 0 0 0 0 0 0 0 0 0 0 0 0 0 0 0 0 
0 0 0 0 0 0 0 0 0 0 0 0 0 0 0 0 0 0 0 0 0 0 0 0 0 0 0 0 0 0 0 0 0 0 0 0 0 0 0 0 0 0 0 0 0 0 0 0 0 0 0 0 0 0 0 0 0 0 0 0 0 0 0 0 0 0 0 0 0 0 0 0 0 0 0 0 0 0 0 0 0 0 0 0 0 0 0 0 0 0 0 0 0 0 0 0 0 0 0 
0.1938 0 0 0 0 0 0 0 0.1938 0.0712211 0.1938 0 0 0 0.265021 0 0.265021 0.0300498 0 0 0 0.1938 0.1938 0 0.1938 0.1938 0.1938 0 0 0 0 0 0 0 0 0 0 0 0 0 0 0 0 0 0 0 0 0 0 0 0 0 0 0 0 0 0 0 0 0 0 0 0 0 0 0 0 0 0 0 0 0 0 0 0 0 0 0 0 0 0 0 0 0 0 0 0 0 0 0 0 0 0 0 0 0 0 0 0 
0 0 0 0 0 0 0 0 0 0 0 0 0 0 0 0 0 0 0 0 0 0 0 0 -2.56754 0 0 0 0 0 0 0 0 0 0 0 0 0 0 0 0 0 0 0 0 0 0 0 0 0 0 0 0 0 0 0 0 0 0 0 0 0 0 0 0 0 0 0 0 0 0 0 0 0 0 0 0 0 0 0 0 0 0 0 0 0 0 0 0 0 0 0 0 0 0 0 0 0 0 
4.26791 2.56811 2.6675 5.4785 -2.56811 -2.56811 8.56436 2.79842 5.99625 2.56811 18.1479 13.8717 10.6267 11.1325 23.1129 20.5448 23.973 32.5373 36.9847 38.5216 44.5178 34.2454 41.9497 33.0139 19.6848 24.833 16.2687 10.2724 -5.13621 0 5.13621 0 0 2.56811 0 0 0 0 0 0 0 0 0 0 0 0 0 0 0 0 0 0 0 0 0 0 0 0 0 0 0 0 0 0 0 0 0 0 0 0 0 0 0 0 0 0 0 0 0 0 0 0 0 0 0 0 0 0 0 0 0 0 0 0 0 0 0 0 0 
8 0 4 1 4 2 6 5 7 6 11 11 10 12 16 23 25 23 32 38 28 42 33 33 28 21 14 12 5 4 5 1 0 0 0 0 0 0 0 0 0 0 0 0 0 0 0 0 0 0 0 0 0 0 0 0 0 0 0 0 0 0 0 0 0 0 0 0 0 0 0 0 0 0 0 0 0 0 0 0 0 0 0 0 0 1 0 0 0 0 0 0 0 0 0 0 0 0 0 

100
0.00402555 0.00436083 0.00472403 0.00511748 0.0055437 0.00600542 0.00650559 0.00704742 0.00763438 0.00827023 0.00895903 0.0097052 0.0105135 0.0113892 0.0123377 0.0133653 0.0144785 0.0156843 0.0169906 0.0184057 0.0199387 0.0215993 0.0233983 0.025347 0.0274581 0.029745 0.0322224 0.0349061 0.0378133 0.0409627 0.0443744 0.0480702 0.0520738 0.0564109 0.0611092 0.0661988 0.0717123 0.077685 0.0841551 0.0911642 0.098757 0.106982 0.115892 0.125545 0.136001 0.147328 0.159599 0.172891 0.187291 0.20289 0.219788 0.238093 0.257923 0.279405 0.302676 0.327885 0.355193 0.384776 0.416823 0.451539 0.489146 0.529886 0.574019 0.621827 0.673617 0.729721 0.790497 0.856335 0.927657 1.00492 1.08862 1.17928 1.2775 1.3839 1.49916 1.62402 1.75928 1.90581 2.06454 2.23649 2.42276 2.62454 2.84313 3.07993 3.33645 3.61433 3.91536 4.24146 4.59471 4.97739 5.39195 5.84103 6.32751 6.85451 7.4254 8.04384 8.71379 9.43953 10.2257 11.0774 
42.1715 0 0 161.573 190.611 6.5667 0 0 6.5667 0 0 6.5667 161.573 58.0762 0 29.0381 161.573 0 4533.16 0 4717.2 0 6.5667 6.5667 161.573 161.573 0 190.611 161.573 0 29.0381 29.0381 190.611 0 0 0 0 0 0 0 0 0 0 0 0 0 0 0 0 0 0 0 0 0 0 0 0 0 0 0 0 0 0 0 0 0 0 0 0 0 0 0 0 0 0 0 0 0 0 0 0 0 0 0 0 0 0 0 0 0 0 0 0 0 0 0 0 0 0 
833.471 127.833 158.513 189.193 311.913 168.74 301.686 306.799 306.799 419.292 516.445 439.746 577.805 644.278 628.939 685.185 695.412 807.905 986.871 1150.5 1063.57 945.964 1109.59 1140.27 1124.93 756.772 608.485 726.092 603.372 613.599 526.672 383.499 281.233 178.966 117.606 71.5865 143.173 76.6998 56.2465 20.4533 10.2266 15.34 10.2266 5.11332 5.11332 0 0 0 5.11332 -5.11332 0 0 0 0 0 0 -5.11332 0 5.11332 0 0 0 0 0 5.11332 0 0 0 0 0 0 0 0 0 0 0 0 0 0 0 5.11332 0 5.11332 20.4533 10.2266 10.2266 5.11332 5.11332 0 0 5.11332 0 10.2266 0 0 0 0 0 0 
907.891 161.471 178.532 223.621 261.399 327.206 358.891 407.028 442.978 523.408 610.541 684.269 800.65 879.862 937.138 1074.24 1142.48 1171.12 1210.72 1230.22 1232.05 1209.51 1163.2 1029.15 926.171 775.668 618.463 507.566 434.447 316.848 249.213 155.377 85.3052 56.0577 33.5128 22.5449 17.6704 10.9678 7.31187 2.43729 7.31187 1.82797 1.82797 1.82797 1.82797 1.21865 0.609323 0 0.609323 0 0 0 0 0 0 0.609323 0 0 0 0 0 0.609323 0 0 0 0 0 0 0.609323 0 0 0.609323 0.609323 0.609323 1.21865 0.609323 1.82797 0.609323 0.609323 1.82797 1.82797 2.43729 3.65594 1.82797 7.31187 9.74916 4.26526 3.04661 6.09323 4.26526 0.609323 3.04661 1.82797 0 0 0 0 0 0 
702.498 128.65 138.807 163.07 200.875 230.78 292.284 343.631 397.236 438.426 571.026 659.05 714.911 862.746 890.959 1028.64 1092.4 1160.11 1230.64 1218.79 1180.99 1139.23 946.256 875.16 762.873 607.139 507.83 425.448 324.447 241.501 183.383 121.315 56.9898 38.9336 23.6987 12.9779 10.7208 4.51404 3.94979 5.64255 4.51404 0.564255 0.564255 1.12851 0.564255 0.564255 0.564255 0 0 0 0 0 0 0 0 0 0 0 0 0 0 0 0 0 0 0 0 0 0 0.564255 0 0.564255 0.564255 0 0 0.564255 0.564255 2.25702 1.69277 1.12851 3.38553 2.82128 2.82128 7.89957 4.51404 2.82128 3.38553 4.51404 2.82128 2.82128 1.69277 0 2.82128 0 0 0 0 0 0 
466.725 80.7565 105.696 127.667 145.48 153.2 228.018 251.176 292.149 301.056 384.187 472.069 512.448 551.638 665.054 725.621 817.66 858.632 839.036 842.599 815.284 749.967 697.119 635.364 503.541 472.069 337.871 301.056 224.456 175.17 121.135 71.8495 45.7224 24.9395 16.6263 7.71937 5.34418 4.75038 4.15658 1.1876 0.593798 1.1876 0.593798 0 0 0 0 0 0 0 0 0 0 0 0 0 0 0 0.593798 0 0 0 0 0 0 0 0 0 0 0 1.78139 0 0 0.593798 0 1.1876 0 0.593798 0.593798 0.593798 2.96899 2.96899 1.78139 2.96899 3.56279 2.96899 2.96899 4.15658 2.96899 0.593798 2.37519 0.593798 1.1876 0 0 0 0 0 0 
391.698 75.4834 79.7491 103.674 128.526 140.581 157.087 172.11 204.38 231.272 249.633 282.089 310.28 340.695 346.074 383.723 375.006 386.69 388.916 383.723 344.776 334.39 310.28 285.798 253.899 217.548 186.576 160.055 144.29 120.551 84.0147 50.075 32.8269 16.6917 11.3132 8.16037 3.33833 2.59648 2.04009 0.185463 0.185463 0.556389 0.370926 0.370926 0 0 0 0 0 0.370926 0 0 0 0 0 0.185463 0 0 0.185463 0 0 0 0.185463 0.185463 0.185463 0 0 0.185463 0 0 0.370926 0.370926 0 0.370926 0.185463 0.370926 0.185463 0.185463 0.927315 0.927315 0.370926 0.741852 0.927315 0.741852 2.04009 0.927315 1.85463 1.4837 1.4837 1.29824 1.4837 0.556389 1.4837 0 0 0 0 0 0 
367.284 77.4884 90.4339 102.64 114.291 130.75 164.409 188.08 207.129 230.616 267.233 285.727 316.426 315.132 345.831 371.168 373.202 370.798 381.524 369.318 361.366 335.475 309.769 293.309 253.178 213.602 184.567 160.525 131.675 111.887 86.9201 50.3027 27.1857 16.6443 12.2058 7.21252 5.17822 1.84936 2.58911 0.739746 0.924682 0.184936 0.369873 0 0.184936 0.184936 0 0 0 0.184936 0 0.184936 0 0.184936 0 0 0.184936 0 0 0 0 0 0 0 0 0 0 0.184936 0 0 0.369873 0.554809 0.184936 0.184936 0.554809 0.924682 0.924682 0.184936 0.554809 0.554809 0.924682 1.10962 0 0.924682 1.29456 1.47949 1.29456 1.10962 1.29456 1.66443 0.924682 1.29456 1.47949 0 0 0 0 0 0 
6775.66 1276.07 1540.75 1827.56 2130.09 2539.56 2891.63 3395.25 3794.83 4308.89 4790.59 5314.72 5734.72 6143.74 6524.32 6811.95 6987.86 6993.56 6945.46 6778.16 6517.37 6140.55 5712.84 5226.97 4658.59 4050.24 3445.35 2946 2498.27 2070.63 1638.92 951.744 486.687 310.021 200.326 124.648 75.84 45.0116 26.7217 13.9595 11.4415 6.49523 4.28983 2.90556 2.97822 1.96805 0.917642 1.01891 0.488871 0.8353 0.265021 0.265021 0.3876 0.1938 0.0712211 0.969 0.5814 0.846421 0.846421 1.1628 0.969 0.917642 1.2229 1.5504 1.1628 2.1318 3.1008 2.907 1.3566 2.3256 2.5194 3.36582 5.05866 5.49762 6.07902 5.12989 9.28984 7.73069 10.0146 10.0747 14.4696 13.9808 15.6712 19.9194 21.0497 20.4678 25.884 24.3017 23.7921 24.8463 22.4954 19.5995 23.2484 0 0 0 0 0 0 
505.805 97.5664 123.242 146.35 156.62 250.427 172.025 276.102 308.104 446.751 395.401 588.15 639.317 774.204 825.555 1122.01 1297.8 1742.35 2103.18 2631.73 3512.76 3863.14 4416.35 5343.23 4860.53 4122.09 3557.23 3082.42 2765.24 2399.27 2192.86 1345.39 744.586 440.425 318.375 192.565 100.134 89.8638 25.6754 35.9455 20.5403 10.2701 15.4052 10.2701 0 0 0 0 0 0 0 0 0 0 2.56754 0 0 0 0 0 0 0 0 0 0 0 0 0 0 0 0 2.56754 0 0 -5.13507 0 -2.56754 10.2701 2.56754 0 5.13507 2.56754 33.378 35.9455 64.1884 56.4858 17.9728 5.13507 10.2701 5.13507 2.56754 -2.56754 0 0 0 0 0 0 0 
411711 72834.1 85399.3 101435 121435 144851 174431 210987 256529 312180 379886 459906 559373 683038 831239 1.02781e+06 1.28682e+06 1.64263e+06 2.07143e+06 2.41295e+06 2.42588e+06 2.20064e+06 1.86627e+06 1.52947e+06 1.20241e+06 885117 642384 466776 339133 244367 172892 106785 62490.6 41528.1 27867 19392.9 13436.5 10061.8 7363.97 5704.31 4228.41 3146.33 2240.2 1612.91 1100.12 764.759 474.766 263.527 181.462 114.957 126.963 86.8691 90.9359 107.86 62.0301 32.6155 81.1818 31.3719 39.0051 31.6773 22.1575 26.1866 83.0879 54.3114 2.46382 74.3135 34.7219 1.60306 9.47853 36.9185 30.5508 -2.18458 82.932 90.8607 16.757 129.754 149.927 203.474 392.756 586.631 1004.74 1802.95 3698.55 9474.73 21626.6 15375.3 8653.88 3854.67 1478.29 760.376 343.54 359.781 325.042 0 0 0 0 0 0 
379372 68094 81022 95999 114693 136479 164445 196264 238241 288333 350235 424030 515047 627096 764399 939888 1.17461e+06 1.49608e+06 1.88656e+06 2.19139e+06 2.21637e+06 2.01247e+06 1.71527e+06 1.40451e+06 1.10386e+06 817586 597115 434131 310980 222373 153867 95380 56634 35875 23256 14660 9361 5996 3693 2327 1432 856 581 378 287 230 186 156 165 133 128 115 106 75 54 59 51 87 54 50 51 50 39 38 37 33 33 37 40 40 34 51 58 74 84 126 151 224 357 555 838 1568 3215 9173 21304 15043 7922 3233 1556 722 413 301 329 0 0 0 0 0 0 

100
0.00402555 0.00436083 0.00472403 0.00511748 0.0055437 0.00600542 0.00650559 0.00704742 0.00763438 0.00827023 0.00895903 0.0097052 0.0105135 0.0113892 0.0123377 0.0133653 0.0144785 0.0156843 0.0169906 0.0184057 0.0199387 0.0215993 0.0233983 0.025347 0.0274581 0.029745 0.0322224 0.0349061 0.0378133 0.0409627 0.0443744 0.0480702 0.0520738 0.0564109 0.0611092 0.0661988 0.0717123 0.077685 0.0841551 0.0911642 0.098757 0.106982 0.115892 0.125545 0.136001 0.147328 0.159599 0.172891 0.187291 0.20289 0.219788 0.238093 0.257923 0.279405 0.302676 0.327885 0.355193 0.384776 0.416823 0.451539 0.489146 0.529886 0.574019 0.621827 0.673617 0.729721 0.790497 0.856335 0.927657 1.00492 1.08862 1.17928 1.2775 1.3839 1.49916 1.62402 1.75928 1.90581 2.06454 2.23649 2.42276 2.62454 2.84313 3.07993 3.33645 3.61433 3.91536 4.24146 4.59471 4.97739 5.39195 5.84103 6.32751 6.85451 7.4254 8.04384 8.71379 9.43953 10.2257 11.0774 
77.7763 0 0 29.0381 0 0 0 0 0 0 6.5667 161.573 0 58.0762 161.573 0 2263.29 0 30968 190.611 33289.7 190.611 87.4999 29.0381 87.4999 29.0381 0 87.4999 0 0 0 29.0381 58.0762 29.0381 0 0 58.4618 58.4618 6.5667 0 0 0 0 0 0 0 0 0 0 0 0 0 0 0 0 0 0 0 0 0 0 0 0 0 0 0 0 161.573 0 58.4618 29.0381 0 0 6.5667 190.611 0 0 87.4999 0 30968 0 29.0381 29.0381 2292.33 0 0 87.4999 29.0381 0 0 0 0 0 0 0 0 0 0 0 
255.666 20.4533 -1.77636e-15 56.2465 35.7932 56.2465 -5.11332 71.5865 76.6998 40.9066 173.853 138.06 127.833 173.853 66.4732 46.0199 240.326 127.833 81.8131 199.42 148.286 163.626 224.986 143.173 132.946 158.513 122.72 102.266 148.286 97.1531 76.6998 20.4533 20.4533 35.7932 10.2266 51.1332 5.11332 20.4533 15.34 5.11332 20.4533 0 5.11332 0 -5.11332 -5.11332 5.11332 5.11332 5.11332 0 5.11332 0 0 0 0 0 20.4533 0 20.4533 10.2266 15.34 15.34 15.34 5.11332 25.5666 5.11332 40.9066 30.6799 30.6799 30.6799 56.2465 25.5666 35.7932 71.5865 102.266 71.5865 71.5865 71.5865 1.77636e-15 97.1531 158.513 138.06 148.286 184.08 97.1531 56.2465 46.0199 76.6998 30.6799 30.6799 0 0 -5.11332 0 0 0 0 0 0 
154.768 36.5594 29.2475 37.778 33.5128 49.3551 61.5416 59.7136 63.3696 57.2763 87.7425 91.3984 102.976 104.194 118.209 113.334 127.958 150.503 143.191 151.721 132.832 132.223 108.459 105.413 107.85 86.5238 63.3696 64.5882 54.839 38.9967 35.3407 19.4983 9.13984 7.9212 6.09323 0.609323 1.82797 2.43729 1.82797 1.21865 1.21865 0 0 0.609323 0 0 0 0 0.609323 0.609323 0.609323 0.609323 0 0 0.609323 6.09323 6.70255 6.70255 7.31187 10.9678 7.9212 8.53052 10.3585 11.5771 18.889 20.1077 17.061 17.061 18.2797 27.4195 25.5916 32.9034 34.1221 45.6992 48.7458 46.9179 57.2763 62.7602 90.7891 83.4772 87.7425 104.194 96.273 82.2586 99.9289 60.323 48.7458 34.1221 24.3729 13.4051 8.53052 1.82797 0.609323 0 0 0 0 0 0 
413.599 75.0459 93.1021 103.823 134.293 144.449 157.991 191.847 224.574 252.222 300.184 358.866 391.593 439.555 470.589 518.551 555.227 541.685 552.97 572.719 527.579 512.344 465.511 422.063 333.475 317.111 272.535 197.489 157.427 141.064 93.6664 62.6323 30.4698 15.2349 12.9779 11.8494 7.33532 1.69277 1.69277 1.12851 0.564255 0.564255 0.564255 1.12851 1.12851 1.12851 0.564255 0.564255 1.12851 1.12851 0.564255 1.12851 0 1.69277 2.82128 3.94979 10.7208 13.5421 16.9277 15.7991 16.9277 24.8272 31.034 31.5983 32.7268 43.4477 56.9898 58.1183 60.3753 78.9957 94.7949 117.365 142.192 135.421 174.919 213.853 235.859 260.122 296.234 321.625 350.403 349.274 402.878 406.264 346.453 264.636 191.283 135.986 72.2247 37.2408 16.3634 6.20681 3.38553 0 0 0 0 0 0 
228.612 44.5348 50.4728 51.0666 71.2557 89.6635 97.9766 102.727 124.104 148.449 158.544 184.671 193.578 241.082 246.426 268.99 292.149 304.618 298.68 287.992 276.116 249.989 239.301 223.268 182.296 169.232 143.699 105.696 90.8511 83.1317 59.3798 23.7519 14.8449 9.50077 8.90697 3.56279 2.37519 2.96899 1.1876 0.593798 0.593798 0.593798 0.593798 1.1876 0.593798 0 1.1876 0 0 0.593798 1.1876 0 0.593798 0 2.37519 4.75038 7.12557 8.90697 14.8449 11.876 15.4387 19.0015 18.4077 27.9085 30.2837 38.0031 38.5969 46.3162 52.2542 48.6914 73.6309 70.6619 73.6309 102.727 107.477 119.353 137.167 134.792 157.95 162.701 168.045 180.515 204.86 162.701 153.2 109.259 93.8201 48.6914 27.3147 16.6263 4.15658 2.37519 0.593798 0 0 0 0 0 0 
182.866 37.2781 34.4961 44.882 50.6314 63.7993 64.912 79.7491 89.5786 94.957 105.714 111.649 137.614 127.784 142.621 141.508 150.781 153.007 150.225 148.185 151.152 141.323 140.581 111.463 102.19 89.2077 74.1852 66.2103 55.268 45.253 42.2856 21.8846 12.426 7.23306 5.74935 2.04009 2.41102 1.66917 0.927315 0.741852 0.185463 0 0.185463 0.370926 0.741852 0.185463 0.185463 0 0.370926 0.556389 0 0 0.185463 0.370926 0.370926 2.78194 3.89472 4.63657 4.63657 5.56389 6.30574 11.1278 12.0551 15.9498 16.8771 18.5463 22.6265 24.6666 29.8595 38.0199 40.9873 48.9622 59.7191 66.2103 72.7015 80.6764 88.0949 91.0623 100.892 95.1425 99.9645 94.2152 92.546 86.7967 81.2328 62.8719 49.3331 30.2305 20.03 13.3533 3.33833 2.22556 0.556389 0 0 0 0 0 0 
184.752 33.2886 37.912 45.8642 52.8918 58.0701 68.2416 83.0365 84.7009 98.7561 103.749 125.572 121.503 138.517 136.298 157.011 163.299 158.676 162.189 153.867 146.285 140.552 126.497 117.805 101.715 85.9955 72.1252 66.5771 56.2207 48.0835 36.6174 19.2334 12.5757 8.50708 5.54809 2.40417 1.29456 1.29456 0.369873 0.369873 0.554809 0.184936 0.184936 0 0.369873 0.184936 0.554809 0.554809 0 0.369873 0 0.184936 0.184936 0.184936 1.10962 3.14392 2.95898 3.69873 6.28784 5.91797 5.36316 10.7263 9.6167 13.5004 16.2744 18.4936 23.302 27.0007 30.8844 34.953 48.2684 54.7412 58.255 69.5361 66.3922 82.1118 84.1461 95.2423 89.1394 93.3929 105.229 95.7971 96.3519 95.4272 78.598 67.1319 45.1245 32.9187 22.3773 12.9456 5.17822 4.25354 1.29456 0.184936 0 0 0 0 0 
4482.46 850.277 987.098 1170.36 1372.06 1610.57 1849.18 2145.27 2419.48 2751.76 3004.62 3349.9 3673.01 3884.47 4145.65 4275.76 4401.57 4477.92 4419.78 4363.74 4194.62 3944.18 3690.09 3373.88 2994.11 2602.38 2213.14 1892.59 1625.35 1370.07 1031.01 630.051 337.484 202.907 134.781 88.4763 61.0226 33.9103 19.8995 14.9372 7.58205 11.7153 7.17552 5.08489 5.56264 4.44483 4.14594 5.3078 5.14737 4.72972 3.362 4.40222 5.79668 6.1038 13.7168 49.4857 86.8433 121.101 176.837 216.848 281.037 365.017 445.615 541.989 643.335 751.955 904.433 1057.01 1243.78 1422.37 1575.39 1761.84 1894.21 2070.53 2146.9 2258.53 2331.98 2363.2 2377.81 2393.81 2326.84 2231.61 2198.94 2037.06 1892.23 1596.59 1321 972.56 624.462 345.914 166.056 73.6698 25.8962 1.04022 0 0 0 0 0 
125.809 7.70261 12.8377 15.4052 35.9455 20.5403 41.0806 53.9183 84.7287 79.5936 89.8638 128.377 105.269 137.455 243.916 169.457 209.346 259.321 261.889 405.671 340.291 464.724 559.723 468.668 490.4 372.293 344.05 389.074 346.617 290.132 236.397 191.374 114.347 71.891 74.4586 26.8671 17.9728 12.8377 2.56754 7.70261 7.70261 5.13507 0 0 0 0 0 0 2.56754 -2.56754 0 0 5.13507 2.56754 0 0 12.8377 12.8377 15.4052 20.5403 23.1078 25.6754 7.70261 30.8104 20.5403 20.5403 38.5131 59.0533 33.378 59.0533 77.0261 61.6209 100.134 92.4313 161.755 115.539 115.539 161.755 246.484 323.51 256.754 288.756 247.859 315.991 222.184 169.457 118.107 92.4313 61.6209 52.7265 12.8377 5.13507 0 -2.56754 0 0 0 0 0 
62714.9 10822.6 13711.6 15782.2 19189.5 23123.7 26834 32601.2 38253.4 47044.4 55171.7 64008.4 76460.8 88878 102498 115967 131920 148982 162346 177055 177810 169974 154414 135187 114983 95940 76727.9 62531.4 50213.2 39826.6 29560.8 17775 10427.1 7015.37 4781.39 3384.96 2162.69 1787.71 1334.92 986.87 861.543 708.615 448.574 348.936 302.557 276.976 291.749 270.312 264.269 292.92 264.415 321.184 384.372 365.555 1026.94 4750.57 6150.46 6909.03 7376.47 8370.46 9125.39 10229.9 11382.9 12726.3 14249.8 16413.1 17754 20416.7 22487.7 26488.5 29612.2 34477.9 38717.9 43507.5 49737.4 56115 62019.7 68429.2 75026.8 78605.3 81986.5 85381.7 87514 84281.3 72175.2 53554.8 37285.3 25681.8 16863.6 9861.91 3952.3 1034.27 296.749 14.6147 -6.47276 -2.56811 0 0 0 
62637 11459 13477 16007 19116 22959 27000 32155 37806 45478 53356 63076 73732 85553 97777 111890 125628 140698 156174 166661 167268 157924 144413 128091 108825 89570 72924 58718 46447 36256 26697 16619 9649 6384 4178 2583 1695 1160 721 444 318 253 211 197 190 220 211 200 244 220 226 280 286 350 966 4162 5395 5949 6701 7365 8399 9236 10335 11670 12929 14733 16660 18765 21457 24269 27315 31247 35869 40308 46005 51963 58252 63902 69471 73986 78640 82036 84066 81831 69958 53243 38835 27185 17552 11063 4714 1278 429 35 2 0 0 0 0 

100
0.00402555 0.00436083 0.00472403 0.00511748 0.0055437 0.00600542 0.00650559 0.00704742 0.00763438 0.00827023 0.00895903 0.0097052 0.0105135 0.0113892 0.0123377 0.0133653 0.0144785 0.0156843 0.0169906 0.0184057 0.0199387 0.0215993 0.0233983 0.025347 0.0274581 0.029745 0.0322224 0.0349061 0.0378133 0.0409627 0.0443744 0.0480702 0.0520738 0.0564109 0.0611092 0.0661988 0.0717123 0.077685 0.0841551 0.0911642 0.098757 0.106982 0.115892 0.125545 0.136001 0.147328 0.159599 0.172891 0.187291 0.20289 0.219788 0.238093 0.257923 0.279405 0.302676 0.327885 0.355193 0.384776 0.416823 0.451539 0.489146 0.529886 0.574019 0.621827 0.673617 0.729721 0.790497 0.856335 0.927657 1.00492 1.08862 1.17928 1.2775 1.3839 1.49916 1.62402 1.75928 1.90581 2.06454 2.23649 2.42276 2.62454 2.84313 3.07993 3.33645 3.61433 3.91536 4.24146 4.59471 4.97739 5.39195 5.84103 6.32751 6.85451 7.4254 8.04384 8.71379 9.43953 10.2257 11.0774 
42.1715 0 0 0 29.0381 0 0 0 0 0 0 0 0 0 0 0 0 0 0 29.0381 0 0 0 0 29.0381 0 0 0 0 0 0 0 0 0 0 0 0 0 0 0 0 0 0 0 0 0 0 0 0 0 0 0 0 0 0 0 0 0 6.5667 0 29.0381 29.0381 0 0 0 0 0 0 0 0 6.5667 0 0 0 0 0 0 0 0 0 0 0 0 0 58.0762 0 0 0 0 0 0 0 0 0 0 0 0 0 0 
107.38 5.11332 5.11332 -10.2266 -5.11332 0 -15.34 15.34 5.11332 30.6799 0 20.4533 15.34 25.5666 15.34 35.7932 56.2465 25.5666 35.7932 10.2266 5.11332 35.7932 51.1332 25.5666 30.6799 25.5666 56.2465 25.5666 15.34 20.4533 0 0 0 -5.11332 5.11332 -5.11332 -5.11332 0 0 -5.11332 0 0 0 0 0 0 0 0 0 0 0 5.11332 5.11332 0 0 0 0 5.11332 5.11332 15.34 15.34 0 20.4533 5.11332 5.11332 15.34 10.2266 10.2266 0 0 -5.11332 -5.11332 25.5666 30.6799 0 35.7932 35.7932 5.11332 30.6799 5.11332 40.9066 25.5666 40.9066 40.9066 71.5865 71.5865 76.6998 15.34 5.11332 -15.34 5.11332 20.4533 5.11332 -5.11332 0 0 0 0 0 
26.8102 4.26526 4.26526 7.31187 5.4839 5.4839 14.0144 14.6237 9.74916 9.74916 15.2331 11.5771 20.1077 12.7958 16.4517 20.717 17.061 15.8424 15.8424 22.5449 17.6704 13.4051 15.8424 14.6237 7.9212 10.9678 7.9212 9.74916 6.09323 3.65594 4.26526 2.43729 3.04661 0 0.609323 0 1.21865 0 0 0 0.609323 0 0 0 0 0 0 0 0 0 0 0 0 0 0 1.21865 1.82797 1.21865 3.04661 2.43729 1.21865 1.21865 1.21865 1.21865 6.70255 1.82797 2.43729 4.87458 5.4839 10.9678 10.9678 7.9212 10.3585 12.1865 9.13984 8.53052 17.061 22.5449 15.8424 24.9822 36.5594 21.3263 29.8568 28.0288 18.889 25.5916 13.4051 17.6704 6.09323 3.65594 1.82797 0 0.609323 0 0 0 0 0 0 
98.1804 20.3132 20.8774 25.3915 28.777 36.6766 46.2689 36.1123 49.0902 52.4757 54.7328 71.0962 72.2247 78.4315 89.1523 92.5379 101.002 89.7166 106.644 80.6885 97.6162 92.5379 88.0238 68.2749 63.7608 52.4757 42.3191 44.5762 34.4196 23.6987 29.9055 13.5421 9.02808 4.51404 3.94979 2.82128 0.564255 0.564255 0.564255 1.12851 0 0 1.12851 0 0.564255 0 0 0 1.12851 0 0 0.564255 0 0.564255 0.564255 1.12851 4.51404 6.77106 7.33532 6.20681 7.33532 10.7208 11.2851 12.4136 12.9779 12.4136 21.4417 22.006 28.777 31.5983 34.4196 33.8553 56.4255 43.4477 62.0681 75.0459 80.6885 95.9234 110.594 124.136 133.728 155.17 141.628 166.455 128.086 97.0519 82.9455 47.3974 37.2408 14.6706 9.59234 3.38553 0.564255 1.12851 0 0 0 0 0 
95.6015 13.6574 10.0946 22.5643 18.4077 24.3457 32.0651 25.5333 38.5969 40.3783 39.7845 46.91 50.4728 62.3488 76.5999 63.5364 74.8185 67.0992 69.4743 71.2557 68.2868 67.693 55.2232 49.879 48.6914 32.6589 24.3457 27.9085 26.1271 20.7829 15.4387 11.2822 8.31317 2.96899 2.37519 1.78139 0 1.1876 0 0.593798 0 0 0.593798 0 0.593798 0 0 0 0 0.593798 0 0 0.593798 1.1876 1.1876 3.56279 1.78139 7.71937 7.12557 8.31317 9.50077 10.0946 8.90697 16.0325 11.876 14.8449 18.4077 24.9395 17.8139 26.7209 29.0961 35.0341 45.1286 55.2232 52.848 57.5984 67.693 70.6619 77.1937 86.6945 84.9131 103.915 96.1953 102.727 87.8821 63.5364 46.91 30.2837 11.2822 5.93798 7.12557 1.78139 0.593798 0 0 0 0 0 0 
58.2354 10.9423 14.2806 13.9097 14.0952 15.7644 16.1353 24.6666 20.9573 25.4084 26.1503 31.5287 27.634 27.634 33.9397 34.867 38.9472 34.6816 35.9798 36.5362 34.6816 30.6014 33.7543 27.634 25.9648 19.2881 18.1754 15.9498 12.0551 10.5714 7.60398 4.26565 2.22556 2.59648 1.29824 1.66917 1.66917 0.185463 0.185463 0.370926 0.185463 0 0 0.556389 0 0 0.185463 0.556389 0 0.185463 0 0 0 0 0.185463 2.22556 1.85463 3.70926 2.41102 2.59648 2.78194 5.37843 7.04759 6.86213 8.34583 9.45861 11.3132 17.2481 17.619 21.8846 22.2556 29.3031 22.6265 28.9322 33.7543 37.0926 42.6565 44.6966 46.5512 45.4384 47.8494 48.4058 43.5838 46.1803 41.1728 31.7142 24.4811 18.1754 10.7569 3.5238 3.15287 1.66917 0.185463 0 0 0 0 0 0 
55.8508 8.32214 11.0962 13.8702 13.3154 18.1238 21.0828 24.2267 18.8635 24.7815 27.9254 29.035 33.6584 32.9187 36.6174 34.7681 33.8434 39.9463 37.5421 35.3229 34.7681 35.1379 32.1789 30.3296 24.7815 23.6719 19.6033 15.9045 15.7196 12.7606 9.24682 6.28784 2.95898 1.29456 2.40417 0.739746 0.554809 0.554809 0.554809 0.184936 0 0.184936 0.369873 0 0 0 0.554809 0.184936 0 0.369873 0.184936 0 0.369873 0.184936 0.369873 1.29456 1.47949 2.58911 2.58911 4.80835 4.0686 5.17822 6.65771 6.65771 10.1715 11.4661 10.9113 14.2401 16.6443 18.4936 25.7062 24.7815 32.5488 28.1103 31.994 36.6174 46.7889 42.3505 45.1245 48.8232 49.7479 48.8232 53.6316 46.9739 41.4258 38.4668 23.4869 16.4593 10.3564 6.1029 4.25354 1.10962 0 0 0 0 0 0 0 
1704.22 315.22 374.254 445.232 506.482 589.13 687.992 772.296 857.796 959.552 1085.7 1186.69 1269.92 1373.94 1467.35 1516.51 1538 1593.92 1557.68 1547.97 1501.1 1440.08 1317.06 1215.2 1063.81 917.481 799.973 711.082 583.474 476.802 371.351 224.547 123.713 76.3852 50.9319 33.4238 20.056 11.3863 7.6334 6.13385 6.39251 3.2496 3.85231 3.00445 4.38236 2.96421 2.73068 2.57568 3.33339 2.9143 2.99571 2.9429 2.83195 4.80001 12.7478 35.4317 65.5768 89.8349 128.073 165.674 225.358 276.082 332.616 418.684 504.517 617.658 700.753 845.859 951.533 1062.65 1194.16 1308.56 1384.38 1462.72 1537.47 1571.22 1583.42 1636.11 1584.56 1621.28 1564.73 1535.05 1519.98 1428.66 1336.29 1146.23 928.591 703.588 456.654 273.989 132.069 51.196 14.537 1.3566 0.1938 0 0 0 0 
46.2157 20.5403 7.70261 12.8377 5.13507 15.4052 -7.70261 5.13507 -8.88178e-16 10.2701 -3.94332 20.5403 30.8104 27.0512 23.1078 10.2701 35.9455 23.1078 64.1884 73.2668 30.8104 71.891 14.0294 87.2963 69.3235 41.0806 53.9183 41.0806 71.891 41.0806 48.7832 38.5131 7.70261 0 2.56754 5.13507 0 2.56754 0 2.56754 0 0 0 0 0 0 0 0 0 0 0 0 0 0 0 0 0 2.56754 0 0 7.70261 10.2701 10.2701 10.2701 15.4052 7.70261 12.8377 15.4052 12.8377 17.9728 17.9728 17.9728 -9.07839 23.1078 53.9183 56.4858 88.672 51.3507 20.5403 57.6776 77.0261 77.0261 165.514 47.5914 46.2157 61.6209 30.8104 17.9728 -5.13507 24.4836 15.4052 0 2.56754 2.56754 0 0 0 0 0 
11452.8 2075.26 2186.1 2653.28 3043.07 3980.6 4248.85 4847.85 5903.27 7083.65 8414.94 9289.53 10349.2 11642.7 13117.3 13807.8 15189.8 15563.3 16615.6 17073.2 16511.6 16130.7 14461.9 13414.8 11622 10143.9 8286.32 6963.42 5740.96 4590.9 3913.46 2346.82 1389.79 959.349 511.749 394.187 360.534 321.802 201.519 184.446 133.283 104.281 86.4936 65.9285 52.9588 52.3447 40.3967 60.1576 50.2511 9.85393 37.5421 22.2595 60.3173 63.4463 111.974 598.539 838.025 1020.32 1095.24 1216.14 1413.56 2038.31 1943.98 2381.59 2761.6 3229.35 3851.48 4106.3 4731.16 5416.09 6179.15 7797.67 8370.97 9953.46 10785 12649.3 13520.3 15454.3 16203.7 18395.9 19811 20568.8 21880.2 21215.4 18165.5 14451.9 10216.5 7139.17 4453.56 2604.72 1037.32 398.729 176.329 31.3988 2.56811 0 0 0 0 
12300 2191 2663 3074 3663 4187 5022 5985 6900 8039 9191 10473 11668 12788 14102 15190 16780 17478 18466 18588 18277 17182 16050 14404 12805 10749 9126 7492 6263 5049 3877 2411 1431 881 600 346 256 147 96 73 41 40 36 31 28 26 22 23 36 30 35 36 47 45 144 664 808 1037 1187 1397 1690 1955 2370 2700 3053 3420 4087 4830 5518 6488 7361 8056 9353 10334 11868 13460 14955 16412 18064 19818 21456 22359 23366 23240 20355 15577 11506 7921 5249 3208 1491 523 187 28 2 0 0 0 0 

100
0.00402555 0.00436083 0.00472403 0.00511748 0.0055437 0.00600542 0.00650559 0.00704742 0.00763438 0.00827023 0.00895903 0.0097052 0.0105135 0.0113892 0.0123377 0.0133653 0.0144785 0.0156843 0.0169906 0.0184057 0.0199387 0.0215993 0.0233983 0.025347 0.0274581 0.029745 0.0322224 0.0349061 0.0378133 0.0409627 0.0443744 0.0480702 0.0520738 0.0564109 0.0611092 0.0661988 0.0717123 0.077685 0.0841551 0.0911642 0.098757 0.106982 0.115892 0.125545 0.136001 0.147328 0.159599 0.172891 0.187291 0.20289 0.219788 0.238093 0.257923 0.279405 0.302676 0.327885 0.355193 0.384776 0.416823 0.451539 0.489146 0.529886 0.574019 0.621827 0.673617 0.729721 0.790497 0.856335 0.927657 1.00492 1.08862 1.17928 1.2775 1.3839 1.49916 1.62402 1.75928 1.90581 2.06454 2.23649 2.42276 2.62454 2.84313 3.07993 3.33645 3.61433 3.91536 4.24146 4.59471 4.97739 5.39195 5.84103 6.32751 6.85451 7.4254 8.04384 8.71379 9.43953 10.2257 11.0774 
6.5667 0 6.5667 0 0 0 0 0 0 0 0 0 0 0 0 0 0 0 0 0 0 0 0 0 0 0 0 0 0 0 0 0 0 0 0 0 0 0 0 0 0 0 0 0 0 0 0 0 0 0 0 0 0 0 0 0 0 0 0 0 0 0 0 0 0 0 0 6.5667 0 0 6.5667 0 0 0 0 6.5667 0 0 0 0 0 0 0 0 0 0 0 0 0 0 0 0 0 0 0 0 0 0 0 
10.2266 0 0 0 0 15.34 5.11332 15.34 -5.11332 10.2266 -5.11332 0 5.11332 15.34 0 -5.11332 5.11332 0 0 5.11332 5.11332 0 5.11332 -5.11332 0 -5.11332 0 -5.11332 -5.11332 0 0 0 0 0 0 0 0 0 0 0 0 0 0 0 0 0 0 0 0 0 0 0 0 0 0 0 0 0 0 0 0 0 0 0 0 10.2266 0 5.11332 5.11332 5.11332 5.11332 0 5.11332 10.2266 0 0 -5.11332 -15.34 0 10.2266 15.34 20.4533 5.11332 5.11332 -20.4533 5.11332 0 5.11332 5.11332 15.34 0 0 0 0 0 0 0 0 0 
6.09323 0.609323 0.609323 0 1.82797 1.82797 1.82797 0 1.82797 3.65594 0 2.43729 2.43729 4.26526 1.82797 0.609323 1.82797 0.609323 5.4839 0.609323 1.82797 1.82797 0.609323 2.43729 1.21865 2.43729 1.82797 0 0 0.609323 1.82797 0 0.609323 0 0 0 0 0 0 0 0 0 0 0 0 0 0 0 0 0 0 0 0 0 0 0 0 0 0 0 0 1.21865 0.609323 0 0 0.609323 0 0.609323 1.82797 0.609323 0.609323 0.609323 2.43729 2.43729 2.43729 3.04661 6.09323 7.31187 4.26526 3.04661 9.74916 3.65594 4.87458 7.31187 6.70255 4.26526 1.21865 1.82797 1.21865 1.82797 0 0 0 0 0 0 0 0 0 
23.1345 1.69277 3.38553 5.0783 7.89957 3.94979 5.0783 9.02808 11.8494 6.77106 9.59234 13.5421 13.5421 9.02808 15.7991 12.4136 16.3634 16.3634 13.5421 12.9779 16.9277 6.77106 10.1566 14.1064 9.02808 9.02808 5.0783 4.51404 4.51404 3.38553 3.38553 1.12851 0 0 0.564255 0 0 0 0 0.564255 0.564255 0 0 0 0 0 0 0 0 0 0 0 0 0 0.564255 1.69277 0.564255 0.564255 3.38553 0.564255 2.82128 2.25702 1.69277 1.12851 1.12851 6.77106 3.38553 7.33532 5.64255 6.20681 12.4136 10.7208 10.7208 7.33532 12.9779 16.9277 20.3132 22.006 20.3132 29.3413 30.4698 31.5983 31.5983 40.0621 32.1625 31.034 18.6204 14.1064 6.20681 3.94979 1.69277 1.69277 0 0.564255 0 0 0 0 0 
10.0946 2.37519 2.37519 7.12557 1.1876 5.34418 3.56279 10.6884 11.2822 8.31317 13.0636 4.75038 8.31317 8.90697 8.90697 10.6884 13.6574 13.0636 10.6884 9.50077 12.4698 7.71937 5.34418 5.34418 7.71937 2.96899 4.15658 1.78139 2.96899 4.15658 1.1876 2.96899 0.593798 0 0 2.37519 0.593798 0 0 0 0 0.593798 0.593798 0 0 0 0 0 0 0 0 0 0 0 0.593798 0.593798 0 1.1876 0 0 1.78139 0.593798 2.37519 2.37519 2.37519 2.96899 2.96899 2.96899 6.53178 5.34418 7.12557 4.75038 11.2822 10.0946 7.71937 11.2822 14.8449 21.3767 19.5953 24.9395 24.9395 26.1271 23.7519 32.6589 23.1581 14.2511 12.4698 8.31317 2.96899 3.56279 3.56279 0.593798 0.593798 0 0 0 0 0 0 
13.3533 2.04009 2.96741 2.59648 3.5238 3.15287 2.22556 5.56389 5.19296 7.23306 5.93481 7.41852 5.74935 7.23306 5.37843 7.41852 8.16037 7.78944 6.30574 6.4912 5.56389 4.63657 5.93481 3.5238 4.82204 4.45111 2.78194 2.04009 2.22556 2.59648 1.29824 1.4837 0.370926 0.370926 0.370926 0 0.185463 0.370926 0 0 0 0 0 0 0 0 0 0 0.185463 0 0 0 0 0.185463 0.185463 0 0.741852 0.370926 0.370926 0.556389 1.66917 1.4837 1.4837 2.04009 4.26565 3.89472 4.26565 3.33833 5.0075 7.60398 6.67667 9.45861 10.7569 10.5714 11.1278 7.78944 11.3132 10.015 12.7969 13.5388 13.3533 14.4661 12.2406 13.9097 12.0551 10.3859 7.97491 5.37843 3.33833 2.78194 2.04009 0.370926 0 0 0 0 0 0 0 
13.6853 3.51379 2.40417 4.25354 2.77405 5.54809 3.32886 5.17822 4.43848 4.80835 4.25354 4.62341 4.80835 5.36316 8.50708 7.02759 6.65771 7.02759 6.47278 7.76733 6.65771 6.47278 5.91797 5.17822 5.17822 4.43848 1.84936 3.32886 2.58911 2.40417 1.10962 0.369873 0.184936 0.369873 0 0 0 0.184936 0 0 0 0 0 0 0 0 0 0 0 0 0 0 0 0 0 0.184936 0.184936 0.739746 0.369873 0.924682 0.554809 1.66443 1.29456 2.21924 1.84936 4.0686 3.14392 4.80835 6.47278 6.47278 5.91797 10.1715 8.69201 10.1715 7.95227 15.3497 12.3907 12.0209 12.0209 11.4661 11.4661 15.7196 13.8702 12.3907 11.8359 9.80163 7.5824 5.73303 3.32886 3.32886 2.40417 0.369873 0 0 0 0 0 0 0 
468.859 93.9519 106.879 125.166 149.002 160.747 186.539 214.845 234.993 269.159 279.926 317.079 344.606 354.058 365.337 390.536 404.979 397.168 414.392 375.923 365.664 363.625 336.948 319.213 274.192 238.123 195.155 172.596 149.557 124.287 97.2538 57.3822 29.0566 18.523 15.7599 10.0548 5.77868 5.21765 3.32176 1.52909 0.866285 2.00684 0.652621 0.61145 1.10032 0.783942 1.93562 1.65167 0.865349 0.906521 0.488871 1.37646 1.40651 1.55914 4.7186 14.7248 23.1194 37.0201 53.8896 71.8716 98.7629 126.416 141.355 183.544 235.7 277.476 295.913 343.438 385.828 413.748 486.953 522.816 566.288 582.07 594.346 588.533 595.952 597.758 604.98 610.394 591.339 579.166 561.915 534.435 510.491 435.531 364.839 279.059 174.784 99.7241 60.8033 21.2053 7.59699 0.652621 0 0 0 0 0 
7.70261 0 0 0 2.56754 0 5.13507 0 2.56754 2.56754 5.13507 -5.13507 2.56754 10.2701 7.70261 7.70261 7.70261 2.56754 5.13507 12.8377 17.9728 10.2701 -2.56754 10.2701 0 7.70261 15.4052 -2.56754 5.13507 -7.70261 0 5.13507 0 2.56754 -2.56754 0 2.56754 0 0 0 0 0 0 0 0 0 0 0 0 0 0 0 0 0 0 0 0 0 5.13507 2.56754 0 -5.13507 5.13507 2.56754 0 -2.56754 5.13507 2.56754 7.70261 -2.56754 0 12.8377 7.70261 5.13507 7.70261 2.56754 8.88178e-16 12.8377 2.56754 10.2701 12.8377 38.5131 12.8377 25.6754 5.13507 -2.56754 23.1078 12.8377 -5.13507 7.70261 -5.13507 2.56754 -2.56754 0 0 0 0 0 0 
1951.15 353.727 399.242 348.263 493.533 641.061 622.039 781.552 987.467 950.008 1073.33 1231.51 1440.69 1482.54 1568.33 1848.8 1859.01 1848.34 1921.15 1927.66 1953 1907.98 1456.96 1501.62 1293.87 1170.17 966.513 868.633 745.655 435.282 461.529 355.799 97.5237 97.7058 88.2662 55.9371 83.2871 47.9782 22.6759 32.2419 12.3729 16.6151 21.4056 5.73385 8.6286 2.86949 2.74034 2.88948 8.39411 6.09952 17.9521 10.5432 25.0723 18.1923 41.4437 128.107 175.335 167.518 253.62 288.639 286.955 300.762 422.863 475.355 485.328 547.99 670.644 731.416 868.432 988.178 1198.84 1386.14 1485.37 1770.73 2067.34 2104 2670.3 2849.16 2929.91 3043.95 3522.55 3842.47 4024.12 3993.24 3580.77 2911.26 2112.35 1644.05 1047.11 701.067 298.438 128.202 12.8405 7.70432 0 0 0 0 0 
2524 438 498 636 684 792 925 1111 1187 1389 1543 1674 1857 2075 2147 2290 2327 2415 2563 2575 2434 2386 2132 1959 1739 1486 1295 1031 868 754 546 337 182 132 99 56 51 19 9 14 6 9 7 8 8 4 9 6 8 6 9 11 10 12 20 98 145 194 261 311 385 452 567 654 714 837 1011 1212 1351 1491 1769 1923 2177 2471 2639 2973 3296 3527 3910 4157 4627 5009 5160 4984 4526 3596 2728 2005 1284 815 421 158 57 12 1 0 0 0 0 

100
0.00402555 0.00436083 0.00472403 0.00511748 0.0055437 0.00600542 0.00650559 0.00704742 0.00763438 0.00827023 0.00895903 0.0097052 0.0105135 0.0113892 0.0123377 0.0133653 0.0144785 0.0156843 0.0169906 0.0184057 0.0199387 0.0215993 0.0233983 0.025347 0.0274581 0.029745 0.0322224 0.0349061 0.0378133 0.0409627 0.0443744 0.0480702 0.0520738 0.0564109 0.0611092 0.0661988 0.0717123 0.077685 0.0841551 0.0911642 0.098757 0.106982 0.115892 0.125545 0.136001 0.147328 0.159599 0.172891 0.187291 0.20289 0.219788 0.238093 0.257923 0.279405 0.302676 0.327885 0.355193 0.384776 0.416823 0.451539 0.489146 0.529886 0.574019 0.621827 0.673617 0.729721 0.790497 0.856335 0.927657 1.00492 1.08862 1.17928 1.2775 1.3839 1.49916 1.62402 1.75928 1.90581 2.06454 2.23649 2.42276 2.62454 2.84313 3.07993 3.33645 3.61433 3.91536 4.24146 4.59471 4.97739 5.39195 5.84103 6.32751 6.85451 7.4254 8.04384 8.71379 9.43953 10.2257 11.0774 
0 0 0 0 0 0 0 0 0 0 0 0 0 0 0 0 0 0 0 0 0 0 0 0 0 0 0 0 0 0 0 0 0 0 0 0 0 0 0 0 0 0 0 0 0 0 0 0 0 0 0 0 0 0 0 0 0 0 0 0 0 0 0 0 0 0 0 0 0 0 0 0 0 0 0 0 0 0 0 0 0 0 0 0 0 0 0 0 0 0 0 0 0 0 0 0 0 0 0 
5.11332 0 0 0 0 0 0 0 0 0 5.11332 0 0 0 0 5.11332 -5.11332 -10.2266 0 -5.11332 0 5.11332 0 0 0 0 0 0 0 0 0 0 0 0 0 0 0 0 0 0 0 0 0 0 0 0 0 0 0 0 0 0 0 0 0 0 0 0 0 0 -5.11332 0 0 0 0 0 0 0 0 0 0 0 0 0 0 0 0 0 -5.11332 0 5.11332 15.34 -5.11332 5.11332 0 0 0 0 0 0 5.11332 -10.2266 -5.11332 0 0 0 0 0 0 
1.21865 0.609323 0 0 0 0 0.609323 1.82797 0 0 0 0 1.21865 0 0 1.21865 1.21865 0 0 0 0.609323 0 0.609323 0 0 0 0 0 0 0 0 0.609323 0 0 0 0 0 0 0 0 0 0 0 0 0 0 0 0 0 0 0 0 0 0 0 0 0 0 0 0 0 0 0 0 0 0 0 0 0 0 0 0 2.43729 0.609323 0 1.21865 1.82797 2.43729 0.609323 1.21865 0.609323 1.82797 0.609323 2.43729 0 0 0.609323 1.82797 0.609323 0.609323 0 0 0 0 0 0 0 0 0 
7.89957 1.12851 2.82128 0.564255 2.82128 2.25702 0.564255 0.564255 1.69277 1.69277 1.12851 0.564255 2.25702 1.12851 0.564255 3.38553 2.25702 2.25702 1.12851 2.82128 0.564255 1.69277 1.12851 2.25702 3.38553 0.564255 1.12851 0.564255 1.12851 0.564255 1.12851 1.12851 0.564255 0 0.564255 0.564255 0 0 0 0 0 0 0 0 0 0 0 0 0 0 0 0 0 0 0 0.564255 0 0.564255 0.564255 0 0.564255 0 3.38553 0.564255 1.12851 1.69277 0 1.12851 2.25702 1.69277 2.25702 5.0783 1.69277 3.94979 2.82128 5.0783 2.82128 4.51404 6.77106 5.0783 6.20681 9.02808 9.59234 2.25702 12.9779 5.64255 4.51404 4.51404 1.69277 1.12851 1.12851 0 0 0 0 0 0 0 0 
1.78139 0.593798 1.78139 0.593798 1.1876 0.593798 0 0.593798 2.37519 0.593798 1.78139 0.593798 1.1876 0 1.1876 0.593798 1.78139 2.96899 3.56279 0.593798 0.593798 1.1876 1.1876 2.37519 1.1876 1.78139 0.593798 0 0 0 0 1.1876 0 0 0 0 0 0 0 0 0 0 0 0 0 0 0 0 0 0 0 0 0 0 0.593798 0.593798 0 0 0 0 0.593798 0 1.1876 0 0 0.593798 2.37519 0.593798 0.593798 1.1876 2.37519 1.78139 1.1876 4.15658 5.93798 0.593798 1.78139 2.37519 7.12557 4.75038 2.96899 7.12557 4.15658 1.78139 3.56279 2.37519 2.96899 0.593798 0.593798 2.37519 0 0 0 0 0 0 0 0 0 
2.59648 0.741852 0.370926 0.185463 0.927315 1.29824 1.11278 0.556389 0.556389 0.370926 1.66917 1.4837 1.29824 0.556389 1.66917 1.11278 1.11278 1.85463 0.556389 1.66917 1.29824 0.741852 1.66917 0.741852 0.185463 0.741852 0.741852 0.370926 0.927315 0.370926 0.185463 0 0.185463 0.185463 0 0 0 0 0 0 0 0 0 0 0 0 0 0 0 0 0 0 0 0 0 0.185463 0.185463 0.556389 0 0.185463 0.185463 0.185463 0.370926 0.185463 0.370926 0.556389 1.29824 0.741852 1.85463 1.4837 1.4837 1.4837 1.85463 1.85463 2.59648 3.15287 2.78194 3.70926 2.22556 1.85463 2.41102 4.26565 3.5238 4.08019 4.82204 3.5238 2.41102 1.29824 1.29824 0.556389 0.370926 0 0 0.185463 0 0 0 0 0 
2.21924 0.739746 0.369873 0 0.739746 0.554809 0.924682 0.924682 1.29456 1.47949 1.47949 0.554809 1.47949 2.0343 0.924682 1.66443 1.29456 1.29456 1.47949 1.29456 0.924682 1.10962 1.29456 1.10962 1.66443 1.47949 0.184936 0.739746 0.369873 0.369873 0 0.184936 0 0 0.184936 0 0 0.184936 0 0 0 0 0 0 0 0 0 0 0 0 0 0 0 0 0 0 0 0.184936 0 0.184936 0.369873 0.184936 1.29456 0.369873 0.924682 1.66443 1.10962 2.58911 1.29456 0.184936 1.84936 3.32886 1.66443 1.84936 2.58911 4.62341 1.84936 4.80835 3.69873 2.77405 2.95898 3.69873 3.51379 4.0686 3.14392 2.95898 2.0343 1.66443 0.369873 0.739746 0.369873 0.184936 0 0 0 0 0 0 0 
116.522 20.2914 24.521 30.0779 34.7198 37.2814 46.2556 46.4192 48.314 55.7763 63.1166 75.2805 75.4165 77.6172 78.4647 90.5645 83.0934 84.1666 85.4703 77.1654 81.8179 76.6121 64.5248 69.7249 57.527 52.8918 43.6213 40.5252 29.5459 23.1113 21.8962 11.0496 5.81018 3.58585 2.25293 3.21081 2.01796 1.28393 1.11144 1.38665 0.3876 0.336242 1.18266 0.1938 0.101271 0.265021 0.518921 0.41765 0.295071 0.265021 0.3876 0.22385 0.54897 0.41765 1.50778 2.75835 7.35199 11.1056 16.6124 21.0841 27.2684 37.1033 48.672 45.3708 71.3683 81.6326 94.3815 102.571 112.012 122.57 147.208 155.722 161.377 170.991 165.311 171.242 183.101 158.914 165.1 166.612 171.91 169.433 163.24 152.967 139.531 131.809 108.329 84.0063 57.075 33.4323 15.6626 6.93961 2.67058 0.1938 0 0 0 0 0 
0 0 0 0 0 2.56754 5.13507 0 2.56754 0 2.56754 0 0 5.13507 2.56754 0 2.56754 0 2.56754 -2.56754 0 2.56754 2.56754 0 5.13507 2.56754 0 0 5.13507 0 0 2.56754 2.56754 0 0 0 0 0 0 0 0 0 0 0 0 0 0 0 0 0 0 0 0 0 0 0 0 0 2.56754 0 0 0 0 0 0 0 0 0 0 0 2.56754 2.56754 0 0 2.56754 0 2.56754 7.70261 10.2701 2.56754 -2.56754 5.13507 0 2.56754 5.13507 10.2701 20.5403 2.56754 10.2701 0 5.13507 0 0 0 0 0 0 0 0 
257.048 69.2673 30.6049 82.3421 83.3079 99.2287 105.227 77.2358 110.024 117.187 125.063 125.359 173.904 143.526 214.503 163.942 238.022 203.55 163.879 261.936 236.173 166.809 277.302 198.976 117.304 81.6977 196.166 91.0731 66.277 63.0664 62.7949 65.7098 37.9399 12.3556 2.57636 21.9894 9.53637 3.42815 7.70432 4.28462 -2.44269 -5.13583 0 5.13174 0.00773145 0.00071337 -0.859852 0.351874 -0.088555 0.00052499 0.867669 2.61342 5.31599 5.30712 7.04035 21.0146 9.8146 34.937 44.9531 7.7627 16.7179 68.2387 59.9684 69.7034 54.3275 91.6601 95.4621 57.9154 87.96 152.471 200.404 318.068 314.546 291.707 338.782 346.875 497.486 459.707 630.329 577.356 555.955 647.566 568.233 543.636 691.277 478.703 302.003 276.897 150.066 66.6295 9.26986 5.20236 -2.56811 0 0 0 0 0 0 
489 92 109 106 111 151 171 191 221 242 286 248 317 321 350 385 341 357 377 365 374 368 353 292 249 254 203 156 147 108 98 55 32 24 13 9 5 7 3 1 0 1 0 0 0 1 4 1 1 0 0 3 2 4 4 27 35 49 51 75 93 108 139 144 189 198 297 253 297 365 363 435 464 502 566 674 695 737 818 856 974 972 1039 1048 957 870 561 463 299 203 124 38 6 1 1 0 0 0 0 

100
0.00402555 0.00436083 0.00472403 0.00511748 0.0055437 0.00600542 0.00650559 0.00704742 0.00763438 0.00827023 0.00895903 0.0097052 0.0105135 0.0113892 0.0123377 0.0133653 0.0144785 0.0156843 0.0169906 0.0184057 0.0199387 0.0215993 0.0233983 0.025347 0.0274581 0.029745 0.0322224 0.0349061 0.0378133 0.0409627 0.0443744 0.0480702 0.0520738 0.0564109 0.0611092 0.0661988 0.0717123 0.077685 0.0841551 0.0911642 0.098757 0.106982 0.115892 0.125545 0.136001 0.147328 0.159599 0.172891 0.187291 0.20289 0.219788 0.238093 0.257923 0.279405 0.302676 0.327885 0.355193 0.384776 0.416823 0.451539 0.489146 0.529886 0.574019 0.621827 0.673617 0.729721 0.790497 0.856335 0.927657 1.00492 1.08862 1.17928 1.2775 1.3839 1.49916 1.62402 1.75928 1.90581 2.06454 2.23649 2.42276 2.62454 2.84313 3.07993 3.33645 3.61433 3.91536 4.24146 4.59471 4.97739 5.39195 5.84103 6.32751 6.85451 7.4254 8.04384 8.71379 9.43953 10.2257 11.0774 
0 0 0 0 0 0 0 0 0 0 0 0 0 0 0 0 0 0 0 0 0 0 0 0 0 0 0 0 0 0 0 0 0 0 0 0 0 0 0 0 0 0 0 0 0 0 0 0 0 0 0 0 0 0 0 0 0 0 0 0 0 0 0 0 0 0 0 0 0 0 0 0 0 0 0 0 0 0 0 0 0 0 0 0 0 0 0 0 0 0 0 0 0 0 0 0 0 0 0 
0 0 0 0 0 0 0 0 0 0 0 0 0 0 0 0 0 0 0 0 0 0 0 0 0 0 0 0 0 0 0 0 0 0 0 0 0 0 0 0 0 0 0 0 0 0 0 0 0 0 0 0 0 0 0 0 0 0 0 0 0 0 0 0 0 0 0 0 0 0 0 0 0 0 0 0 0 0 0 0 0 0 0 0 0 0 0 0 0 0 0 0 0 0 0 0 0 0 0 
0 0 0 0 0 0 0 0 0 0 0 0 0.609323 0 0 0 0 0 0 0 0.609323 0 0 0 0 0 0 0 0 0 0 0 0 0 0 0 0 0 0 0 0 0 0 0 0 0 0 0 0 0 0 0 0 0 0 0 0 0 0 0 0 0 0 0 0 0 0 0 0 0 0 0 0 0 0 0 1.21865 0 0 0 0 1.21865 0.609323 0 0 0 0 0 0 0 0 0 0 0 0 0 0 0 0 
0 0 0 0 0 0.564255 0 0 0 0 0 0.564255 0.564255 0 0.564255 0.564255 0 0 0 0 0.564255 0 0 0 0 0 0.564255 0 0 0 0 0.564255 0 0 0 0 0 0 0 0 0 0 0 0 0 0 0 0 0 0 0 0 0 0 0 0 0 0 0 0 0 0 0 0 0 1.12851 0.564255 1.12851 0 0.564255 0 0.564255 0.564255 0 0.564255 0.564255 0.564255 0.564255 0 1.69277 0 0 0.564255 0 0.564255 1.12851 0.564255 0 0 0 0 0 0 0 0 0 0 0 0 
0.593798 0 0.593798 0 0 0 0 0 0 0 0.593798 0 0 0.593798 0 0 0 0 0.593798 0.593798 0.593798 0 0.593798 0 0.593798 0 0 0.593798 0 0 0 0 0 0 0 0 0 0 0 0 0 0 0 0 0 0 0 0 0 0 0 0 0 0 0 0 0.593798 0 0 0 0 0 0 0 1.1876 0 0 0 0 0 0 0 0.593798 1.78139 0.593798 0 0 0.593798 1.1876 0 0 0 3.56279 0 1.78139 0 0 1.78139 1.1876 0 0 0 0 0 0 0 0 0 0 
0.741852 0.370926 0 0.185463 0 0 0.185463 0.185463 0.370926 0.556389 0.185463 0.370926 0.370926 0 0 0 0 0.556389 0.556389 0.370926 0.741852 0 0.556389 0.370926 0.185463 0.185463 0 0.185463 0 0 0 0 0 0 0 0.185463 0 0 0 0 0 0 0 0 0 0 0 0 0 0 0 0 0 0 0 0 0 0.185463 0.185463 0 0.370926 0 0.370926 0.556389 0 0.370926 0.370926 0.370926 0 0.556389 1.11278 0.370926 0.185463 1.11278 1.4837 0.927315 1.11278 0.370926 1.11278 0.556389 0.927315 0.185463 0.927315 0.927315 0.927315 0.741852 0.741852 0.556389 0.370926 0.370926 0.185463 0 0 0 0 0 0 0 0 
0.739746 0 0 0.184936 0.184936 0.369873 0.184936 0.184936 0 0.554809 0.369873 0.184936 0.184936 0.369873 0 0.184936 0.184936 0.184936 0.369873 0 0.184936 0.369873 0.184936 0.184936 0.369873 0 0.184936 0 0 0 0 0 0 0 0 0 0 0 0 0 0 0 0 0 0 0 0 0 0 0 0 0 0 0 0 0 0 0 0 0 0 0 0.184936 0.184936 0.739746 1.10962 0.369873 0.369873 0.924682 0.369873 0.739746 0 0.184936 0.369873 0.184936 0.369873 0.369873 0.739746 0.369873 0.554809 0.369873 0.924682 1.84936 0.924682 1.10962 0.924682 0.369873 0.184936 0 0 0 0 0 0 0 0 0 0 0 
22.7505 3.86835 4.46962 5.89412 6.40668 8.16547 10.6373 9.07344 9.79728 10.8612 12.744 13.7571 12.554 11.4703 16.8855 16.3288 16.0947 14.993 16.7246 18.6553 16.9324 14.1296 16.1776 11.5162 12.5191 9.0496 8.40954 7.40811 6.35279 4.89491 3.70843 1.40413 1.23402 0.652621 0.458821 0.5814 0 0 0.1938 0 0 0.3876 0 0 0 0 0.0712211 0.0300498 0.0300498 0 0 0.0300498 0.0300498 0 0.1938 0.661363 1.46423 2.6469 4.08889 5.61704 10.4558 7.94994 12.4219 17.5669 16.991 17.7524 27.1575 29.9575 27.9293 30.9536 31.6941 39.2565 42.8322 38.8559 36.9508 35.3238 37.113 43.8298 33.0065 41.9965 37.2838 44.5511 39.7756 36.9678 40.2556 33.1009 24.9971 14.2736 14.117 7.05387 6.87171 0.61145 0.41765 0 0 0 0 0 0 
0 0 0 0 0 0 0 0 0 0 0 0 0 0 0 0 2.56754 0 0 0 0 0 0 2.56754 2.56754 0 0 0 2.56754 0 0 0 0 0 0 0 0 0 0 0 0 0 0 0 0 0 0 0 0 0 0 0 0 0 0 0 0 0 0 0 0 0 0 0 0 0 0 0 0 0 0 0 2.56754 0 2.56754 2.56754 2.56754 0 2.56754 0 0 5.13507 0 5.13507 0 0 0 0 2.56754 0 0 0 0 0 0 0 0 0 0 
46.4249 19.2756 4.6876 6.67426 22.46 13.4642 30.4911 18.4954 22.3344 21.6562 8.5301 -0.85046 26.7122 18.7897 26.0105 59.7381 -2.0342 59.0664 28.4107 32.0608 59.7261 19.8644 37.6615 22.2649 17.9767 24.4495 1.33655 17.1167 10.1013 0.171147 -1.23155 4.27636 3.42815 10.2674 5.99625 5.13621 0 0 0.86004 0 0 0 0 -0.0095805 0 0 0 0 0 2.56811 0.171147 0 0.864845 0 -0.851596 -2.58499 2.56465 7.69535 19.6764 8.72563 4.97351 -2.99429 16.8298 17.6444 4.30489 27.5507 30.3178 38.4978 37.6025 42.3965 -6.2377 61.3462 54.8037 64.0773 55.5428 136.471 103.251 70.9855 75.0166 89.5807 106.251 60.9313 117.06 71.3549 122.075 58.6576 67.3165 96.5688 61.7484 13.2477 10.2724 18.0817 2.56811 2.56811 0 0 0 0 0 
90 18 21 18 15 32 26 41 39 34 41 48 53 55 63 46 69 44 48 66 55 38 45 49 40 36 25 29 19 21 16 7 4 2 7 0 2 0 0 1 1 0 0 0 0 0 0 0 0 0 0 0 0 0 3 5 3 8 12 13 13 14 23 28 41 40 46 59 65 65 76 83 92 125 117 120 175 134 144 166 180 195 185 193 202 164 143 89 65 45 24 14 5 0 0 0 0 0 0 

100
0.00402555 0.00436083 0.00472403 0.00511748 0.0055437 0.00600542 0.00650559 0.00704742 0.00763438 0.00827023 0.00895903 0.0097052 0.0105135 0.0113892 0.0123377 0.0133653 0.0144785 0.0156843 0.0169906 0.0184057 0.0199387 0.0215993 0.0233983 0.025347 0.0274581 0.029745 0.0322224 0.0349061 0.0378133 0.0409627 0.0443744 0.0480702 0.0520738 0.0564109 0.0611092 0.0661988 0.0717123 0.077685 0.0841551 0.0911642 0.098757 0.106982 0.115892 0.125545 0.136001 0.147328 0.159599 0.172891 0.187291 0.20289 0.219788 0.238093 0.257923 0.279405 0.302676 0.327885 0.355193 0.384776 0.416823 0.451539 0.489146 0.529886 0.574019 0.621827 0.673617 0.729721 0.790497 0.856335 0.927657 1.00492 1.08862 1.17928 1.2775 1.3839 1.49916 1.62402 1.75928 1.90581 2.06454 2.23649 2.42276 2.62454 2.84313 3.07993 3.33645 3.61433 3.91536 4.24146 4.59471 4.97739 5.39195 5.84103 6.32751 6.85451 7.4254 8.04384 8.71379 9.43953 10.2257 11.0774 
0 0 0 0 0 0 0 0 0 0 0 0 0 0 0 0 0 0 0 0 0 0 0 0 0 0 0 0 0 0 0 0 0 0 0 0 0 0 0 0 0 0 0 0 0 0 0 0 0 0 0 0 0 0 0 0 0 0 0 0 0 0 0 0 0 0 0 0 0 0 0 0 0 0 0 0 0 0 0 0 0 0 0 0 0 0 0 0 0 0 0 0 0 0 0 0 0 0 0 
0 0 0 0 0 0 0 5.11332 0 5.11332 0 0 0 0 0 0 0 0 0 0 0 0 0 0 0 0 0 0 0 0 0 0 0 0 0 0 0 0 0 0 0 0 0 0 0 0 0 0 0 0 0 0 0 0 0 0 0 0 0 0 0 0 0 0 0 0 0 0 0 0 0 5.11332 5.11332 5.11332 0 0 0 0 0 0 0 0 0 0 0 15.34 0 0 0 0 0 0 0 0 0 0 0 0 0 
0 0 0 0 0 0 0 0 0 0 0 0 0 0 0 0 0 0 0 0 0 0 0 0 0 0 0 0 0 0 0 0 0 0 0 0 0 0 0 0 0 0 0 0 0 0 0 0 0 0 0 0 0 0 0 0 0 0 0 0 0 0 0 0 0 0 0 0 0 0 0 0 0 0 0 0 0 0 0 0 0 0 0 0 0 0 0 0 0 0 0 0 0 0 0 0 0 0 0 
0 0 0 0 0 0 0 0 0 0 0.564255 0 0 0 0 0 0 0 0 0 0 0.564255 0 0 0 0 0 0 0 0 0 0 0 0 0 0 0 0 0 0 0 0 0 0 0 0 0 0 0 0 0 0 0 0 0 0 0 0 0 0 0 0 0.564255 0 0 0 0 0 0 0 0 0 0 0 0 0 0 0.564255 0.564255 0 0 0 0.564255 0 0 0 0.564255 0.564255 0 0 0 0 0 0 0 0 0 0 0 
0 0 0 0 0 0 0 0 0 0 0 0 0 0 0 0 0 0 0 0 0 0 0 0 0 0 0 0 0 0 0 0 0 0 0 0 0 0 0 0 0 0 0 0 0 0 0 0 0 0 0 0 0 0 0 0 0 0 0 0 0 0 0 0 0 0 0 0 0 0 0 0 0 0 0 0 0 0 0 0 0 0 0 0 0 0 0 0 0 0 0 0 0 0 0 0 0 0 0 
0.185463 0 0 0 0 0 0 0 0 0 0 0 0 0 0 0 0 0 0.185463 0.185463 0 0 0.185463 0 0 0 0 0 0 0 0 0 0 0 0 0 0 0 0 0 0 0 0 0 0 0 0 0 0 0 0 0 0 0 0 0 0 0 0 0 0 0 0 0 0 0 0.185463 0 0 0 0 0 0 0 0.556389 0.185463 0.185463 0.185463 0 0.370926 0.370926 0.185463 0 0 0 0 0 0 0 0 0 0 0 0 0 0 0 0 0 
0.184936 0 0 0 0 0 0 0 0 0 0 0.369873 0 0 0 0.184936 0 0 0 0 0.184936 0 0 0.184936 0 0 0 0 0 0 0 0 0 0 0 0 0 0 0 0 0 0 0 0 0 0 0 0 0 0 0 0 0 0 0 0 0 0 0 0 0 0 0 0 0 0 0 0 0 0 0 0 0 0.184936 0 0 0 0.554809 0 0.369873 0.369873 0.369873 0.554809 0.554809 0 0 0 0.184936 0.184936 0 0 0 0 0 0 0 0 0 0 
5.69743 1.21033 0.60907 1.07027 1.2515 1.01891 1.40413 1.42782 1.56788 1.424 3.85087 2.40318 2.78298 2.88425 1.87314 4.36105 3.6372 3.09698 3.25105 2.26168 3.51556 1.57569 2.76073 3.28203 1.73163 2.31303 2.35421 1.63036 0.5814 1.72289 0.855163 0.6415 0.101271 0.458821 0.1938 0 0 0 0 0 0 0 0 0 0 0 0 0 0 0 0 0 0 0 0.0712211 0.265021 0.0600995 0.977742 0.947692 0.620192 1.77043 0.945312 2.55675 3.72591 4.23753 4.1237 3.47931 4.08439 6.14989 6.59572 5.04864 9.33065 8.9518 8.44451 8.85342 9.9377 8.63831 10.0051 9.75119 9.00791 11.2783 11.7164 14.0924 9.6461 8.7237 7.46677 9.52734 5.52002 3.45215 2.09937 0.80525 0.101271 0.336242 0 0 0 0 0 0 
0 0 0 0 0 0 0 0 0 0 0 0 0 0 0 0 0 0 0 0 0 0 0 0 0 0 0 0 0 0 0 0 0 0 0 0 0 0 0 0 0 0 0 0 0 0 0 0 0 0 0 0 0 0 0 0 0 0 0 0 0 0 0 0 0 0 0 0 0 0 0 0 0 0 0 0 0 0 0 0 0 0 0 0 0 0 0 0 0 0 0 0 0 0 0 0 0 0 0 
-5.77533 0.86004 0.0993975 4.97764 6.01428 3.36898 8.56436 6.00583 -1.70806 7.53317 12.6694 5.13621 2.56811 5.13621 3.59929 3.42815 -0.86004 -1.70806 -0.86004 2.56811 -1.70806 5.99625 5.13621 2.56811 -1.70806 0 5.99625 0 0 7.70432 3.42815 1.70806 3.42815 0 0 0 5.13621 0 2.56811 0 2.56811 0 0 -0.0591695 0 0 0.86004 0 0 0.00071337 0 0 0 0 0 0 2.56882 0 2.56811 -2.39696 0.00773145 -0.171147 7.87546 2.48072 0 0 2.37889 3.42833 -1.63613 5.94553 10.1133 2.52095 2.58941 17.7181 25.8422 24.0182 6.03667 24.6831 1.02254 14.5331 13.6127 15.0664 45.6353 24.5456 11.5436 14.6672 25.7402 -7.65645 1.76723 7.76349 5.13621 2.56811 0 0 0 0 0 0 0 
16 3 5 2 5 4 2 4 6 8 5 9 4 9 8 11 11 12 15 8 3 8 3 6 10 3 1 4 4 3 3 1 1 1 2 0 0 0 0 0 0 0 0 0 0 0 0 0 0 0 0 0 0 0 0 2 1 2 3 2 1 5 5 5 6 8 5 12 10 16 15 18 28 25 22 20 21 39 29 35 42 36 24 34 31 16 21 32 16 5 3 4 1 0 0 0 0 0 0 

100
0.00402555 0.00436083 0.00472403 0.00511748 0.0055437 0.00600542 0.00650559 0.00704742 0.00763438 0.00827023 0.00895903 0.0097052 0.0105135 0.0113892 0.0123377 0.0133653 0.0144785 0.0156843 0.0169906 0.0184057 0.0199387 0.0215993 0.0233983 0.025347 0.0274581 0.029745 0.0322224 0.0349061 0.0378133 0.0409627 0.0443744 0.0480702 0.0520738 0.0564109 0.0611092 0.0661988 0.0717123 0.077685 0.0841551 0.0911642 0.098757 0.106982 0.115892 0.125545 0.136001 0.147328 0.159599 0.172891 0.187291 0.20289 0.219788 0.238093 0.257923 0.279405 0.302676 0.327885 0.355193 0.384776 0.416823 0.451539 0.489146 0.529886 0.574019 0.621827 0.673617 0.729721 0.790497 0.856335 0.927657 1.00492 1.08862 1.17928 1.2775 1.3839 1.49916 1.62402 1.75928 1.90581 2.06454 2.23649 2.42276 2.62454 2.84313 3.07993 3.33645 3.61433 3.91536 4.24146 4.59471 4.97739 5.39195 5.84103 6.32751 6.85451 7.4254 8.04384 8.71379 9.43953 10.2257 11.0774 
0 0 0 0 0 0 0 0 0 0 0 0 0 0 0 0 0 0 0 0 0 0 0 0 0 0 0 0 0 0 0 0 0 0 0 0 0 0 0 0 0 0 0 0 0 0 0 0 0 0 0 0 0 0 0 0 0 0 0 0 0 0 0 0 0 0 0 0 0 0 0 0 0 0 0 0 0 0 0 0 0 0 0 0 0 0 0 0 0 0 0 0 0 0 0 0 0 0 0 
0 0 0 0 0 0 0 0 0 0 0 0 0 0 0 0 0 0 0 0 0 0 0 0 0 0 0 0 0 0 0 0 0 0 0 0 0 0 0 0 0 0 0 0 0 0 0 0 0 0 0 0 0 0 0 0 0 0 0 0 0 0 0 0 0 0 0 0 0 0 0 0 0 0 0 0 0 0 0 0 0 0 0 0 0 0 0 0 0 0 0 0 0 0 0 0 0 0 0 
0 0 0 0 0 0 0 0 0 0 0 0 0 0 0 0 0 0 0 0 0 0 0 0 0 0 0 0 0 0 0 0 0 0 0 0 0 0 0 0 0 0 0 0 0 0 0 0 0 0 0 0 0 0 0 0 0 0 0 0 0 0 0 0 0 0 0 0 0 0 0 0 0 0 0 0 0 0 0 0 0 0 0 0 0 0 0 0 0 0 0 0 0 0 0 0 0 0 0 
0 0 0 0 0 0 0 0 0 0 0 0 0 0 0 0 0 0 0 0 0 0 0 0 0 0 0 0 0 0 0 0 0 0 0 0 0 0 0 0 0 0 0 0 0 0 0 0 0 0 0 0 0 0 0 0 0 0 0 0 0 0 0 0 0 0 0 0 0 0 0 0 0 0 0 0 0 0 0 0 0 0 0 0 0 0 0 0 0 0 0 0 0 0 0 0 0 0 0 
0 0 0 0 0 0 0 0 0 0 0 0 0 0 0 0 0 0 0 0 0 0 0 0 0 0 0 0 0 0 0 0 0 0 0 0 0 0 0 0 0 0 0 0 0 0 0 0 0 0 0 0 0 0 0 0 0 0 0 0 0 0 0 0 0 0 0 0 0 0 0 0 0 0 0 0 0 0 0 0 0 0 0 0 0 0 0 0 0 0 0 0 0 0 0 0 0 0 0 
0 0 0 0 0 0 0 0 0 0 0 0 0 0 0 0 0 0 0 0 0 0 0 0 0 0 0 0 0 0 0 0 0 0 0 0 0 0 0 0 0 0 0 0 0 0 0 0 0 0 0 0 0 0 0 0 0 0 0 0 0 0 0 0 0 0 0 0 0 0 0 0 0 0 0 0 0 0 0 0 0 0 0 0 0 0 0 0 0 0 0 0 0 0 0 0 0 0 0 
0 0 0 0 0 0 0 0 0 0 0 0 0 0 0 0 0 0 0 0 0 0 0 0 0 0 0 0 0 0 0 0 0 0 0 0 0 0 0 0 0 0 0 0 0 0 0 0 0 0 0 0 0 0 0 0 0 0 0 0 0 0 0 0 0 0 0 0 0 0 0 0 0 0 0 0 0 0 0 0 0 0 0 0 0 0 0 0 0 0 0 0 0 0 0 0 0 0 0 
1.78299 0 0.0300498 0.1938 0.652621 0.530042 1.2229 0.560092 0.458821 0.265021 0.265021 0.5814 0.530042 0.560092 0.0300498 1.04022 0.969 0.906521 0.846421 0.5814 0.652621 0.2539 0.61145 0.1938 1.21271 1.04022 0 0.3876 0.22385 0.1938 0 0 0 0.3876 0 0 0 0 0 0 0.1938 0.1938 0 0 0 0 0 0 0 0 0 0 0 0 0 0.3876 0 0.0300498 0.265021 0.80525 0.712721 0.753892 0.265021 1.17154 1.55914 1.1628 2.06932 2.16041 1.57026 1.10906 1.64055 2.3329 1.4167 3.09936 2.09937 2.72194 2.40556 1.2229 2.50683 4.68999 2.72194 2.95547 3.58823 2.42543 2.36439 2.99809 2.42687 1.68172 1.11144 0.99905 0 0 0 0 0 0 0 0 0 
0 0 0 0 0 0 0 0 0 0 0 0 0 0 0 0 0 0 0 0 0 0 0 0 0 0 0 0 0 0 0 0 0 0 0 0 0 0 0 0 0 0 0 0 0 0 0 0 0 0 0 0 0 0 0 0 0 0 0 0 0 0 0 0 0 0 0 0 0 0 0 0 0 0 0 0 0 0 0 0 0 0 0 0 0 0 0 0 0 0 0 0 0 0 0 0 0 0 0 
4.12494 0 0 0 -2.56811 0 2.56811 0 -2.56811 0 0 -0.86004 0 -0.171147 0 2.56811 0 -2.56811 -2.56811 0 0 0 2.56811 0 0 0 0 0 0 0 2.56811 0 0 0 0 0 0 0 0 0 0 0 0 0 0 -2.56811 0 0 0 0 0 0.0095805 0 0 0 0 0 0 0 5.13621 0 0.00018838 0 0 0 2.56811 0 2.56811 0 2.56811 -5.13531 0.019161 5.14508 -5.13602 2.56829 -0.151797 -5.64927 0.00056514 2.5802 -2.56934 2.39696 3.93388 -1.72008 -6.857 -6.85468 2.56882 7.7036 7.7036 0 -2.56882 2.56811 0 0 0 0 0 0 0 0 
3 2 0 1 1 0 0 1 2 0 2 0 0 0 0 0 1 1 3 1 1 0 2 1 1 0 0 3 0 0 1 0 0 1 0 0 0 0 0 0 0 0 0 0 0 0 0 0 0 0 0 0 0 0 0 0 0 0 0 0 0 1 0 2 0 1 5 5 1 2 7 2 2 5 3 1 3 1 9 7 2 2 4 3 11 6 4 1 3 2 1 2 0 0 0 0 0 0 0 

100
0.00402555 0.00436083 0.00472403 0.00511748 0.0055437 0.00600542 0.00650559 0.00704742 0.00763438 0.00827023 0.00895903 0.0097052 0.0105135 0.0113892 0.0123377 0.0133653 0.0144785 0.0156843 0.0169906 0.0184057 0.0199387 0.0215993 0.0233983 0.025347 0.0274581 0.029745 0.0322224 0.0349061 0.0378133 0.0409627 0.0443744 0.0480702 0.0520738 0.0564109 0.0611092 0.0661988 0.0717123 0.077685 0.0841551 0.0911642 0.098757 0.106982 0.115892 0.125545 0.136001 0.147328 0.159599 0.172891 0.187291 0.20289 0.219788 0.238093 0.257923 0.279405 0.302676 0.327885 0.355193 0.384776 0.416823 0.451539 0.489146 0.529886 0.574019 0.621827 0.673617 0.729721 0.790497 0.856335 0.927657 1.00492 1.08862 1.17928 1.2775 1.3839 1.49916 1.62402 1.75928 1.90581 2.06454 2.23649 2.42276 2.62454 2.84313 3.07993 3.33645 3.61433 3.91536 4.24146 4.59471 4.97739 5.39195 5.84103 6.32751 6.85451 7.4254 8.04384 8.71379 9.43953 10.2257 11.0774 
0 0 0 0 0 0 0 0 0 0 0 0 0 0 0 0 0 0 0 0 0 0 0 0 0 0 0 0 0 0 0 0 0 0 0 0 0 0 0 0 0 0 0 0 0 0 0 0 0 0 0 0 0 0 0 0 0 0 0 0 0 0 0 0 0 0 0 0 0 0 0 0 0 0 0 0 0 0 0 0 0 0 0 0 0 0 0 0 0 0 0 0 0 0 0 0 0 0 0 
0 0 0 0 0 0 0 0 0 0 0 0 0 0 0 0 0 0 0 0 0 0 0 0 0 0 0 0 0 0 0 0 0 0 0 0 0 0 0 0 0 0 0 0 0 0 0 0 0 0 0 0 0 0 0 0 0 0 0 0 0 0 0 0 0 0 0 0 0 0 0 0 0 0 0 0 0 0 0 0 0 0 0 0 0 0 0 0 0 0 0 0 0 0 0 0 0 0 0 
0 0 0 0 0 0 0 0 0 0 0 0 0 0 0 0 0 0 0 0 0 0 0 0 0 0 0 0 0 0 0 0 0 0 0 0 0 0 0 0 0 0 0 0 0 0 0 0 0 0 0 0 0 0 0 0 0 0 0 0 0 0 0 0 0 0 0 0 0 0 0 0 0 0 0 0 0 0 0 0 0 0 0 0 0 0 0 0 0 0 0 0 0 0 0 0 0 0 0 
0 0 0 0 0 0 0 0 0 0 0 0 0 0 0 0 0 0 0 0 0 0 0 0 0 0 0 0 0 0 0 0 0 0 0 0 0 0 0 0 0 0 0 0 0 0 0 0 0 0 0 0 0 0 0 0 0 0 0 0 0 0 0 0 0 0 0 0 0 0 0 0 0 0 0 0 0 0 0 0 0 0 0 0 0 0 0 0 0 0 0 0 0 0 0 0 0 0 0 
0 0 0 0 0 0 0 0 0 0 0 0 0 0 0 0 0 0 0 0 0 0 0 0 0 0 0 0 0 0 0 0 0 0 0 0 0 0 0 0 0 0 0 0 0 0 0 0 0 0 0 0 0 0 0 0 0 0 0 0 0 0 0 0 0 0 0 0 0 0 0 0 0 0 0 0 0 0 0 0 0 0 0 0 0 0 0 0 0 0 0 0 0 0 0 0 0 0 0 
0 0 0 0 0 0 0 0 0 0 0 0 0 0 0 0 0 0 0 0 0 0 0 0 0 0 0 0 0 0 0 0 0 0 0 0 0 0 0 0 0 0 0 0 0 0 0 0 0 0 0 0 0 0 0 0 0 0 0 0 0 0 0 0 0 0 0 0 0 0 0 0 0 0 0 0 0 0 0 0 0 0 0 0 0 0 0 0 0 0 0 0 0 0 0 0 0 0 0 
0 0 0 0 0 0 0 0 0 0 0 0 0 0 0 0 0 0 0 0 0 0 0 0 0 0 0 0 0 0 0 0 0 0 0 0 0 0 0 0 0 0 0 0 0 0 0 0 0 0 0 0 0 0 0 0 0 0 0 0 0 0 0 0 0 0 0 0 0 0 0 0 0 0 0 0 0 0 0 0 0 0 0 0 0 0 0 0 0 0 0 0 0 0 0 0 0 0 0 
0.6415 0 0 0 0 0 0 0 0.1938 0 0.295071 0 0 0 0.1938 0.0712211 0.41765 0 0.1938 0.1938 0.1938 0 0.0300498 0.0300498 0 0.1938 0 0 0 0 0 0 0 0 0 0 0 0 0 0 0 0 0 0 0 0 0 0 0 0 0 0 0 0 0 0 0 0 0 0 0 0.22385 0.1938 0.1938 0.22385 0.6415 0.458821 0 0.3876 0.0300498 0.41765 0.3876 0.41765 0.213663 0.22385 0.458821 0.488871 0.131321 0.652621 0.0600995 0.41765 0.6415 0.41765 0.283949 0.3876 0.5814 0.0600995 0.1938 0.5814 0.7752 0.0600995 0.3876 0 0 0 0 0 0 0 
0 0 0 0 0 0 0 0 0 0 0 0 0 0 0 0 0 0 0 0 0 0 0 0 0 0 0 0 0 0 0 0 0 0 0 0 0 0 0 0 0 0 0 0 0 0 0 0 0 0 0 0 0 0 0 0 0 0 0 0 0 0 0 0 0 0 0 0 0 0 0 0 0 0 0 0 0 0 0 0 0 0 0 0 0 0 0 0 0 0 0 0 0 0 0 0 0 0 0 
0.019161 0 0 0 0 0 0 0 0 0 0 0 0 0 0 0 0 0 0 0 0 0 0 0 0 0 0 0 0 0 0 0 0 0 0 0 0 0 0 0 0 0 0 0 0 0 0 0 0 0 0 0 0 0 0 0 0 0 0 0 0.0095805 0 0 0 0 0 0 0 0.0095805 0 0.0095805 0.0095805 0 0 0.0095805 0.0095805 0.0095805 0 0 0 0 0 0 0 0 0.0095805 0 0 0 0 0 0 0 0 0 0 0 0 0 
0 0 0 0 0 0 1 0 0 1 0 0 0 1 0 0 0 0 0 1 0 0 0 1 1 0 0 1 1 0 0 0 0 0 0 0 0 0 0 0 0 0 0 0 0 0 0 0 0 0 0 0 0 0 0 0 0 0 0 1 0 0 0 0 1 0 1 0 0 0 0 2 1 3 2 1 2 1 0 0 4 2 2 0 3 1 1 0 1 0 2 1 0 0 0 0 0 0 0 

100
0.00402555 0.00436083 0.00472403 0.00511748 0.0055437 0.00600542 0.00650559 0.00704742 0.00763438 0.00827023 0.00895903 0.0097052 0.0105135 0.0113892 0.0123377 0.0133653 0.0144785 0.0156843 0.0169906 0.0184057 0.0199387 0.0215993 0.0233983 0.025347 0.0274581 0.029745 0.0322224 0.0349061 0.0378133 0.0409627 0.0443744 0.0480702 0.0520738 0.0564109 0.0611092 0.0661988 0.0717123 0.077685 0.0841551 0.0911642 0.098757 0.106982 0.115892 0.125545 0.136001 0.147328 0.159599 0.172891 0.187291 0.20289 0.219788 0.238093 0.257923 0.279405 0.302676 0.327885 0.355193 0.384776 0.416823 0.451539 0.489146 0.529886 0.574019 0.621827 0.673617 0.729721 0.790497 0.856335 0.927657 1.00492 1.08862 1.17928 1.2775 1.3839 1.49916 1.62402 1.75928 1.90581 2.06454 2.23649 2.42276 2.62454 2.84313 3.07993 3.33645 3.61433 3.91536 4.24146 4.59471 4.97739 5.39195 5.84103 6.32751 6.85451 7.4254 8.04384 8.71379 9.43953 10.2257 11.0774 
0 0 0 0 0 0 0 0 0 0 0 0 0 0 0 0 0 0 0 0 0 0 0 0 0 0 0 0 0 0 0 0 0 0 0 0 0 0 0 0 0 0 0 0 0 0 0 0 0 0 0 0 0 0 0 0 0 0 0 0 0 0 0 0 0 0 0 0 0 0 0 0 0 0 0 0 0 0 0 0 0 0 0 0 0 0 0 0 0 0 0 0 0 0 0 0 0 0 0 
0 0 0 0 0 0 0 0 0 0 0 0 0 0 0 0 0 0 0 0 0 0 0 0 0 0 0 0 0 0 0 0 0 0 0 0 0 0 0 0 0 0 0 0 0 0 0 0 0 0 0 0 0 0 0 0 0 0 0 0 0 0 0 0 0 0 0 0 0 0 0 0 0 0 0 0 0 0 0 0 0 0 0 0 0 0 0 0 0 0 0 0 0 0 0 0 0 0 0 
0 0 0 0 0 0 0 0 0 0 0 0 0 0 0 0 0 0 0 0 0 0 0 0 0 0 0 0 0 0 0 0 0 0 0 0 0 0 0 0 0 0 0 0 0 0 0 0 0 0 0 0 0 0 0 0 0 0 0 0 0 0 0 0 0 0 0 0 0 0 0 0 0 0 0 0 0 0 0 0 0 0 0 0 0 0 0 0 0 0 0 0 0 0 0 0 0 0 0 
0 0 0 0 0 0 0 0 0 0 0 0 0 0 0 0 0 0 0 0 0 0 0 0 0 0 0 0 0 0 0 0 0 0 0 0 0 0 0 0 0 0 0 0 0 0 0 0 0 0 0 0 0 0 0 0 0 0 0 0 0 0 0 0 0 0 0 0 0 0 0 0 0 0 0 0 0 0 0 0 0 0 0 0 0 0 0 0 0 0 0 0 0 0 0 0 0 0 0 
0 0 0 0 0 0 0 0 0 0 0 0 0 0 0 0 0 0 0 0 0 0 0 0 0 0 0 0 0 0 0 0 0 0 0 0 0 0 0 0 0 0 0 0 0 0 0 0 0 0 0 0 0 0 0 0 0 0 0 0 0 0 0 0 0 0 0 0 0 0 0 0 0 0 0 0 0 0 0 0 0 0 0 0 0 0 0 0 0 0 0 0 0 0 0 0 0 0 0 
0 0 0 0 0 0 0 0 0 0 0 0 0 0 0 0 0 0 0 0 0 0 0 0 0 0 0 0 0 0 0 0 0 0 0 0 0 0 0 0 0 0 0 0 0 0 0 0 0 0 0 0 0 0 0 0 0 0 0 0 0 0 0 0 0 0 0 0 0 0 0 0 0 0 0 0 0 0 0 0 0 0 0 0 0 0 0 0 0 0 0 0 0 0 0 0 0 0 0 
0 0 0 0 0 0 0 0 0 0 0 0 0 0 0 0 0 0 0 0 0 0 0 0 0 0 0 0 0 0 0 0 0 0 0 0 0 0 0 0 0 0 0 0 0 0 0 0 0 0 0 0 0 0 0 0 0 0 0 0 0 0 0 0 0 0 0 0 0 0 0 0 0 0 0 0 0 0 0 0 0 0 0 0 0 0 0 0 0 0 0 0 0 0 0 0 0 0 0 
0.3876 0 0.0300498 0 0.1938 0 0 0 0 0 0 0 0 0 0.1938 0 0 0 0 0 0 0 0 0 0 0 0.0300498 0 0 0 0 0 0 0 0 0 0 0 0 0 0 0 0 0 0 0 0 0 0 0 0 0 0 0 0 0 0 0 0 0 0 0 0 0 0 0 0.0300498 0 0 0.1938 0.1938 0.1938 0 0.1938 0.1938 0 0 0.1938 0 0.3876 0.1938 0.5814 0.671549 0.0600995 0.2539 0 0.1938 0.1938 0 0 0.0300498 0 0 0 0 0 0 0 0 
0 0 0 0 0 0 0 0 0 0 0 0 0 0 0 0 0 0 0 0 0 0 0 0 0 0 0 0 0 0 0 0 0 0 0 0 0 0 0 0 0 0 0 0 0 0 0 0 0 0 0 0 0 0 0 0 0 0 0 0 0 0 0 0 0 0 0 0 0 0 0 0 0 0 0 0 0 0 0 0 0 0 0 0 0 0 0 0 0 0 0 0 0 0 0 0 0 0 0 
0 0 0 0 0 0 0 0 0 0 0 0 0 0 0 0 0 0 0 0 0 0 0 0 0 0 0 0 0 0 0 0 0 0 0 0 0 0 0 0 0 0 0 0 0 0 0 0 0 0 0 0 0 0 0 0 0 0 0 0 0 0 0 0 0 0 0 0 0 0 0 0 0 0 0 0 0 0 0 0 0 0 0 0 0 0 0 0 0 0 0 0 0 0 0 0 0 0 0 
1 0 1 0 0 0 0 0 0 0 0 0 0 0 0 0 0 0 0 0 0 0 0 0 0 0 0 0 0 0 0 0 0 0 0 0 0 0 0 0 0 0 0 0 0 0 0 0 0 0 0 0 0 0 0 0 0 0 0 0 1 0 0 0 0 0 0 0 0 0 0 0 0 0 0 1 0 0 0 0 0 1 0 0 3 0 2 0 1 0 0 0 0 0 0 0 0 0 0 
