1
Photon_
p_T [GeV/c]
pT_dr_cut_low_count
11
0
0
10
QCD W + Jets WW WZ ZZ #bar{t}W tW t#bar{t} Drell Yan #rightarrow #tau#tau Drell Yan #rightarrow ee 

100 0 200
0 0 0 0 0 0 0 0 0 0 0 0 0 0 0 0 0 0 0 0 0 0 0 0 0 0 0 0 0 0 0 0 0 0 0 0 0 0 0 0 0 0 0 0 0 0 0 0 0 0 0 0 0 0 0 0 0 0 0 0 0 0 0 0 0 0 0 0 0 0 0 0 0 0 0 0 0 0 0 0 0 0 0 0 0 0 0 0 0 0 0 0 0 0 0 0 0 0 0 0 
0 0 0 0 0 0 0 0 0 0 0 0 0 0 0 0 0 0 0 0 5.11332 0 0 0 0 0 0 0 0 5.11332 0 0 0 0 0 0 0 0 0 0 0 0 0 0 0 0 0 0 0 0 0 0 0 0 0 0 0 0 0 0 0 0 0 0 0 0 0 0 0 0 0 0 0 0 0 0 0 0 0 0 0 0 0 0 0 0 0 0 0 0 0 0 0 0 0 0 0 0 0 0 
0 0 0 0 0 0 0 0 0 0 0 0 0 0 0 0 0 0 0 0 0 0 0.609323 0 0 0 0 0 0 0 0 0 0 0 0 0 0 0 0 0 0 0 0 0 0 0 0 0 0 0 0 0 0 0 0 0 0 0 0 0 0 0 0 0 0 0 0 0 0 0 0 0 0 0 0 0 0 0 0 0 0 0 0 0 0 0 0 0 0 0 0 0 0 0 0 0 0 0 0 0 
0 0 0 0 0 0 0 0 0 0 0 0 0 0 0 0 0 0 0 0 0 0 0 0 0 0 0 0 0 0 0 0 0 0 0 0 0 0 0 0 0 0 0 0 0 0 0 0 0 0 0 0 0 0 0 0 0 0 0 0 0 0 0 0 0 0 0 0 0 0 0 0 0 0 0 0 0 0 0 0 0 0 0 0 0 0 0 0 0 0 0 0 0 0 0 0 0 0 0 0 
0 0 0 0 0 0 0 0 0 0 0 0 0 0 0 0 0 0 0 0 0 0 0 0 0 0 0 0 0 0 0 0 0 0 0 0 0 0 0 0 0 0 0 0 0 0 0 0 0 0 0.593798 0 0 0 0 0 0 0 0 0 0 0 0 0 0 0 0 0 0 0 0 0 0 0 0 0 0 0 0 0 0 0 0 0 0 0 0 0 0 0 0 0 0 0 0 0 0 0 0 0 
0 0 0 0 0 0 0 0 0 0 0 0 0 0 0 0 0 0 0 0 0 0 0 0 0 0 0 0 0 0 0 0 0 0 0 0 0 0 0 0 0 0 0 0 0 0 0 0 0 0 0 0 0 0 0 0 0 0 0 0 0 0 0 0 0 0 0 0 0 0 0 0 0 0 0 0 0 0 0 0 0 0 0 0 0 0 0 0 0 0 0 0 0 0 0 0 0 0 0 0 
0 0 0 0 0 0 0 0 0 0 0 0 0 0 0 0 0 0 0 0 0 0 0 0 0 0 0 0 0 0 0 0 0 0 0 0 0 0 0 0 0 0 0 0 0 0 0 0 0 0 0 0 0 0 0 0 0 0 0 0 0 0 0 0 0 0 0 0 0 0 0 0 0 0 0 0 0 0 0 0 0 0 0 0 0 0 0 0 0 0 0 0 0 0 0 0 0 0 0 0 
0 0 0 0 0 0 0 0 0 0 0.1938 0 0 0 0 0 0.1938 0 0 0.1938 0 0.1938 0 0.1938 0 0 0.0712211 0.22385 0.0712211 0 0 0 0 0 0 0 0 0 0 0.1938 0 0 0 0 0 0 0 0 0 0 0 0 0.1938 0 0.0712211 0 0 0 0 0 0 0 0 0 0 0 0 0 0 0 0 0 0 0 0 0 0 0 0 0 0 0 0 0 0 0 0 0 0 0 0 0 0 0 0 0 0 0 0 0 
0 0 0 0 0 0 0 0 0 0 0 0 0 0 -2.56754 0 0 0 0 0 0 0 0 0 0 0 0 0 0 0 0 0 0 0 0 0 0 0 0 0 0 0 0 0 0 0 0 0 0 0 0 0 0 0 0 0 0 0 0 0 0 0 0 0 0 0 0 0 0 0 0 0 0 0 0 0 0 0 0 0 0 0 0 0 0 0 0 0 0 0 0 0 0 0 0 0 0 0 0 0 
0 0 0 0 0 0 0 0 0 0 0 2.56811 2.56811 5.13621 12.8405 18.8368 27.0176 29.9692 25.6811 41.0897 35.1054 39.3816 48.794 54.7903 45.3779 19.6848 8.56436 5.13621 2.56811 5.13621 2.58012 2.56811 2.56811 0 5.99625 0 0.86004 0 0 0.171147 0.171147 2.56811 -2.56811 0 0 0.171147 0 -2.56811 0 0.86004 0 0 1.03119 0 0 0.171147 0 0 0 0 0 0.171147 0 0 0 0 0 0 0 0 0 0 0 0 0.171147 0 0 0 0 0 0 0 2.56811 0 0 0 0 0 0 0 0 0 0 0 0 0 0 0 0 0 

100 0 200
0 0 0 0 0 0 0 0 35.6048 0 0 0 0 0 0 161.573 0 0 6.5667 0 0 6.5667 4688.16 161.573 161.573 4688.16 0 6.5667 6.5667 29.0381 0 0 0 0 0 0 0 0 0 0 0 0 0 0 0 0 0 161.573 0 0 0 29.0381 29.0381 0 0 0 0 0 0 0 161.573 0 0 0 0 0 0 0 0 0 0 0 0 0 0 0 0 0 0 0 0 0 0 0 0 0 0 0 0 0 0 0 0 0 0 0 0 0 0 0 
0 0 0 0 0 0 0 10.2266 71.5865 414.179 506.219 618.712 516.445 598.259 777.225 1176.06 1084.02 869.265 787.451 833.471 736.318 659.618 444.859 531.785 465.312 378.386 388.612 378.386 255.666 189.193 235.213 230.099 122.72 230.099 194.306 148.286 76.6998 138.06 51.1332 92.0398 35.7932 76.6998 76.6998 -15.34 86.9265 30.6799 35.7932 35.7932 66.4732 61.3599 46.0199 25.5666 35.7932 15.34 0 25.5666 20.4533 15.34 25.5666 -10.2266 15.34 10.2266 20.4533 20.4533 -5.11332 0 10.2266 25.5666 15.34 10.2266 25.5666 15.34 5.11332 0 10.2266 5.11332 0 0 5.11332 -5.11332 5.11332 5.11332 -5.11332 10.2266 5.11332 5.11332 0 -5.11332 -5.11332 0 -10.2266 0 -5.11332 5.11332 5.11332 5.11332 -5.11332 10.2266 5.11332 0 
0 0 0 0 0 0 0 0 3.65594 58.495 130.395 187.671 246.166 350.97 570.326 778.105 859.754 920.077 906.672 913.375 884.127 834.163 792.12 765.309 714.126 663.552 627.602 566.061 530.72 482.584 461.867 410.074 349.751 355.844 297.349 281.507 291.256 245.557 252.869 205.342 178.532 182.797 161.471 161.471 132.832 125.52 116.381 94.445 106.022 95.6637 85.9145 87.1332 73.1187 78.6026 67.0255 59.7136 65.8069 57.2763 40.2153 38.9967 43.8712 38.9967 37.1687 33.5128 28.0288 32.2941 27.4195 24.9822 24.3729 18.2797 21.9356 19.4983 21.3263 12.7958 14.0144 10.9678 13.4051 9.74916 9.13984 17.6704 9.13984 14.0144 4.26526 7.31187 7.31187 6.09323 7.31187 6.70255 4.87458 2.43729 3.04661 5.4839 1.82797 3.65594 1.82797 1.82797 2.43729 0.609323 4.26526 3.04661 
0 0 0 0 0 0 0 0.564255 2.82128 44.5762 67.7106 125.829 203.696 306.391 463.818 623.502 666.385 756.102 779.801 802.935 809.706 847.511 783.186 758.359 725.632 688.391 629.709 606.01 550.713 507.265 442.94 446.89 402.314 323.318 315.419 280.999 268.586 234.73 228.523 188.461 164.198 164.763 161.941 139.935 120.751 108.337 84.074 97.0519 84.6383 78.4315 67.7106 69.4034 64.8894 56.4255 50.783 44.0119 41.7549 32.1625 37.8051 32.1625 37.8051 26.52 18.6204 23.6987 23.6987 12.9779 16.9277 19.1847 18.0562 15.7991 12.9779 8.46383 9.59234 10.1566 8.46383 7.89957 11.8494 11.2851 7.89957 7.89957 8.46383 3.38553 1.69277 5.64255 3.38553 3.38553 4.51404 2.82128 3.94979 2.25702 3.94979 1.69277 1.69277 1.69277 2.82128 2.25702 0.564255 1.12851 0.564255 0 
0 0 0 0 0 0 0 0 1.1876 26.1271 54.6294 94.4139 131.823 221.487 345.59 416.846 450.693 488.696 532.637 569.452 565.889 574.203 568.858 543.919 520.167 485.727 441.786 431.691 368.748 385.375 338.465 312.931 274.928 241.082 201.891 203.079 199.516 156.763 163.294 127.667 138.355 113.415 102.727 104.508 93.2263 76.0061 73.6309 67.693 61.1612 58.786 48.0976 38.5969 50.4728 46.91 45.1286 32.6589 33.8465 27.3147 25.5333 14.2511 19.0015 20.1891 21.3767 17.2201 22.5643 13.6574 14.2511 9.50077 11.2822 9.50077 9.50077 5.93798 10.6884 8.90697 8.31317 7.71937 6.53178 4.15658 2.96899 8.31317 5.93798 4.15658 3.56279 5.93798 2.96899 1.1876 0.593798 2.96899 4.15658 3.56279 1.78139 2.37519 0 2.96899 0.593798 1.1876 2.37519 2.96899 1.1876 1.1876 
0 0 0 0 0 0 0 0 2.22556 18.3608 37.2781 48.4058 68.4358 112.391 154.491 203.267 208.831 224.225 223.297 226.821 237.949 221.443 228.305 209.759 206.606 197.333 188.43 170.811 171.924 161.724 170.44 144.476 140.766 140.395 135.388 118.696 116.285 111.463 97.739 97.5535 85.1275 83.0874 81.4182 81.6037 70.105 66.2103 58.0499 62.8719 53.4133 52.8569 51.0023 48.9622 47.664 37.2781 38.2054 38.7618 36.5362 36.1653 29.4886 30.2305 27.2631 24.4811 25.7794 22.6265 19.6591 22.8119 18.9172 14.6516 14.837 14.6516 12.6115 10.015 11.1278 9.82954 11.3132 9.08769 7.23306 9.64407 8.71676 8.71676 6.4912 4.82204 5.19296 4.26565 4.82204 4.82204 4.63657 5.19296 3.70926 4.08019 3.33833 3.5238 1.85463 2.22556 1.66917 2.96741 1.66917 1.11278 1.29824 2.41102 
0 0 0 0 0 0 0.184936 0.369873 2.21924 17.1991 36.0626 49.563 71.5704 103.934 157.381 208.238 209.718 223.218 225.438 225.253 220.444 217.67 231.725 208.793 202.321 196.587 183.457 180.868 174.95 164.409 168.292 143.141 139.442 130.565 121.318 117.805 117.989 108.743 100.236 97.4615 89.8791 84.7009 84.331 83.0365 67.8717 66.947 65.4675 54.5563 57.5152 57.3303 53.4466 45.6793 45.8642 47.5287 40.871 37.912 32.3639 31.2543 32.5488 27.3706 28.2953 24.2267 21.8225 20.343 19.7882 20.5279 17.9388 17.384 16.2744 10.7263 15.1648 11.651 10.9113 8.87695 12.7606 8.87695 8.87695 9.24682 7.02759 6.47278 6.65771 6.65771 6.1029 4.99329 6.1029 3.32886 3.32886 4.0686 2.95898 3.51379 4.0686 2.40417 3.51379 2.40417 2.0343 2.40417 1.47949 0.924682 2.21924 2.0343 
0 0 0 0 0 0 0 2.32416 42.9981 359.303 670.441 962.596 1271 1914.86 2908.29 3731.19 4055.83 4134.71 4174.52 4175.9 4176.04 4149.26 3983.47 3882.53 3778.34 3605.2 3465.26 3350.76 3157.24 3060.79 2903.66 2788.34 2623.74 2498.85 2338.09 2243.27 2093.62 2034.4 1895.65 1763.32 1729.29 1555.62 1503.02 1393.27 1345.45 1264.08 1185.62 1145.8 1043.1 1001.61 931.401 871.568 818.195 763.401 729.902 665.317 620.922 585.537 560.461 526.154 490.601 444.667 420.844 390.562 372.958 345.538 312.27 315.772 278.486 263.978 249.132 223.443 209.012 202.361 171.538 151.012 155.541 144.742 131.321 117.888 111.584 106.515 89.6861 91.8301 79.7333 78.7724 68.1915 58.4813 60.8877 54.6781 53.1877 50.1382 41.5237 41.062 38.6054 35.5792 35.1268 26.4972 29.4332 26.9836 
0 0 0 0 0 0 0 12.8377 46.2157 559.723 1086.07 1096.34 1423.79 2036.42 3155.69 5484.44 5086.47 4485.3 3484.52 2841.07 2136.56 1694.76 1219.58 870.579 613.825 462.157 351.753 259.321 277.478 177.16 206.779 143.782 115.539 101.326 94.9989 73.0828 89.8638 71.891 89.8638 34.5697 23.1078 43.6481 66.756 27.0512 28.2429 23.1078 20.5403 -27.0512 7.70261 12.8377 -7.70261 10.2701 5.13507 10.2701 10.2701 -5.13507 2.56754 7.70261 12.8377 12.8377 10.2701 23.1078 -2.56754 12.8377 17.9728 7.70261 5.13507 10.2701 10.2701 6.51086 2.56754 5.13507 5.13507 2.56754 2.56754 5.13507 0 0 0 0 5.13507 2.56754 2.56754 0 0 0 0 0 5.13507 2.56754 0 0 0 0 0 0 0 0 0 5.13507 
0 0 0 0 0 2.56811 22.7414 219.967 3148.99 26630.7 58496.4 93795.9 154852 289590 561458 909759 1.13726e+06 1.3548e+06 1.58507e+06 1.82404e+06 2.04287e+06 2.21658e+06 2.24568e+06 1.99129e+06 1.50231e+06 1.0551e+06 754775 559049 423031 329407 261568 208870 169542 138761 117610 97910.9 81526.1 70184.5 59696.9 52906.9 45004.8 39094.9 34612.6 29973.4 26581.5 22770.1 21431.1 18048 17023 15162 13386.3 11682.6 10898.7 10000.8 8792.87 8109.33 7096.35 6671.01 6092.34 5373.38 4984.87 4434 4242.25 3630.55 3236.1 3059.06 3020.49 2517.45 2513.47 2144.46 2052.17 1714.06 1600.39 1552.97 1364.97 1216.9 1106.54 1050 956.775 906.523 835.764 757.671 713.646 646.452 672.749 594.015 422.436 500.929 386.573 436.704 370.878 348.61 264.086 344.635 266.885 249.002 241.546 200.416 156.856 161.442 

100 0 200
0 0 0 0 0 0 0 0 0 29.0381 0 0 29.0381 0 0 0 0 0 0 0 29.0381 0 33480.3 0 2350.79 31129.5 0 0 0 161.573 0 0 0 0 0 0 0 0 0 0 0 29.0381 0 58.4618 29.0381 0 0 0 161.573 0 0 0 0 0 0 0 0 0 0 0 0 0 0 0 0 0 6.5667 0 0 0 0 0 0 0 0 0 0 0 0 0 0 0 0 0 0 0 0 0 0 0 0 0 0 0 0 29.0381 0 0 0 0 
0 0 0 0 0 0 0 0 20.4533 30.6799 66.4732 81.8131 97.1531 97.1531 138.06 40.9066 112.493 214.759 178.966 132.946 117.606 86.9265 117.606 25.5666 107.38 46.0199 86.9265 61.3599 71.5865 35.7932 46.0199 30.6799 40.9066 61.3599 40.9066 5.11332 20.4533 10.2266 40.9066 25.5666 25.5666 10.2266 -10.2266 30.6799 10.2266 25.5666 -10.2266 0 -10.2266 10.2266 15.34 30.6799 25.5666 15.34 15.34 15.34 15.34 0 5.11332 10.2266 0 15.34 5.11332 10.2266 5.11332 5.11332 -5.11332 10.2266 -10.2266 0 -5.11332 5.11332 5.11332 10.2266 10.2266 5.11332 -5.11332 5.11332 0 5.11332 0 -5.11332 5.11332 5.11332 0 0 0 5.11332 0 5.11332 0 0 10.2266 5.11332 0 5.11332 5.11332 0 0 0 
0 0 0 0 0 0 0 0 1.82797 5.4839 18.889 16.4517 23.7636 39.606 70.6814 88.3518 98.7103 87.7425 96.273 89.5704 102.366 98.101 84.6959 84.0865 81.6492 71.9001 70.0721 65.1975 58.495 57.2763 57.2763 59.7136 40.2153 43.2619 37.1687 32.9034 29.2475 29.2475 29.8568 31.6848 28.6382 17.6704 25.5916 20.717 22.5449 17.6704 15.8424 15.8424 10.9678 14.6237 11.5771 11.5771 7.9212 6.09323 12.7958 8.53052 15.2331 9.13984 6.09323 7.31187 12.1865 9.13984 6.09323 4.26526 5.4839 4.87458 7.31187 4.26526 2.43729 1.21865 3.04661 1.82797 5.4839 1.82797 3.04661 4.87458 2.43729 3.65594 1.82797 2.43729 2.43729 0.609323 1.21865 1.21865 1.21865 1.21865 1.21865 0 0 0.609323 1.21865 0.609323 0.609323 1.21865 0.609323 1.21865 0 1.21865 1.82797 1.21865 
0 0 0 0 0 0 0.564255 1.12851 0.564255 22.006 46.2689 68.2749 96.4876 132.6 222.881 287.77 327.832 333.475 368.459 379.744 348.71 351.531 355.481 359.431 318.804 308.083 294.541 280.435 291.72 243.758 222.881 211.596 185.076 178.305 171.534 162.506 119.622 129.779 122.443 104.951 112.287 85.2025 91.4094 88.5881 77.8672 71.0962 61.5038 53.6042 58.1183 48.526 42.3191 37.8051 40.6264 36.6766 29.9055 21.4417 33.2911 25.9557 32.1625 23.6987 23.1345 23.1345 16.3634 25.9557 14.6706 10.7208 15.7991 10.7208 8.46383 7.89957 11.2851 9.59234 18.6204 6.77106 6.77106 7.33532 7.89957 7.33532 9.59234 4.51404 5.0783 3.38553 7.33532 2.82128 3.94979 2.82128 1.69277 2.25702 2.82128 2.25702 2.25702 2.25702 1.12851 0.564255 3.38553 2.25702 2.25702 3.38553 1.12851 1.12851 
0 0 0 0 0 0 0 0 1.1876 11.876 21.3767 42.7534 55.817 86.1007 107.477 151.418 157.356 178.139 190.609 172.795 187.64 192.391 189.422 166.263 178.733 165.67 141.324 155.575 153.2 128.26 142.511 89.6635 106.884 90.8511 90.2573 90.2573 76.0061 67.0992 52.2542 70.0681 55.2232 63.5364 56.4108 39.1907 35.6279 36.8155 33.8465 29.6899 32.6589 24.9395 30.2837 23.7519 22.5643 22.5643 23.7519 15.4387 11.876 16.6263 14.2511 13.0636 13.0636 8.31317 7.71937 8.90697 9.50077 10.6884 10.6884 8.90697 5.93798 4.75038 4.75038 3.56279 2.96899 8.31317 5.93798 6.53178 4.15658 2.96899 0 4.75038 0.593798 2.37519 1.78139 2.96899 2.96899 2.37519 0.593798 1.78139 1.78139 1.1876 1.1876 0.593798 2.37519 2.37519 1.1876 1.78139 1.1876 0.593798 0.593798 0 
0 0 0 0 0 0 0 0 1.4837 8.5313 13.9097 18.3608 29.1177 41.9146 65.4684 83.0874 86.9821 95.328 91.2478 91.4332 91.0623 90.8769 88.2804 87.724 79.9345 84.5711 82.531 70.2905 66.3957 66.2103 60.4609 58.2354 59.7191 55.6389 50.6314 46.5512 47.664 42.8419 41.1728 35.238 34.4961 37.2781 30.2305 33.1979 26.7067 29.1177 22.9974 27.0776 22.2556 23.5538 22.8119 20.2155 21.5137 17.2481 15.208 16.8771 15.208 13.7243 10.9423 12.9824 12.6115 10.2005 10.5714 11.4987 8.5313 9.08769 8.5313 5.37843 7.23306 6.12028 5.37843 5.56389 6.12028 7.97491 3.33833 4.45111 3.89472 3.5238 2.41102 3.70926 4.08019 3.15287 4.08019 2.59648 2.59648 2.04009 3.15287 2.22556 1.85463 2.22556 0.370926 1.11278 1.11278 0.370926 0.556389 1.29824 1.29824 0.927315 1.29824 0.741852 
0 0 0 0 0 0 0 0.184936 1.10962 7.5824 17.0142 25.1514 26.261 46.604 62.5085 83.5913 86.1804 89.6942 91.7285 93.208 93.9477 85.4407 84.331 87.8448 82.2967 78.2281 75.4541 75.4541 69.906 66.2073 70.0909 64.7278 59.7345 58.8098 47.8985 47.3437 50.3027 44.3848 44.0149 39.2065 37.1722 31.994 36.0626 34.7681 30.8844 25.5212 27.9254 22.9321 25.3363 23.1171 21.8225 19.7882 17.0142 18.3087 14.2401 18.3087 15.9045 15.3497 12.2058 11.651 13.6853 11.0962 12.2058 9.98657 8.69201 9.98657 7.02759 6.65771 6.84265 7.02759 6.28784 6.28784 6.47278 6.28784 4.99329 4.62341 2.77405 3.51379 4.43848 3.32886 2.58911 3.14392 1.66443 3.69873 1.84936 3.14392 1.84936 1.29456 1.47949 1.84936 0.924682 1.47949 0.924682 1.10962 2.0343 1.29456 0.369873 0.739746 0.739746 0.369873 
0 0 0 0 0 0 0.6415 4.53592 29.6763 222.784 442.455 618.24 818.067 1244.62 1890.99 2378.26 2558.99 2670.47 2739.54 2736.93 2649.46 2577.96 2560.79 2459.51 2408.31 2278.05 2222.91 2128.96 2033.04 1907.44 1852.33 1739.16 1664.75 1591.91 1474.68 1427.6 1335.41 1298.3 1183.6 1129.65 1068.3 1021.96 933.768 907.998 824.32 789.514 746.323 707.853 646.519 615.407 601.753 565.066 494.262 486.307 466.036 413.958 387.505 374.971 346.215 328.995 317.658 294.552 270.294 260.751 223.448 226.076 203.927 192.174 183.375 175.956 163.009 150.864 134.355 124.207 113.105 106.792 97.0345 92.0372 83.3556 73.8181 75.3409 69.4355 65.0773 60.3529 57.3481 48.1152 48.6167 44.239 37.18 38.9897 35.6984 29.5791 28.7393 26.7302 22.6783 23.8729 21.6339 21.0923 17.9251 18.0017 
0 0 0 0 0 0 -2.56754 7.70261 15.4052 69.3235 66.756 143.782 159.187 193.941 283.621 480.129 566.234 408.238 395.401 326.077 220.808 169.457 198.892 199.076 177.16 87.2963 102.701 57.8616 89.8638 30.8104 66.756 17.9728 12.8377 35.9455 48.7832 38.5131 43.6481 53.9183 17.9728 32.1862 28.2429 20.5403 17.9728 23.1078 7.70261 10.2701 15.4052 12.8377 5.13507 2.56754 0 15.4052 10.2701 12.8377 0 10.2701 5.13507 2.56754 2.56754 7.70261 5.13507 7.70261 7.70261 2.56754 0 5.13507 -5.13507 -2.56754 -5.13507 -2.56754 0 5.13507 7.70261 5.13507 -2.56754 0 0 -2.56754 0 2.56754 0 0 2.56754 2.56754 0 0 0 0 2.56754 0 2.56754 0 0 -2.56754 2.56754 0 0 0 0 0 
0 0 0 0 0 10.2724 66.4325 165.63 707.338 6046.52 11839.8 17491.9 25779.2 41210.6 68271.2 93052.1 105399 116844 125247 130438 134904 136152 134424 121418 102909 87035.7 74464.5 65758 57445.2 50684.4 45724.1 40795 36894.2 33071.5 29764.5 26965.9 23466 21539.6 19228.7 17599.6 15780.9 14338.2 12843.4 11316.6 10783.3 9138.93 8154.57 7866.92 6942.12 6355.31 5599.71 5115.04 4758.91 4396.31 3893.61 3832.34 3294.17 2852.83 2658.44 2819.43 2284.59 1833.23 1851.56 1729.05 1538.2 1402.39 1366.07 1139.2 925.462 1021.2 888.215 848.61 866.94 708.691 717.292 591.984 485.09 496.719 409.553 370.125 392.219 330.092 409.128 351.697 293.054 234.072 284.917 149.603 192.282 148.265 123.651 145.968 144.17 206.362 184.778 79.6994 88.1905 101.825 107.429 94.9732 

100 0 200
0 0 0 0 0 0 0 0 0 0 0 0 0 0 0 0 0 0 0 0 29.0381 0 0 29.0381 0 0 0 0 0 0 0 0 0 0 0 0 0 0 0 0 0 0 0 0 0 0 0 0 0 0 0 0 0 0 0 0 0 0 0 0 0 0 29.0381 0 0 0 0 0 0 0 0 0 0 0 0 0 0 0 0 0 0 0 0 0 0 0 0 0 0 0 0 0 0 0 0 0 0 0 0 0 
0 0 0 0 0 0 0 0 0 -5.11332 -5.11332 10.2266 40.9066 10.2266 15.34 20.4533 20.4533 20.4533 46.0199 15.34 5.11332 25.5666 30.6799 35.7932 20.4533 15.34 5.11332 10.2266 -15.34 -5.11332 10.2266 10.2266 20.4533 10.2266 0 0 10.2266 -10.2266 15.34 0 5.11332 5.11332 -15.34 15.34 5.11332 0 5.11332 5.11332 0 -15.34 5.11332 10.2266 10.2266 -5.11332 0 -5.11332 -5.11332 0 0 0 5.11332 5.11332 0 5.11332 0 0 5.11332 -5.11332 5.11332 5.11332 5.11332 0 0 5.11332 5.11332 0 0 -5.11332 0 0 0 0 5.11332 0 0 0 10.2266 0 0 0 0 0 0 0 0 0 0 0 0 0 
0 0 0 0 0 0 0 0 0 1.21865 3.04661 2.43729 4.26526 2.43729 9.13984 10.9678 10.9678 14.0144 6.09323 10.3585 12.1865 9.74916 7.9212 5.4839 14.0144 9.13984 10.3585 6.09323 4.26526 9.74916 12.1865 6.70255 3.65594 7.9212 7.31187 5.4839 5.4839 6.09323 7.9212 9.13984 2.43729 4.26526 4.26526 2.43729 4.87458 4.87458 3.65594 2.43729 1.82797 1.21865 1.21865 1.82797 1.82797 2.43729 0.609323 2.43729 0.609323 1.21865 1.82797 0.609323 3.04661 1.21865 0.609323 3.65594 1.21865 2.43729 1.21865 0.609323 0 1.82797 1.21865 0.609323 0 0.609323 1.21865 0.609323 0.609323 0.609323 0 0.609323 0.609323 0 0 0.609323 0 1.21865 0.609323 0 0 0.609323 0 0 0.609323 0.609323 0 0 0 0 0 0 
0 0 0 0 0 0 0 0 0.564255 3.94979 7.89957 11.8494 17.4919 24.263 37.8051 43.4477 55.8613 69.9677 51.9115 60.3753 57.554 55.8613 62.6323 59.8111 50.2187 54.7328 62.6323 45.7047 37.2408 46.8332 40.0621 32.1625 38.3694 36.6766 29.9055 25.9557 27.0843 26.52 25.9557 23.6987 24.263 15.2349 19.1847 17.4919 14.1064 12.9779 12.4136 12.4136 10.1566 11.2851 10.7208 12.9779 12.4136 11.2851 7.33532 8.46383 6.77106 6.20681 8.46383 9.02808 4.51404 3.94979 6.20681 5.64255 5.0783 2.25702 5.0783 1.69277 3.38553 1.69277 3.94979 2.25702 3.94979 2.82128 2.82128 2.82128 2.25702 3.38553 1.69277 1.12851 2.82128 1.69277 1.69277 0.564255 1.12851 0 1.12851 1.69277 0 0 0.564255 0.564255 1.12851 0 1.69277 0.564255 0.564255 0.564255 0.564255 0.564255 
0 0 0 0 0 0 0 0 0 4.15658 7.12557 9.50077 10.0946 20.7829 32.6589 35.0341 39.7845 40.3783 35.0341 48.0976 51.0666 45.7224 38.5969 45.7224 40.3783 38.5969 32.6589 34.4403 35.6279 29.6899 39.7845 24.9395 16.6263 23.7519 19.0015 19.5953 24.9395 18.4077 16.6263 17.2201 15.4387 10.0946 17.8139 14.8449 12.4698 10.0946 9.50077 10.0946 8.31317 4.15658 6.53178 11.876 8.31317 5.93798 5.34418 7.12557 5.34418 6.53178 3.56279 4.15658 1.78139 4.75038 4.15658 2.37519 3.56279 2.37519 4.75038 2.96899 1.1876 4.75038 1.78139 1.78139 1.1876 1.1876 1.1876 0.593798 2.37519 1.78139 0 0 2.37519 0 1.1876 0.593798 0 0.593798 1.78139 1.1876 0 0 0.593798 0 0 0 0.593798 0 0.593798 0 0 0 
0 0 0 0 0 0 0 0 0.370926 0.927315 3.5238 4.63657 6.4912 6.4912 14.4661 21.1428 22.9974 22.0701 20.2155 24.2956 20.4009 21.8846 21.3282 20.7719 22.441 18.3608 16.6917 17.4335 15.3934 15.5789 14.6516 16.1353 15.9498 10.2005 13.5388 9.27315 10.5714 8.16037 10.3859 9.27315 9.82954 8.16037 8.34583 7.78944 7.78944 6.67667 6.30574 6.30574 6.12028 4.26565 5.19296 5.0075 3.89472 4.82204 2.78194 4.63657 4.26565 3.89472 4.08019 2.22556 2.96741 3.5238 2.78194 2.78194 1.85463 3.15287 2.96741 1.85463 2.78194 2.04009 0.927315 2.22556 0.370926 2.41102 1.11278 1.85463 1.4837 1.29824 0.927315 1.29824 0.556389 0.370926 0.927315 0.556389 0.741852 0.370926 0.556389 0.556389 0.556389 0.370926 0.556389 0.370926 0.370926 0.556389 0.185463 0.185463 0.556389 0.370926 0.370926 0 
0 0 0 0 0 0 0 0 0.739746 2.0343 3.32886 5.91797 8.87695 8.87695 15.7196 21.8225 22.3773 22.0074 22.1924 21.8225 24.4116 23.6719 19.2334 21.2677 17.7539 18.6786 14.425 16.0895 19.4183 18.3087 14.2401 12.9456 12.0209 12.5757 14.2401 11.8359 10.5414 14.0552 10.9113 10.5414 9.98657 8.13721 9.80163 7.21252 7.95227 6.84265 6.84265 4.43848 6.1029 5.54809 6.1029 5.91797 4.80835 4.0686 3.51379 4.0686 4.25354 4.62341 4.0686 2.21924 3.88367 3.32886 2.21924 2.77405 3.69873 2.40417 3.14392 1.66443 2.0343 1.66443 1.10962 2.40417 1.84936 2.77405 1.47949 1.10962 1.66443 1.29456 0.924682 1.66443 0.739746 0.554809 1.47949 2.21924 0.554809 0.739746 0.184936 0.369873 0.369873 0.924682 0.184936 0.369873 0.184936 1.29456 0.554809 0 0.184936 0.369873 0.369873 0.184936 
0 0 0 0 0 0.0300498 0.99905 2.3857 11.8238 80.881 151.678 211.361 295.372 432.619 639.44 858.942 923.417 936.1 960.106 962.546 951.972 931.048 912.551 875.015 858.163 815.698 766.62 744.177 699.66 705.256 666.98 623.033 572.327 545.711 532.991 509.084 474.057 436.036 420.817 400.861 368.774 343.82 340.103 323.018 300.977 272.793 265.961 255.695 247.005 225.011 194.877 191.732 187.362 171.074 166.445 158.576 139.788 142.822 133.067 120.973 120.161 108.649 100.394 94.9338 87.3669 81.545 71.4101 73.5773 73.2282 65.5351 57.4366 51.6491 53.4587 48.7402 46.724 40.4789 39.1368 31.5039 28.6681 32.1501 29.1855 25.5357 25.5468 21.536 21.7615 20.4711 15.0413 17.0945 16.659 16.4012 12.499 13.4239 11.8764 13.5678 10.0949 9.14958 8.13703 8.22319 8.56037 6.5346 
0 0 0 0 0 0 0 0 0 2.56754 17.9728 23.1078 19.1645 20.5403 39.8888 35.9455 48.7832 64.1884 34.5697 29.6187 33.378 32.1862 23.1078 12.8377 38.5131 11.4619 23.1078 -7.70261 17.9728 7.70261 6.32683 17.9728 16.781 10.2701 5.13507 10.2701 7.70261 7.70261 0 5.13507 5.13507 0 -2.56754 2.56754 -2.56754 0 5.13507 10.2701 10.2701 5.13507 5.13507 -2.56754 5.13507 -5.13507 0 -2.56754 0 0 -2.56754 0 -2.56754 2.56754 -5.13507 0 2.56754 2.56754 0 0 2.56754 0 0 0 0 0 0 0 0 0 -2.56754 0 0 2.56754 0 0 0 0 0 0 0 0 0 0 0 0 0 0 2.56754 0 0 -2.56754 
0 0 0 2.56811 0 0 11.6681 20.6302 129.137 702.069 1424.99 1901.34 2790.21 4463.85 7023.71 9099.9 10243.6 10765.4 11279 11567 12223.1 11751.1 11679.4 10684.5 9746.95 9066.04 7797.92 7365.67 6688.6 6194.32 5831.25 5590.36 5138.41 4833.78 4350.56 3964.75 3743.86 3423.17 3277.23 2991.26 2871.84 2781 2316.15 2297.98 1874.07 1735.81 1670.68 1629.7 1496.7 1246.11 1198.63 1216.74 1111.54 1054.18 822.027 816.618 809.762 774.017 590.825 604.938 549.99 474.475 496.578 476.778 445.685 479.357 388.64 268.425 335.213 249.722 221.81 179.192 215.826 269.674 163.412 172.74 123.34 146.306 140.179 131.912 128.776 83.2315 122.028 63.0402 81.6854 67.8153 65.0388 89.0303 61.3693 54.2491 41.9864 47.4268 38.1943 26.2842 39.3195 59.6493 30.5652 34.5244 34.7536 64.3224 

100 0 200
0 0 0 0 0 0 0 0 0 0 0 0 0 0 0 0 0 0 0 0 0 0 0 0 0 0 0 0 0 0 0 0 0 0 0 0 0 0 0 0 0 0 0 0 0 0 0 0 0 0 0 0 0 0 0 0 0 0 0 0 0 0 0 0 0 0 0 0 0 0 0 0 0 0 0 0 0 0 0 0 0 0 0 0 0 0 0 0 0 0 0 0 0 0 0 0 0 0 0 0 
0 0 0 0 0 0 0 0 0 5.11332 0 5.11332 0 0 0 0 -5.11332 0 -5.11332 -5.11332 -5.11332 10.2266 5.11332 -5.11332 0 5.11332 0 0 -5.11332 0 0 5.11332 0 0 0 0 0 5.11332 5.11332 5.11332 0 5.11332 0 0 0 10.2266 0 0 0 0 0 0 0 0 0 0 0 0 0 0 0 0 0 0 0 0 5.11332 0 0 0 0 0 0 5.11332 5.11332 0 0 0 0 0 0 0 0 0 0 0 0 0 0 0 0 0 0 0 0 0 0 0 0 5.11332 
0 0 0 0 0 0 0 0 0 0 0.609323 0 0.609323 1.21865 0.609323 2.43729 1.21865 1.21865 1.21865 1.82797 1.21865 0.609323 1.21865 1.21865 0 1.21865 1.82797 0 1.21865 0.609323 1.21865 0.609323 1.21865 0.609323 1.21865 0.609323 0.609323 0.609323 0.609323 1.21865 0 0.609323 1.21865 0 0 0.609323 1.21865 0 1.21865 0 0.609323 0 0 0 0.609323 0.609323 0.609323 0.609323 0 0 0.609323 0 0.609323 0 0.609323 1.21865 0 0 0.609323 0 0 0 0 0 0.609323 0 0.609323 0 0 0 0 0 0 0 0 0 0 0 0 0 0 0 0 0 0 0 0 0 0 0 
0 0 0 0 0 0 0 0 0 0 0.564255 1.12851 2.25702 5.64255 6.20681 6.20681 6.20681 12.9779 6.77106 6.20681 7.89957 12.4136 5.0783 9.02808 5.64255 9.02808 3.38553 10.1566 9.02808 7.89957 7.33532 5.64255 3.38553 5.0783 5.64255 3.94979 5.64255 5.0783 5.64255 2.82128 2.82128 3.38553 3.38553 2.82128 2.82128 3.38553 1.69277 1.12851 3.94979 1.69277 2.82128 2.82128 1.69277 0.564255 3.94979 0.564255 1.12851 1.12851 0 0.564255 1.12851 0.564255 2.25702 2.82128 1.12851 0 0.564255 0 0.564255 0.564255 0 0.564255 0 2.25702 0.564255 0.564255 0.564255 0.564255 0 0.564255 0 0 0 0.564255 0 0.564255 0.564255 0 0 0 0 0.564255 0.564255 0 0.564255 0 0 0 0.564255 0 
0 0 0 0 0 0 0 0 0 0 0.593798 1.1876 1.78139 2.96899 4.15658 5.93798 4.15658 1.1876 6.53178 4.15658 6.53178 9.50077 6.53178 5.93798 7.12557 7.12557 7.12557 7.12557 6.53178 4.75038 4.15658 2.96899 1.78139 1.78139 2.96899 3.56279 0.593798 2.96899 4.75038 1.78139 2.37519 1.78139 1.1876 1.78139 3.56279 0.593798 1.1876 2.37519 3.56279 1.1876 1.1876 1.78139 2.96899 2.96899 1.78139 1.1876 0.593798 2.37519 2.96899 0.593798 1.78139 1.1876 1.1876 0.593798 0.593798 0 1.1876 0 0.593798 0.593798 1.78139 0.593798 1.1876 1.1876 0 0.593798 0 0.593798 0 0 0 0 0.593798 0 0 0 0 0.593798 1.1876 0 0 0.593798 0.593798 0 0 0 0.593798 0 0 0.593798 
0 0 0 0 0 0 0 0 0 0.556389 0.370926 0.370926 1.4837 0.927315 2.59648 2.22556 3.70926 3.5238 4.08019 4.26565 3.15287 5.19296 4.08019 3.70926 3.70926 1.29824 4.26565 2.96741 2.96741 2.41102 3.70926 2.04009 2.96741 2.96741 1.85463 3.15287 2.04009 3.33833 1.85463 2.04009 2.22556 3.70926 2.22556 2.04009 0.927315 0.370926 1.4837 1.29824 1.29824 1.4837 0.927315 2.04009 0.370926 0.741852 1.66917 0.741852 0.556389 1.11278 1.29824 0.927315 0.741852 0.741852 0.556389 0.927315 0.370926 0.741852 0.927315 0.556389 0.370926 0.185463 0.556389 0.185463 0.370926 0.185463 0.556389 0.185463 0 0.185463 0.185463 0 0.185463 0.185463 0.185463 0 0.185463 0.185463 0 0 0.185463 0.185463 0.185463 0.185463 0.185463 0 0 0 0 0.370926 0 0.185463 
0 0 0 0 0 0 0 0 0 0.554809 1.29456 1.10962 1.66443 2.21924 2.77405 4.62341 4.43848 3.32886 4.25354 4.43848 4.62341 3.32886 3.51379 3.32886 3.51379 3.51379 2.40417 4.25354 4.43848 3.32886 1.66443 2.77405 4.25354 2.95898 2.21924 1.66443 1.10962 1.66443 1.66443 1.47949 2.77405 0.924682 1.10962 1.29456 0.369873 1.47949 1.47949 1.29456 2.77405 0.554809 2.21924 1.10962 0.369873 0.924682 0.739746 0.924682 0.924682 0.924682 0.924682 0.739746 0.739746 0.554809 0.369873 0.184936 0.369873 0.554809 0.554809 0.554809 0.184936 0.369873 0.924682 0 0.554809 0.554809 0.184936 0.184936 0.184936 0.184936 0.184936 0 0.184936 0 0.739746 0 0.184936 0 0.184936 0 0.369873 0.184936 0 0 0 0 0.369873 0.554809 0.184936 0.369873 0.184936 0 
0 0 0 0 0 0 0.1938 0.652621 2.36295 20.4548 39.8752 51.5225 62.0049 103.385 157.557 210.672 235.69 241.35 231.266 243.525 244.505 239.589 225.972 234.542 217.643 214.72 201.93 195.207 180.044 163.646 167.419 158.523 150.614 148.902 143.983 133.148 115.988 116.12 111.457 105.417 98.4512 91.3439 88.1546 88.8779 72.8283 75.2984 75.7639 67.8501 58.8562 66.9762 56.0021 59.2837 58.6406 52.3484 41.7864 42.5765 37.6575 37.2789 38.7077 33.9759 30.3136 28.4611 29.2937 26.5374 29.3112 27.1388 21.3546 20.3057 17.826 18.4961 19.9216 17.1036 12.9229 14.9931 14.592 14.1855 11.7838 12.0145 8.76767 10.9058 8.7658 6.65531 6.83545 5.68088 7.75708 5.04575 3.65867 5.34515 4.86834 3.51861 4.84516 3.58296 2.75784 3.71572 1.69776 2.5868 3.20461 2.29122 2.73705 1.74818 
0 0 0 0 0 0 0 0 0 0 -2.56754 5.13507 5.13507 7.70261 5.13507 12.8377 -7.70261 0 2.56754 5.13507 17.9728 -2.56754 7.70261 -2.56754 2.56754 5.13507 12.8377 10.2701 0 2.56754 -2.56754 2.56754 0 -2.56754 5.13507 0 2.56754 0 0 0 0 0 0 -2.56754 0 2.56754 0 0 0 0 0 -5.13507 0 5.13507 0 0 2.56754 2.56754 0 2.56754 0 0 0 0 0 0 0 0 0 0 2.56754 0 0 0 0 0 0 0 0 0 0 0 0 2.56754 0 0 0 0 0 2.56754 0 0 0 0 0 0 2.56754 0 0 0 
0 0 0 0 0 0.00071337 0.171147 0 -7.81003 87.4206 179.87 203.651 303.033 491.124 803.321 1055.54 1010.46 1174.96 1215.88 1439.84 1462.37 1226.83 1239.54 1168.98 1392.2 985.174 811.026 925.072 862.974 791.591 765.303 759.323 724.483 561.794 556.269 451.249 431.751 297.053 388.174 464.996 417.062 450.759 335.165 273.208 264.054 281.468 273.157 290.197 195.312 214.687 175.678 213.22 134.43 201.954 225.096 130.611 151.724 68.0334 142.376 131.905 111.993 100.896 98.7934 71.6029 93.5184 46.2225 60.4678 96.995 44.2214 66.0232 11.4244 66.1758 48.2907 9.83413 39.5528 33.8072 32.2735 19.5636 41.6343 18.021 38.7293 -2.17316 43.442 18.8255 19.6876 4.04314 -12.3009 -3.41601 18.8269 11.0347 36.3711 16.1212 9.49698 4.85331 18.1152 6.84993 13.6519 1.51826 10.5525 6.68583 

100 0 200
0 0 0 0 0 0 0 0 0 0 0 0 0 0 0 0 0 0 0 0 0 0 0 0 0 0 0 0 0 0 0 0 0 0 0 0 0 0 0 0 0 0 0 0 0 0 0 0 0 0 0 0 0 0 0 0 0 0 0 0 0 0 0 0 0 0 0 0 0 0 0 0 0 0 0 0 0 0 0 0 0 0 0 0 0 0 0 0 0 0 0 0 0 0 0 0 0 0 0 0 
0 0 0 0 0 0 0 0 0 -5.11332 0 -5.11332 0 0 0 5.11332 0 0 0 0 0 0 -5.11332 0 0 0 -5.11332 0 0 5.11332 0 0 0 0 0 0 0 0 0 0 0 0 0 0 5.11332 0 0 0 0 0 0 0 0 0 0 0 0 0 0 0 0 0 0 0 0 0 0 0 0 0 0 0 0 0 0 0 0 0 0 0 0 0 0 0 0 0 0 0 0 0 0 0 0 0 0 0 0 0 0 0 
0 0 0 0 0 0 0 0 0 0 0 0 0 0 0 0 0 0 1.21865 0 0 0.609323 0 0 1.82797 0 0 0 0 0 0 0 0 0.609323 0 0 0 0 0 0 0 0 0 0 0.609323 0 0 0 0 0 0 0 0 0 0 0.609323 0.609323 0 0 0 0 0 0 0 0 0 0 0 0 0 0 0 0 0 0.609323 0.609323 0 0 0 0 0 0 0 0 0 0 0 0 0 0 0 0 0 0 0 0 0 0 0 0 
0 0 0 0 0 0 0 0 0 0 0 0 0 0.564255 1.69277 1.69277 2.25702 2.82128 1.12851 0.564255 0.564255 1.69277 1.69277 0.564255 1.12851 1.12851 0.564255 0.564255 1.69277 1.12851 1.12851 0.564255 0.564255 0 0.564255 0 0.564255 0.564255 1.12851 0.564255 0.564255 0.564255 0.564255 0 0.564255 0 0 0.564255 0 0.564255 0 0.564255 0 0 0 1.12851 0 0.564255 0.564255 0 0.564255 0 0 0 0.564255 0.564255 0 0 0.564255 0 0 0 0 0 0 0 0.564255 0 0 0 0 0.564255 0 0 0 0 0.564255 0 0 0 0 0 0 0 0 0 0 0 0 0 
0 0 0 0 0 0 0 0 0 0.593798 0.593798 0 1.1876 0 0.593798 0.593798 1.1876 0.593798 1.1876 0.593798 1.1876 0 0.593798 1.1876 1.78139 1.1876 1.1876 1.1876 0.593798 1.78139 0.593798 0 0 0.593798 0.593798 0 1.78139 0 0 0 0.593798 0 1.78139 0.593798 0 0.593798 0 0 0 0 0 0 0 0.593798 0 0 0.593798 0 0 0 0.593798 0 0 0 0 0 0.593798 0 0 0 0 0.593798 0 0 0 0 0 0 0 0 0 0 0 0 0 0 0 0 0 0 0 0 0 0 0 0 0 0 0 0 
0 0 0 0 0 0 0 0 0 0 0.185463 0.185463 0.185463 0.370926 0.370926 0.185463 0.556389 1.29824 1.29824 1.4837 0.370926 0.741852 0.556389 0.556389 0.185463 0.927315 0.741852 0.741852 1.11278 0.556389 0.370926 0.370926 0.556389 0.185463 0.741852 0.556389 0 0.741852 0.741852 0 0.556389 0.556389 0.370926 0 0.185463 0 0.185463 0.185463 0.185463 0 0.185463 0.185463 0.185463 0.185463 0 0 0 0.741852 0.185463 0 0.185463 0.185463 0.185463 0 0.370926 0 0 0 0.185463 0 0.185463 0.185463 0 0 0 0 0 0 0 0.185463 0 0 0 0 0 0 0.185463 0 0 0 0 0.370926 0 0 0 0 0 0 0 0.185463 
0 0 0 0 0 0 0 0 0 0 0 0.369873 0.554809 0.369873 1.47949 0.554809 0.184936 0.739746 1.29456 1.10962 0.369873 0.369873 0.554809 1.10962 0.369873 0.739746 0.924682 0.924682 0.554809 0 2.0343 0.554809 0.554809 0.369873 0.184936 0.184936 0.924682 0.184936 0.184936 0.369873 1.10962 0.554809 1.10962 0.369873 0 0.369873 0 0.184936 0.739746 0.369873 0 0.369873 0.184936 0.554809 0.184936 0.369873 0.184936 0.184936 0.369873 0 0.369873 0 0 0 0.184936 0 0.184936 0.184936 0 0 0 0 0.184936 0 0 0.184936 0 0 0.184936 0 0 0.184936 0 0 0 0 0 0.184936 0 0 0 0 0 0 0 0 0 0 0 0 
0 0 0 0 0 0 0 0 0.601263 4.61495 7.87712 10.0898 13.3908 22.0202 37.3135 45.5447 45.179 47.192 57.7499 41.5709 52.0627 46.0088 45.0879 47.7982 44.4092 43.4987 43.5114 43.0226 41.7981 39.0577 39.3484 31.8213 30.0465 34.7928 30.0702 27.9874 25.6405 25.6497 24.4039 21.6332 21.6501 23.1365 19.1685 20.2645 15.8346 16.0876 16.6685 15.9785 12.9814 15.6829 14.258 11.6911 10.8098 11.8612 10.9435 9.69203 8.7372 10.1004 7.95895 5.84752 10.3359 6.93672 4.09458 4.1973 5.52096 5.55245 7.83782 5.52002 6.82858 5.29762 3.92939 4.98217 2.91734 3.94195 2.96183 4.32081 3.16582 2.4744 2.02671 1.59793 1.68757 1.893 1.73257 1.87408 1.32273 1.06883 1.65023 1.43418 1.28393 0.38522 1.15023 0.813992 0.680291 0.650241 0.855163 0.333862 0.477749 0.325121 0.876471 1.18028 
0 0 0 0 0 0 0 0 0 0 0 0 0 0 5.13507 0 2.56754 5.13507 0 2.56754 0 0 0 -2.56754 0 0 2.56754 2.56754 0 0 0 2.56754 2.56754 0 0 2.56754 0 0 0 0 0 0 0 0 2.56754 0 2.56754 0 0 0 0 0 2.56754 0 2.56754 0 0 0 0 0 0 0 0 0 0 0 0 0 0 0 0 0 0 0 0 0 0 0 0 0 0 0 0 0 0 0 0 0 0 0 0 0 0 0 0 0 0 0 0 0 
0 0 0 0 0 0 0 0 0 16.2687 35.7531 19.7686 36.9726 34.7123 68.1313 145.529 180.742 148.202 135.485 162.709 129.531 103.914 112.275 152.019 143.218 101.493 116.573 110.766 79.4814 86.084 83.6948 80.6545 78.2034 60.3802 75.0245 89.2308 76.5374 29.1207 34.6991 45.8316 54.9691 21.9424 52.2419 45.9153 50.1994 36.2958 2.4287 18.331 22.4361 20.0607 31.1596 17.3922 36.1323 17.9844 2.41737 15.9933 16.9653 22.2237 29.1049 7.41015 14.7318 11.4939 15.5713 5.89685 16.4518 3.59929 7.54088 10.3316 9.18977 14.5726 5.49052 5.64965 4.68965 3.69925 6.91602 -0.676878 4.95548 5.91249 5.73406 6.84428 0.270544 -0.517747 1.72008 15.9221 4.44732 -4.1176 0 6.068 5.77644 0.171147 0.158567 7.19859 2.56811 3.257 2.74424 2.44655 2.39696 2.5731 0 5.29778 

100 0 200
0 0 0 0 0 0 0 0 0 0 0 0 0 0 0 0 0 0 0 0 0 0 0 0 0 0 0 0 0 0 0 0 0 0 0 0 0 0 0 0 0 0 0 0 0 0 0 0 0 0 0 0 0 0 0 0 0 0 0 0 0 0 0 0 0 0 0 0 0 0 0 0 0 0 0 0 0 0 0 0 0 0 0 0 0 0 0 0 0 0 0 0 0 0 0 0 0 0 0 0 
0 0 0 0 0 0 0 0 0 0 0 0 0 0 0 0 0 0 0 0 0 0 0 0 0 0 0 0 0 0 0 0 0 0 0 0 0 0 0 0 0 0 0 0 0 0 0 0 0 0 0 0 0 0 0 0 0 0 0 0 0 0 0 0 0 0 0 0 0 0 0 0 0 0 0 0 0 0 0 0 0 0 0 0 0 0 0 0 0 0 0 0 0 0 0 0 0 0 0 0 
0 0 0 0 0 0 0 0 0 0 0 0 0 0 0 0 0 0 0 0 0 0 0 0.609323 0 0 0 0 0 0 0 0 0 0 0 0 0 0 0 0 0 0 0 0 0 0 0 0 0 0 0 0 0 0 0 0 0 0 0 0 0 0 0 0 0 0 0 0 0 0 0 0 0 0 0 0.609323 0 0 0 0 0 0 0 0 0 0 0 0 0 0 0 0 0 0 0 0 0 0 0 0 
0 0 0 0 0 0 0 0 0 0 0 0 0 0 0 0 0 0.564255 0 0 0 0 0 0 0 0 0.564255 0 0 0 0 0.564255 0 0 0 0.564255 0 0 0 0 0 0 0 0.564255 0 0 0 0 0 0 0 0.564255 0 0 0 0 0 0 0 0 0 0 0 0 0 0 0 0 0 0 0 0 0 0 0 0 0 0 0 0 0 0 0 0 0 0 0 0 0 0 0 0 0 0 0 0 0 0 0 0 
0 0 0 0 0 0 0 0 0 0 0 0 0 0 0 0 0 0 1.1876 0 0 0 0 0 0 0 0.593798 1.1876 0 0 0.593798 0 0 0 0 0 0 0 0 0 0 0 0.593798 0 0 0 0 0 0 0 0 0 0 0 0 0 0 0 0 0 0 0 0 0 0 0 0 0 0 0 0 0 0 0 0 0 0 0 0 0 0 0 0 0 0 0 0 0 0 0 0 0 0 0 0 0 0 0 0 0 
0 0 0 0 0 0 0 0 0 0 0 0 0 0.185463 0 0.185463 0 0 0.556389 0.185463 0.741852 0.185463 0 0 0.370926 0 0.370926 0 0.185463 0.556389 0 0.185463 0 0.556389 0 0 0.185463 0 0 0 0.185463 0 0 0 0 0.185463 0 0 0.185463 0 0 0 0 0 0.185463 0 0 0.185463 0 0.185463 0 0 0 0 0 0 0 0 0.185463 0 0 0 0 0 0 0 0 0 0 0 0 0 0 0 0 0 0 0 0 0 0 0 0 0 0 0 0 0 0 0 
0 0 0 0 0 0 0 0 0 0 0 0 0 0 0 0.184936 0.369873 0 0 0.554809 0 0 0 0 0.184936 0.184936 0.369873 0.184936 0.184936 0.184936 0 0 0 0.184936 0 0.184936 0.184936 0 0 0 0.184936 0 0.184936 0 0 0 0 0 0 0 0.184936 0.184936 0 0 0 0 0.184936 0 0 0.184936 0 0 0 0.184936 0 0 0 0 0 0 0 0 0 0 0 0 0 0 0 0.184936 0 0 0 0 0 0.184936 0 0 0 0 0 0 0 0 0 0 0 0 0 0 
0 0 0 0 0 0 0 0.1938 0 0.947692 1.50778 1.81304 2.35421 5.31799 5.80873 7.80047 9.43083 8.89935 9.84704 10.2226 8.35963 10.9299 9.66342 12.5186 9.63575 10.4997 7.61159 7.70556 7.25786 7.0442 6.5229 6.77773 5.97248 6.35915 5.5539 5.0539 3.70936 4.51606 2.9744 6.31798 3.78932 2.98458 3.98457 4.02574 3.62702 3.29952 3.2283 3.77965 1.97535 2.25055 1.93656 1.94292 1.15023 2.26168 1.48648 2.50683 2.67933 1.53783 2.03783 1.54896 1.50778 0.753892 1.99666 1.36534 1.75294 0.518921 0.560092 1.2515 0.325121 0.497613 1.06789 1.07027 0.947692 0.77282 0.41765 0.6415 0.977742 0.672485 0.620192 0.488871 0.131321 0.488871 0.691413 0.41765 0.876471 0.0712211 0.295071 0.0300498 0.1938 0.265021 0.0300498 0.283949 0.265021 0.344984 0.488871 0.652621 0.1938 0.0300498 0.142442 0.1938 
0 0 0 0 0 0 0 0 0 0 0 0 0 0 0 0 2.56754 2.56754 0 0 0 0 0 0 0 0 0 0 0 2.56754 0 0 0 0 0 0 0 0 0 0 0 0 0 0 0 0 0 0 0 0 0 0 0 0 0 0 0 0 0 0 0 0 0 0 0 0 0 0 0 0 0 0 0 0 0 0 0 0 0 0 0 0 0 0 0 0 0 0 0 0 0 0 0 0 0 0 0 0 0 0 
0 0 0 0 0 0 0 0 0 0 0 0.86004 11.9925 -1.70806 21.8814 20.5448 30.8173 6.84428 19.6968 34.7341 7.6923 21.588 17.1287 28.2492 13.8837 14.5486 12.8285 9.59554 16.9163 18.8368 14.3482 19.0079 11.9925 5.13621 15.4086 4.28819 8.56436 29.9692 14.2183 0.86004 -1.03119 10.4436 11.9925 1.03963 8.71391 7.88391 5.99625 3.42815 14.7197 2.56811 5.13621 1.70806 4.44732 5.99625 -3.93388 2.85123 0.171147 11.609 1.20233 6.1674 -2.39696 0 2.73925 0.86004 4.96506 5.30736 5.13621 2.63985 -5.13621 -0.171147 5.99625 -0.171147 -1.87921 7.7036 -3.43773 0.342294 -5.13621 -0.171147 0 0.00844482 2.73925 0.86004 2.56811 2.56811 0 0 0 2.7477 0 0.198795 5.13621 5.30736 0.171147 -0.171147 -0.171147 0 2.56811 0 0 0 

100 0 200
0 0 0 0 0 0 0 0 0 0 0 0 0 0 0 0 0 0 0 0 0 0 0 0 0 0 0 0 0 0 0 0 0 0 0 0 0 0 0 0 0 0 0 0 0 0 0 0 0 0 0 0 0 0 0 0 0 0 0 0 0 0 0 0 0 0 0 0 0 0 0 0 0 0 0 0 0 0 0 0 0 0 0 0 0 0 0 0 0 0 0 0 0 0 0 0 0 0 0 0 
0 0 0 0 0 0 0 0 0 0 0 0 0 0 0 0 0 0 0 0 5.11332 0 0 0 0 0 0 0 0 0 0 0 0 0 0 0 5.11332 0 0 0 0 0 0 0 0 0 0 0 0 0 0 0 0 0 0 0 0 0 0 0 0 0 0 0 0 0 0 0 0 0 0 0 0 0 0 0 0 0 0 0 0 0 0 0 0 0 0 0 0 0 0 0 0 0 0 0 0 0 0 0 
0 0 0 0 0 0 0 0 0 0 0 0 0 0 0 0 0 0 0 0 0 0 0 0 0 0 0 0 0 0 0 0 0 0 0 0 0 0 0 0 0 0 0 0 0 0 0 0 0 0 0 0 0 0 0 0 0 0 0 0 0 0 0 0 0 0 0 0 0 0 0 0 0 0 0 0 0 0 0 0 0 0 0 0 0 0 0 0 0 0 0 0 0 0 0 0 0 0 0 0 
0 0 0 0 0 0 0 0 0 0 0 0 0 0 0 0 0 0 0.564255 0 0 0 0 0 0 0 0 0 0 0 0 0 0 0 0 0 0 0 0 0 0 0 0 0 0 0 0 0 0 0 0 0 0 0 0 0 0 0 0 0 0 0 0 0.564255 0 0 0 0 0 0 0 0 0 0 0 0 0 0 0 0 0 0 0 0 0 0 0 0 0 0 0 0 0 0 0 0 0 0 0 0 
0 0 0 0 0 0 0 0 0 0 0 0 0 0 0 0 0 0 0 0 0 0 0 0 0 0 0 0 0 0 0 0 0 0 0 0 0 0 0 0 0 0 0 0 0 0 0 0 0 0 0 0 0 0 0 0 0 0 0 0 0 0 0 0 0 0 0 0 0 0 0 0 0 0 0 0 0 0 0 0 0 0 0 0 0 0 0 0 0 0 0 0 0 0 0 0 0 0 0 0 
0 0 0 0 0 0 0 0 0 0 0 0 0 0 0 0 0 0.185463 0 0 0 0.185463 0 0 0 0 0 0 0 0 0 0 0 0 0.185463 0 0 0 0 0 0 0 0 0 0 0 0 0 0 0 0 0 0 0 0 0 0 0 0 0 0 0 0 0 0 0 0 0 0 0 0 0 0 0 0 0 0 0 0 0 0 0 0 0 0 0 0 0 0 0 0 0 0 0 0 0 0 0 0 0 
0 0 0 0 0 0 0 0 0 0 0 0 0 0 0 0 0 0.184936 0 0.184936 0 0 0 0 0 0 0 0 0 0 0 0 0 0 0 0 0 0 0 0.184936 0 0 0 0.184936 0 0 0 0 0 0 0 0 0 0 0 0 0 0 0 0 0 0 0 0 0 0 0 0 0 0 0 0 0 0 0 0 0 0 0 0 0 0 0.184936 0 0 0 0 0 0 0 0 0 0 0 0 0 0 0 0 0 
0 0 0 0 0 0 0 0 0.1938 0 0.265021 0.131321 0.426392 0.3876 1.55914 1.07901 1.91669 1.94674 2.30191 2.04801 0.80525 1.23164 2.98696 1.65023 1.68172 1.35422 2.24181 1.55914 1.37646 2.31303 1.74276 1.54802 1.13037 0.700154 0.458821 1.26407 1.14149 0.947692 0.99905 0.590142 0.41765 0.855163 0.0712211 1.26407 0.284884 0.80287 0.101271 0.478685 0.41765 0.41765 0.917642 0.101271 0.6415 0.876471 0.142442 0.518921 0.0712211 0.41765 0.407463 0.213663 0.22385 0.1938 0.336242 0.295071 0 0.265021 0.265021 0.0712211 0.3876 0.0600995 0.41765 0.0300498 0.265021 0 0.0712211 0.265021 0 0 0 0 0 0.0712211 0 0.1938 0 0 0.3876 0 0 0 0 0 0 0 0 0.1938 0 0.1938 0 0 
0 0 0 0 0 0 0 0 0 0 0 0 0 0 0 0 0 0 0 0 0 0 0 0 0 0 0 0 0 0 0 0 0 0 0 0 0 0 0 0 0 0 0 0 0 0 0 0 0 0 0 0 0 0 0 0 0 0 0 0 0 0 0 0 0 0 0 0 0 0 0 0 0 0 0 0 0 0 0 0 0 0 0 0 0 0 0 0 0 0 0 0 0 0 0 0 0 0 0 0 
0 0 0 0 0 0 0 0 0 0 0 0 2.56811 0 0 3.42815 -2.56811 2.56811 8.56436 2.56811 -2.56811 0 -2.56811 0 5.13621 0.86004 2.56811 1.72008 -2.56811 -2.56811 0 2.56811 2.56811 0 0 0 -0.86004 2.73925 5.13621 4.28819 2.56811 -0.86004 0.86004 0 4.27617 0 5.13621 0.86004 0.171147 2.56811 2.56811 0 0 0 -2.56811 2.56811 0 0 2.39696 0 0 0 0.86004 2.56811 2.56811 -0.171147 0.86004 3.42815 2.56811 2.56811 0 0 0 0 2.56811 0 0 2.56811 0 -0.171147 0 0 0 0 0 0 0 0 0 0.00844482 0 0 0 0 0 0 0 0 0 0 

100 0 200
0 0 0 0 0 0 0 0 0 0 0 0 0 0 0 0 0 0 0 0 0 0 0 0 0 0 0 0 0 0 0 0 0 0 0 0 0 0 0 0 0 0 0 0 0 0 0 0 0 0 0 0 0 0 0 0 0 0 0 0 0 0 0 0 0 0 0 0 0 0 0 0 0 0 0 0 0 0 0 0 0 0 0 0 0 0 0 0 0 0 0 0 0 0 0 0 0 0 0 0 
0 0 0 0 0 0 0 0 0 0 0 0 0 0 0 0 0 0 0 0 0 0 0 0 0 0 0 0 0 0 0 0 0 0 0 0 0 0 0 0 0 0 0 0 0 0 0 0 0 0 0 0 0 0 0 0 0 0 0 0 0 0 0 0 0 0 0 0 0 0 0 0 0 0 0 0 0 0 0 0 0 0 0 0 0 0 0 0 0 0 0 0 0 0 0 0 0 0 0 0 
0 0 0 0 0 0 0 0 0 0 0 0 0 0 0 0 0 0 0 0 0 0 0 0 0 0 0 0 0 0 0 0 0 0 0 0 0 0 0 0 0 0 0 0 0 0 0 0 0 0 0 0 0 0 0 0 0 0 0 0 0 0 0 0 0 0 0 0 0 0 0 0 0 0 0 0 0 0 0 0 0 0 0 0 0 0 0 0 0 0 0 0 0 0 0 0 0 0 0 0 
0 0 0 0 0 0 0 0 0 0 0 0 0 0 0 0 0 0 0 0 0 0 0 0 0 0 0 0 0 0 0 0 0 0 0 0 0 0 0 0 0 0 0 0 0 0 0 0 0 0 0 0 0 0 0 0 0 0 0 0 0 0 0 0 0 0 0 0 0 0 0 0 0 0 0 0 0 0 0 0 0 0 0 0 0 0 0 0 0 0 0 0 0 0 0 0 0 0 0 0 
0 0 0 0 0 0 0 0 0 0 0 0 0 0 0 0 0 0 0 0 0 0 0 0 0 0 0 0 0 0 0 0 0 0 0 0 0 0 0 0 0 0 0 0 0 0 0 0 0 0 0 0 0 0 0 0 0 0 0 0 0 0 0 0 0 0 0 0 0 0 0 0 0 0 0 0 0 0 0 0 0 0 0 0 0 0 0 0 0 0 0 0 0 0 0 0 0 0 0 0 
0 0 0 0 0 0 0 0 0 0 0 0 0 0 0 0 0 0 0 0 0 0 0 0 0 0 0 0 0 0 0 0 0 0 0 0 0 0 0 0 0 0 0 0 0 0 0 0 0 0 0 0 0 0 0 0 0 0 0 0 0 0 0 0 0 0 0 0 0 0 0 0 0 0 0 0 0 0 0 0 0 0 0 0 0 0 0 0 0 0 0 0 0 0 0 0 0 0 0 0 
0 0 0 0 0 0 0 0 0 0 0 0 0 0 0 0 0 0 0 0 0 0 0 0 0 0 0 0 0 0 0 0 0 0 0 0 0 0 0 0 0 0 0 0 0 0 0 0 0 0 0 0 0 0 0 0 0 0 0 0 0 0 0 0 0 0 0 0 0 0 0 0 0 0 0 0 0 0 0 0 0 0 0 0 0 0 0 0 0 0 0 0 0 0 0 0 0 0 0 0 
0 0 0 0 0 0 0 0 0 0 0 0.1938 0.1938 0.265021 0.1938 0.682671 0.5814 0.652621 0.265021 0.41765 0.682671 0 0.22385 0.0712211 0.5814 0.458821 0.3876 0.61145 0.5814 0.101271 0 0.3876 0.5814 0.1938 0.295071 0 0.0712211 0.3876 0 0.265021 0.3876 0.265021 0 0.265021 0.265021 0.1938 0.0712211 0.3876 0 0 0 0.1938 0 0.0712211 0.22385 0.1938 0.0300498 0.1938 0.1938 0.1938 0 0 0 0.1938 0.1938 0.0300498 0 0 0.1938 0 0 0 0 0 0 0 0 0 0 0 0 0.0712211 0.0712211 0 0.1938 0 0 0 0 0 0 0 0.0712211 0 0 0 0 0 0 0 
0 0 0 0 0 0 0 0 0 0 0 0 0 0 0 0 0 0 0 0 0 0 0 0 0 0 0 0 0 0 0 0 0 0 0 0 0 0 0 0 0 0 0 0 0 0 0 0 0 0 0 0 0 0 0 0 0 0 0 0 0 0 0 0 0 0 0 0 0 0 0 0 0 0 0 0 0 0 0 0 0 0 0 0 0 0 0 0 0 0 0 0 0 0 0 0 0 0 0 0 
0 0 0 0 0 0 0 0 0 0 0 0 0 0 0 0 0 2.56811 0 0 0 0 0 -5.13621 2.56811 0 0 0 0 0 0 0 0 0 -2.56811 -0.171147 0 0 -0.86004 0 0 0 0 0 0 0 0 0 2.56811 0 0 0 0 0 0 0 0 0 0 0 0 0 0 -2.56811 0 0 0 0 0 0 0 0 0 0 0 0 0 0 0 0 0 0 0 0 0 0 0 0 0 0 0 0 0 0 0 0 0 0 0 0 

100 0 200
0 0 0 0 0 0 0 0 0 0 0 0 0 0 0 0 0 0 0 0 0 0 0 0 0 0 0 0 0 0 0 0 0 0 0 0 0 0 0 0 0 0 0 0 0 0 0 0 0 0 0 0 0 0 0 0 0 0 0 0 0 0 0 0 0 0 0 0 0 0 0 0 0 0 0 0 0 0 0 0 0 0 0 0 0 0 0 0 0 0 0 0 0 0 0 0 0 0 0 0 
0 0 0 0 0 0 0 0 0 0 0 0 0 0 0 0 0 0 0 0 0 0 0 0 0 0 0 0 0 0 0 0 0 0 0 0 0 0 0 0 0 0 0 0 0 0 0 0 0 0 0 0 0 0 0 0 0 0 0 0 0 0 0 0 0 0 0 0 0 0 0 0 0 0 0 0 0 0 0 0 0 0 0 0 0 0 0 0 0 0 0 0 0 0 0 0 0 0 0 0 
0 0 0 0 0 0 0 0 0 0 0 0 0 0 0 0 0 0 0 0 0 0 0 0 0 0 0 0 0 0 0 0 0 0 0 0 0 0 0 0 0 0 0 0 0 0 0 0 0 0 0 0 0 0 0 0 0 0 0 0 0 0 0 0 0 0 0 0 0 0 0 0 0 0 0 0 0 0 0 0 0 0 0 0 0 0 0 0 0 0 0 0 0 0 0 0 0 0 0 0 
0 0 0 0 0 0 0 0 0 0 0 0 0 0 0 0 0 0 0 0 0 0 0 0 0 0 0 0 0 0 0 0 0 0 0 0 0 0 0 0 0 0 0 0 0 0 0 0 0 0 0 0 0 0 0 0 0 0 0 0 0 0 0 0 0 0 0 0 0 0 0 0 0 0 0 0 0 0 0 0 0 0 0 0 0 0 0 0 0 0 0 0 0 0 0 0 0 0 0 0 
0 0 0 0 0 0 0 0 0 0 0 0 0 0 0 0 0 0 0 0 0 0 0 0 0 0 0 0 0 0 0 0 0 0 0 0 0 0 0 0 0 0 0 0 0 0 0 0 0 0 0 0 0 0 0 0 0 0 0 0 0 0 0 0 0 0 0 0 0 0 0 0 0 0 0 0 0 0 0 0 0 0 0 0 0 0 0 0 0 0 0 0 0 0 0 0 0 0 0 0 
0 0 0 0 0 0 0 0 0 0 0 0 0 0 0 0 0 0 0 0 0 0 0 0 0 0 0 0 0 0 0 0 0 0 0 0 0 0 0 0 0 0 0 0 0 0 0 0 0 0 0 0 0 0 0 0 0 0 0 0 0 0 0 0 0 0 0 0 0 0 0 0 0 0 0 0 0 0 0 0 0 0 0 0 0 0 0 0 0 0 0 0 0 0 0 0 0 0 0 0 
0 0 0 0 0 0 0 0 0 0 0 0 0 0 0 0 0 0 0 0 0 0 0 0 0 0 0 0 0 0 0 0 0 0 0 0 0 0 0 0 0 0 0 0 0 0 0 0 0 0 0 0 0 0 0 0 0 0 0 0 0 0 0 0 0 0 0 0 0 0 0 0 0 0 0 0 0 0 0 0 0 0 0 0 0 0 0 0 0 0 0 0 0 0 0 0 0 0 0 0 
0 0 0 0 0 0 0 0 0 0 0 0 0 0 0.22385 0 0.0300498 0.1938 0.1938 0.1938 0 0.0300498 0 0 0 0.1938 0 0 0 0 0.3876 0 0.1938 0.0712211 0 0 0 0 0 0 0 0 0 0.0712211 0 0.0300498 0 0 0 0 0 0 0 0 0 0 0 0 0 0 0 0 0.1938 0 0 0 0 0 0 0 0 0 0 0 0 0 0 0 0 0 0 0 0 0 0 0 0 0 0 0 0 0 0 0 0 0 0 0 0 0 
0 0 0 0 0 0 0 0 0 0 0 0 0 0 0 0 0 0 0 0 0 0 0 0 0 0 0 0 0 0 0 0 0 0 0 0 0 0 0 0 0 0 0 0 0 0 0 0 0 0 0 0 0 0 0 0 0 0 0 0 0 0 0 0 0 0 0 0 0 0 0 0 0 0 0 0 0 0 0 0 0 0 0 0 0 0 0 0 0 0 0 0 0 0 0 0 0 0 0 0 
0 0 0 0 0 0 0 0 0 0 0 0 0 0 0 0 0 0 0 0 0 0 0 0 0 0 0 0 0 0 0 0 0 0 0 0 0 0 0 0 0 0 0 0 0 0 0 0 0 0 0 0 0 0 0 0 0 0 0 0 0 0 0 0 0 0 0 0 0 0 0 0 0 0 0 0 0 0 0 0 0 0 0 0 0 0 0 0 0 0 0 0 0 0 0 0 0 0 0 0 

100 0 200
0 0 0 0 0 0 0 0 0 0 0 0 0 0 0 0 0 0 0 0 0 0 0 0 0 0 0 0 0 0 0 0 0 0 0 0 0 0 0 0 0 0 0 0 0 0 0 0 0 0 0 0 0 0 0 0 0 0 0 0 0 0 0 0 0 0 0 0 0 0 0 0 0 0 0 0 0 0 0 0 0 0 0 0 0 0 0 0 0 0 0 0 0 0 0 0 0 0 0 0 
0 0 0 0 0 0 0 0 0 0 0 0 0 0 0 0 0 0 0 0 0 0 0 0 0 0 0 0 0 0 0 0 0 0 0 0 0 0 0 0 0 0 0 0 0 0 0 0 0 0 0 0 0 0 0 0 0 0 0 0 0 0 0 0 0 0 0 0 0 0 0 0 0 0 0 0 0 0 0 0 0 0 0 0 0 0 0 0 0 0 0 0 0 0 0 0 0 0 0 0 
0 0 0 0 0 0 0 0 0 0 0 0 0 0 0 0 0 0 0 0 0 0 0 0 0 0 0 0 0 0 0 0 0 0 0 0 0 0 0 0 0 0 0 0 0 0 0 0 0 0 0 0 0 0 0 0 0 0 0 0 0 0 0 0 0 0 0 0 0 0 0 0 0 0 0 0 0 0 0 0 0 0 0 0 0 0 0 0 0 0 0 0 0 0 0 0 0 0 0 0 
0 0 0 0 0 0 0 0 0 0 0 0 0 0 0 0 0 0 0 0 0 0 0 0 0 0 0 0 0 0 0 0 0 0 0 0 0 0 0 0 0 0 0 0 0 0 0 0 0 0 0 0 0 0 0 0 0 0 0 0 0 0 0 0 0 0 0 0 0 0 0 0 0 0 0 0 0 0 0 0 0 0 0 0 0 0 0 0 0 0 0 0 0 0 0 0 0 0 0 0 
0 0 0 0 0 0 0 0 0 0 0 0 0 0 0 0 0 0 0 0 0 0 0 0 0 0 0 0 0 0 0 0 0 0 0 0 0 0 0 0 0 0 0 0 0 0 0 0 0 0 0 0 0 0 0 0 0 0 0 0 0 0 0 0 0 0 0 0 0 0 0 0 0 0 0 0 0 0 0 0 0 0 0 0 0 0 0 0 0 0 0 0 0 0 0 0 0 0 0 0 
0 0 0 0 0 0 0 0 0 0 0 0 0 0 0 0 0 0 0 0 0 0 0 0 0 0 0 0 0 0 0 0 0 0 0 0 0 0 0 0 0 0 0 0 0 0 0 0 0 0 0 0 0 0 0 0 0 0 0 0 0 0 0 0 0 0 0 0 0 0 0 0 0 0 0 0 0 0 0 0 0 0 0 0 0 0 0 0 0 0 0 0 0 0 0 0 0 0 0 0 
0 0 0 0 0 0 0 0 0 0 0 0 0 0 0 0 0 0 0 0 0 0 0 0 0 0 0 0 0 0 0 0 0 0 0 0 0 0 0 0 0 0 0 0 0 0 0 0 0 0 0 0 0 0 0 0 0 0 0 0 0 0 0 0 0 0 0 0 0 0 0 0 0 0 0 0 0 0 0 0 0 0 0 0 0 0 0 0 0 0 0 0 0 0 0 0 0 0 0 0 
0 0 0 0 0 0 0 0 0 0 0 0 0 0 0 0 0.1938 0.1938 0 0 0 0 0 0 0 0 0 0 0 0 0 0 0 0 0 0 0 0 0 0 0 0 0 0 0 0 0 0 0 0 0 0 0 0 0 0 0 0 0 0 0 0 0 0 0 0 0 0 0 0 0 0 0 0 0 0 0 0 0 0 0 0 0 0 0 0 0 0 0 0 0 0 0 0 0 0 0 0 0 0 
0 0 0 0 0 0 0 0 0 0 0 0 0 0 0 0 0 0 0 0 0 0 0 0 0 0 0 0 0 0 0 0 0 0 0 0 0 0 0 0 0 0 0 0 0 0 0 0 0 0 0 0 0 0 0 0 0 0 0 0 0 0 0 0 0 0 0 0 0 0 0 0 0 0 0 0 0 0 0 0 0 0 0 0 0 0 0 0 0 0 0 0 0 0 0 0 0 0 0 0 
0 0 0 0 0 0 0 0 0 0 0 0 0 0 0 0 0 0 0 0 0 0 0 0 0 0 0 0 0 0 0 0 0 0 0 0 0 0 0 0 0 0 0 0 0 0 0 0 0 0 0 0 0 0 0 0 0 0 0 0 0 0 0 0 0 0 0 0 0 0 0 0 0 0 0 0 0 0 0 0 0 0 0 0 0 0 0 0 0 0 0 0 0 0 0 0 0 0 0 0 
