1
Muon_
m_{#mu#mu} [GeV/c^{2}]
InvM_just_phot
3
3
3
10
QCD W + Jets WW WZ ZZ #bar{t}W tW t#bar{t} Drell Yan #rightarrow #tau#tau Drell Yan #rightarrow #mu#mu 
_1000
985
15 16 17 18 19 20 21 22 23 24 25 26 27 28 29 30 31 32 33 34 35 36 37 38 39 40 41 42 43 44 45 46 47 48 49 50 51 52 53 54 55 56 57 58 59 60 61 62 63 64 65 66 67 68 69 70 71 72 73 74 75 76 77 78 79 80 81 82 83 84 85 86 87 88 89 90 91 92 93 94 95 96 97 98 99 100 101 102 103 104 105 106 107 108 109 110 111 112 113 114 115 116 117 118 119 120 121 122 123 124 125 126 127 128 129 130 131 132 133 134 135 136 137 138 139 140 141 142 143 144 145 146 147 148 149 150 151 152 153 154 155 156 157 158 159 160 161 162 163 164 165 166 167 168 169 170 171 172 173 174 175 176 177 178 179 180 181 182 183 184 185 186 187 188 189 190 191 192 193 194 195 196 197 198 199 200 201 202 203 204 205 206 207 208 209 210 211 212 213 214 215 216 217 218 219 220 221 222 223 224 225 226 227 228 229 230 231 232 233 234 235 236 237 238 239 240 241 242 243 244 245 246 247 248 249 250 251 252 253 254 255 256 257 258 259 260 261 262 263 264 265 266 267 268 269 270 271 272 273 274 275 276 277 278 279 280 281 282 283 284 285 286 287 288 289 290 291 292 293 294 295 296 297 298 299 300 301 302 303 304 305 306 307 308 309 310 311 312 313 314 315 316 317 318 319 320 321 322 323 324 325 326 327 328 329 330 331 332 333 334 335 336 337 338 339 340 341 342 343 344 345 346 347 348 349 350 351 352 353 354 355 356 357 358 359 360 361 362 363 364 365 366 367 368 369 370 371 372 373 374 375 376 377 378 379 380 381 382 383 384 385 386 387 388 389 390 391 392 393 394 395 396 397 398 399 400 401 402 403 404 405 406 407 408 409 410 411 412 413 414 415 416 417 418 419 420 421 422 423 424 425 426 427 428 429 430 431 432 433 434 435 436 437 438 439 440 441 442 443 444 445 446 447 448 449 450 451 452 453 454 455 456 457 458 459 460 461 462 463 464 465 466 467 468 469 470 471 472 473 474 475 476 477 478 479 480 481 482 483 484 485 486 487 488 489 490 491 492 493 494 495 496 497 498 499 500 501 502 503 504 505 506 507 508 509 510 511 512 513 514 515 516 517 518 519 520 521 522 523 524 525 526 527 528 529 530 531 532 533 534 535 536 537 538 539 540 541 542 543 544 545 546 547 548 549 550 551 552 553 554 555 556 557 558 559 560 561 562 563 564 565 566 567 568 569 570 571 572 573 574 575 576 577 578 579 580 581 582 583 584 585 586 587 588 589 590 591 592 593 594 595 596 597 598 599 600 601 602 603 604 605 606 607 608 609 610 611 612 613 614 615 616 617 618 619 620 621 622 623 624 625 626 627 628 629 630 631 632 633 634 635 636 637 638 639 640 641 642 643 644 645 646 647 648 649 650 651 652 653 654 655 656 657 658 659 660 661 662 663 664 665 666 667 668 669 670 671 672 673 674 675 676 677 678 679 680 681 682 683 684 685 686 687 688 689 690 691 692 693 694 695 696 697 698 699 700 701 702 703 704 705 706 707 708 709 710 711 712 713 714 715 716 717 718 719 720 721 722 723 724 725 726 727 728 729 730 731 732 733 734 735 736 737 738 739 740 741 742 743 744 745 746 747 748 749 750 751 752 753 754 755 756 757 758 759 760 761 762 763 764 765 766 767 768 769 770 771 772 773 774 775 776 777 778 779 780 781 782 783 784 785 786 787 788 789 790 791 792 793 794 795 796 797 798 799 800 801 802 803 804 805 806 807 808 809 810 811 812 813 814 815 816 817 818 819 820 821 822 823 824 825 826 827 828 829 830 831 832 833 834 835 836 837 838 839 840 841 842 843 844 845 846 847 848 849 850 851 852 853 854 855 856 857 858 859 860 861 862 863 864 865 866 867 868 869 870 871 872 873 874 875 876 877 878 879 880 881 882 883 884 885 886 887 888 889 890 891 892 893 894 895 896 897 898 899 900 901 902 903 904 905 906 907 908 909 910 911 912 913 914 915 916 917 918 919 920 921 922 923 924 925 926 927 928 929 930 931 932 933 934 935 936 937 938 939 940 941 942 943 944 945 946 947 948 949 950 951 952 953 954 955 956 957 958 959 960 961 962 963 964 965 966 967 968 969 970 971 972 973 974 975 976 977 978 979 980 981 982 983 984 985 986 987 988 989 990 991 992 993 994 995 996 997 998 999 
104.644 0 0 0 0 0 0 0 0 0 0 0.186 0 0 0 0 0 0 0 0 3.55035 0 0 0 0 0 0 0 0 0 0 0 0 0 0 0 0 0 0 0 0 0 0 0 0.00723985 0 6.73289e-06 0 0 0 0 0 0 141.722 0 0 0 0 0 0 0 0 0 0 0 0 0 0 0 0 0 0 0 0 0 5.32439 0 0 0 0 0 0 0 0 0 0 0 0 0 0 0 0 0 0 0 0 0 0 0 0 0 0 0 0 0 0 0 0 0 0 0 0 0 0 0 0 0 0 0 0 0 0 0 0 0 0 0 0 0 0 0 0 0 0 0 0 0 0 0 0 0 0 0 0 0 0 0 0 0 0 0 0 0 0 0 0 0 0 0 0 0 0 0 0 0 0 0 0 0 0 0 0 0 0 0 0 0 0 0 0 0 0 0 0 0 0 0 0 0 0 0 0 0 0 0 0 0 0 0 0 0 0 0 0 0 0 0 0 0 0 0 0 0 0 0 0 0 0 0 0 0 0 0 0 0 0 0 0 0 0 0 0 0 0 0 0 0 0 0 0 0 0 0 0 0 0 0 0 0 0 0 0 0 0 0 0 0 0 0 0 0 0 0 0 0 0 0 0 0 0 0 0 0 0 0 0 0 0 0 0 0 0 0 0 0 0 0 0 0 0 0 0 0 0 0 0 0 0 0 0 0 0 0 0 0 0 0 0 0 0.810546 0 0 0 0 0 0 0 0 0 0 0 0 0 0.0403373 0 0 0 0 0 0 0 0 0 0 0 0 0 0 0 0 0 0 0 0 0 0 0 0 0 0 0 0 0 0 0 0 0 0 0 0 0 0 0 0 0 0 0 0 0 0 0 0 0 0 0 0 0 0 0 0 0 0 0 0 0 0 0 0 0 0 0 0 0 0 0 0 0 0 0 0 0 0 0 0 0 0 0 0 0 0 0 0 0 0 0 0 0 0 0 0 0 0 0 0 0 0 0 0 0 0 0 0 0 0 0 0 0 0 0 0 0 0 0 0 0 0 0 0 0 0 0 0 0 0 0 0 0 0 0 0 0 0 0 0 0 0 0 0 0 0 0 0 0 0 0 0 0 0 0 0 0 0 0 0 0 0 0 0 0 0 0 0 0 0 0 0 0 0 0 0 0 0 0 0 0 0 0 0 0 0 0 0 0 0 0 0 0 0 0 0 0 0 0 0 0 0 0 0 0 0 0 0 0 0 0 0 0 0 0 0 0 0 0 0 0 0 0 0 0 0 0 0 0 0 0 0 0 0 0 0 0 0 0 0 0 0 0 0 0 0 0 0 0 0 0 0 0 0 0 0 0 0 0 0 0 0 0 0 0.0430997 0 0 0 0 0 0 0 0 0 0 0 0 0 0 0 0 0 0 0 0 0 0 0 0 0 0 0 0 0 0 0 0 0 0 0 0 0 0 0 0 0 0 0 0 0 0 0 0 0 0 0 0 0 0 0 0 0 0 0 0 0 0 0 0 0 0 0 0 0 0 0 0 0 0 0 0 0 0 0 0 0 0 0 0 0 0 0 0 0 0 0 0 0 0 0 0 0 0 0 0 0 0 0 0 0 0 0 0 0 0 0 0 0 0 0 0 0 0 0 0 0 0 0 0 0 0 0 0 0 0 0 0 0 0 0 0 0 0 0 0 0 0 0 0 0 0 0 0 0 0 0 0 0 0 0 0 0 0 0 0 0 0 0 0 0 0 0 0 0 0 0 0 0 0 0 0 0 0 0 0 0 0 0 0 0 0 0 0 0 0 0 0 0 0 0 0 0 0 0 0 0 0 0 0 0 0 0 0 0 0 0 0 0 0 0 0 0 0 0 0 0 0 0 0 0 0 0 0 0 0 0 0 0 0 0 0 0 0 0 0 0 0 0 0 0 0 0 0 0 0 0 0 0 0 0 0 0 0 0 0 0 0 0 0 0 0 0 0 0 0 0 0 0 0 0 0 0 0 0 0 0 0 0 0 0 0 0 0 0 0 0 0 0 0 0 0 0 0 0 0 0 0 0 0 0 0 0 0 0 0 0 0 0 0 0 0 0 0 0 0 0 0 0 0 0 0 0 0 0 0 0 0 0 0 0 0 0 0 0 0 0 0 0 0 0 0 0 0 0 0 0 0 0 0 0 0 0 0 0 0 0 0 0 0 0 0 0 0 0 0 0 0 0 0 0 0 0 0 0 0 0 0 0 0 0 0 0 0 0 0 0 0 0 0 0 
11.885 0 9.86987 -9.42847 0 0 0 10.5621 -7.08183 0 0 5.8383 4.33592 5.18112 -4.51277 4.53678 4.79074 2.85255 -9.62815 9.15223 0 7.73976 0 0 -3.88059 -3.46498 -5.10095 0 4.41206 5.31572 11.1801 1.50897 5.80049 4.43972 8.09153 0 -10.2632 6.30423 4.71693 13.6449 -6.24789 0.406288 7.10587 -16.2819 4.30891 15.8383 1.20294 0 -0.238109 17.7254 0 6.58836 2.416 12.5506 10.5179 -7.38517 1.28497 15.8034 5.73485 7.60533 8.53083 -5.8025 -5.14682 14.4338 -9.24972 0.36976 8.99844 -4.1395 10.3412 6.4851 26.679 19.6522 0 -7.50253 17.5218 3.15949 0 0 -7.98351 8.03087 0.0507886 0 9.09107 6.64799 -6.43027 12.6512 -5.53116 2.3021 1.77074 -5.42766 5.77976 9.58337 5.08778 -11.2018 6.64798 9.81546 3.99166 5.90865 -1.6088 5.9462 1.50912 -3.73903 -3.7282 6.06716 5.03795 0 0 -4.82488 -5.17744 -5.20643 6.73829 0.629881 2.83171 19.9642 12.1776 0 0 0 0 8.43356 0 7.15961 -0.459437 -2.00809 -5.2207 0 0 0 0 -1.63056 0 0 0 0 2.85709 5.93702 -1.6439 6.79117 0 -3.24001 0 -7.04784 0 0 0 0 -4.85443 0 3.48434 0 0 0 0 0 -7.23775 -0.511232 0 9.42688 0 -6.59823 0 0 -0.0243467 4.18719 0 0 0 0 0 0 0 0 0 0 9.81532 0 0 0 0 6.291 0 0 0 0 0 -7.17976 5.15225 0 6.49067 0 0 0 0 0 0 0 0 0 0 -4.11641 0 0 0 5.02948 0 0 0 0 0 0 0 0 0 0 5.76489 0 0 0 0 0 0 0 0 0 3.75296 5.05462 0 0 0 0 0 0 0 0 0 0 0 0 0 0 0 0 8.53597 0 0 0 0 0 0 0 0 0 0 0 0 0 0 0 0 0 0 0 -4.7844 0 0 0 0 7.92828 0 0 8.48551 0 12.4365 0 0 0 0 0 5.05286 0 0 0 0 0 0 0 0 0 0 0 0 0 0 0 0 0 0 0 0 0 0 0 0 0 0 0 0 0 0 0 0 0 0 0 0 0 0 0 0 0 0 0 0 0 0 0 0 0 0 0 0 0 0 0 0 0 0 0 0 0 0 0 0 0 0 0 0 0 0 0 0 0 0 0 0 0 0 0 0 0 0 0 0 0 0 0 0 0 0 0 0 0 0 0 6.77823 0 0 0 0 0 0 0 0 0 0 0 0 0 0 0 0 0 0 0 0 0 0 0 0 0 0 0 0 0 0 0 0 0 0 0 0 0 0 0 0 0 0 0 0 0 0 0 0 0 0 0 0 0 0 0 0 0 0 0 0 0 0 0 0 0 0 0 0 0 0 0 0 0 0.0472335 0 0 0 0 0 0 0 0 0 0 0 0 0 0 0 0 0 0 0 0 0 0 0 0 0 0 0 0 0 0 0 0 0 0 0 0 0 0 0 0 0 0 0 0 0 0 0 0 0 0 0 0 0 0 0 0 0 0 0 0 0 0 0 0 0 0 0 0 0 0 0 0 0 0 0 0 0 0 0 0 0 0 0 0 0 0 0 0 0 0 0 0 0 0 0 0 0 0 0 0 0 0 0 0 0 0 0 0 0 0 0 0 0 0 0 0 0 0 0 0 0 0 0 0 0 0 0 0 0 0 0 0 0 0 0 0 0 0 0 0 0 0 0 0 0 0 0 0 0 0 0 0 0 0 0 0 0 0 0 0 0 0 0 0 0 0 0 0 0 0 0 0 0 0 0 0 0 0 0 0 0 0 0 0 0 0 0 0 0 0 0 0 0 0 0 0 0 0 0 0 0 0 0 0 0 0 0 0 0 0 0 0 0 0 0 0 0 0 0 0 0 0 0 0 0 0 0 0 0 0 0 0 0 0 0 0 0 0 0 0 0 0 0 0 0 0 0 0 0 0 0 0 0 0 0 0 0 0 0 0 0 0 0 0 0 0 0 0 0 0 0 0 0 0 0 0 0 0 0 0 0 0 0 0 0 0 0 0 0 0 0 0 0 0 0 0 0 0 0 0 0 0 0 0 0 0 0 0 0 0 0 0 0 0 0 0 0 0 0 0 0 0 0 0 0 0 0 0 0 0 0 0 0 0 0 0 0 0 0 0 0 0 0 0 0 0 0 0 0 0 0 0 0 0 0 0 0 0 0 0 0 0 0 0 0 0 0 0 0 0 0 0 0 0 0 0 0 0 0 0 0 0 0 0 0 0 0 0 0 0 0 0 0 0 0 0 0 0 0 0 0 0 0 0 0 0 0 0 0 0 0 0 0 0 0 0 0 0 0 0 0 0 0 0 0 0 0 0 0 0 0 0 0 0 0 0 0 0 0 0 0 0 0 0 0 0 0 0 0 0 0 0 0 0 0 0 0 0 0 0 0 0 0 0 0 0 0 0 0 0 0 0 0 0 0 0 0 0 0 0 0 0 0 0 0 0 0 0 0 0 0 0 0 0 0 0 0 0 0 0 0 0 0 0 0 0 0 0 0 0 0 0 0 0 0 0 0 0 0 0 0 0 0 0 0 0 0 0 0 0 0 0 0 0 0 
18.3206 4.21196 6.90515 3.26093 6.26705 3.96721 6.4377 4.95135 5.4193 4.7383 4.02924 3.87196 6.15241 6.77213 5.38666 5.30987 7.63292 10.6673 6.62189 9.56483 9.2822 12.4087 8.83653 11.0159 10.7164 11.0387 13.8039 10.8953 6.86642 11.5721 12.8564 12.1164 11.5119 12.6393 12.3858 18.4399 17.8078 13.3026 18.4489 21.6632 17.5346 19.3551 14.5507 19.1501 18.9587 18.5852 23.7363 16.0707 22.6022 17.5282 19.2664 17.1561 21.1768 20.1193 23.2872 27.2275 18.5604 16.6449 22.4995 18.1958 20.6766 22.6718 19.403 25.2631 28.0916 23.4414 15.6349 26.0525 27.8663 21.978 15.447 20.4802 19.4653 17.3716 15.1133 16.4913 15.1422 15.1003 17.4006 11.9052 14.356 12.2217 14.0525 14.9245 17.4198 9.79684 17.7249 16.8446 16.9558 11.0201 14.2834 14.5034 11.4564 17.8826 17.7972 18.3307 15.5254 8.81691 19.509 9.02113 12.8853 13.0926 16.9242 12.4302 11.5825 12.123 13.2765 11.5209 10.2291 8.20997 9.86818 10.7356 9.60011 11.9913 7.18022 9.75644 11.9413 14.1817 8.39188 7.07929 10.7893 7.10913 7.56167 7.1257 8.25344 11.8378 13.7532 12.7082 5.77834 6.45742 7.05222 6.72357 10.7919 5.76408 7.78545 6.7704 7.24869 10.288 6.5829 11.6944 6.63364 8.70202 9.31427 8.15834 8.21417 5.0534 3.0026 9.12879 7.85656 9.67788 6.11684 2.42896 4.06579 4.68256 6.46104 5.99783 4.80672 8.14212 6.4136 7.06814 5.96364 7.1339 4.58084 7.82159 2.5411 6.53863 8.22162 8.94969 5.22062 6.66535 8.26319 3.69582 6.48083 1.64144 3.16603 3.5863 3.03175 6.41597 4.99262 3.06561 7.97276 0.801444 5.1578 4.78861 0.870007 5.12861 4.29523 4.1246 3.39911 5.72759 7.25255 3.99326 6.30188 3.73663 0.824833 4.95099 2.56691 6.87866 7.25894 3.45149 4.11543 2.99187 0.923382 1.81935 2.37023 2.16535 5.51845 6.29424 4.1402 3.60589 6.08674 2.0747 1.67849 3.83038 0.757997 4.20966 4.03785 3.74887 1.60034 1.95962 2.57414 2.74851 5.36949 2.41658 2.19795 0.730189 3.44167 3.31733 2.12853 0.498923 3.56628 1.61208 0.807599 1.40888 1.41144 2.01518 0.604164 2.32233 3.48256 2.43455 1.4024 0.871469 1.28335 2.83047 1.86209 1.69553 1.14221 1.93078 5.16118 1.15252 0.742024 2.20467 3.02936 1.17651 0 1.96198 2.82969 3.38375 0.690086 1.32919 1.21647 4.36018 2.12261 1.90007 1.62594 2.70713 1.94369 1.33846 0.646531 0.506202 0.80884 1.49708 1.5374 0.632548 2.02314 2.32773 1.99115 3.17547 1.40856 0.645652 0.985839 0 1.16175 1.13585 2.37522 1.49247 0.97772 0 0.62325 0 2.49706 0.70225 0.629579 1.10212 0.0774556 1.93202 0.539432 0 1.67787 1.86838 0.596338 0 0.76205 0 1.38738 0.932516 1.79428 1.33055 1.12138 1.0839 1.49354 1.47748 0.711311 0 0.605664 0.468134 0.018038 1.67249 1.34393 1.22591 0 0 1.88681 1.26815 1.65095 0.772699 0.625712 0.149963 1.00637 0 2.37587 0.00143996 0 1.36878 1.85238 1.19095 0.494925 1.4669 0.235114 2.00054 0.649874 2.22897 1.32875 0 2.35647 1.03066 0 1.00593 0 0.676689 0 0 0 0 0 0 0.000117901 0 1.65195 1.16197 0 0.623467 0 1.0247 0.583736 0 0 0 0.5016 1.20357 0 0 0 1.62332 0.548206 0 0.756446 0 0.941951 0 0 0 1.11777 0 1.01275 0.683427 0.0101913 1.08023 0.0101008 0.565286 1.89862 0 0.557092 2.03656 0 0 0 0.627079 0 1.00431 0 0 0.537844 0.00563353 1.61891 0 0 0.0289015 0 0.606726 0.437549 0.583776 0 1.41406 0.500794 1.33286 0.650299 0.649986 0.745181 1.60596 0.608038 3.25941 0 0 0.537952 1.01002 0 1.34367 0 0 0 0 0 0 0 0 0.000117906 0 0.640747 0 0 0 0 0 0 0 0 0 0 0 0 0.431348 0 0 0 0.626666 0 0 0 0 0 0 0.196353 0.144652 0.952729 2.62086 0.385836 0 0.246686 0 0 0 0 0 0 0 0.585168 0 0 0 0 0 0 1.00063 0 0 0.808199 0.00541422 0 0 0 0 0 0 0.544212 1.03965 0 0 0.867125 0 0.808204 0 0 0 0 0 0 0 0 0 1.51345 0 0 0 0 0 0 0 0 0.00550265 0 0 0 0 0 0.675046 0 0.248309 0.390429 0 0 0 0 0.345459 0 0.93277 0.513281 0.58064 0 1.46164 0 0 0 0 0 0 0 0 0 0.548036 0 0 0 0 0 0.512659 0 0 0 0 0 0 0 0 0.779078 0 0 0 0 0 0.603572 0.520893 0 0 0 0 0.00145045 0 0 0 0 0 0.852735 0 0.586685 0 0 0 0.0759576 0.640536 0 0.506187 0 0 0.461136 0 0 1.00432 0 0 0 0.587394 0 0 0.526846 0 0 0 0 0 0 0 0 0 0 0 0 0 0 0.80728 0 0 0 0 0 0.44853 0 0 0.556508 0 0 0 0 0 0 0 0 0 0 0 0 0 0 0 0 0 0 0 0 0 0 0 0 0 0 0 0 1.01829 0 0 0 0 0.716491 0 0 0 0 0 0 0 0.684241 0 0 0 0 0.82956 0 0 0 0 0 0 0.584849 0 0 0 0 0.347386 0 0 0 0 0.0746631 0.000117159 0 0 0 0 0 0.560188 0 0.71675 0 0 0 0 0 0 0 0 0 0 0 0 0 0 0 0 0 0 0 0 0 0 0 0 0 0 0 0 0 0 0 0 0 0.375841 0 0 0 0 0 0 0 0 0.583232 0 0 0 0 0 0 0 0 0 0 0 0.547115 0 0 0 0 0.467343 0 0 0 0 0 0 0 0 0 0 0 0 0 0 0 0 0 0 0 0 0 0 0 0 0 0 0 0 0 0 0 0 0 0 0 0 0.86953 0 0 0 0 0 0 0 0 0 0 0 0 0.863865 0 0 0 0 0 0 0 0 0 0 0 0.977114 0 0 0 0 0 0 0 0 0 0 0 0 0 0 0 0.560124 0 0 0 0.938516 0 0 0 0 0 0 0 0 0.676259 0 0 0 0 0.566759 0 0 0 0 0 0 0 0 0 0 0 0 0 0 0 0 0 0 0 0 0 0 0 0 0 0 0 0 0 0 0 0 0 0 0 0 0 0 0 0 0 0 0 0 0 0 1.03471 0 0 0 0 0 0 0 0 0 0 0 0 0 0 0 0 0 0 0 0 0.623758 0 0 0 0 0 0 0 0 0.546747 0 0 0 0 0 0 0 0 0 0 0 0 0 0 0 0 0 0 0 0 0 0 0 0 0 0 0 0 0 0 0 0 0 0 0 0 0 0 0 0 0 0 0 0 0 0 0 0 0 
1.01852 1.02777 1.05729 0.0445838 0 0.639858 0.979707 1.13721 0.553927 1.21293 1.80513 0.620132 1.10038 0.428456 0.525896 3.83362 1.32938 0.741861 3.20872 0 0.915276 1.2317 2.98406 2.543 2.88641 3.99859 4.20698 5.23943 4.93749 3.08999 6.41581 4.61799 7.33476 6.65992 5.57894 8.34238 6.13455 5.54835 8.76275 8.30351 10.1451 4.9134 11.1424 10.2719 16.8843 14.2939 10.0202 12.535 10.3006 18.9543 20.3405 16.7834 21.4397 20.6668 14.7252 22.3826 22.8566 35.5778 31.6942 33.5223 26.6321 35.3182 42.0526 49.0235 50.3131 55.834 55.6272 65.6983 84.5514 93.1363 142.514 183.733 276.23 389.67 585.695 890.243 1231.75 1226.61 930.468 625.916 331.021 245.653 150.177 111.57 72.6765 50.6146 50.3322 37.5522 30.8324 24.2964 22.4399 24.0446 26.2511 20.9749 13.8394 18.1473 14.7902 15.4014 14.2618 8.7278 9.37807 7.33644 6.42758 6.27121 8.0339 8.18461 7.82461 6.40608 4.66453 1.61227 4.8908 4.55311 6.97304 0.868138 5.62456 5.97251 5.44049 3.10975 1.78511 3.83413 3.3156 1.76624 2.27386 6.03977 2.86165 1.85259 3.73338 2.33958 2.68628 0.661277 3.22271 1.30011 1.33719 2.08696 0.973913 3.07969 0.48514 0.63101 2.6764 2.48574 2.337 2.59317 4.12463 3.80302 3.95848 1.84523 3.19529 0.865205 2.91757 1.2855 2.72705 1.08151 1.43352 0.62268 1.91887 2.20662 1.04632 0.807241 2.66921 1.12777 0.653733 0 2.29014 2.05317 1.09528 0.153794 1.45208 2.91167 1.75586 1.41168 2.87447 1.03374 0.000133783 0.632051 1.25704 1.81299 0.819074 0.906504 0.662916 1.71468 1.51869 1.73211 2.52237 1.26135 0 0.563095 0 0.975548 2.53614 1.30309 0.513621 1.18829 0 1.89311 0.465607 2.01149 0 0.87094 2.39961 1.0162 0 0.948547 0.824884 0.505081 0.877233 0 0 0 0.584957 0.458848 0 1.11349 1.02674 1.51489 1.8245 1.83008 0 0 1.70275 0.497977 0 0.274879 1.13357 2.00626 0 2.04803 1.16855 0.725808 0 0.722213 0.00496556 0 0 0 0.0167734 0 0 0.486953 0 0.805434 0.484001 0.613502 0.964311 0 0 0.692418 0 0 0 0.939696 1.58894 0.594995 0 0.0165156 0 0 1.34212 0 0 0 0 0 0 0.962255 0 0.504482 0.349549 0.177001 0 0 0 0.930267 0.00262251 0 0 0.179575 0.543729 0.00272966 0.35577 9.85256e-05 0.959477 0 0.93486 0 0 0 0.876334 0 0 0 1.48216 0.554149 0 0 0 0.540561 0 0 0 0.498256 0 1.12103 0 0 0.362035 0.137905 0 0 0 0.705631 0.0283708 0 0.914968 0 0 0 0 0 0.227651 0 0 1.03924 0 0 0 0.559931 0 0 0 0 0 1.02602 0 0.137166 0 0 0 0 0 0 0 0 0 0 0 0.513565 0 0 0.577383 0 0 0.228845 0 0 0 0 0 0 0 0 0 0 0.00274965 0 0 0 0 0 0 0 0.804104 0 0 0 0 0 0 0.139834 0 0 0 0 0 0 0 0 0.636888 0.839811 0 0 0 0 0 0 0 0 0 0 0 0 0 0 0 0 0 0 0 0 0 0.55973 0 0 0 0 0 0 0 0 0.931333 0 0 0 0 0.525658 0 0 0 0 0 0 0.837894 0 0 0 0 0.528615 0 0 0.634546 0 0 0.464302 0 0 0.482958 0 0 0 0 0 0 0 0 0.482743 0 0 0 0 0 0 0 0 0.926099 0 0 0 0 0 0 0 0 0 0 0 0 0 0 0 0 0 0 0 0 0 0.510915 0 0 0 0 0 0 0 0 0 0 0 0 0 0 0 0 0 0 0 0 0 0 0 0 0 0 0 0 0 0 0 0 0 0 0 0 0 0 0.550145 0 0 0 0 0 0 0 0 0 0 0 0 0 0 0 0 0 0 0 0 0 0 0 0 0.315329 0 0 0 0 0 0 0 0 0 0 0 0 0 0 0 0 0 0 0 0 0 0 0 0 0 0 0 0 0 0 0 0 0 0 0 0 0 0 0 0 0 0 0 0 0 0 0 0 0 0 0 0.634186 0 0 0 0 0 0 0 0 0.560998 0 0 0 0 0 0 0 0 0 0 0 0 0 0 0 0 0 0 0 0 0.540526 0 0 0 0 0 0 0 0 0 0 0 0 0 0 0 0 0 0 0 0 0 0 0 0 0 0 0 0 0 0 0 0 0 0 0 0 0 0 0 0 0 0 0 0 0 0 0 0 0 0 0 0 0 0 0 0 0 0 0 0 0 0 0 0 0.619502 0 0 0 0 0 0 0 0 0 0 0 0 0 0 0.00131211 0 0 0 0 0 0 0 0 0 0 0 0 0 0 0 0 0 0 0 0 0 0 0 0 0 0 0 0 0 0 0 0 0 0 0 0 0 0 0 0 0 0 0 0 0 0 0 0 0 0 0 0 0 0 0 0 0 0 0 0 0 0 0 0 0 0 0 0 0 0 0 0 0 0 0 0 0 0 0 0 0 0 0 0 0 0 0 0 0 0 0 0 0 0 0 0 0 0 0 0 0 0 0 0 0 0 0 0 0 0 0 0 0 0 0 0 0 0 0 0 0 0 0 0 0 0 0 0 0 0 0 0 0 0 0 0 0 0 0 0 0 0 0 0 0 0 0 0 0 0 0 0 0 0 0 0 0 0 0 0 0 0 0 0 0 0 0 0 0 0 0 0 0 0 0 0 0 0 0 0 0 0 0 0 0 0 0 0 0 0 0 0 0 0 0 0 0 0 0 0 0 0 0 0 0 0 0 0 0 0 0 0.349353 0 0 0 0 0 0 0 0 0 0 0 0 0 0 0 0 0 0 0 0 0 0 0 0 0 0 0 0 0 0 0 0 0 0 0 0 0 0 0 0 0 0 0 0 0 0 0 0 0 0 0 0 0 0 0 0 0 0 0 0 0 
28.8591 6.8464 4.80928 6.77215 1.10616 3.70911 5.7536 8.07018 0.556002 3.46902 4.13569 5.87382 2.55919 2.76048 2.91783 1.57982 2.5237 0.813426 4.7948 5.28413 4.86974 3.62902 3.08784 4.65377 4.85825 4.47427 0.603204 2.80267 2.15508 3.5182 2.35942 2.53419 4.30746 3.43293 2.24852 4.30111 3.28629 2.80986 5.11831 4.29278 8.38348 6.76417 6.42575 5.87163 10.5556 7.52865 12.1785 8.20989 11.2951 8.44206 9.8958 9.38739 9.95901 21.024 13.1198 14.3465 13.2011 13.3859 14.2284 14.869 17.9436 23.881 23.0634 26.6708 29.5709 38.5308 30.3588 47.0139 53.642 70.8131 85.123 106.456 150.259 224.053 361.35 532.239 660.498 719.126 556.877 353.746 208.936 133.386 91.1096 63.9117 34.7147 31.1207 32.8825 24.0227 21.8695 11.2691 15.1897 13.4089 7.20788 9.93198 12.6546 11.9863 8.22889 7.42788 8.74578 7.53699 3.49165 6.94885 1.42529 5.80096 4.04157 1.70422 1.06294 4.14023 4.29333 4.96966 0 3.83143 2.7338 1.2797 3.02675 2.94083 1.5845 0.286385 3.46594 1.30501 1.46814 1.10049 4.03748 4.92092 3.81134 0.0028512 2.41738 3.4685 2.61484 1.78677 1.70113 1.68661 1.4129 2.58564 3.0225 0 0.821954 3.20914 1.47087 2.52754 1.14305 1.18159 0.829004 0.830986 0.425206 0.599618 0 1.85947 1.75538 0.857313 1.35169 0.536875 0.569999 1.73401 1.82961 0 0.500915 0.689137 0 0.589729 1.58062 0 1.02245 1.41605 1.41551 0.64566 0 0 1.09022 0.536922 0 1.70409 0.338311 0 0.57261 0.569981 0 0.583989 0.336059 0.554398 1.05674 0.18919 0.336632 0.916789 0.0732847 0 2.31014 0.917951 0.666617 0 0 0.661302 0 0 0.635767 0 1.19391 0.00538948 2.25105 0.518206 0 0 0 0 0.658918 0 0 0.50753 0 1.66938 1.7037 0 0.278341 0.53091 0.000114956 1.08145 0 0.667588 0 0.602105 0.556653 0 0.639505 0.627262 0 2.24215 1.262 0 0 0.491872 0.000190145 0.56967 0 0 0 0 0.543228 0.848894 0 1.5536 0 0 0 0 0 1.1222 0.523652 0 1.06945 0 0 0 0 0 0 0.192042 0 0 0 0.543067 0 0 0 0.791771 0 0 0 0 0.526843 0.642248 0 0.0481173 0.283526 0 0 0 1.7994 0 0.845497 0 0 0 0.375632 0.421288 0 0 0.524659 0 0 0 0 0 0 0 0 0 0 0.00990083 0 0 0 0.566018 0 0 0.906914 0 1.21736 0.999322 0 0 0 0 0 0 0 0 0 0 0 0 0 0 0 0 0.508745 0.871355 0.485543 0 0 0.371317 0 0 0 0.832322 0 0.835147 0 0 0 0 0 0 0 0 0.146341 0 0 0 0 0 0 0 0 0.714719 0 0 0 0 0 0 0 0 0 0 0.490986 0 0 0 0 0 0 0.0298765 0 0 1.41654 0 0 0 0 0 0 0 0.669836 0 0 0 0 0.534513 0 0 0 0 0 0 0 0 0 0 0 0 0 0 0 0 0 0 0 0 0 0 0 0 0 0 0 0 0.556083 0 0 0 0.555944 0 0 0 0 0 0 0 0 0 0 0 0 0 0 0 0 0 0.666128 0 0 0 0 0.588818 0 0 0 0 0 0 0.636024 0 0 0 0 0.490881 0.792093 0 0 0 0 0 0 0 0 0.663533 0 0 0 0 0 0 0.546532 0 0 0 0 0 0.336669 0 0 0 0 0 0 0 0 0 0 0 0 0.589478 0 0 0 0 0 0 0 0 0 0 0 0 0 0 0 0 0 0 0 0 0 0 0 0 0 0 0 0 0 0 0 0 0 0 0 0 0 0 0 0 0 0 0 0 0 0 0 0 0 0 0 0 0 0 0 0 0 0 0 0 0 0 0 0 0 0 0 0 0 0 0 0 0 0 0 0 0 0 0 0 0 0 0 0 0 0 0 0 0 0.741728 0 0 0 0.559229 0 0 0 0 0 0 0 0 0.0730559 0 0 0 0 0 0 0 0 0 0 0 0 0 0 0 0 0 0 0 0 0 0 0 0 0 0 0 0 0 0 0 0 0 0 0 0 0 0 0 0 0 0 0 0 0 0 0 0.544125 0 0 0 0 0 0 0 0 0 0 0 0 0 0 0 0 0 0 0 0 0 0 0 0 0 0 0 0 0 0 0 0 0 0 0 0 0 0.534073 0 0 0 0 0 0 0 0 0 0 0 0 0 0 0 0 0 0 0 0 0 0 0 0.192661 0 0 0 0 0 0 0 0 0 0 0 0 0.919151 0 0 0 0 0 0 0 0 0 0 0 0.686676 0 0 0 0 0 0 0 0 0 0 0 0 0 0 0 0 0 0 0 0 0 0 0 0 0 0 0 0 0 0 0 0 0 0 0 0 0 0 0 0 0 0 0 0 0 0 0 0 0 0 0 0 0 0 0 0 0 0 0 0.285331 0 0 0 0 0 0 0 0 0 0 0 0 0 0 0 0 0 0 0 0 0 0 0 0 0 0 0 0 0 0 0 0 0 0 0 0 0 0 0 0 0 0 0 0 0 0 0 0 0 0 0 0 0 0 0 0 0 0 0 0 0 0 0 0 0 0 0 0 0 0 0 0 0 0 0 0 0 0 0 0 0 0 0 0 0 0 0 0 0 1.03234 0 0 0 0 0 0 0 0 0 0 0 0 0 0 0 0 0 0 0 0 0 0 0 0 0 0 0 0 0 0 0 0 0 0 0 0 0 0 0 0 0 0 0 0 0 0 0 0 0 0 0 0 0 0 0 0 0 0 0 0 0 0 0 0 0 0 0 0 0 0 0 0 0 0 0 0 0 0 0 0 0 0 0 0 0 0 0 0 0 0 0 0 0 0 0 0 0 0 0 0 0 0 0 0 
23.0024 5.64205 7.82424 7.65438 6.67714 6.44214 6.48344 6.15163 7.67164 5.51997 11.6889 11.5485 9.7447 12.7088 9.66577 11.8894 10.119 9.15225 11.1564 11.7144 8.3263 10.4579 11.377 11.6639 13.4353 13.3103 11.5517 14.1057 16.4883 15.1424 12.3789 14.1212 17.6904 15.4499 15.7653 16.2007 17.1945 18.7897 19.8853 17.6031 18.6869 17.1975 17.9217 20.6135 20.0835 20.9041 21.4166 20.5043 17.4331 22.3127 22.0523 22.6171 19.3498 18.6441 23.7011 21.2944 24.4523 21.0047 19.1948 20.7004 19.2277 18.73 22.8485 22.4209 24.1541 19.0757 17.9015 24.3556 24.0015 20.9193 21.7939 22.0145 15.5116 18.0443 20.6831 20.4404 23.1169 20.3882 21.5081 19.4422 19.5613 20.9791 21.4749 17.2166 20.7434 20.9947 19.9899 17.9301 20.8407 19.1205 18.8192 19.3231 21.7463 20.5691 19.9175 19.837 21.287 17.1283 17.8474 14.3384 17.2989 14.3585 15.2602 17.1481 15.3566 14.8715 14.6448 12.7455 15.4678 17.0776 15.2218 14.2529 19.0996 12.2262 14.5892 16.0698 13.3412 10.3243 13.1511 13.906 15.2288 12.94 12.5086 14.1849 12.7441 12.4583 14.7928 13.889 12.3584 12.6566 12.3918 12.6464 10.8741 7.86905 12.0515 11.0422 10.3701 11.2547 13.4542 12.7484 11.0041 9.45713 8.58973 9.28399 12.2121 10.14 10.8375 10.7929 9.75414 9.42604 7.6157 7.18126 7.36203 8.11273 9.74176 9.86206 5.24394 8.08771 7.70902 7.20203 9.55974 8.66092 6.03329 6.75313 6.51357 8.11852 6.76329 7.22438 6.90391 5.50448 6.34842 7.13266 8.73818 7.29122 7.04491 8.90789 5.99681 5.63447 6.08281 5.48077 8.28521 7.06783 3.96601 6.47377 4.49498 6.64652 4.02752 5.74102 6.89882 3.71544 5.09683 5.05531 5.60766 4.92928 5.35831 5.85172 5.90346 4.63933 5.82324 2.62568 5.01632 5.6001 3.53994 5.49275 5.50769 4.79913 4.66231 3.57341 4.70616 4.44872 3.11155 4.36994 2.83046 4.29941 4.51916 4.61116 2.48977 2.93329 2.69172 3.55492 3.24484 3.44239 2.59706 2.579 3.94045 1.80974 2.69209 4.00623 3.56393 1.884 3.78619 3.42332 3.50172 3.42209 1.12074 1.38072 3.90055 2.35904 2.48966 2.9058 3.27384 3.04727 2.3863 3.60153 2.92563 2.21457 2.33845 1.49385 2.62311 1.95089 2.0665 2.58248 2.27174 2.5371 1.51385 1.61325 2.9997 2.87429 2.09968 3.36997 1.5919 2.11783 3.25682 1.38135 2.09473 1.27995 0.728784 2.12342 0.974619 0.800103 0.552242 1.86704 2.11053 2.77755 2.03071 2.98563 2.39386 0.912423 2.18004 1.81052 0.959663 2.47403 1.16454 1.25062 1.55136 1.53062 0.757862 0.906068 0.595842 1.65527 1.1383 0.965648 1.3226 0.654261 0.65361 1.53925 0.868913 0.889884 1.68763 1.10425 1.68632 0.664993 0.95711 0.959297 2.00344 1.41583 0.967061 0.589265 0.444353 1.40174 1.45353 0.61968 0.970049 1.77066 1.3958 0.901497 1.07919 1.80454 2.26161 0.936979 0.993221 1.05877 0.789326 0.848655 1.57729 0.696278 0.569236 1.08672 1.67148 0.641753 1.41965 0.254836 0.180903 0.574153 0.489725 1.20151 0.349672 1.22397 1.15644 0.158334 0.745494 1.37718 0.684519 0.542787 0.593771 1.32246 0.717919 0.581434 0.903719 0.388877 0.712176 0.244988 1.03387 1.19763 0.363742 1.09654 1.11974 0.877893 0.559548 0.190671 0.768405 0.528335 0.523721 0.489443 0 0.153402 1.31837 0.416477 0.370212 0.756768 0.434906 0.3678 0.531712 0.182081 0.163917 0.347955 1.21837 0.967719 0.704908 0.508007 0.888226 0.472444 0.315061 1.06454 0.153644 0.692613 0.727675 0.280904 0.289923 0.776221 0.667972 0.429253 0.383211 0.524116 0.429088 0.119524 0.231318 0.0724694 0.513633 0.488398 0.0148442 0.465333 0.204938 0 1.01344 1.19216 0.319158 0.119384 0.266231 0.824929 0.207052 0.857019 0.0456706 0.00930721 0.363272 0 0 0.190894 0 0.940541 0.450256 0.750385 0 0.163961 0.0885381 0.230184 0.23875 0.131485 0.152594 0.726314 0.8217 1.11116 0 0 0.323141 0.170582 0.161774 0.158211 0.183967 0 0.228586 0.305907 0.397651 0.373741 0 0.478749 0.190742 0.388739 0.188265 0.40334 0 0.184969 0 0 0.470648 0.444478 0.3135 0.536304 0.247323 0.171966 0 0.288622 0 0 0.399664 0 0.209252 0.185541 0.265292 0.522628 0.24584 0 0 0.406466 0 0.0017127 0 0.329082 0.0598199 0 0 0 0 0.309665 0.187992 0.848013 0 0.118823 0 0.410563 0 0 0.490697 0.310176 0 0 0 0.628239 0.0327447 0 0 0.349762 0 0 0.82632 0 0.286912 0.362219 0.348831 0 0.629908 0 0.229178 0.318737 0 0 0.163613 0 0 0 0.26507 0 0 0.229158 0 0.103607 0 0.0587066 0.211022 0 0.190824 0 0 0.163081 0.023128 0 0.127473 0 0.164599 0 0.196095 0.157979 0.148351 0.160895 0 0 0 0.147513 0 0 0.166972 0 0 0 0.170648 0.207225 0.226811 0 0 0 0 0 0 0 0.326009 0.177782 0.161583 0 0.1756 0 0.119391 0 0.167233 0 0.184212 0.184738 0.156795 0.344228 0.190545 0 0.166525 0 0 0.286749 0 0 0 0 0 0 0 0.229412 0 0 0 0 0 0 0 0.166026 0 0.0231079 0 0 0.382794 0 0 0.313146 0 0 0 0 0 0 0.176933 0 0 0 0 0.170594 0 2.7831e-05 0 0 0.343756 0 0 0 0 0 0 0.149842 0 0 0 0 0 0 0 0 0 0 0 0 0 0 0.214539 0 0 0 0 0 0 0 0.191902 0 0 0 0 0.208335 0.288078 0 0 0 0 0 0 0 0 0 0 0 3.46557e-05 0 0 0 0 0 0 0.219367 0 0 0 0 0 0 0.165667 0 0 0 0 0 0 0 0 0 0.117441 0.230608 0 0 0 0 0 0 0 0 0 0 0 0 0 0 0.14973 0 0 0 0.333843 0 0 0 0 0 0 0 0 0 0 0 0.328568 0 0 0.161583 0.16496 0 0 0 0.0573189 0 0.511513 0 0.210774 0 0 0 0 0 0 0 0.114823 0 0 0 0 0 0 0 0 0 0 0 0 0 0 0 0 0 0 0.0726707 0 0 0 0 0 0 0 0 0 0 0 0 0 0 0 0 0 0 0 0 0 0 0 0 0 0 0 0 0 0 0 0 0 0 0 0 0 0 0 0 0 0 0 0 0 0 0 0 0 0 0 0 0 0 0 0 0 0 0 0 0 0 0 0 0 0 0 0.185311 0 0 0 0 0 0 0 0 0 0 0 0 0 0 0 0 0 0 0 0 0 0 0 0 0 0 0 0 0 0.198628 0.208151 0 0 0 0 0 0 0 0 0 0 0 0 0 0 0 0 0 0 0 0 0 0 0 0 0 0 0 0 0 0 0 0 0 0 0 0 0 0 0 0 0 0 0 0 0 0 0 0 0 0 0 0 0 0 0 0 0 0 0 0 0 0 0 0 0 0 0 0 0 0 0.297177 0 0 0 0 0 0 0 0 0 0 0 0 0 0 0 0 0 0 0 0 0 0 0 0 0 0 0 0 0 0 0 0 0 0 0 0 0 0 0 0 0 0 0 0 0 0 
19.9433 6.14618 5.57909 6.75658 5.4063 6.23877 6.73886 4.76234 8.88526 9.39164 11.6458 8.90334 8.28326 8.78304 10.2591 10.925 12.3818 10.1499 9.38118 11.1333 11.9439 11.4489 10.0117 16.1547 11.7277 15.6624 16.8991 14.2138 16.0353 14.1363 15.5065 16.5323 16.2805 20.8175 15.6438 15.9887 19.0879 18.0553 16.4377 16.3317 16.8778 20.0491 17.2373 20.7028 15.5636 19.8921 19.3524 20.9073 21.0571 18.3993 20.0957 20.7804 21.5021 20.6144 19.4451 21.4417 21.1721 22.9771 23.4931 22.5115 21.5424 22.9786 20.3534 21.7634 18.8804 19.4697 19.6407 16.9752 24.0144 24.8171 17.1915 18.9145 20.2922 22.1293 22.393 20.818 22.5841 19.7681 20.3683 21.7238 17.8421 19.3097 18.6871 21.2818 20.8614 21.2539 18.6492 18.8969 22.5106 18.7436 19.7389 18.7744 18.8016 19.9651 16.2613 17.3682 15.5123 18.7951 18.6067 14.0559 15.0178 17.6609 20.6763 16.3187 17.8619 16.1564 16.0312 14.7728 12.9516 14.7822 15.3967 14.0413 13.2746 15.9563 17.4386 12.531 13.1813 14.6062 12.8666 15.5978 13.3676 11.2956 11.7087 12.1008 11.3327 12.3718 13.8931 13.0454 14.567 12.6814 9.60319 15.1424 13.124 12.7886 9.29657 13.0908 7.11656 11.445 11.5854 11.474 11.9685 9.8586 8.47002 10.6744 11.2323 9.49803 7.06952 10.9095 10.354 6.62147 7.7661 9.02804 8.66314 7.85179 8.56726 10.1071 7.33262 9.13582 7.96575 8.33564 7.6771 9.57229 8.10062 9.95931 7.11885 8.48219 4.45239 6.04683 5.75412 6.02542 5.96531 7.66302 7.90738 7.10411 5.62342 7.00993 6.5661 5.35385 5.91353 5.4482 6.46022 5.72241 7.52523 4.48509 5.51843 7.17835 6.61093 6.13808 4.39294 5.06874 5.35619 6.12087 5.45573 3.65579 5.30119 5.35197 4.09331 5.18971 4.29177 3.77998 5.43798 4.47285 5.11014 4.53598 5.19555 3.06155 6.36293 4.84942 3.89429 4.34229 5.61813 3.90716 5.29004 3.34578 3.58158 4.91308 3.42665 2.95782 2.93001 3.18132 2.13444 5.26131 2.64656 2.40622 3.44917 3.34883 2.5989 3.33139 2.54495 3.23068 3.27689 2.94633 3.19306 1.55247 3.38064 2.86894 2.32951 2.05689 3.24356 2.78789 4.36524 2.32793 3.2462 1.43617 1.94561 3.46863 1.65061 2.77716 2.1219 3.07382 2.53276 0.961293 2.64044 1.42477 4.49248 1.73337 0.815067 2.541 2.31306 1.8447 3.64883 1.56748 2.49297 0.910888 1.54783 2.19312 1.73901 0.715755 3.55318 1.20705 3.20857 2.19615 1.64531 2.68424 1.94745 0.917273 1.05816 2.5847 2.33501 1.14255 2.61389 1.95422 1.37998 1.99402 1.05666 2.82651 1.72406 2.08709 1.65135 0.762857 1.14067 0.850979 1.14269 1.68413 1.5105 1.53744 1.69388 1.32978 1.51945 2.67299 1.31092 0.896545 0.862604 1.19933 0.762484 0.826257 1.23292 0.933061 1.24178 0.78934 1.0671 1.75198 0.87158 1.09613 1.34405 1.39314 1.96242 0.546659 0.426759 1.38855 1.72746 1.40669 0.80454 0.850251 0.286777 0.29155 0.587902 0.77016 0.850137 0.458278 1.17639 0.872231 0.884398 0.870872 0.707842 1.02233 0.334626 0.205691 0.445922 0.308383 0.243553 0.910629 0.699919 0.584581 0 0.85816 0.514778 0.353651 1.08526 0.766843 1.20197 1.24897 0.2414 0.50291 0.461822 1.03834 0.825512 0.652208 0.572609 0.434716 0.602801 1.37392 0.523146 0.840272 1.086 0.80077 0.750078 0.286052 0.285896 0 0.348826 0.681578 0.402449 1.8572 0.759124 0.84773 0.193444 0.944112 0.42821 1.57669 0.735484 0.674536 0.215708 0.420612 0 0 0 0.981419 0.353869 0.948029 0.454547 0.250963 0.177533 0.205318 0 0.622312 0.611123 0.565262 0.152966 0.55157 0.816027 0.458125 0.287271 0.508069 0 1.01619 0.159352 0.576527 0.21736 0.0320204 0.20687 0.628343 0 0.190161 0.653365 0 0.208891 0.538898 0.199051 0.655989 0.236005 0.245547 0 0.299745 0 0 0.139855 0.481221 0.340802 0.173307 0 0 0 0.403329 0 0.0450347 0 0.225677 0 0.444481 0.51224 0.547211 0.238123 0.641938 0 0 0 0.453277 0 0.193483 0.655483 0.0725639 0.287309 0.178206 0.587242 0.66134 0 0 0 0.28055 0.169035 0.366656 0.198992 0.263172 0 0 0.441487 0.363641 0.103058 0.187925 0 0.265361 0.936822 0 0 0.424258 0.436518 0 0.000895831 0.0326875 0 0.2409 0.174051 0 0.169292 0.563922 0.172505 0 0 0.263714 0 0.155484 0.35126 0 0.0313805 0.186897 0.0148924 0.515886 0 0.22251 0.348057 0.231097 0.284257 0.205124 0 0 0 0 0.163242 0 0.415083 0.302126 0 0.163299 0 0 0.21355 0 0.172429 0 0 0 0.161665 0.330342 0 0 0.0884928 0 0.245369 0 0 0 0.0449427 0 0 0 0.114728 0 0 0 0.162428 0.159878 0.650903 0 0 0 0.137287 0 0.177596 0 0 0 0.177561 0 0 0 0 0.241027 0.303692 0 0 0.263318 0 0.191035 0.216508 0 0 0 0 0.0147679 0 0 0 0.18358 0.184569 0.0905669 0 0.337609 0.118421 0 0 0 0 0 0 0 0 0.162667 0 0 0.197973 0.296522 0 0.306587 0.186959 0 0 0 0.263801 0 0.00924677 0 0.227148 0.197923 0.309201 0 0 0 0 0 0 0 0 0 0 0 0 0 0.171565 0 0 0 0 0 0 0 0.190479 0 0 0.194539 0 0 0 0 0 0.136675 0.245195 0 0 0 0 0.197965 0 0 0.149975 0 0 0 0 0 0 0 0.156989 0 0 0 0 0 0 0 0.0896412 0 0 0 0 0 0 0 0 0 0.188025 0 0.159302 0 0.183392 0 0 0 0 0 0 0 0 0.152634 0 0 0 0 0 0 0 0 0.207684 0 0 0 0.262276 0 0 0 0 0 0.172403 0 0 0 2.77215e-05 0.139405 0 0 0 0 0.245289 0 0 0 0 0 0 0 0 0 0 0 0 0.166046 0 0 0 0 0 0 0 0 0 0 0 0.200859 0 0 0 0 0 0 0 0 0 0 0 0.165251 3.4565e-05 0 0 0 0 0 0 0 0 0 0 0 0 0 0 0 0 0 0 0 0 0 0 0 0.15825 0 0 0 0 0.21877 0 0 0 0 0 0 0 0 0 0 0 0 0 0 0 0 0 0 0 0 0 0 0 0 0 0 0 0 0 0 0.305325 0 0 0 0 0 0 0 0 0 0 0 0 0 0 0 0 0 0 0 0 0 0 0 0 0 0 0 0 0 0 0.216514 0 0 0 0 0 0 0 0 0 0.19123 0 0 0 0 0 0 0 0 0 0 0 0 0 0 0 0 0 0 0 0 0 0 0 0 0 0 0 0 0 0 0 0 0 0 0.177583 0 0 0 0 0 0 0 0 0 0 0 0 0 0 0 0.0578055 0 0 0 0 0 0 0.16812 0 0 0 0 0 0 0 0 0 0 0 0 0 0 0 0 0 0 0 0 0 0 0 0 0 0 0 0 0 0 0 0 0 0 0 0 0 0 0 0 0 0 0 0 0 0 0 0 0 0 0 0 0 0 0 0 0 0 0 0 0 0 0 0 0 0 0 0 0 0 0 0 0 0 
1107.03 164.7 190.757 203.78 195.966 219.952 236.466 231.861 236.189 257.818 264.235 272.675 280.688 284.935 311.814 330.247 304.059 327.326 339.776 352.686 356.403 381.736 403.281 406.866 407.622 390.464 415.103 434.592 433.369 441.836 436.272 463.697 488.344 492.092 481.391 510.071 520.657 548.667 540.61 549.241 568.922 588.494 618.243 592.283 596.114 606.188 618.87 619.371 647.152 647.834 625.92 630.414 658.082 643.797 635.99 664.071 683.79 670.193 666.076 651.202 661.555 653.001 651.178 641.296 667.234 662.839 664.259 643.16 635.586 636.502 650.082 630.193 629.03 619.837 620.855 618.931 582.151 615.619 603.749 592.789 594.194 587.829 563.289 576.302 565.6 571.049 546.073 553.795 520.926 530.589 527.643 535.998 539.828 524.282 518.497 493.398 495.46 508.604 470.951 460.45 477.141 455.284 468.236 452.475 435.185 438.532 431.931 428.281 422.629 415.009 415.054 399.944 407.399 400.949 398.037 389.26 382.086 382.971 378.323 356.335 359.408 370.502 342.469 356.426 351.845 343.17 332.857 331.895 323.088 334.825 297.884 319.547 304.786 290.42 300.627 278.522 303.974 290.247 270.27 280.382 276.529 271.894 276.73 260.493 259.56 250.457 250.686 245.955 229.097 245.264 242.725 232.653 227.353 228.402 228.444 231.138 213.711 219.582 201.903 208.55 194.82 195.925 200.507 204.051 198.7 191.762 187.82 183.074 174.093 179.659 173.035 174.777 166.582 160.517 174.533 161.324 155.322 156.649 155.353 149.054 149.757 147.441 146.383 140.947 133.955 141.824 137.8 128.079 126.283 135.168 127.115 120.057 134.25 124.273 122.98 116.502 117.067 118.23 108.102 109.356 115.738 108.937 101.819 104.918 99.0012 107.215 104.665 100.59 91.6704 98.3467 96.6133 97.6421 95.0859 91.1646 86.0887 93.043 86.1164 84.2855 87.3342 80.323 82.9222 81.279 77.4939 76.9034 83.4868 77.5435 74.8225 73.7126 70.0193 73.6469 68.0941 71.2849 73.6619 60.8338 74.5467 66.1914 64.028 57.8387 55.9634 59.9585 63.7668 57.2257 55.2029 54.8716 57.5391 50.6881 54.3299 54.4744 49.1695 55.5499 54.2197 54.4945 53.3404 50.7584 51.3576 51.7572 47.3955 46.8382 48.8311 43.6436 39.9651 48.4625 42.7407 39.8345 39.3883 45.7347 38.4946 40.2714 42.0093 41.9054 39.1967 40.5835 36.7413 39.5474 37.0134 36.6532 35.4195 30.5825 32.8625 37.9883 36.7662 32.1695 30.3456 32.3857 34.1139 32.8709 28.4402 30.0716 26.3853 34.5737 31.5651 28.0331 26.4369 32.9031 29.994 25.6176 28.2587 27.2285 26.7445 27.0064 27.5169 24.4114 25.4275 26.0689 23.4123 23.3136 26.6016 25.0877 21.7265 25.3392 24.7812 21.5988 22.2144 20.6176 18.6865 21.8057 22.5901 21.9914 21.0512 20.0607 17.6661 19.3615 17.6511 21.3848 21.6783 21.6683 20.1217 18.5562 20.3544 17.4576 17.1847 17.4819 15.2392 16.5855 17.1324 15.5994 17.3319 18.0628 16.4639 14.2371 18.6819 16.0398 13.6624 17.1732 18.3356 14.9298 13.9476 12.5924 16.3117 12.8932 14.0144 13.7939 13.1825 13.9144 11.5724 13.8707 14.4514 13.4073 11.7205 10.9611 11.085 11.619 11.8069 13.1466 7.87391 9.32018 10.8858 9.82267 11.749 10.2713 10.5547 11.5379 10.7429 9.63238 11.0986 9.57713 9.80915 9.97119 9.06342 9.50285 8.72799 8.44722 9.77103 8.94676 8.16297 9.18663 8.06201 7.23172 7.55405 7.35877 8.08601 7.69225 9.31272 7.89543 8.01834 7.00386 7.68625 9.02347 6.47436 6.77855 7.4167 8.44904 7.40771 7.6001 7.12376 7.64637 8.12823 7.00878 7.39832 6.06526 5.83597 5.7544 7.01682 7.05896 6.52881 6.57634 6.01281 5.03913 7.17424 6.45774 5.50075 5.21878 5.436 4.97811 6.30128 5.05888 4.55939 5.01757 5.83503 5.61582 4.5116 5.43678 5.41885 5.20947 6.38627 4.75191 4.43802 5.74132 4.78248 4.66541 4.89074 5.07502 4.67053 4.85744 4.28265 5.04834 4.85159 3.51372 4.27647 4.78663 3.3962 3.4663 3.62979 4.40058 3.36771 3.4188 4.05284 4.38651 2.65987 3.84819 3.83546 3.90535 3.20877 4.07835 4.02468 4.04648 3.34405 3.50906 3.58664 2.44905 2.6145 3.10496 3.23179 4.03777 3.44018 2.96934 3.36167 3.00986 3.04408 3.52973 2.88586 3.0646 2.70986 2.99943 2.97362 3.29438 2.4514 3.18471 2.80679 3.39045 3.13631 2.46893 2.83633 2.13137 2.99944 2.06497 2.87093 2.22614 2.15168 2.484 1.6082 2.219 2.10354 2.57756 2.58988 2.54155 2.47189 1.58367 2.41362 2.56299 2.01174 2.10367 1.95335 1.69746 1.8373 1.3817 1.49927 2.07421 1.81484 1.74585 2.33699 2.03021 1.97137 2.02377 1.74002 1.40265 1.45559 1.76659 1.98501 2.10118 1.84234 1.26816 1.37293 1.8068 2.14341 2.05624 2.16437 1.45495 1.42144 1.446 1.7401 1.82794 1.63526 1.30771 0.993644 1.5423 1.31986 1.47103 1.40159 1.48582 1.26261 1.28205 1.51552 1.65299 1.28561 1.2112 1.43135 1.26178 0.829741 1.03823 1.1632 1.19523 1.34282 1.34566 0.877932 0.828213 1.2679 0.845633 0.637829 1.2174 1.11066 1.01856 1.3678 1.15671 1.10097 0.841456 1.13753 1.20639 0.774886 1.18915 0.920199 0.845874 0.943262 1.20315 0.523025 1.56627 0.66608 0.920987 0.955205 0.473195 1.1519 0.678512 1.17852 1.18541 0.7724 0.727418 0.845975 1.05018 0.765599 0.51135 1.27101 0.549492 1.14384 0.752959 1.20931 0.965811 0.559987 0.937267 0.840281 0.546334 0.988131 0.652698 0.944279 0.61723 0.715531 1.0819 0.528982 0.724297 0.616114 1.07617 0.540768 0.583938 0.936906 0.588002 1.00509 0.911031 0.58566 0.655745 0.511607 0.760888 0.935044 0.983774 0.781107 1.09372 0.568365 0.468407 0.67382 0.561751 0.74741 0.386466 0.586988 0.541426 0.734938 0.363262 0.620978 0.464313 0.503671 0.544551 0.507132 0.530067 0.834835 0.530927 0.386914 0.719496 0.737147 0.542134 0.372983 0.609452 0.776874 0.182879 0.465105 0.650007 0.460499 0.867355 0.569292 0.328584 0.682871 0.580048 0.334548 0.622142 0.422912 0.4787 0.344624 0.342837 0.631686 0.353459 0.680651 0.299965 0.366395 0.387181 0.58682 0.252243 0.317739 0.296444 0.420831 0.538661 0.318976 0.355804 0.446179 0.351812 0.459516 0.258281 0.297014 0.339303 0.190563 0.35347 0.424933 0.54972 0.35174 0.35807 0.594172 0.469937 0.350698 0.297849 0.399532 0.391583 0.432109 0.320865 0.133736 0.247453 0.183731 0.308041 0.432269 0.348108 0.191509 0.282702 0.318587 0.319563 0.512273 0.310008 0.260331 0.279436 0.381311 0.421993 0.330735 0.369771 0.278541 0.225148 0.120689 0.319073 0.358517 0.408615 0.17513 0.232411 0.362941 0.219832 0.332679 0.237482 0.212758 0.424677 0.230856 0.152645 0.146142 0.173584 0.188439 0.262068 0.129489 0.318023 0.199154 0.2286 0.140998 0.346545 0.251395 0.205055 0.248118 0.138388 0.238683 0.176412 0.227917 0.359276 0.139686 0.21236 0.237168 0.354863 0.315063 0.229678 0.0646681 0.18445 0.104255 0.166249 0.19498 0.10927 0.0864171 0.197456 0.245829 0.271 0.256549 0.109383 0.08886 0.195745 0.0861797 0.214155 0.390854 0.118481 0.256288 0.164981 0.170469 0.162918 0.157589 0.178359 0.276713 0.119184 0.195584 0.107492 0.0601422 0.175331 0.155993 0.19868 0.252247 0.111229 0.14475 0.104563 0.0592785 0.0310023 0.133621 0.0872647 0.228051 0.147038 0.218938 0.0868205 0.14156 0.0268102 0.0330401 0.2448 0.407044 0.117969 0.251915 0.0689487 0.162413 0.103575 0.067779 0.110118 0.0939194 0.0755075 0.16768 0.165946 0.00362188 0.152845 0.0940859 0.0535034 0.193953 0.219207 0.186393 0.139597 0.113499 0.196185 0.124611 0.220063 0.0662262 0.0903305 0.180357 0.0506369 0.105991 0.182345 0.128593 0.0330788 0.103773 0.0533635 0.111983 0.0975035 0.100559 0.0844559 0 0.153157 0.104588 0.192511 0.0650366 0.0276507 0.0968231 0.0788997 0.0508105 0.100976 0 0.106269 0.185815 0.161061 0.135172 0.0989363 0.0806696 0.0291601 0.0978475 0.108627 0.188849 0.0271991 0.172397 0.051625 0.0296913 0.194135 0.083503 0.0801328 0.125677 0.0550602 0.0546597 0.101072 0.149473 0.135685 0.112833 7.00443e-05 0.00050131 0.0239145 0.0450577 0.0543063 0.122941 0.0824575 0.108024 0 0.0296402 0.0347284 0.0987074 0.0634365 0.120341 0.129281 0.125917 0.149408 0.0732741 0.0581115 0.0277149 0.0700353 0.0993966 0.0829434 0.0288179 0.0901194 0.0181219 0.0416265 0 0.0552023 0.136671 0.0681251 0.0307303 0.102083 0.175249 0.0741708 0.0611853 0.149021 0.0333445 0.0995021 0.0306482 0.00027581 0.0431957 0 0.099025 0.076031 0 0.0304989 0 0.0169299 0.0543335 0.0286342 0.119194 0.0341728 0.0333607 0 0.0563227 0.121562 0.0465851 0.0407166 0 0 0 0.0589879 0.068168 0.0980625 0 0.0340106 0.0118388 0.0425503 0.121541 0.0322097 0.062532 0.117964 0.146784 0.0278773 0.0535361 0.0573444 0.0307616 0.0308921 0.00735987 0.0279771 0 0.0921197 0.119112 0.0361742 0 0.0595172 0.0398895 0 0.106455 0.050981 0.0551369 0.0507368 0.059217 0 0.0894236 0.0498119 
83.9505 -13.1421 5.09343 7.68637 1.80079 10.7677 4.73006 -3.70981 2.49819 -0.916282 -5.22107 14.7468 16.2508 20.6722 12.779 5.65178 -0.571183 22.7696 36.1511 15.705 41.6857 24.3816 43.3672 48.8589 34.1689 7.77178 50.5017 14.1352 107.3 58.2295 95.0119 41.1909 106.239 117.283 146.201 132.561 137.263 231.256 107.421 148.029 168.619 177.908 191.794 133.447 168.381 192.083 128.416 124.257 108.14 154.547 184.372 131.304 58.365 89.0844 120.382 91.1561 94.095 35.6278 72.0514 89.4037 14.0251 52.6895 38.4077 65.3365 32.0265 12.4285 12.6717 25.9109 9.07247 25.4717 6.82507 -0.835163 6.50672 19.2564 10.3628 1.27746 -1.1742 0 6.401 1.76493 12.9255 -0.728518 10.4802 2.33947 11.9253 0 3.35238 2.92082 2.41411 -0.419542 7.28758 6.58347 3.04665 -3.51717 1.23263 -0.158966 -2.14162 0.342308 -6.29527 1.76541 4.94043 0 0 -2.44279 -2.28575 -1.66846 -2.85662 0 0.294862 5.79957 0 4.27829 4.34548 3.28087 0 0 0 -2.47873 1.03303 0 -1.26334 0 2.51375 0 2.23039 0 0 2.1894 4.78742 0 0 0 0 0.00310094 0 0 0 2.83109 0 0 0 0 0 0 5.38845 2.5169 0 0 -2.74671 0 3.6453 0 0 2.16631 1.74674 0 0.00297972 1.22621 0 0 0 0 0 0 0 0 3.53374 0 0 -4.37784 0 0 -2.49154 0.0428698 0 0 0 0 3.63694 0 3.15852 0 0 0 0 0 4.21682 -4.28043 2.84699 2.55547 1.80667 0 0 0 3.03237 0 0 -2.1099 0 0 0 0 0 0 0 0 0 0 0 1.97118 0 0 0 4.16303 0 0 0 3.60656 0 0 0 0 0 0 0 0 0 0 0 0 0 1.7156 0 0 0 0.0120478 0 0 0 0 0 0 0 0 0 0 0 0 0 0 0 0 0 0 0 0 0 0 0 0 0 0 0 0 0 0 0 0 0 0 0 0 0 0 0 0 0 2.37771 0 0 0 0 0 0 0 0 0 0 0 0 0 0 0 0 2.38339 0 0 0 0 0 0 0 0 0 0 0 0 0 0 0 0 0 0 0 0 0 0 0 0 0 0 0 0 0 0 0 0 0 0 0 0 0 0 0 0 0 0 0 0 0 0 0 0 0 0 0 0 0 0 0 0 0 0 3.97352 0 0 0 0 0 0 0 0 0 0 0 0 0 0 0 0 0 0 0 0 0 0 0 0 0 0 0 0 0 0 0 0 0 0 0 0 0 0 0 0 0 0 0 0 0 0 0 0 0 0 0 0 0 0 0 0 0 0 0 0 0 0 0 0 0 0 0 0 0 0 0 0 0 0 0 0 0 0 0 0 0 0 0 0 0 0 0 0 0 0 0 0 0 0 0 0 0 0 0 0 0 0 0 0 0 0 0 0 0 0 0 0 0 0 0 0 0 0 0 0 0 0 0 0 0 0 0 0 0 0 0 0 0 0 0 0 0 0 0 0 0 0 0 0 0 0 0 0 0 0 0 0 0 0 0 0 0 0 0 0 0 0 0 0 0 0 0 0 0 0 0 0 0 0 0 0 0 0 0 0 0 0 0 0 0 0 0 0 0 0 0 0 0 0 0 0 0 0 0 0 0 0 0 0 0 0 0 0 0 0 0 0 0 0 0 0 0 0 0 0 0 0 0 0 0 0 0 0 0 0 0 0 0 0 0 0 0 0 0 0 0 0 0 0 0 0 0 0 0 0 0 0 0 0 0 0 0 0 0 0 0 0 0 0 0 0 0 0 0 0 0 0 0 0 0 0 0 0 0 0 0 0 0 0 0 0 0 0 0 -2.4738 0 0 0 0 0 0 0 0 0 0 0 0 0 0 0 0 0 0 0 0 0 0 0 0 0 0 0 0 0 0 0 0 0 0 0 0 0 0 0 0 0 0 0 0 0 0 0 0 0 0 0 0 0 0 0 0 0 0 0 0 0 0 0 0 0 0 0 0 0 0 0 0 0 0 0 0 0 0 0 0 0 0 0 0 0 0 0 0 0 0 0 0 0 0 0 0 0 0 0 0 0 0 0 0 0 0 0 0 0 0 0 0 0 0 0 0 0 0 0 0 0 0 0 0 0 0 0 0 0 0 0 0 0 0 0 0 0 0 0 0 0 0 0 0 0 0 0 0 0 0 0 0 0 0 0 0 0 0 0 0 0 0 0 0 0 0 0 0 0 0 0 0 0 0 0 0 0 0 0 0 0 0 0 0 0 0 0 0 0 0 0 0 0 0 0 0 0 0 0 0 0 0 0 0 0 0 0 0 0 0 0 0 0 0 0 0 0 0 0 0 0 0 0 0 0 0 0 0 0 0 0 0 0 0 0 0 0 0 0 0 0 0 0 0 0 0 0 0 0 0 0 0 0 0 0 0 0 0 0 0 0 0 0 0 0 0 0 0 0 0 0 0 0 0 0 0 0 0 0 0 0 0 0 0 0 0 0 0 0 0 0 0 0 0 0 0 0 0 0 0 0 0 0 0 0 0 0 0 0 0 0 0 0 0 0 0 0 0 0 0 0 0 0 0 0 0 0 0 0 0 0 0 0 0 0 0 0 0 0 0 
17898.1 3550.77 2503.21 2518.71 2027.08 2073.65 1777.08 1814.09 2054.75 1913.85 2006.4 1653.67 1802.87 1545.4 1653.47 1331.85 1418.69 1546.83 1612 1621.14 1303.76 1437.61 1425.4 1194.98 1464.03 1515.34 1363.96 1643.43 1426.13 1643.09 1462.88 1832 1793.09 1975.33 2397.34 2498.91 2929.62 3077.38 3506.09 3906.52 4148.36 4935.73 5228.46 5749.36 6153.42 6851.88 7204.13 8157.98 8675.02 8885.2 10331.9 11072.1 12014.2 12960.9 13628.6 15328.8 15621.3 16271.4 18010.1 18841.5 19441.6 20141.1 20805.6 21590.4 21650.1 22095.8 21798.9 22221 24095.4 26281.9 33379.3 42690 58377.8 84996.8 132418 203533 273346 277933 210944 134585 79887.4 50240.7 32010.3 22494.3 16792.4 12278.5 9891.07 8315.47 7020.1 5959.38 5167.26 4472.62 3909.17 3480.47 3276.98 2902.94 2539.36 2551.77 2248.58 2012.04 1850.37 1801 1603.82 1550.37 1418.27 1372.88 1184.9 1164.32 1152.78 1085.23 983.461 981.353 909.714 886.455 875.578 822.184 740.745 694.463 640.327 638.143 599.79 677.548 568.726 567.575 539.768 565.982 529.607 491.95 492.365 460.279 490.059 434.103 450.529 403.361 374.253 323.423 339.214 349.971 370.34 311.71 299.736 328.76 284.288 326.646 284.874 300.487 263.216 258.696 316.892 289.924 225.354 232.812 215.712 232.338 257.316 268.026 209.75 228.31 227.595 201.254 248.302 188.966 184.76 222.151 161.659 185.756 153.377 156.41 180.345 169.016 166.257 130.897 159.865 135.125 155.763 186.299 140.025 167.071 130.288 132.917 155.339 133.835 142.46 138.587 119.487 114.032 133.444 116.32 115.049 106.534 107.91 105.667 107.737 111.619 101.862 107.713 104.842 101.982 98.4108 86.0864 106.787 92.6239 77.0454 90.0966 78.9885 84.9856 70.5653 79.821 74.4023 85.0225 69.4329 75.4788 82.0964 68.9349 63.6425 66.9553 68.2596 63.3353 75.729 69.8465 59.618 59.7109 64.7937 65.4867 57.4896 61.0832 62.1114 63.2375 56.0756 55.1197 56.3648 61.7601 58.594 50.4176 44.0135 49.7359 56.2623 44.4925 49.4817 48.9683 44.5146 45.6083 51.4529 44.961 45.8738 33.9296 48.7222 35.7248 36.2234 38.8801 35.1814 43.9318 38.0905 42.7471 36.2806 40.7947 34.4155 40.1215 42.9973 39.7279 37.6776 37.1663 41.63 37.646 32.4105 32.6633 28.3266 33.7883 31.1222 34.7462 32.6335 26.075 36.2671 30.5916 33.8538 29.2555 31.0359 27.5814 27.4392 31.9648 29.4089 23.6318 24.9569 21.958 27.3738 25.9683 27.0992 18.4777 29.1426 22.0442 24.7734 29.516 27.0009 25.9536 21.2679 19.6805 25.3982 19.06 17.6379 23.6286 23.121 25.9183 20.6023 18.4132 23.2782 15.0864 23.1894 17.6135 17.6718 17.9661 15.1816 20.4233 22.8754 20.9602 17.9066 27.2793 11.9142 17.7603 16.1145 21.2027 17.7192 19.1067 17.1728 18.6279 19.1772 16.4703 13.9543 12.2313 17.9467 14.2856 18.8832 20.0363 13.8118 13.8657 13.9017 18.0402 17.0203 14.5768 19.9399 13.2855 13.0384 13.5306 15.5215 10.2608 12.1112 12.189 13.0078 13.5419 12.6781 12.2333 13.337 14.5206 10.8337 14.0269 13.8471 8.12583 8.5754 11.6478 15.5497 9.99398 10.7242 8.60789 10.6992 12.0519 11.5569 9.88532 6.48325 8.79182 7.25412 7.50674 12.0253 9.03748 9.92913 6.28502 8.71095 7.12294 8.99184 11.3563 6.94527 9.16857 5.25764 7.0023 8.92656 7.09239 7.75382 7.38341 7.55983 9.92362 9.9925 8.26151 8.29097 8.10727 9.98048 7.16813 8.23068 8.84111 6.01304 8.43699 8.33995 6.46118 7.28379 7.66604 6.1308 5.67882 6.55964 6.08624 7.53683 7.68757 7.7543 8.48599 8.00596 7.84202 8.26073 8.12558 6.2902 6.66745 6.66879 7.50042 7.75878 6.55454 7.98926 7.0458 8.40871 5.71566 6.57271 4.14012 6.71359 6.969 3.99785 6.97899 7.94454 7.87307 7.06565 7.50608 5.04586 4.69209 5.44206 3.15648 2.97803 5.5276 5.33632 3.90659 4.81392 4.33074 4.86645 4.46148 6.45725 4.23203 4.7664 3.85473 3.37922 3.94238 5.18621 4.81055 2.82318 4.92555 5.15736 5.77033 4.13217 4.99627 2.98898 5.57779 4.24984 2.81786 3.98938 4.01286 4.0268 2.96087 3.7951 2.29932 6.44374 3.3925 1.32256 5.52491 4.06893 4.07123 4.09228 5.02197 4.58005 4.05443 2.88842 3.62222 2.51027 2.36666 4.80681 2.69283 4.6903 2.70901 4.88041 2.69219 3.79369 3.43075 3.15361 4.32252 2.63128 3.31691 3.52194 1.92768 3.98777 3.09459 4.52565 4.06281 4.18833 2.52996 4.20744 3.24595 3.14872 3.00321 2.66998 4.331 2.74549 3.61117 2.8094 2.5171 2.72951 2.83561 3.04091 3.06039 1.62915 2.97657 2.43685 2.82538 3.32724 2.81104 3.72184 2.52246 2.87511 3.13797 2.70322 1.85816 2.0598 2.09433 3.43091 2.99422 2.95396 2.26634 3.1076 1.88452 2.03665 3.9985 2.54914 2.69488 1.71712 1.60257 2.64292 2.02613 2.4007 2.55038 2.76981 2.39388 3.12246 1.59864 2.30766 1.65292 1.39959 0.954897 1.27651 1.71362 1.54743 2.14619 1.89973 1.71708 0.561618 2.68632 2.51697 2.00167 3.33239 2.75296 2.26436 1.37322 1.35006 3.38259 3.41595 1.01234 0.758819 1.89991 2.51946 1.40067 1.99167 1.70528 1.82986 2.34709 1.59006 2.11118 1.69109 0.637364 2.76717 2.04121 0.429227 1.13986 1.43991 1.58353 2.00158 1.98015 2.13039 1.0302 2.09284 1.4708 1.07461 2.05247 2.22494 1.01814 0.980903 1.76867 1.13476 1.46424 0.553925 1.52959 1.46187 2.15754 1.46559 1.6307 1.71065 1.49341 1.28741 1.36426 1.36671 1.28803 1.17721 1.82108 0.894187 1.2846 1.59118 1.50566 1.19066 1.75594 1.34118 0.764814 1.36191 1.39747 0.6769 1.91836 1.67551 0.933777 0.800287 0.285754 0.82192 0.678184 0.882542 1.08694 1.0313 2.1144 0.794114 0.96923 1.36536 0.896735 1.71885 1.21316 1.00922 0.927466 1.32717 1.02824 0.991772 1.51507 0.988979 0.358861 1.29115 1.10776 0.950193 0.324305 1.63249 1.54905 1.13122 0.797191 0.77572 1.51582 0.713068 1.01211 1.15062 0.600775 0.528706 0.772267 0.344458 0.993524 0.904208 1.00137 0.265785 0.977968 0.541882 1.15481 0.455816 0.953731 1.18343 0.478473 1.05214 0.660051 1.08811 0.852948 0.795634 0.877163 0.824737 0.857526 1.20005 0.35611 0.606681 0.599474 0.675883 1.06951 1.293 0.817065 0.709501 1.01093 0.905674 0.947573 1.06742 0.547637 0.847008 0.742529 0.639184 1.0339 0.955329 0.96527 0.59904 1.02367 0.994238 0.836398 0.773254 1.06517 0.529841 0.781384 0.790204 0.533949 0.712987 0.615625 0.752672 0.623818 0.747004 0.694246 0.554315 0.822709 0.735125 0.456321 0.620428 0.686227 0.340926 0.745681 1.02382 0.673367 0.741088 0.731785 0.765245 0.529228 0.531025 0.401382 0.613337 0.472508 0.556722 0.654757 0.799497 0.604675 0.525246 0.581546 0.438906 0.720853 0.513721 0.840545 0.519611 0.743041 0.340239 0.346006 0.538821 0.534781 0.378145 0.547619 0.564995 0.572757 0.659246 0.691248 0.642174 0.662202 0.354374 0.664233 0.452548 0.443612 0.597697 0.824596 0.434453 0.55538 0.336594 0.267205 0.441672 0.608206 0.677711 0.655942 0.557419 0.478997 0.501954 0.529651 0.594562 0.551815 0.491803 0.546248 0.494185 0.399261 0.4931 0.52952 0.468888 0.427753 0.64714 0.498977 0.466207 0.506649 0.39055 0.503417 0.56519 0.444693 0.591964 0.443843 0.343677 0.343533 0.499194 0.403272 0.549667 0.460113 0.434706 0.528901 0.355459 0.503634 0.321382 0.408057 0.497808 0.345147 0.477447 0.446688 0.276981 0.292743 0.3582 0.497003 0.26205 0.426643 0.291764 0.443527 0.430502 0.487056 0.365507 0.368792 0.347404 0.36465 0.349683 0.34658 0.400367 0.290162 0.356445 0.342689 0.399311 0.496748 0.32251 0.3994 0.483684 0.388939 0.398922 0.297528 0.273303 0.480375 0.640732 0.310138 0.444087 0.265592 0.251653 0.316441 0.36876 0.317643 0.33884 0.22329 0.15202 0.429774 0.242765 0.413232 0.264208 0.33906 0.356562 0.365972 0.298424 0.395851 0.397204 0.311273 0.382888 0.368196 0.484518 0.266264 0.171824 0.342599 0.341767 0.337616 0.242433 0.289608 0.278253 0.254745 0.29757 0.247978 0.236 0.378295 0.253699 0.339472 0.208933 0.275443 0.342156 0.260504 0.182552 0.262374 0.252464 0.342256 0.152135 0.303242 0.232869 0.201702 0.333748 0.272802 0.260592 0.224118 0.285803 0.347796 0.248694 0.142314 0.346655 0.173223 0.137422 0.340022 0.202765 0.264802 0.16574 0.242327 0.356238 0.250796 0.287229 0.0999303 0.182849 0.0839903 0.248582 0.277212 0.259251 0.17891 0.35178 0.347132 0.228202 0.362245 0.174985 0.143179 0.319261 0.233367 0.349064 0.238748 0.22778 0.175752 0.234326 0.162246 0.135055 0.21737 0.0950234 0.131208 0.0395112 0.377039 0.183407 0.282349 0.249879 0.258388 0.0922893 0.173945 0.200711 0.222013 0.153806 0.141283 0.230119 0.0685754 0.139645 0.159852 0.136986 0.271986 0.206411 0.174617 0.148551 0.10989 0.166648 0.130065 0.101186 0.146295 0.274081 0.217084 0.228686 0.233934 0.121602 0.17416 0.264037 0.255294 
20886 3039 2926 2899 2843 2622 2529 2462 2415 2294 2319 2235 2086 2010 1977 2047 2047 1992 1965 1962 1858 1870 1953 2012 1957 1980 2001 2083 2067 2187 2338 2406 2702 2809 2954 3203 3555 3682 4064 4541 4797 5264 5631 6258 6619 7092 7783 8293 8819 9285 10185 10960 11646 12784 13769 14594 15601 16807 17641 18394 19337 20235 20942 21625 22034 22296 22602 23536 25415 29132 35351 45713 63389 92672 143922 220288 295480 302116 229649 144563 86807 54101 35562 25301 18638 14391 11505 9544 8236 6868 6148 5204 4711 4305 3908 3564 3250 3079 2830 2760 2485 2350 2239 2046 2081 1967 1825 1788 1655 1681 1550 1480 1431 1387 1315 1289 1279 1261 1201 1181 1126 1054 1063 1055 1033 986 939 933 906 870 861 802 845 767 787 740 740 726 687 733 654 676 684 664 607 597 575 607 555 559 545 582 508 543 507 478 517 473 491 447 445 496 435 421 421 406 395 401 353 376 385 378 389 389 350 329 346 331 340 332 301 286 301 288 295 315 304 284 260 267 290 244 250 279 252 223 237 224 235 237 225 210 223 212 195 192 210 187 182 200 207 199 186 168 167 188 192 166 172 190 158 153 158 156 152 171 135 151 131 134 148 105 130 141 169 131 145 118 137 120 122 126 113 114 92 109 117 110 110 112 106 129 105 111 122 98 97 84 94 92 101 67 71 95 101 89 79 93 64 68 80 70 85 80 61 74 65 77 62 57 71 67 63 56 62 70 50 62 61 72 59 45 61 71 55 49 57 55 53 60 58 59 49 56 40 46 49 48 33 43 57 46 43 45 41 44 47 39 51 47 25 32 32 41 39 40 27 36 45 32 42 34 33 48 33 39 25 34 15 29 41 42 34 27 27 26 27 39 36 24 29 24 29 30 27 30 35 30 24 33 23 17 27 21 33 26 25 20 25 19 22 23 23 24 29 28 22 17 24 23 21 15 18 27 18 17 23 21 16 26 23 20 13 19 13 28 10 19 14 16 27 19 13 16 11 16 12 13 19 14 16 14 11 17 16 16 19 11 18 15 15 16 8 15 9 21 12 10 16 12 14 13 10 13 12 9 12 18 15 7 16 10 6 15 14 15 16 9 9 4 16 4 9 13 11 7 15 10 4 6 7 10 4 8 8 7 7 8 4 13 4 4 6 11 5 4 5 5 6 4 7 10 8 13 8 11 6 11 5 10 6 7 4 10 4 7 3 5 8 7 4 4 4 8 4 6 5 11 8 6 1 9 6 5 5 5 3 11 3 2 6 2 6 4 2 6 6 4 2 5 5 6 7 4 4 5 8 5 7 9 4 3 2 3 4 1 6 6 6 4 7 4 2 4 3 4 9 3 3 1 3 6 2 4 3 6 1 5 6 5 2 3 1 5 5 2 3 6 6 5 2 1 4 4 1 5 4 2 2 0 2 1 4 5 1 1 1 7 5 1 5 2 1 4 3 7 3 2 0 1 1 3 3 1 2 2 2 2 3 1 1 3 2 4 2 1 0 1 2 2 2 3 2 1 2 1 1 1 1 0 1 2 1 2 0 3 2 0 2 2 4 1 1 2 1 3 0 2 4 2 3 2 6 1 1 5 3 4 1 1 4 2 2 4 1 0 1 2 1 1 2 1 1 1 2 1 1 1 4 5 1 0 2 1 1 3 3 2 1 1 2 1 2 3 2 0 1 1 1 1 1 2 3 0 0 1 0 1 1 1 0 2 0 0 0 0 0 0 0 0 1 0 4 2 0 1 1 0 0 0 2 2 0 2 2 2 0 0 2 0 0 2 0 0 1 0 2 1 0 1 0 2 0 2 0 0 1 0 1 0 0 1 0 0 2 0 1 1 1 2 0 1 0 0 1 0 0 1 1 0 0 1 0 0 0 0 1 0 0 0 0 0 0 1 2 0 1 0 1 0 2 0 0 0 1 2 0 2 1 0 0 2 0 2 1 1 0 1 0 0 0 1 0 1 0 0 1 0 0 1 0 0 1 1 1 0 0 0 1 1 1 0 0 2 0 0 0 0 0 0 0 0 1 0 0 0 0 1 1 1 0 0 1 0 1 1 1 1 0 2 0 0 3 0 0 0 0 0 0 0 0 0 0 0 0 0 0 2 0 3 1 0 0 1 0 0 0 0 0 0 0 0 0 0 0 0 0 0 0 0 1 0 1 2 0 0 1 1 0 0 1 0 0 3 1 1 0 1 0 0 1 0 0 1 0 0 0 0 0 1 0 0 1 0 0 3 0 0 0 0 1 0 0 0 1 1 1 0 0 0 1 0 0 0 0 1 0 1 0 0 0 1 0 0 
_400
385
15 16 17 18 19 20 21 22 23 24 25 26 27 28 29 30 31 32 33 34 35 36 37 38 39 40 41 42 43 44 45 46 47 48 49 50 51 52 53 54 55 56 57 58 59 60 61 62 63 64 65 66 67 68 69 70 71 72 73 74 75 76 77 78 79 80 81 82 83 84 85 86 87 88 89 90 91 92 93 94 95 96 97 98 99 100 101 102 103 104 105 106 107 108 109 110 111 112 113 114 115 116 117 118 119 120 121 122 123 124 125 126 127 128 129 130 131 132 133 134 135 136 137 138 139 140 141 142 143 144 145 146 147 148 149 150 151 152 153 154 155 156 157 158 159 160 161 162 163 164 165 166 167 168 169 170 171 172 173 174 175 176 177 178 179 180 181 182 183 184 185 186 187 188 189 190 191 192 193 194 195 196 197 198 199 200 201 202 203 204 205 206 207 208 209 210 211 212 213 214 215 216 217 218 219 220 221 222 223 224 225 226 227 228 229 230 231 232 233 234 235 236 237 238 239 240 241 242 243 244 245 246 247 248 249 250 251 252 253 254 255 256 257 258 259 260 261 262 263 264 265 266 267 268 269 270 271 272 273 274 275 276 277 278 279 280 281 282 283 284 285 286 287 288 289 290 291 292 293 294 295 296 297 298 299 300 301 302 303 304 305 306 307 308 309 310 311 312 313 314 315 316 317 318 319 320 321 322 323 324 325 326 327 328 329 330 331 332 333 334 335 336 337 338 339 340 341 342 343 344 345 346 347 348 349 350 351 352 353 354 355 356 357 358 359 360 361 362 363 364 365 366 367 368 369 370 371 372 373 374 375 376 377 378 379 380 381 382 383 384 385 386 387 388 389 390 391 392 393 394 395 396 397 398 399 
104.644 0 0 0 0 0 0 0 0 0 0 0.186 0 0 0 0 0 0 0 0 3.55035 0 0 0 0 0 0 0 0 0 0 0 0 0 0 0 0 0 0 0 0 0 0 0 0.00723985 0 6.73289e-06 0 0 0 0 0 0 141.722 0 0 0 0 0 0 0 0 0 0 0 0 0 0 0 0 0 0 0 0 0 5.32439 0 0 0 0 0 0 0 0 0 0 0 0 0 0 0 0 0 0 0 0 0 0 0 0 0 0 0 0 0 0 0 0 0 0 0 0 0 0 0 0 0 0 0 0 0 0 0 0 0 0 0 0 0 0 0 0 0 0 0 0 0 0 0 0 0 0 0 0 0 0 0 0 0 0 0 0 0 0 0 0 0 0 0 0 0 0 0 0 0 0 0 0 0 0 0 0 0 0 0 0 0 0 0 0 0 0 0 0 0 0 0 0 0 0 0 0 0 0 0 0 0 0 0 0 0 0 0 0 0 0 0 0 0 0 0 0 0 0 0 0 0 0 0 0 0 0 0 0 0 0 0 0 0 0 0 0 0 0 0 0 0 0 0 0 0 0 0 0 0 0 0 0 0 0 0 0 0 0 0 0 0 0 0 0 0 0 0 0 0 0 0 0 0 0 0 0 0 0 0 0 0 0 0 0 0 0 0 0 0 0 0 0 0 0 0 0 0 0 0 0 0 0 0 0 0 0 0 0 0 0 0 0 0 0.810546 0 0 0 0 0 0 0 0 0 0 0 0 0 0.0403373 0 0 0 0 0 0 0 0 0 0 0 0 0 0 0 0 0 0 0 0 0 0 0 0 0 0 0 0 0 0 0 0 0 0 0 0 0 0 0 0 0 0 0 0 0 0 0 0 0 0 0 0 0 0 0 0 0 0 0 0 
11.885 0 9.86987 -9.42847 0 0 0 10.5621 -7.08183 0 0 5.8383 4.33592 5.18112 -4.51277 4.53678 4.79074 2.85255 -9.62815 9.15223 0 7.73976 0 0 -3.88059 -3.46498 -5.10095 0 4.41206 5.31572 11.1801 1.50897 5.80049 4.43972 8.09153 0 -10.2632 6.30423 4.71693 13.6449 -6.24789 0.406288 7.10587 -16.2819 4.30891 15.8383 1.20294 0 -0.238109 17.7254 0 6.58836 2.416 12.5506 10.5179 -7.38517 1.28497 15.8034 5.73485 7.60533 8.53083 -5.8025 -5.14682 14.4338 -9.24972 0.36976 8.99844 -4.1395 10.3412 6.4851 26.679 19.6522 0 -7.50253 17.5218 3.15949 0 0 -7.98351 8.03087 0.0507886 0 9.09107 6.64799 -6.43027 12.6512 -5.53116 2.3021 1.77074 -5.42766 5.77976 9.58337 5.08778 -11.2018 6.64798 9.81546 3.99166 5.90865 -1.6088 5.9462 1.50912 -3.73903 -3.7282 6.06716 5.03795 0 0 -4.82488 -5.17744 -5.20643 6.73829 0.629881 2.83171 19.9642 12.1776 0 0 0 0 8.43356 0 7.15961 -0.459437 -2.00809 -5.2207 0 0 0 0 -1.63056 0 0 0 0 2.85709 5.93702 -1.6439 6.79117 0 -3.24001 0 -7.04784 0 0 0 0 -4.85443 0 3.48434 0 0 0 0 0 -7.23775 -0.511232 0 9.42688 0 -6.59823 0 0 -0.0243467 4.18719 0 0 0 0 0 0 0 0 0 0 9.81532 0 0 0 0 6.291 0 0 0 0 0 -7.17976 5.15225 0 6.49067 0 0 0 0 0 0 0 0 0 0 -4.11641 0 0 0 5.02948 0 0 0 0 0 0 0 0 0 0 5.76489 0 0 0 0 0 0 0 0 0 3.75296 5.05462 0 0 0 0 0 0 0 0 0 0 0 0 0 0 0 0 8.53597 0 0 0 0 0 0 0 0 0 0 0 0 0 0 0 0 0 0 0 -4.7844 0 0 0 0 7.92828 0 0 8.48551 0 12.4365 0 0 0 0 0 5.05286 0 0 0 0 0 0 0 0 0 0 0 0 0 0 0 0 0 0 0 0 0 0 0 0 0 0 0 0 0 0 0 0 0 0 0 0 0 0 0 0 0 0 0 0 0 0 0 0 0 0 0 0 0 0 0 0 0 0 0 0 0 0 0 0 0 0 0 0 0 0 0 0 0 0 0 0 0 0 0 0 0 0 0 0 0 0 0 0 0 0 0 0 0 0 0 6.77823 0 0 0 0 0 0 0 0 0 
18.3206 4.21196 6.90515 3.26093 6.26705 3.96721 6.4377 4.95135 5.4193 4.7383 4.02924 3.87196 6.15241 6.77213 5.38666 5.30987 7.63292 10.6673 6.62189 9.56483 9.2822 12.4087 8.83653 11.0159 10.7164 11.0387 13.8039 10.8953 6.86642 11.5721 12.8564 12.1164 11.5119 12.6393 12.3858 18.4399 17.8078 13.3026 18.4489 21.6632 17.5346 19.3551 14.5507 19.1501 18.9587 18.5852 23.7363 16.0707 22.6022 17.5282 19.2664 17.1561 21.1768 20.1193 23.2872 27.2275 18.5604 16.6449 22.4995 18.1958 20.6766 22.6718 19.403 25.2631 28.0916 23.4414 15.6349 26.0525 27.8663 21.978 15.447 20.4802 19.4653 17.3716 15.1133 16.4913 15.1422 15.1003 17.4006 11.9052 14.356 12.2217 14.0525 14.9245 17.4198 9.79684 17.7249 16.8446 16.9558 11.0201 14.2834 14.5034 11.4564 17.8826 17.7972 18.3307 15.5254 8.81691 19.509 9.02113 12.8853 13.0926 16.9242 12.4302 11.5825 12.123 13.2765 11.5209 10.2291 8.20997 9.86818 10.7356 9.60011 11.9913 7.18022 9.75644 11.9413 14.1817 8.39188 7.07929 10.7893 7.10913 7.56167 7.1257 8.25344 11.8378 13.7532 12.7082 5.77834 6.45742 7.05222 6.72357 10.7919 5.76408 7.78545 6.7704 7.24869 10.288 6.5829 11.6944 6.63364 8.70202 9.31427 8.15834 8.21417 5.0534 3.0026 9.12879 7.85656 9.67788 6.11684 2.42896 4.06579 4.68256 6.46104 5.99783 4.80672 8.14212 6.4136 7.06814 5.96364 7.1339 4.58084 7.82159 2.5411 6.53863 8.22162 8.94969 5.22062 6.66535 8.26319 3.69582 6.48083 1.64144 3.16603 3.5863 3.03175 6.41597 4.99262 3.06561 7.97276 0.801444 5.1578 4.78861 0.870007 5.12861 4.29523 4.1246 3.39911 5.72759 7.25255 3.99326 6.30188 3.73663 0.824833 4.95099 2.56691 6.87866 7.25894 3.45149 4.11543 2.99187 0.923382 1.81935 2.37023 2.16535 5.51845 6.29424 4.1402 3.60589 6.08674 2.0747 1.67849 3.83038 0.757997 4.20966 4.03785 3.74887 1.60034 1.95962 2.57414 2.74851 5.36949 2.41658 2.19795 0.730189 3.44167 3.31733 2.12853 0.498923 3.56628 1.61208 0.807599 1.40888 1.41144 2.01518 0.604164 2.32233 3.48256 2.43455 1.4024 0.871469 1.28335 2.83047 1.86209 1.69553 1.14221 1.93078 5.16118 1.15252 0.742024 2.20467 3.02936 1.17651 0 1.96198 2.82969 3.38375 0.690086 1.32919 1.21647 4.36018 2.12261 1.90007 1.62594 2.70713 1.94369 1.33846 0.646531 0.506202 0.80884 1.49708 1.5374 0.632548 2.02314 2.32773 1.99115 3.17547 1.40856 0.645652 0.985839 0 1.16175 1.13585 2.37522 1.49247 0.97772 0 0.62325 0 2.49706 0.70225 0.629579 1.10212 0.0774556 1.93202 0.539432 0 1.67787 1.86838 0.596338 0 0.76205 0 1.38738 0.932516 1.79428 1.33055 1.12138 1.0839 1.49354 1.47748 0.711311 0 0.605664 0.468134 0.018038 1.67249 1.34393 1.22591 0 0 1.88681 1.26815 1.65095 0.772699 0.625712 0.149963 1.00637 0 2.37587 0.00143996 0 1.36878 1.85238 1.19095 0.494925 1.4669 0.235114 2.00054 0.649874 2.22897 1.32875 0 2.35647 1.03066 0 1.00593 0 0.676689 0 0 0 0 0 0 0.000117901 0 1.65195 1.16197 0 0.623467 0 1.0247 0.583736 0 0 0 0.5016 1.20357 0 0 0 1.62332 0.548206 0 0.756446 0 0.941951 0 0 0 1.11777 0 
1.01852 1.02777 1.05729 0.0445838 0 0.639858 0.979707 1.13721 0.553927 1.21293 1.80513 0.620132 1.10038 0.428456 0.525896 3.83362 1.32938 0.741861 3.20872 0 0.915276 1.2317 2.98406 2.543 2.88641 3.99859 4.20698 5.23943 4.93749 3.08999 6.41581 4.61799 7.33476 6.65992 5.57894 8.34238 6.13455 5.54835 8.76275 8.30351 10.1451 4.9134 11.1424 10.2719 16.8843 14.2939 10.0202 12.535 10.3006 18.9543 20.3405 16.7834 21.4397 20.6668 14.7252 22.3826 22.8566 35.5778 31.6942 33.5223 26.6321 35.3182 42.0526 49.0235 50.3131 55.834 55.6272 65.6983 84.5514 93.1363 142.514 183.733 276.23 389.67 585.695 890.243 1231.75 1226.61 930.468 625.916 331.021 245.653 150.177 111.57 72.6765 50.6146 50.3322 37.5522 30.8324 24.2964 22.4399 24.0446 26.2511 20.9749 13.8394 18.1473 14.7902 15.4014 14.2618 8.7278 9.37807 7.33644 6.42758 6.27121 8.0339 8.18461 7.82461 6.40608 4.66453 1.61227 4.8908 4.55311 6.97304 0.868138 5.62456 5.97251 5.44049 3.10975 1.78511 3.83413 3.3156 1.76624 2.27386 6.03977 2.86165 1.85259 3.73338 2.33958 2.68628 0.661277 3.22271 1.30011 1.33719 2.08696 0.973913 3.07969 0.48514 0.63101 2.6764 2.48574 2.337 2.59317 4.12463 3.80302 3.95848 1.84523 3.19529 0.865205 2.91757 1.2855 2.72705 1.08151 1.43352 0.62268 1.91887 2.20662 1.04632 0.807241 2.66921 1.12777 0.653733 0 2.29014 2.05317 1.09528 0.153794 1.45208 2.91167 1.75586 1.41168 2.87447 1.03374 0.000133783 0.632051 1.25704 1.81299 0.819074 0.906504 0.662916 1.71468 1.51869 1.73211 2.52237 1.26135 0 0.563095 0 0.975548 2.53614 1.30309 0.513621 1.18829 0 1.89311 0.465607 2.01149 0 0.87094 2.39961 1.0162 0 0.948547 0.824884 0.505081 0.877233 0 0 0 0.584957 0.458848 0 1.11349 1.02674 1.51489 1.8245 1.83008 0 0 1.70275 0.497977 0 0.274879 1.13357 2.00626 0 2.04803 1.16855 0.725808 0 0.722213 0.00496556 0 0 0 0.0167734 0 0 0.486953 0 0.805434 0.484001 0.613502 0.964311 0 0 0.692418 0 0 0 0.939696 1.58894 0.594995 0 0.0165156 0 0 1.34212 0 0 0 0 0 0 0.962255 0 0.504482 0.349549 0.177001 0 0 0 0.930267 0.00262251 0 0 0.179575 0.543729 0.00272966 0.35577 9.85256e-05 0.959477 0 0.93486 0 0 0 0.876334 0 0 0 1.48216 0.554149 0 0 0 0.540561 0 0 0 0.498256 0 1.12103 0 0 0.362035 0.137905 0 0 0 0.705631 0.0283708 0 0.914968 0 0 0 0 0 0.227651 0 0 1.03924 0 0 0 0.559931 0 0 0 0 0 1.02602 0 0.137166 0 0 0 0 0 0 0 0 0 0 0 0.513565 0 0 0.577383 0 0 0.228845 0 0 0 0 0 0 0 0 0 0 0.00274965 0 0 0 0 0 0 0 0.804104 0 0 0 0 0 0 0.139834 0 0 0 0 0 0 
28.8591 6.8464 4.80928 6.77215 1.10616 3.70911 5.7536 8.07018 0.556002 3.46902 4.13569 5.87382 2.55919 2.76048 2.91783 1.57982 2.5237 0.813426 4.7948 5.28413 4.86974 3.62902 3.08784 4.65377 4.85825 4.47427 0.603204 2.80267 2.15508 3.5182 2.35942 2.53419 4.30746 3.43293 2.24852 4.30111 3.28629 2.80986 5.11831 4.29278 8.38348 6.76417 6.42575 5.87163 10.5556 7.52865 12.1785 8.20989 11.2951 8.44206 9.8958 9.38739 9.95901 21.024 13.1198 14.3465 13.2011 13.3859 14.2284 14.869 17.9436 23.881 23.0634 26.6708 29.5709 38.5308 30.3588 47.0139 53.642 70.8131 85.123 106.456 150.259 224.053 361.35 532.239 660.498 719.126 556.877 353.746 208.936 133.386 91.1096 63.9117 34.7147 31.1207 32.8825 24.0227 21.8695 11.2691 15.1897 13.4089 7.20788 9.93198 12.6546 11.9863 8.22889 7.42788 8.74578 7.53699 3.49165 6.94885 1.42529 5.80096 4.04157 1.70422 1.06294 4.14023 4.29333 4.96966 0 3.83143 2.7338 1.2797 3.02675 2.94083 1.5845 0.286385 3.46594 1.30501 1.46814 1.10049 4.03748 4.92092 3.81134 0.0028512 2.41738 3.4685 2.61484 1.78677 1.70113 1.68661 1.4129 2.58564 3.0225 0 0.821954 3.20914 1.47087 2.52754 1.14305 1.18159 0.829004 0.830986 0.425206 0.599618 0 1.85947 1.75538 0.857313 1.35169 0.536875 0.569999 1.73401 1.82961 0 0.500915 0.689137 0 0.589729 1.58062 0 1.02245 1.41605 1.41551 0.64566 0 0 1.09022 0.536922 0 1.70409 0.338311 0 0.57261 0.569981 0 0.583989 0.336059 0.554398 1.05674 0.18919 0.336632 0.916789 0.0732847 0 2.31014 0.917951 0.666617 0 0 0.661302 0 0 0.635767 0 1.19391 0.00538948 2.25105 0.518206 0 0 0 0 0.658918 0 0 0.50753 0 1.66938 1.7037 0 0.278341 0.53091 0.000114956 1.08145 0 0.667588 0 0.602105 0.556653 0 0.639505 0.627262 0 2.24215 1.262 0 0 0.491872 0.000190145 0.56967 0 0 0 0 0.543228 0.848894 0 1.5536 0 0 0 0 0 1.1222 0.523652 0 1.06945 0 0 0 0 0 0 0.192042 0 0 0 0.543067 0 0 0 0.791771 0 0 0 0 0.526843 0.642248 0 0.0481173 0.283526 0 0 0 1.7994 0 0.845497 0 0 0 0.375632 0.421288 0 0 0.524659 0 0 0 0 0 0 0 0 0 0 0.00990083 0 0 0 0.566018 0 0 0.906914 0 1.21736 0.999322 0 0 0 0 0 0 0 0 0 0 0 0 0 0 0 0 0.508745 0.871355 0.485543 0 0 0.371317 0 0 0 0.832322 0 0.835147 0 0 0 0 0 0 0 0 0.146341 0 0 0 0 0 0 0 0 0.714719 0 0 0 0 0 0 0 0 0 0 0.490986 0 0 0 0 0 0 0.0298765 0 0 1.41654 0 0 0 0 0 0 0 0.669836 0 
23.0024 5.64205 7.82424 7.65438 6.67714 6.44214 6.48344 6.15163 7.67164 5.51997 11.6889 11.5485 9.7447 12.7088 9.66577 11.8894 10.119 9.15225 11.1564 11.7144 8.3263 10.4579 11.377 11.6639 13.4353 13.3103 11.5517 14.1057 16.4883 15.1424 12.3789 14.1212 17.6904 15.4499 15.7653 16.2007 17.1945 18.7897 19.8853 17.6031 18.6869 17.1975 17.9217 20.6135 20.0835 20.9041 21.4166 20.5043 17.4331 22.3127 22.0523 22.6171 19.3498 18.6441 23.7011 21.2944 24.4523 21.0047 19.1948 20.7004 19.2277 18.73 22.8485 22.4209 24.1541 19.0757 17.9015 24.3556 24.0015 20.9193 21.7939 22.0145 15.5116 18.0443 20.6831 20.4404 23.1169 20.3882 21.5081 19.4422 19.5613 20.9791 21.4749 17.2166 20.7434 20.9947 19.9899 17.9301 20.8407 19.1205 18.8192 19.3231 21.7463 20.5691 19.9175 19.837 21.287 17.1283 17.8474 14.3384 17.2989 14.3585 15.2602 17.1481 15.3566 14.8715 14.6448 12.7455 15.4678 17.0776 15.2218 14.2529 19.0996 12.2262 14.5892 16.0698 13.3412 10.3243 13.1511 13.906 15.2288 12.94 12.5086 14.1849 12.7441 12.4583 14.7928 13.889 12.3584 12.6566 12.3918 12.6464 10.8741 7.86905 12.0515 11.0422 10.3701 11.2547 13.4542 12.7484 11.0041 9.45713 8.58973 9.28399 12.2121 10.14 10.8375 10.7929 9.75414 9.42604 7.6157 7.18126 7.36203 8.11273 9.74176 9.86206 5.24394 8.08771 7.70902 7.20203 9.55974 8.66092 6.03329 6.75313 6.51357 8.11852 6.76329 7.22438 6.90391 5.50448 6.34842 7.13266 8.73818 7.29122 7.04491 8.90789 5.99681 5.63447 6.08281 5.48077 8.28521 7.06783 3.96601 6.47377 4.49498 6.64652 4.02752 5.74102 6.89882 3.71544 5.09683 5.05531 5.60766 4.92928 5.35831 5.85172 5.90346 4.63933 5.82324 2.62568 5.01632 5.6001 3.53994 5.49275 5.50769 4.79913 4.66231 3.57341 4.70616 4.44872 3.11155 4.36994 2.83046 4.29941 4.51916 4.61116 2.48977 2.93329 2.69172 3.55492 3.24484 3.44239 2.59706 2.579 3.94045 1.80974 2.69209 4.00623 3.56393 1.884 3.78619 3.42332 3.50172 3.42209 1.12074 1.38072 3.90055 2.35904 2.48966 2.9058 3.27384 3.04727 2.3863 3.60153 2.92563 2.21457 2.33845 1.49385 2.62311 1.95089 2.0665 2.58248 2.27174 2.5371 1.51385 1.61325 2.9997 2.87429 2.09968 3.36997 1.5919 2.11783 3.25682 1.38135 2.09473 1.27995 0.728784 2.12342 0.974619 0.800103 0.552242 1.86704 2.11053 2.77755 2.03071 2.98563 2.39386 0.912423 2.18004 1.81052 0.959663 2.47403 1.16454 1.25062 1.55136 1.53062 0.757862 0.906068 0.595842 1.65527 1.1383 0.965648 1.3226 0.654261 0.65361 1.53925 0.868913 0.889884 1.68763 1.10425 1.68632 0.664993 0.95711 0.959297 2.00344 1.41583 0.967061 0.589265 0.444353 1.40174 1.45353 0.61968 0.970049 1.77066 1.3958 0.901497 1.07919 1.80454 2.26161 0.936979 0.993221 1.05877 0.789326 0.848655 1.57729 0.696278 0.569236 1.08672 1.67148 0.641753 1.41965 0.254836 0.180903 0.574153 0.489725 1.20151 0.349672 1.22397 1.15644 0.158334 0.745494 1.37718 0.684519 0.542787 0.593771 1.32246 0.717919 0.581434 0.903719 0.388877 0.712176 0.244988 1.03387 1.19763 0.363742 1.09654 1.11974 0.877893 0.559548 0.190671 0.768405 0.528335 0.523721 0.489443 0 0.153402 1.31837 0.416477 0.370212 0.756768 0.434906 0.3678 0.531712 0.182081 0.163917 0.347955 1.21837 0.967719 0.704908 0.508007 0.888226 0.472444 0.315061 1.06454 
19.9433 6.14618 5.57909 6.75658 5.4063 6.23877 6.73886 4.76234 8.88526 9.39164 11.6458 8.90334 8.28326 8.78304 10.2591 10.925 12.3818 10.1499 9.38118 11.1333 11.9439 11.4489 10.0117 16.1547 11.7277 15.6624 16.8991 14.2138 16.0353 14.1363 15.5065 16.5323 16.2805 20.8175 15.6438 15.9887 19.0879 18.0553 16.4377 16.3317 16.8778 20.0491 17.2373 20.7028 15.5636 19.8921 19.3524 20.9073 21.0571 18.3993 20.0957 20.7804 21.5021 20.6144 19.4451 21.4417 21.1721 22.9771 23.4931 22.5115 21.5424 22.9786 20.3534 21.7634 18.8804 19.4697 19.6407 16.9752 24.0144 24.8171 17.1915 18.9145 20.2922 22.1293 22.393 20.818 22.5841 19.7681 20.3683 21.7238 17.8421 19.3097 18.6871 21.2818 20.8614 21.2539 18.6492 18.8969 22.5106 18.7436 19.7389 18.7744 18.8016 19.9651 16.2613 17.3682 15.5123 18.7951 18.6067 14.0559 15.0178 17.6609 20.6763 16.3187 17.8619 16.1564 16.0312 14.7728 12.9516 14.7822 15.3967 14.0413 13.2746 15.9563 17.4386 12.531 13.1813 14.6062 12.8666 15.5978 13.3676 11.2956 11.7087 12.1008 11.3327 12.3718 13.8931 13.0454 14.567 12.6814 9.60319 15.1424 13.124 12.7886 9.29657 13.0908 7.11656 11.445 11.5854 11.474 11.9685 9.8586 8.47002 10.6744 11.2323 9.49803 7.06952 10.9095 10.354 6.62147 7.7661 9.02804 8.66314 7.85179 8.56726 10.1071 7.33262 9.13582 7.96575 8.33564 7.6771 9.57229 8.10062 9.95931 7.11885 8.48219 4.45239 6.04683 5.75412 6.02542 5.96531 7.66302 7.90738 7.10411 5.62342 7.00993 6.5661 5.35385 5.91353 5.4482 6.46022 5.72241 7.52523 4.48509 5.51843 7.17835 6.61093 6.13808 4.39294 5.06874 5.35619 6.12087 5.45573 3.65579 5.30119 5.35197 4.09331 5.18971 4.29177 3.77998 5.43798 4.47285 5.11014 4.53598 5.19555 3.06155 6.36293 4.84942 3.89429 4.34229 5.61813 3.90716 5.29004 3.34578 3.58158 4.91308 3.42665 2.95782 2.93001 3.18132 2.13444 5.26131 2.64656 2.40622 3.44917 3.34883 2.5989 3.33139 2.54495 3.23068 3.27689 2.94633 3.19306 1.55247 3.38064 2.86894 2.32951 2.05689 3.24356 2.78789 4.36524 2.32793 3.2462 1.43617 1.94561 3.46863 1.65061 2.77716 2.1219 3.07382 2.53276 0.961293 2.64044 1.42477 4.49248 1.73337 0.815067 2.541 2.31306 1.8447 3.64883 1.56748 2.49297 0.910888 1.54783 2.19312 1.73901 0.715755 3.55318 1.20705 3.20857 2.19615 1.64531 2.68424 1.94745 0.917273 1.05816 2.5847 2.33501 1.14255 2.61389 1.95422 1.37998 1.99402 1.05666 2.82651 1.72406 2.08709 1.65135 0.762857 1.14067 0.850979 1.14269 1.68413 1.5105 1.53744 1.69388 1.32978 1.51945 2.67299 1.31092 0.896545 0.862604 1.19933 0.762484 0.826257 1.23292 0.933061 1.24178 0.78934 1.0671 1.75198 0.87158 1.09613 1.34405 1.39314 1.96242 0.546659 0.426759 1.38855 1.72746 1.40669 0.80454 0.850251 0.286777 0.29155 0.587902 0.77016 0.850137 0.458278 1.17639 0.872231 0.884398 0.870872 0.707842 1.02233 0.334626 0.205691 0.445922 0.308383 0.243553 0.910629 0.699919 0.584581 0 0.85816 0.514778 0.353651 1.08526 0.766843 1.20197 1.24897 0.2414 0.50291 0.461822 1.03834 0.825512 0.652208 0.572609 0.434716 0.602801 1.37392 0.523146 0.840272 1.086 0.80077 0.750078 0.286052 0.285896 0 0.348826 0.681578 0.402449 1.8572 0.759124 0.84773 0.193444 0.944112 0.42821 1.57669 0.735484 0.674536 0.215708 0.420612 
1107.03 164.7 190.757 203.78 195.966 219.952 236.466 231.861 236.189 257.818 264.235 272.675 280.688 284.935 311.814 330.247 304.059 327.326 339.776 352.686 356.403 381.736 403.281 406.866 407.622 390.464 415.103 434.592 433.369 441.836 436.272 463.697 488.344 492.092 481.391 510.071 520.657 548.667 540.61 549.241 568.922 588.494 618.243 592.283 596.114 606.188 618.87 619.371 647.152 647.834 625.92 630.414 658.082 643.797 635.99 664.071 683.79 670.193 666.076 651.202 661.555 653.001 651.178 641.296 667.234 662.839 664.259 643.16 635.586 636.502 650.082 630.193 629.03 619.837 620.855 618.931 582.151 615.619 603.749 592.789 594.194 587.829 563.289 576.302 565.6 571.049 546.073 553.795 520.926 530.589 527.643 535.998 539.828 524.282 518.497 493.398 495.46 508.604 470.951 460.45 477.141 455.284 468.236 452.475 435.185 438.532 431.931 428.281 422.629 415.009 415.054 399.944 407.399 400.949 398.037 389.26 382.086 382.971 378.323 356.335 359.408 370.502 342.469 356.426 351.845 343.17 332.857 331.895 323.088 334.825 297.884 319.547 304.786 290.42 300.627 278.522 303.974 290.247 270.27 280.382 276.529 271.894 276.73 260.493 259.56 250.457 250.686 245.955 229.097 245.264 242.725 232.653 227.353 228.402 228.444 231.138 213.711 219.582 201.903 208.55 194.82 195.925 200.507 204.051 198.7 191.762 187.82 183.074 174.093 179.659 173.035 174.777 166.582 160.517 174.533 161.324 155.322 156.649 155.353 149.054 149.757 147.441 146.383 140.947 133.955 141.824 137.8 128.079 126.283 135.168 127.115 120.057 134.25 124.273 122.98 116.502 117.067 118.23 108.102 109.356 115.738 108.937 101.819 104.918 99.0012 107.215 104.665 100.59 91.6704 98.3467 96.6133 97.6421 95.0859 91.1646 86.0887 93.043 86.1164 84.2855 87.3342 80.323 82.9222 81.279 77.4939 76.9034 83.4868 77.5435 74.8225 73.7126 70.0193 73.6469 68.0941 71.2849 73.6619 60.8338 74.5467 66.1914 64.028 57.8387 55.9634 59.9585 63.7668 57.2257 55.2029 54.8716 57.5391 50.6881 54.3299 54.4744 49.1695 55.5499 54.2197 54.4945 53.3404 50.7584 51.3576 51.7572 47.3955 46.8382 48.8311 43.6436 39.9651 48.4625 42.7407 39.8345 39.3883 45.7347 38.4946 40.2714 42.0093 41.9054 39.1967 40.5835 36.7413 39.5474 37.0134 36.6532 35.4195 30.5825 32.8625 37.9883 36.7662 32.1695 30.3456 32.3857 34.1139 32.8709 28.4402 30.0716 26.3853 34.5737 31.5651 28.0331 26.4369 32.9031 29.994 25.6176 28.2587 27.2285 26.7445 27.0064 27.5169 24.4114 25.4275 26.0689 23.4123 23.3136 26.6016 25.0877 21.7265 25.3392 24.7812 21.5988 22.2144 20.6176 18.6865 21.8057 22.5901 21.9914 21.0512 20.0607 17.6661 19.3615 17.6511 21.3848 21.6783 21.6683 20.1217 18.5562 20.3544 17.4576 17.1847 17.4819 15.2392 16.5855 17.1324 15.5994 17.3319 18.0628 16.4639 14.2371 18.6819 16.0398 13.6624 17.1732 18.3356 14.9298 13.9476 12.5924 16.3117 12.8932 14.0144 13.7939 13.1825 13.9144 11.5724 13.8707 14.4514 13.4073 11.7205 10.9611 11.085 11.619 11.8069 13.1466 7.87391 9.32018 10.8858 9.82267 11.749 10.2713 10.5547 11.5379 10.7429 9.63238 11.0986 9.57713 9.80915 9.97119 9.06342 9.50285 8.72799 8.44722 9.77103 8.94676 
83.9505 -13.1421 5.09343 7.68637 1.80079 10.7677 4.73006 -3.70981 2.49819 -0.916282 -5.22107 14.7468 16.2508 20.6722 12.779 5.65178 -0.571183 22.7696 36.1511 15.705 41.6857 24.3816 43.3672 48.8589 34.1689 7.77178 50.5017 14.1352 107.3 58.2295 95.0119 41.1909 106.239 117.283 146.201 132.561 137.263 231.256 107.421 148.029 168.619 177.908 191.794 133.447 168.381 192.083 128.416 124.257 108.14 154.547 184.372 131.304 58.365 89.0844 120.382 91.1561 94.095 35.6278 72.0514 89.4037 14.0251 52.6895 38.4077 65.3365 32.0265 12.4285 12.6717 25.9109 9.07247 25.4717 6.82507 -0.835163 6.50672 19.2564 10.3628 1.27746 -1.1742 0 6.401 1.76493 12.9255 -0.728518 10.4802 2.33947 11.9253 0 3.35238 2.92082 2.41411 -0.419542 7.28758 6.58347 3.04665 -3.51717 1.23263 -0.158966 -2.14162 0.342308 -6.29527 1.76541 4.94043 0 0 -2.44279 -2.28575 -1.66846 -2.85662 0 0.294862 5.79957 0 4.27829 4.34548 3.28087 0 0 0 -2.47873 1.03303 0 -1.26334 0 2.51375 0 2.23039 0 0 2.1894 4.78742 0 0 0 0 0.00310094 0 0 0 2.83109 0 0 0 0 0 0 5.38845 2.5169 0 0 -2.74671 0 3.6453 0 0 2.16631 1.74674 0 0.00297972 1.22621 0 0 0 0 0 0 0 0 3.53374 0 0 -4.37784 0 0 -2.49154 0.0428698 0 0 0 0 3.63694 0 3.15852 0 0 0 0 0 4.21682 -4.28043 2.84699 2.55547 1.80667 0 0 0 3.03237 0 0 -2.1099 0 0 0 0 0 0 0 0 0 0 0 1.97118 0 0 0 4.16303 0 0 0 3.60656 0 0 0 0 0 0 0 0 0 0 0 0 0 1.7156 0 0 0 0.0120478 0 0 0 0 0 0 0 0 0 0 0 0 0 0 0 0 0 0 0 0 0 0 0 0 0 0 0 0 0 0 0 0 0 0 0 0 0 0 0 0 0 2.37771 0 0 0 0 0 0 0 0 0 0 0 0 0 0 0 0 2.38339 0 0 0 0 0 0 0 0 0 0 0 0 0 0 0 0 0 0 0 0 0 0 0 0 0 0 0 0 0 0 0 0 0 0 0 0 0 0 0 0 0 0 0 0 0 0 0 0 0 0 0 0 0 0 0 0 0 0 3.97352 0 0 0 0 0 0 0 0 0 0 0 0 0 0 0 0 0 0 0 0 0 0 0 0 0 0 0 0 0 0 
17898.1 3550.77 2503.21 2518.71 2027.08 2073.65 1777.08 1814.09 2054.75 1913.85 2006.4 1653.67 1802.87 1545.4 1653.47 1331.85 1418.69 1546.83 1612 1621.14 1303.76 1437.61 1425.4 1194.98 1464.03 1515.34 1363.96 1643.43 1426.13 1643.09 1462.88 1832 1793.09 1975.33 2397.34 2498.91 2929.62 3077.38 3506.09 3906.52 4148.36 4935.73 5228.46 5749.36 6153.42 6851.88 7204.13 8157.98 8675.02 8885.2 10331.9 11072.1 12014.2 12960.9 13628.6 15328.8 15621.3 16271.4 18010.1 18841.5 19441.6 20141.1 20805.6 21590.4 21650.1 22095.8 21798.9 22221 24095.4 26281.9 33379.3 42690 58377.8 84996.8 132418 203533 273346 277933 210944 134585 79887.4 50240.7 32010.3 22494.3 16792.4 12278.5 9891.07 8315.47 7020.1 5959.38 5167.26 4472.62 3909.17 3480.47 3276.98 2902.94 2539.36 2551.77 2248.58 2012.04 1850.37 1801 1603.82 1550.37 1418.27 1372.88 1184.9 1164.32 1152.78 1085.23 983.461 981.353 909.714 886.455 875.578 822.184 740.745 694.463 640.327 638.143 599.79 677.548 568.726 567.575 539.768 565.982 529.607 491.95 492.365 460.279 490.059 434.103 450.529 403.361 374.253 323.423 339.214 349.971 370.34 311.71 299.736 328.76 284.288 326.646 284.874 300.487 263.216 258.696 316.892 289.924 225.354 232.812 215.712 232.338 257.316 268.026 209.75 228.31 227.595 201.254 248.302 188.966 184.76 222.151 161.659 185.756 153.377 156.41 180.345 169.016 166.257 130.897 159.865 135.125 155.763 186.299 140.025 167.071 130.288 132.917 155.339 133.835 142.46 138.587 119.487 114.032 133.444 116.32 115.049 106.534 107.91 105.667 107.737 111.619 101.862 107.713 104.842 101.982 98.4108 86.0864 106.787 92.6239 77.0454 90.0966 78.9885 84.9856 70.5653 79.821 74.4023 85.0225 69.4329 75.4788 82.0964 68.9349 63.6425 66.9553 68.2596 63.3353 75.729 69.8465 59.618 59.7109 64.7937 65.4867 57.4896 61.0832 62.1114 63.2375 56.0756 55.1197 56.3648 61.7601 58.594 50.4176 44.0135 49.7359 56.2623 44.4925 49.4817 48.9683 44.5146 45.6083 51.4529 44.961 45.8738 33.9296 48.7222 35.7248 36.2234 38.8801 35.1814 43.9318 38.0905 42.7471 36.2806 40.7947 34.4155 40.1215 42.9973 39.7279 37.6776 37.1663 41.63 37.646 32.4105 32.6633 28.3266 33.7883 31.1222 34.7462 32.6335 26.075 36.2671 30.5916 33.8538 29.2555 31.0359 27.5814 27.4392 31.9648 29.4089 23.6318 24.9569 21.958 27.3738 25.9683 27.0992 18.4777 29.1426 22.0442 24.7734 29.516 27.0009 25.9536 21.2679 19.6805 25.3982 19.06 17.6379 23.6286 23.121 25.9183 20.6023 18.4132 23.2782 15.0864 23.1894 17.6135 17.6718 17.9661 15.1816 20.4233 22.8754 20.9602 17.9066 27.2793 11.9142 17.7603 16.1145 21.2027 17.7192 19.1067 17.1728 18.6279 19.1772 16.4703 13.9543 12.2313 17.9467 14.2856 18.8832 20.0363 13.8118 13.8657 13.9017 18.0402 17.0203 14.5768 19.9399 13.2855 13.0384 13.5306 15.5215 10.2608 12.1112 12.189 13.0078 13.5419 12.6781 12.2333 13.337 14.5206 10.8337 14.0269 13.8471 8.12583 8.5754 11.6478 15.5497 9.99398 10.7242 8.60789 10.6992 12.0519 11.5569 9.88532 6.48325 8.79182 7.25412 7.50674 12.0253 9.03748 9.92913 6.28502 8.71095 7.12294 8.99184 11.3563 6.94527 9.16857 5.25764 7.0023 8.92656 7.09239 
20886 3039 2926 2899 2843 2622 2529 2462 2415 2294 2319 2235 2086 2010 1977 2047 2047 1992 1965 1962 1858 1870 1953 2012 1957 1980 2001 2083 2067 2187 2338 2406 2702 2809 2954 3203 3555 3682 4064 4541 4797 5264 5631 6258 6619 7092 7783 8293 8819 9285 10185 10960 11646 12784 13769 14594 15601 16807 17641 18394 19337 20235 20942 21625 22034 22296 22602 23536 25415 29132 35351 45713 63389 92672 143922 220288 295480 302116 229649 144563 86807 54101 35562 25301 18638 14391 11505 9544 8236 6868 6148 5204 4711 4305 3908 3564 3250 3079 2830 2760 2485 2350 2239 2046 2081 1967 1825 1788 1655 1681 1550 1480 1431 1387 1315 1289 1279 1261 1201 1181 1126 1054 1063 1055 1033 986 939 933 906 870 861 802 845 767 787 740 740 726 687 733 654 676 684 664 607 597 575 607 555 559 545 582 508 543 507 478 517 473 491 447 445 496 435 421 421 406 395 401 353 376 385 378 389 389 350 329 346 331 340 332 301 286 301 288 295 315 304 284 260 267 290 244 250 279 252 223 237 224 235 237 225 210 223 212 195 192 210 187 182 200 207 199 186 168 167 188 192 166 172 190 158 153 158 156 152 171 135 151 131 134 148 105 130 141 169 131 145 118 137 120 122 126 113 114 92 109 117 110 110 112 106 129 105 111 122 98 97 84 94 92 101 67 71 95 101 89 79 93 64 68 80 70 85 80 61 74 65 77 62 57 71 67 63 56 62 70 50 62 61 72 59 45 61 71 55 49 57 55 53 60 58 59 49 56 40 46 49 48 33 43 57 46 43 45 41 44 47 39 51 47 25 32 32 41 39 40 27 36 45 32 42 34 33 48 33 39 25 34 15 29 41 42 34 27 27 26 27 39 36 24 29 24 29 30 27 30 35 30 24 33 23 17 27 21 33 26 25 20 25 19 22 23 23 24 29 28 22 17 24 23 21 15 18 27 
_custom_bins
44
15 20 25 30 35 40 45 50 55 60 64 68 72 76 81 86 91 96 101 106 110 115 120 126 133 141 150 160 171 185 200 220 243 273 320 380 440 510 600 700 830 1000 1500 3000 
104.644 0 0 0.186 3.55035 0 0 0 0 0.00723985 6.73289e-06 141.722 0 0 0 0 5.32439 0 0 0 0 0 0 0 0 0 0 0 0 0 0 0 0 0 0 0.850883 0 0 0 0.0430997 0 0 0.00569781 
11.885 0.441395 3.48031 15.3794 7.16737 0.394196 15.8069 19.8407 8.15498 11.3775 18.6902 21.555 20.2211 16.0685 9.40547 59.0181 13.1788 0.098152 16.4288 14.0083 10.3494 15.7468 3.63789 -7.84058 34.9734 7.90495 7.16355 -5.14059 -9.11906 6.99149 8.92657 12.556 14.5725 8.53597 29.1187 0 6.77823 0.0472335 0 0 0 0 0 
18.3206 24.6123 25.5759 27.493 43.7692 54.0163 55.9941 67.0932 88.757 90.5998 79.9375 77.7186 85.72 84.0438 111.834 111.824 83.5837 70.9838 73.9184 73.6073 65.4669 65.7578 66.1526 63.8404 73.043 73.5095 69.8316 81.8899 64.2256 93.524 60.7956 79.1483 74.4678 55.5141 59.2006 47.0174 32.3124 11.5729 12.747 9.44813 5.40603 5.92399 3.77287 
1.01852 2.7695 5.68891 6.50849 6.19524 13.6438 23.8897 32.534 38.8942 57.5059 51.8102 79.2305 95.5422 127.167 252.85 569.633 3373.59 3359.67 435.371 139.166 79.2127 62.5593 36.2537 29.9514 29.7736 25.6772 17.6877 24.9398 19.3001 21.2561 16.4367 18.3294 17.9113 9.27284 11.4748 5.96153 4.43736 4.86807 0.865475 1.73571 0.620815 0.349353 0.697256 
28.8591 23.2431 21.9845 15.6911 18.2858 20.7031 11.4386 16.8242 23.8907 37.1458 40.1256 50.2661 54.0534 70.922 148.195 363.048 1928.4 1972.07 253.739 85.7599 41.7808 35.4312 19.9209 18.2976 15.3179 19.0636 18.2789 13.039 10.9953 8.9863 7.23208 9.81926 12.3687 6.9148 8.28488 7.47316 3.7628 5.31016 1.30096 1.15125 2.08382 1.03234 0.810766 
23.0024 34.24 37.5156 55.5573 50.4683 60.2443 69.667 79.2276 92.1596 96.7204 81.6667 82.6632 90.4527 77.8529 106.401 113.085 97.7962 101.879 100.419 96.0336 82.0698 87.8999 76.9949 89.4104 98.8015 108.764 105.779 108.514 95.9301 101.382 99.244 101.23 80.6777 76.5879 70.6972 51.2561 26.5269 15.0944 9.93701 3.0779 2.6195 0.889267 0.230917 
19.9433 30.1269 41.4239 47.1538 54.9901 65.0055 76.7911 85.2629 86.7904 93.4449 79.7162 82.9927 85.0359 90.5256 100.108 101.913 108.217 99.012 100.733 98.6644 72.3962 81.9878 88.6742 87.9758 99.8546 101.668 113.339 103.323 94.2705 104.592 95.4793 98.6213 86.3223 76.7344 80.1315 49.3326 25.4164 14.0626 7.84784 4.3744 2.24162 0.811253 0.600846 
1107.03 975.154 1226.57 1480.36 1680.25 1989.97 2161.17 2435.6 2728.1 3001.32 2533.23 2558.21 2654.04 2631.83 3286.81 3195.52 3070.8 2994.18 2822.31 2668.95 2076 2412.61 2249.71 2512.85 2739.03 2813.01 2781.6 2740.54 2575.43 2713.48 2314.42 2362.89 1991.15 1737.86 1581.1 1025.68 475.833 268.98 141.438 66.2564 31.7433 13.2943 4.93609 
83.9505 12.2061 -2.6189 70.1006 115.74 158.548 325.178 543.474 792.588 863.612 515.361 463.126 341.261 228.17 160.871 66.445 36.2292 20.363 28.0973 18.7864 0.603135 -1.38874 -6.397 7.5161 6.18066 3.48081 6.97992 10.7364 4.81462 0.382109 4.34678 8.06799 9.74077 1.72765 4.76109 3.97352 0 0 0 -2.4738 0 0 0 
17898.1 12673.4 9566.17 7987.26 7502.42 7037.36 7539.49 10496.7 17568 28918.9 32922.3 46379.2 60850 76434.2 107941 148668 752672 753590 93466.6 30934.8 13569.6 11202.1 7746.34 6552.04 5569.47 4687.14 3920.32 3196.03 2770.03 2674.16 2141.99 2035.7 1563.13 1355.66 1304 910.208 463.049 307.839 223.264 120.051 82.7823 47.631 37.9042 
20886 14329 12019 10355 9824 9772 10676 14074 20639 30864 34180 45575 60771 75607 109499 159147 815751 817236 105397 36000 16488 14404 10683 9979 9163 8437 7511 6768 5976 5945 4970 4843 3979 3549 3138 2075 1098 639 411 204 110 71 45 
