1
Photon_
p_T [GeV/c]
pT_dr_cut_high_count
11
0
0
10
QCD W + Jets WW WZ ZZ #bar{t}W tW t#bar{t} Drell Yan #rightarrow #tau#tau Drell Yan #rightarrow ee 

100 0 200
0 0 0 0 0 0 0 0 0 0 0 0 0 0 0 0 0 0 0 0 0 0 0 0 0 0 0 0 0 0 0 0 0 0 0 0 0 0 0 0 0 0 0 0 0 0 0 0 0 0 0 0 0 0 0 0 0 0 0 0 0 0 0 0 0 0 0 0 0 0 0 0 0 0 0 0 0 0 0 0 0 0 0 0 0 0 0 0 0 0 0 0 0 0 0 0 0 0 0 0 
0 0 0 0 0 0 0 0 0 0 0 0 0 0 0 0 0 0 0 0 0 0 0 0 0 0 0 0 0 0 0 0 0 0 0 0 0 0 0 0 0 0 0 0 0 0 0 0 0 0 0 0 0 0 0 0 0 0 0 0 0 0 0 0 0 0 0 0 0 0 0 0 0 0 0 0 0 0 0 0 0 0 0 0 0 0 0 0 0 0 0 0 0 0 0 0 0 0 0 0 
0 0 0 0 0 0 0 0 0 0 0 0 0 0 0 0 0 0 0 0 0 0 0 0 0 0 0 0 0 0 0 0 0 0 0 0 0 0 0 0 0 0 0 0 0 0 0 0 0 0 0 0 0 0 0 0 0 0 0 0 0 0 0 0 0 0 0 0 0 0 0 0 0 0 0 0 0 0 0 0 0 0 0 0 0 0 0 0 0 0 0 0 0 0 0 0 0 0 0 0 
0 0 0 0 0 0 0 0 0 0 0 0 0 0 0 0 0 0 0 0 0 0 0 0 0 0 0 0 0 0 0 0 0 0 0 0 0 0 0 0 0 0 0 0 0 0 0 0 0 0 0 0 0 0 0 0 0 0 0 0 0 0 0 0 0 0 0 0 0 0 0 0 0 0 0 0 0 0 0 0 0 0 0 0 0 0 0 0 0 0 0 0 0 0 0 0 0 0 0 0 
0 0 0 0 0 0 0 0 0 0 0 0 0 0 0 0 0 0 0 0 0 0 0 0 0 0 0 0 0 0 0 0 0 0 0 0 0 0 0 0 0 0 0 0 0 0 0 0 0 0 0 0 0 0 0 0 0 0 0 0 0 0 0 0 0 0 0 0 0 0 0 0 0 0 0 0 0 0 0 0 0 0 0 0 0 0 0 0 0 0 0 0 0 0 0 0 0 0 0 0 
0 0 0 0 0 0 0 0 0 0 0 0 0 0 0 0 0 0 0 0 0 0 0 0 0 0 0 0 0 0 0 0 0 0 0 0 0 0 0 0 0 0 0 0 0 0 0 0 0 0 0 0 0 0 0 0 0 0 0 0 0 0 0 0 0 0 0 0 0 0 0 0 0 0 0 0 0 0 0 0 0 0 0 0 0 0 0 0 0 0 0 0 0 0 0 0 0 0 0 0 
0 0 0 0 0 0 0 0 0 0 0 0 0 0 0 0 0 0 0 0 0 0 0 0 0 0 0 0 0 0 0 0 0 0 0 0 0 0 0 0 0 0 0 0 0 0 0 0 0 0 0 0 0 0 0 0 0 0 0 0 0 0 0 0 0 0 0 0 0 0 0 0 0 0 0 0 0 0 0 0 0 0 0 0 0 0 0 0 0 0 0 0 0 0 0 0 0 0 0 0 
0 0 0 0 0 0 0 0 0 0 0 0 0 0 0 0 0 0 0 0 0 0 0 0 0 0 0 0 0 0 0 0 0 0 0 0 0 0 0 0 0 0 0 0 0 0 0 0 0 0 0 0 0 0 0 0 0 0 0 0 0 0 0 0 0 0 0 0 0 0 0 0 0 0 0 0 0 0 0 0 0 0 0 0 0 0 0 0 0 0 0 0 0 0 0 0 0 0 0 0 
0 0 0 0 0 0 0 0 0 0 0 0 0 0 0 0 0 0 0 0 0 0 0 0 0 0 0 0 0 0 0 0 0 0 0 0 0 0 0 0 0 0 0 0 0 0 0 0 0 0 0 0 0 0 0 0 0 0 0 0 0 0 0 0 0 0 0 0 0 0 0 0 0 0 0 0 0 0 0 0 0 0 0 0 0 0 0 0 0 0 0 0 0 0 0 0 0 0 0 0 
0 0 0 0 0 0 0 0 0 0 0 0 0 0 0 0 0 0 0 0 0 0 0 0 0 0 0 0 0 0 0 0 0 0 0 0 0 0 0 0 0 0 0 0 0 0 0 0 0 0 0 0 0 0 0 0 0 0 0 0 0 0 0 0 0 0 0 0 0 0 0 0 0 0 0 0 0 0 0 0 0 0 0 0 0 0 0 0 0 0 0 0 0 0 0 0 0 0 0 0 

100 0 200
0 0 0 0 0 0 0 0 0 0 0 0 0 0 0 0 0 0 0 0 0 0 0 0 0 0 0 0 0 0 0 0 0 0 0 0 0 0 0 0 0 0 0 0 0 0 0 0 0 0 0 0 0 0 0 0 0 0 0 0 0 0 0 0 0 0 0 0 0 0 0 0 0 0 0 0 0 0 0 0 0 0 0 0 0 0 0 0 0 0 0 0 0 0 0 0 0 0 0 0 
0 0 0 0 0 0 0 0 0 5.11332 0 0 0 0 0 0 0 0 0 0 0 0 0 0 0 0 0 0 0 0 0 0 0 0 0 0 0 0 0 0 0 0 0 0 0 0 0 0 0 0 0 0 0 0 0 0 0 0 0 0 0 0 0 0 0 0 0 0 0 0 0 0 0 0 0 0 0 0 0 0 0 0 0 0 0 0 0 0 0 0 0 0 0 0 0 0 0 0 0 0 
0 0 0 0 0 0 0 0 0 0 0 0.609323 0 0 0 0 0 0 0 0 0 0 0 0 0.609323 0 0 0 0 0 0 0 0 0 0 0 0 0 0 0 0 0 0 0 0 0 0 0 0 0 0 0 0 0 0 0 0 0 0 0 0 0 0 0 0 0 0 0 0 0 0 0 0 0 0 0 0 0 0 0 0 0 0 0 0 0 0 0 0 0 0 0 0 0 0 0 0 0 0 0 
0 0 0 0 0 0 0 0 0 0 0 0 0 0 0 0 0 0 0 0 0 0 0 0 0 0 0 0 0 0 0 0 0 0 0 0.564255 0 0 0 0 0 0 0 0 0 0 0 0 0 0 0 0 0 0 0 0 0 0 0 0 0 0 0 0 0 0 0 0 0 0 0 0 0 0 0 0 0 0 0 0 0 0 0 0 0 0 0 0 0 0 0 0 0 0 0 0 0 0 0 0 
0 0 0 0 0 0 0 0 0 0 0 0 0 0 0 0 0 0 0 0 0 0 0 0 0 0 0 0 0 0 0 0 0 0 0 0 0 0 0 0 0 0 0 0 0 0 0 0 0 0 0 0 0 0 0 0 0 0 0 0 0 0 0 0 0 0 0 0 0 0 0 0 0 0 0 0 0 0 0 0 0 0 0 0 0 0 0 0 0 0 0 0 0 0 0 0 0 0 0 0 
0 0 0 0 0 0 0 0 0 0 0 0 0 0 0 0.185463 0 0.370926 0.185463 0 0 0 0 0 0 0 0 0.185463 0 0 0 0 0 0 0 0 0 0 0 0 0 0 0 0 0 0 0 0 0 0 0 0 0 0 0 0 0 0 0 0 0 0 0 0 0 0 0 0 0 0 0 0 0 0 0 0 0 0 0 0 0 0 0 0 0 0 0 0 0 0 0 0 0 0 0 0 0 0 0 0 
0 0 0 0 0 0 0 0 0 0 0 0 0 0 0 0 0 0 0 0 0 0 0 0 0 0 0 0 0 0 0 0 0 0 0 0 0 0 0 0 0 0 0 0 0 0 0 0.184936 0 0 0 0 0 0 0 0 0 0 0 0 0 0 0 0 0 0 0 0 0 0 0 0 0 0 0 0 0 0 0 0 0 0 0 0 0 0 0 0 0 0 0 0 0 0 0 0 0 0 0 0 
0 0 0 0 0 0 0 0 0.1938 1.3566 0.7752 1.5504 0.7752 1.1628 0.969 1.3566 1.3566 1.1628 0.7752 0.652621 0.3876 0.7752 0.1938 0.61145 0.1938 0.1938 0.5814 0 0.5814 0.3876 0 0.1938 0.1938 0.3876 0 0.3876 0 0.3876 0.1938 0 0 0 0.1938 0.0712211 0 0 0 0.0300498 0 0 0.1938 0 0 0.1938 0 0 0.1938 0 0 0.1938 0 0 0 0 0 0 0 0.1938 0 0 0 0 0 0 0 0 0 0 0 0 0 0 0 0 0 0 0 0 0 0 0 0 0 0 0 0 0 0 0 0 
0 0 0 0 0 0 0 0 0 0 0 0 0 0 0 0 0 0 0 0 0 0 0 0 0 0 0 0 0 0 0 0 0 0 0 0 0 0 0 0 0 0 0 0 0 0 0 0 0 0 0 0 0 0 0 0 0 0 0 0 0 0 0 0 0 0 0 0 0 0 0 0 0 0 0 0 0 0 0 0 0 0 0 0 0 0 0 0 0 0 0 0 0 0 0 0 0 0 0 0 
0 0 0 0 0 2.56811 2.56811 2.56811 3.90466 0 21.1264 11.609 10.2724 16.7452 4.27617 22.2649 7.2278 25.3095 61.578 -4.8697 29.5857 41.1947 28.3542 24.4495 3.42815 18.4653 1.23155 7.70432 5.99625 5.30736 8.19284 9.04087 16.3737 0.86004 0 0 -5.13621 0 2.56811 -3.90466 -2.56811 1.23155 -2.56811 2.56811 0.171147 0 0 0 0 0 -2.56811 0 -2.56811 0 0 -2.56811 2.56811 -0.86004 2.56811 2.56811 2.56811 0 0 0 2.56811 0 -2.56811 -1.70806 2.56811 0 0 0 0 2.56811 0 0 0 0 0 0 0 0 0 0 0 0 -2.56811 0 0 0 0 0 0 0 0 0 0.171147 0 0 2.56811 

100 0 200
0 0 0 0 0 0 0 0 0 0 0 161.573 0 0 0 0 0 0 0 0 0 0 0 0 0 0 0 0 0 0 0 0 0 0 0 0 0 0 0 0 0 0 0 0 0 0 0 0 0 0 0 0 0 0 0 0 0 0 0 0 0 0 0 0 0 0 0 0 58.4618 0 0 0 0 0 0 0 0 0 0 0 0 0 0 0 0 0 0 0 0 0 0 0 0 0 0 0 0 0 0 0 
0 0 0 10.2266 0 0 51.1332 46.0199 20.4533 20.4533 5.11332 10.2266 10.2266 10.2266 5.11332 15.34 0 0 0 0 5.11332 0 5.11332 5.11332 10.2266 0 0 0 0 -5.11332 0 0 0 -10.2266 0 0 0 0 5.11332 0 0 0 0 0 0 0 0 0 0 0 0 0 0 0 0 0 0 0 0 0 0 0 0 0 0 0 0 0 0 0 0 0 0 0 5.11332 0 0 0 0 0 0 0 0 0 0 0 0 0 0 0 0 0 0 0 -5.11332 0 0 0 0 0 
0 0 0 0 0.609323 5.4839 26.8102 15.8424 19.4983 15.8424 16.4517 12.7958 9.13984 4.87458 4.26526 4.87458 2.43729 1.82797 2.43729 3.04661 1.82797 1.21865 1.21865 3.65594 1.21865 0 1.82797 0.609323 0.609323 0.609323 0.609323 0.609323 0 0.609323 0.609323 0.609323 0 0 0 0 0 0 0 0 0.609323 0 0 1.21865 0 0 0.609323 0.609323 0 0 0.609323 0 0.609323 0 0.609323 0 0 0 0.609323 0 0 0 0 0 0 0 0.609323 0 0 0 0 0 0 0.609323 0 0 0 0 0.609323 0 0 0 0 0 0 0 0 0 0 0 0 0 0 0 0 0 
0 0 0 0 0 7.89957 55.8613 60.9396 42.8834 41.1906 31.034 21.4417 23.1345 27.6485 14.6706 12.4136 11.8494 10.1566 8.46383 5.0783 10.7208 3.94979 5.0783 3.94979 5.64255 3.38553 1.12851 4.51404 3.38553 2.25702 1.12851 2.25702 1.12851 1.69277 1.69277 1.12851 1.69277 0.564255 0.564255 0 1.12851 2.25702 0.564255 0 1.12851 0 1.69277 1.69277 0.564255 0.564255 0.564255 1.12851 0 0.564255 0 0 0.564255 1.12851 0.564255 0.564255 0 0.564255 0 0.564255 0 0 0 0.564255 0 0 0 0.564255 0 0 0 0 0.564255 0 0 0.564255 0 0.564255 0 0 0.564255 1.12851 0 0 0.564255 0 0 0 0 0 0.564255 0 0.564255 0 0.564255 0.564255 
0 0 0 0 0.593798 8.90697 45.1286 36.2217 49.2852 26.7209 27.3147 24.3457 18.4077 13.6574 11.876 14.2511 9.50077 11.2822 8.31317 4.75038 2.37519 2.96899 4.75038 0.593798 1.78139 2.37519 3.56279 1.78139 0.593798 1.1876 0.593798 0.593798 3.56279 0 1.78139 0 1.78139 0 0 0 0.593798 0.593798 0.593798 0 0 0.593798 0 1.1876 0.593798 0 0.593798 0 0.593798 0 0 0 0 0 0 0 0 0 0 0 0.593798 0 0.593798 0 0 0 0.593798 0 0 0 0 0.593798 0 0 0 0 0 0 0 0 0 0 0 0 0 0 0.593798 0 0 0 0 0 0 0 0 0 
0 0 0 0 0 3.5238 16.1353 12.7969 16.6917 17.0626 14.837 11.1278 9.45861 8.34583 7.60398 6.86213 4.82204 5.37843 3.89472 3.33833 4.08019 2.22556 1.85463 3.15287 2.78194 2.78194 2.41102 1.66917 2.41102 1.66917 0.927315 1.85463 2.78194 2.41102 0.741852 0.927315 0.927315 1.11278 1.4837 1.29824 0.185463 1.11278 0.185463 0.185463 0.741852 1.11278 0.370926 0.556389 0.185463 0.556389 0.556389 0.370926 0.741852 0.556389 0.556389 0.556389 0.185463 0.927315 0.370926 0.556389 0.185463 0 0.741852 0 0.185463 0.185463 0 0.370926 0 0.556389 0.185463 0.185463 0 0 0 0.185463 0.185463 0.185463 0.185463 0.370926 0.185463 0.185463 0 0.927315 0.185463 0.185463 0 0.185463 0.185463 0.185463 0.185463 0.185463 0.370926 0 0.370926 0 0 0 0 0 
0 0 0 0 0.184936 3.32886 13.8702 12.9456 15.3497 18.3087 12.9456 11.4661 9.6167 6.1029 7.76733 6.28784 4.43848 4.0686 4.0686 3.69873 3.69873 3.32886 2.77405 2.58911 2.95898 3.32886 2.40417 2.40417 2.58911 2.58911 2.0343 1.84936 1.47949 1.47949 1.47949 2.0343 2.0343 0.184936 0.739746 0.554809 0.739746 1.84936 1.10962 0.369873 0.369873 0.184936 0.554809 0.184936 0 0.739746 0.554809 0.554809 0.554809 0 0.369873 1.10962 0.184936 0.554809 0 0.369873 0.369873 0 0.554809 0 0.184936 0.184936 0.369873 0.369873 0.184936 0.184936 0 0.184936 0 0.554809 0.184936 0.184936 0 0.184936 0 0.369873 0 0 0.369873 0.554809 0 0.184936 0.184936 0.184936 0 0 0 0 0.369873 0 0.184936 0.184936 0.369873 0.184936 0 0.184936 
0 0 0 0.99905 3.93228 79.1306 375.172 353.582 611.508 554.735 484.897 423.185 364.667 324.317 270.251 256.082 230.087 198.639 189.172 176.027 156.819 144.287 139.533 125.981 121.795 114.283 107.612 100.313 95.6175 91.4715 84.5358 81.3827 75.598 70.8866 64.2744 62.6585 58.2166 53.2762 52.5444 46.7363 47.4568 42.2096 41.978 40.6294 37.8251 32.6812 29.1759 31.5067 34.2446 29.0188 28.4538 26.1587 29.3327 24.8317 23.1805 22.3297 23.4964 19.5708 22.5599 17.7424 19.7119 17.911 17.0245 16.0209 15.9362 15.1262 12.5087 14.0834 11.3648 12.2611 13.3494 12.8653 10.689 8.8332 10.2142 10.0333 9.88029 10.5197 8.18151 7.9243 7.71064 8.98107 8.30952 7.48874 8.89381 8.63066 8.83226 7.69951 7.40444 6.26931 6.18392 8.91129 5.04005 5.497 5.48377 4.8612 7.83848 4.16978 4.60585 4.60254 
0 0 0 2.56754 5.13507 20.5403 82.1612 35.9455 53.9183 30.8104 25.6754 17.9728 10.2701 2.56754 0 0 -2.56754 -2.56754 7.70261 5.13507 2.56754 -2.56754 5.13507 -2.56754 10.2701 5.13507 0 0 0 2.56754 -2.56754 0 0 0 0 0 5.13507 2.56754 0 0 0 0 0 0 0 0 0 0 0 0 -2.56754 0 0 0 0 0 0 0 0 0 0 0 0 0 0 0 0 0 0 0 0 0 0 0 2.56754 0 0 0 2.56754 0 0 0 0 0 0 2.56754 0 0 0 0 2.56754 0 0 0 0 0 0 0 0 0 
0 0 0 86.6514 528.377 7383.37 35275 26127 21860 16718 13034.4 9546.48 7441.38 6195.94 4609.35 3717.06 2687.28 2394.27 1798.25 1574.83 1242.31 1065.63 902.253 612.256 611.942 508.545 606.38 436.806 406.03 359.267 327.251 338.131 293.255 230.936 191.538 161.062 170.477 176.603 187.921 150.987 154.237 80.3089 38.96 89.0033 52.4357 41.1447 46.3852 60.9382 52.6314 70.8636 46.6263 63.4733 56.1971 27.2636 59.7314 29.825 71.4313 45.0799 29.7561 16.6798 43.9913 12.8768 44.1152 38.6607 13.1102 20.0933 45.1403 3.53647 10.336 22.7252 11.6647 5.24201 18.0733 -4.68147 24.4198 25.2109 10.2517 2.07524 11.7673 11.8036 5.51365 15.7703 11.3068 12.5067 4.50943 7.84764 14.7114 5.24683 2.52926 -0.527446 17.1767 12.7919 2.43486 13.7646 5.382 8.62403 3.08765 -1.54432 11.9576 1.07475 

100 0 200
0 0 0 0 0 0 0 0 58.0762 0 0 0 0 0 0 0 0 0 0 0 0 0 0 0 0 0 0 0 0 0 0 0 0 0 0 0 0 0 0 0 0 0 0 0 0 0 0 0 0 0 0 0 0 0 0 0 0 0 0 0 0 0 0 0 0 0 0 0 0 0 0 0 0 0 0 0 0 0 0 0 0 0 0 0 0 0 0 0 0 0 0 0 0 0 0 0 0 0 0 0 
0 0 0 0 0 -5.11332 20.4533 20.4533 10.2266 10.2266 15.34 5.11332 0 0 5.11332 0 0 0 5.11332 10.2266 0 0 0 0 0 0 0 5.11332 0 0 0 0 0 0 0 0 0 0 0 0 0 -5.11332 0 0 0 0 0 0 0 0 0 0 0 0 0 0 0 0 0 0 0 0 0 0 0 0 5.11332 0 0 0 0 0 0 0 0 0 0 0 0 0 0 0 0 0 0 0 0 0 0 0 0 0 0 0 0 0 0 0 0 0 
0 0 0 0 0.609323 0.609323 4.26526 4.26526 5.4839 5.4839 2.43729 1.82797 3.04661 0.609323 1.82797 0.609323 0.609323 0 1.82797 0.609323 0 0 0.609323 0 1.21865 0.609323 0.609323 0 0 0 0 0 0.609323 0 0 0 0 0.609323 0 0 0 0.609323 0 0 0.609323 0 0 0 0 0 0.609323 0 0 0 0 0 0 0 0.609323 0 0 0 0 0 0 0 0 0 0 0 0 0 0 0 0 0 0 0 0 0 0 0 0 0 0 0 0 0 0 0 0 0 0 0 0 0 0 0 0 0 
0 0 0 0 0 4.51404 25.9557 12.9779 18.6204 18.0562 9.02808 11.8494 7.89957 4.51404 6.20681 8.46383 2.82128 7.33532 3.94979 3.38553 1.69277 3.94979 1.69277 1.12851 0.564255 0.564255 2.82128 1.69277 0.564255 0 1.12851 2.82128 2.25702 0 1.12851 0 1.12851 0.564255 1.12851 0.564255 0.564255 0 1.12851 0 0.564255 0 1.69277 0 0.564255 0 0 0.564255 0 0 0 0 0.564255 0 0 0 0 0 0 0.564255 0 0 0 0.564255 0 0 0 0 0 0 0 0 0 0.564255 0.564255 0 0 0 0 0 0.564255 0 0 0 0 0 0 0 0 0 0 0 0 0 0 0 
0 0 0 0 0 3.56279 17.2201 16.6263 20.7829 16.6263 18.4077 12.4698 7.71937 4.75038 5.93798 3.56279 4.75038 4.75038 3.56279 1.1876 2.96899 1.1876 1.78139 0.593798 2.96899 0 1.78139 0 0.593798 0 1.78139 1.78139 0 1.1876 1.78139 0.593798 1.78139 0 1.1876 1.1876 0.593798 0 0 0.593798 0 0 0 0 0 0.593798 0 0 0 0 0 0.593798 0 0 1.1876 0 0 0.593798 0 0 0 0 0 0 0 0 0 0 0 0.593798 0 0 0 0 0 0 0 0 0 0 0 0 0 0 0 0 0 0 0 0 0 0.593798 0 0 0.593798 0 
0 0 0 0 0 1.85463 7.60398 6.4912 12.0551 9.08769 8.71676 7.60398 4.82204 4.63657 3.89472 3.15287 3.5238 3.89472 2.78194 0.927315 2.41102 1.66917 2.04009 1.4837 1.4837 1.11278 0.556389 1.29824 0.927315 0.370926 0.927315 0.741852 0.556389 0.556389 0.741852 0.741852 0.927315 0.370926 0.556389 0.370926 0.370926 0.370926 0.370926 0.185463 0.185463 0.185463 0.370926 0.370926 0.185463 0.370926 0 0.185463 0.556389 0.185463 0.185463 0.185463 0.185463 0 0 0.185463 0 0.185463 0 0.185463 0.185463 0.370926 0 0 0 0 0.370926 0.370926 0.370926 0 0 0.185463 0 0 0 0 0 0 0 0 0 0 0 0 0 0.185463 0 0 0.185463 0 0 0.185463 0 0 0 0.185463 
0 0 0 0 0.369873 1.66443 5.54809 4.99329 9.43176 9.24682 7.95227 7.02759 4.99329 3.88367 4.80835 5.36316 2.77405 2.77405 3.14392 2.58911 1.84936 2.58911 1.66443 1.29456 1.84936 2.0343 0.739746 1.84936 0.924682 1.10962 1.29456 1.29456 0.554809 0.554809 0.184936 0.739746 0 1.10962 0 0.184936 0.369873 0.184936 0.554809 0.369873 0.184936 0.369873 0.369873 0.184936 0.369873 0.184936 0.184936 0.184936 0.369873 0.739746 0.369873 0.184936 0.184936 0 0 0 0 0.369873 0.369873 0.184936 0 0 0 0.184936 0 0 0 0 0 0 0 0.369873 0 0.184936 0.184936 0.369873 0 0.184936 0.184936 0 0.184936 0.184936 0 0 0 0.184936 0 0.184936 0 0 0.184936 0 0.184936 0 0 0 
0 0 0 0.7752 4.97394 55.3315 273.755 262.282 492.914 443.883 410.953 349.531 315.387 277.527 233.991 206.472 189.16 173.527 149.761 143.986 130.658 110.756 100.372 103.516 93.3849 87.8179 77.5005 79.9336 69.6297 64.2588 62.7477 58.1227 54.2012 54.1733 49.414 48.4819 41.7783 40.2613 38.4471 29.2955 32.1408 28.2416 27.9087 26.4572 24.1509 25.9756 23.727 24.9281 21.6063 16.8721 18.2531 18.444 16.5626 14.2559 12.2785 14.8412 10.7082 10.4564 13.0813 12.0717 12.9375 10.155 11.0116 9.94464 10.249 9.96739 7.35402 8.02701 8.06327 8.18932 10.2334 6.77949 7.262 5.16883 6.7542 7.50954 5.04626 5.01859 4.79474 4.94592 3.94117 7.10446 3.47786 5.66594 4.03608 3.77582 4.64117 3.24578 3.98949 4.73913 4.73319 4.04627 3.20953 4.18235 2.42067 2.23705 3.71717 3.58745 2.75691 2.33594 
0 0 0 0 0 2.56754 12.8377 7.70261 17.9728 10.2701 17.9728 10.2701 5.13507 0 7.70261 0 2.56754 7.70261 0 -2.56754 2.56754 5.13507 2.56754 0 0 0 2.56754 0 0 2.56754 0 0 0 2.56754 0 0 2.56754 0 0 0 0 0 0 0 0 -2.56754 0 0 2.56754 0 0 0 0 0 0 0 0 0 0 0 0 0 0 0 0 0 0 0 0 0 0 0 0 0 0 0 0 0 0 0 0 0 0 0 0 0 0 0 0 0 0 0 0 0 0 0 0 0 0 0 
0 0 0 24.1441 76.906 1110.21 4796.94 3853.11 3777.74 3241.08 2675.04 1874.35 1694.03 1391.06 1184.35 917.561 689.957 587.146 568.418 534.57 397.942 379.807 362.086 267.139 258.911 262.81 234.517 204.236 118.916 133.79 130.374 80.8637 90.7974 125.453 81.8395 85.3193 86.8792 39.7665 59.7764 61.9863 42.877 21.1112 34.9319 24.9515 33.855 18.8699 26.368 7.70511 37.0575 67.1537 13.2029 28.4322 2.54272 21.15 12.8194 27.7349 15.4937 9.26567 5.61293 18.6744 21.0045 11.7677 -10.7299 0.180984 13.8707 28.7576 15.5918 26.7013 3.08336 20.0289 10.611 28.4083 -3.81072 -2.65814 10.243 2.95999 10.0961 1.42946 8.43194 -1.36556 11.9187 6.17738 0.166154 -1.46717 3.2988 2.48215 6.06113 14.6762 12.792 0.0288843 -1.6015 6.91565 1.35617 7.59129 4.96506 5.13526 2.91059 3.69869 4.53732 0.855048 

100 0 200
0 0 0 0 0 0 0 0 0 0 0 0 0 0 0 0 0 0 0 0 0 0 0 0 0 0 0 0 0 0 0 0 0 0 0 0 0 0 0 0 0 0 0 0 0 0 0 0 0 0 0 0 0 0 0 0 0 0 0 0 0 0 0 6.5667 0 0 0 0 0 0 0 0 0 0 0 0 0 0 0 0 0 0 0 0 0 0 0 0 0 0 0 0 0 0 0 0 0 0 0 0 
0 0 0 0 0 0 0 0 5.11332 5.11332 0 0 0 5.11332 0 0 0 0 0 0 5.11332 0 0 0 0 0 0 0 0 0 5.11332 0 0 0 0 0 0 0 0 0 0 0 0 0 0 0 0 0 0 0 0 0 0 0 0 0 0 0 0 0 0 0 0 0 0 0 0 0 0 0 0 0 0 0 0 0 0 0 0 0 0 0 0 0 0 0 0 0 0 0 0 0 0 0 0 0 0 0 0 0 
0 0 0 0 0 0 0.609323 0 0.609323 0 0 0 0.609323 0 1.21865 0 0.609323 0 0 0.609323 0 0.609323 0 0 0 0 0 0 0 0 0 0 0 0 0 0 0 0 0 0 0 0 0 0 0 0 0 0 0 0 0 0 0 0 0 0 0 0 0 0 0 0 0 0 0 0 0 0 0 0 0 0 0 0 0 0 0 0 0 0 0 0 0 0 0 0 0 0 0 0 0 0 0 0 0 0 0 0 0 0.609323 
0 0 0 0 0 1.12851 4.51404 5.0783 6.77106 1.69277 1.69277 2.25702 2.82128 0.564255 2.25702 2.25702 2.25702 1.12851 1.12851 0 1.12851 0 0 0 0 0 0 0 0 0 0 0.564255 0 0 0.564255 0 0 0 0 0 0.564255 0 0 0 0 0 1.12851 0 0 0 0 0 0 0 0 0.564255 0 0 0 0 0 0 0 0 0 0 0 0 0 0 0 0 0 0 0 0 0 0 0 0 0 0 0 0 0 0 0 0 0 0 0 0 0 0 0 0 0 0 0 0 
0 0 0 0 0 0.593798 2.96899 3.56279 2.37519 4.75038 2.37519 1.78139 1.78139 1.78139 0.593798 0.593798 0.593798 0 1.1876 0 1.78139 0 0 0 0.593798 0 0.593798 0.593798 0 0.593798 0 0 0 0 0 0 0 0 0 0 0 0 0 0 0 0 0 0 0 0.593798 0 0 0 0 0 0 0 0 0 0.593798 0 0 0 0 0 0 0 0 0 0 0 0 0 0 0 0 0 0 0 0 0 0 0 0 0 0 0 0 0 0 0 0 0 0 0 0 0 0 0 0 
0 0 0 0 0 0.556389 1.66917 2.04009 4.45111 3.33833 2.59648 2.04009 2.04009 0.741852 0.927315 1.11278 0.741852 2.04009 1.29824 0.185463 0.556389 0.370926 0.185463 0 0 0.370926 1.11278 0.556389 0 0.185463 0.185463 0.185463 0 0.185463 0 0.556389 0.370926 0 0 0.370926 0.370926 0 0.556389 0 0 0 0.370926 0 0.185463 0 0 0 0.185463 0.185463 0 0 0.185463 0 0 0.185463 0.185463 0.185463 0.370926 0 0 0 0.185463 0 0 0.185463 0 0 0 0 0 0 0 0 0 0 0 0 0 0 0 0 0.370926 0.185463 0 0 0 0 0 0 0 0 0 0 0 0 
0 0 0 0 0.184936 0.554809 1.66443 2.0343 2.77405 2.0343 2.0343 2.77405 2.58911 1.10962 0.739746 0.739746 1.29456 1.10962 0.554809 0.739746 1.10962 0.369873 1.84936 0.184936 0.184936 0.739746 0.184936 0.369873 0 0.184936 0.184936 0.369873 0.369873 0.184936 0 0 0 0.739746 0.369873 0.369873 0 0 0.184936 0 0.184936 0.184936 0 0 0 0 0 0 0 0.184936 0.184936 0 0 0 0.184936 0 0.184936 0 0 0.184936 0.184936 0 0 0 0 0 0 0 0 0 0 0.184936 0 0 0 0.184936 0 0 0 0 0 0 0 0 0 0 0 0 0 0 0 0 0 0 0 0 
0 0 0 0.1938 1.18266 20.3434 96.6476 101.85 197.748 204.611 174.901 150.923 140.661 120.633 109.706 92.821 84.8839 73.9317 81.8917 63.6264 55.8826 48.2513 49.6132 37.8373 37.5141 32.3851 37.3828 33.1287 28.3268 26.7812 24.193 24.86 24.3278 20.4488 19.2172 17.8814 15.7136 14.8076 13.9127 13.9505 14.4252 11.0765 13.4418 11.8666 8.4591 10.0822 10.9106 8.06607 8.74051 6.30014 7.8553 6.37374 7.26965 6.86406 5.54769 4.89652 5.5162 5.29286 5.83402 3.52099 5.04864 3.78507 4.04084 4.59364 2.52525 4.11987 3.5709 3.81699 3.77727 3.22447 3.08203 2.50063 2.81939 2.46422 1.58681 1.45405 1.8717 2.47202 3.30826 1.35278 2.79953 2.08774 1.01891 1.80684 2.40318 1.7593 1.41288 2.24817 0.956434 1.53545 0.691413 1.09888 1.37408 1.00635 1.48554 1.40413 1.26169 1.0364 1.07901 0.4477 
0 0 0 0 0 0 2.56754 -2.56754 2.56754 5.13507 0 0 0 5.13507 0 0 0 0 0 2.56754 2.56754 0 0 0 0 0 0 5.13507 0 0 0 2.56754 0 -2.56754 0 0 0 0 0 0 0 0 0 0 0 0 0 0 0 0 0 0 0 0 2.56754 0 0 0 0 0 0 0 0 0 0 0 0 -2.56754 0 -2.56754 0 0 0 0 0 0 0 0 0 0 0 0 0 0 0 0 0 0 0 0 0 0 0 0 0 0 0 0 0 0 
0 0 0 5.13621 8.18724 155.331 577.619 529.351 716.688 602.399 490.611 377.191 345.945 244.115 210.703 164.874 180.135 130.936 146.915 108.184 102.183 90.5461 57.2941 44.1865 14.2169 40.3767 49.481 39.0212 63.0402 50.0006 44.8321 26.7758 16.251 28.0798 29.1736 39.8969 22.2324 17.8512 14.1204 14.1194 -3.47061 29.0635 -3.59456 3.60519 17.5201 3.18673 28.0077 4.56519 29.2986 -3.35696 -3.84549 7.7036 11.0749 4.38413 5.07648 -1.59504 7.70432 0.00499251 -0.868908 1.93819 8.63739 15.9578 2.72615 4.28819 6.47348 5.99663 5.03377 7.70541 0.860417 7.70432 7.02834 -4.96578 2.56811 2.6675 -5.12777 3.80455 -0.179403 3.53712 2.30804 -2.46871 8.18083 3.25719 7.87546 -2.56811 2.57769 2.5784 -4.9009 2.56811 0.972018 2.56811 -0.0167013 2.57862 7.71775 0.157854 0.054177 7.88301 2.57674 3.43314 -1.53692 0.00570588 

100 0 200
0 0 0 0 0 0 0 0 0 0 0 0 0 0 0 0 0 0 0 0 0 0 0 0 0 0 0 0 0 0 0 0 0 0 0 0 0 0 0 0 0 0 0 0 0 0 0 0 0 0 0 0 0 0 0 0 0 0 0 0 0 0 0 0 0 0 0 0 0 0 0 0 0 0 0 0 0 0 0 0 0 0 0 0 0 0 0 0 0 0 0 0 0 0 0 0 0 0 0 0 
0 0 0 0 0 0 0 0 0 0 0 0 0 0 0 0 -5.11332 0 0 0 0 0 0 0 0 0 0 0 0 0 0 0 0 0 0 0 0 0 0 0 0 0 0 0 0 0 0 0 0 0 0 0 0 0 0 0 0 0 0 0 0 0 0 0 0 0 0 0 0 0 0 0 0 0 0 0 0 0 0 0 0 0 0 0 0 0 0 0 0 0 0 0 0 0 0 0 0 0 0 0 
0 0 0 0 0 0 0 0 0 0 0 0 0 0 0 0 0 0 0 0 0 0 0 0 0 0 0 0 0 0 0 0 0 0 0 0 0 0 0 0 0 0 0 0 0 0 0 0 0 0 0 0 0 0 0 0 0 0 0 0 0 0 0 0 0 0 0 0 0 0 0 0 0 0 0 0 0 0 0 0 0 0 0 0 0 0 0 0 0 0 0 0 0 0 0 0 0 0 0 0 
0 0 0 0 0 0.564255 1.69277 0.564255 2.25702 1.69277 0 1.12851 0.564255 0 0.564255 0 0 0.564255 0.564255 0.564255 0.564255 0 0 0 0.564255 0 0 0 0 0 0 0 0 0 0.564255 0 0 0 0 0 0 0 0 0 0 0 0 0 0 0 0 0 0 0 0 0 0 0 0 0 0 0 0 0 0 0 0 0 0 0 0 0 0 0 0 0 0 0 0 0 0 0 0 0 0 0 0 0 0 0 0 0 0 0 0 0 0 0 0 0 
0 0 0 0 0 0 0.593798 0.593798 0.593798 2.96899 0 0.593798 0 0 0.593798 0 0 0 0 0 0.593798 0 0 0 0 0 0 0 0 0 0 0.593798 0 0 0 0 0 0 0 0 0 0 0 0 0 0 0 0 0 0 0 0 0 0 0 0 0 0 0 0 0 0 0 0 0 0 0 0 0 0 0 0 0 0 0 0 0 0 0 0 0 0 0 0 0 0 0 0 0 0 0 0 0 0 0 0 0 0 0 0 
0 0 0 0 0 0 0.370926 0.556389 0.927315 0.185463 0.370926 0.556389 0.185463 0.185463 0 0.556389 0 0.370926 0 0.185463 0 0.370926 0.185463 0 0.185463 0.185463 0 0 0 0.185463 0.185463 0.185463 0 0 0.185463 0 0 0.185463 0.185463 0.185463 0.185463 0 0 0 0 0 0 0 0 0 0 0 0.185463 0 0 0 0 0 0 0 0 0 0 0 0 0 0 0.185463 0 0 0 0 0 0 0.185463 0 0 0 0 0 0 0 0 0 0 0 0 0 0 0 0 0 0 0 0 0 0 0 0 0 
0 0 0 0 0 0 0.369873 0.184936 0.739746 0.739746 1.10962 0.369873 0.554809 0.369873 0.369873 0.554809 0.184936 0 0.184936 0.554809 0.369873 0.184936 0.369873 0 0.184936 0.554809 0 0.369873 0.554809 0.184936 0 0 0 0 0 0.369873 0 0 0 0 0 0 0 0.184936 0 0 0 0 0 0 0 0 0 0 0 0 0 0 0 0 0 0 0 0.184936 0 0 0 0 0 0 0 0 0 0 0 0 0 0 0 0 0.369873 0 0 0 0 0 0 0 0 0 0 0 0 0 0 0 0 0 0 0 
0 0 0 0.1938 1.40651 4.19823 26.1672 28.55 64.5877 55.2402 52.3461 46.8931 43.1366 33.7395 34.0363 31.4839 28.7071 20.0896 20.0277 16.981 16.7499 17.1888 11.9693 13.4354 11.8768 9.21826 9.89949 8.96343 8.42651 8.00648 8.09612 5.8572 6.28504 5.93623 7.04912 6.50108 4.6871 5.73513 4.97012 2.63433 3.36055 2.98314 5.6348 3.40317 3.95069 2.67933 3.54468 2.77822 2.67933 2.8407 1.8116 2.18027 1.58681 0.691413 2.04657 1.10906 1.24276 1.49522 1.73163 1.10032 1.00635 1.47773 1.35278 1.35278 1.07027 1.26263 0.825113 1.14149 0.783942 1.18028 1.03784 0.131321 0.813992 0.977742 0.232592 0.396342 0.497613 0.783942 0.202542 0.99905 0.825113 0.2539 0.366292 0.284884 0.0712211 0.530042 0 0.61145 0.22385 0.314934 0.172492 1.07027 0.3876 0.631313 0.41527 0.396342 0.172492 0.3876 0.243713 0.172492 
0 0 0 0 0 0 0 0 0 0 0 2.56754 0 0 0 0 0 0 0 0 0 0 0 0 0 0 0 0 0 0 0 0 0 0 0 0 0 0 0 0 0 0 0 0 0 0 0 0 0 0 0 0 0 0 0 0 0 0 0 0 0 0 0 0 0 0 0 0 0 0 0 0 0 0 0 0 0 0 0 0 0 0 0 0 0 0 0 0 0 0 0 0 0 0 0 0 0 0 0 0 
0 0 0 0 2.56829 4.50705 107.974 73.1659 116.859 38.0399 53.4357 60.8618 25.561 31.6523 34.4346 -16.003 11.8088 37.6884 25.7623 7.20392 19.7128 2.76141 18.2999 -0.466216 6.66175 2.57291 -0.860942 4.95292 2.76667 -0.323035 2.57769 16.3201 8.56364 -6.84428 4.28443 10.2726 6.1674 5.65415 3.4381 7.53298 2.57655 2.57655 0.0095805 2.7477 6.84927 -3.60816 2.56811 0.00071337 5.13621 2.56882 -11.1231 0.00499251 2.56811 2.56811 -2.55966 0.171147 2.56811 0.0095805 1.70806 0 0 2.56811 -0.00071337 0 -2.57655 0.0591695 2.56811 -0.86004 -1.70806 0 0 3.42815 -2.56811 6.47276 2.56758 0 0 2.73925 0.859327 0 -2.56811 -2.56811 2.56811 0 -0.00427914 2.56811 -2.56811 0.860229 -0.00071337 2.56863 0 -0.00018838 -0.171147 0.0993975 0 2.56811 0 -0.0095805 2.56811 0 

100 0 200
0 0 0 0 0 0 0 0 0 0 0 0 0 0 0 0 0 0 0 0 0 0 0 0 0 0 0 0 0 0 0 0 0 0 0 0 0 0 0 0 0 0 0 0 0 0 0 0 0 0 0 0 0 0 0 0 0 0 0 0 0 0 0 0 0 0 0 0 0 0 0 0 0 0 0 0 0 0 0 0 0 0 0 0 0 0 0 0 0 0 0 0 0 0 0 0 0 0 0 0 
0 0 0 0 0 0 0 0 0 0 0 0 0 0 0 0 0 0 0 0 0 0 0 0 0 0 0 0 0 0 0 0 0 0 0 0 0 0 0 0 0 0 0 0 0 0 0 0 0 0 0 0 0 0 0 0 0 0 0 0 0 0 0 0 0 0 0 0 0 0 0 0 0 0 0 0 0 0 0 0 0 0 0 0 0 0 0 0 0 0 0 0 0 0 0 0 0 0 0 0 
0 0 0 0 0 0 0 0 0 0 0 0 0 0 0 0 0 0 0 0 0 0 0 0 0 0 0 0 0 0 0 0 0 0 0 0 0 0 0 0 0 0 0 0 0 0 0 0 0 0 0 0 0 0 0 0 0 0 0 0 0 0 0 0 0 0 0 0 0 0 0 0 0 0 0 0 0 0 0 0 0 0 0 0 0 0 0 0 0 0 0 0 0 0 0 0 0 0 0 0 
0 0 0 0 0 0 0 0.564255 0 0.564255 0 0 0 0 0.564255 0 1.12851 0 0 0 0 0 0 0 0 0 0 0 0 0 0 0 0 0 0 0 0 0 0 0 0 0.564255 0 0 0 0 0 0 0 0 0 0 0 0 0 0 0 0 0 0 0 0 0 0 0 0 0 0 0 0 0 0 0 0 0 0 0 0 0 0 0 0 0 0 0 0 0 0 0 0 0 0 0 0 0 0 0 0 0 0 
0 0 0 0 0 0 0 0 0 0 0.593798 0 0 0 0.593798 0 0 0 0 0 0 0 0 0 0 0 0 0 0 0 0 0 0 0 0 0 0 0 0 0 0 0 0 0 0 0 0 0 0 0 0 0 0 0 0 0 0 0 0 0 0 0 0 0 0 0 0 0 0 0 0 0 0 0 0 0 0 0 0 0 0 0 0 0 0 0 0 0 0 0 0 0 0 0 0 0 0 0 0 0 
0 0 0 0 0 0 0 0 0.185463 0.741852 0.370926 0 0.370926 0.185463 0 0 0 0 0 0 0.185463 0 0 0 0 0 0.185463 0 0 0 0 0 0 0 0 0 0 0 0 0 0 0 0 0 0 0 0 0 0 0 0 0 0 0 0 0 0 0 0 0 0 0 0.185463 0 0 0 0.185463 0 0 0 0 0.185463 0 0 0 0 0 0 0 0 0 0 0 0 0 0 0 0 0 0 0 0 0 0 0 0 0 0 0 0 
0 0 0 0 0 0 0 0.184936 0.369873 0.369873 0.184936 0.739746 0 0.369873 0.184936 0 0 0 0.184936 0 0 0 0 0 0 0.184936 0.184936 0 0 0 0.184936 0 0 0 0 0 0 0.184936 0 0 0 0 0 0.184936 0 0 0 0 0 0 0 0 0.184936 0 0 0 0 0 0 0 0 0 0 0 0 0 0 0 0 0 0.184936 0.184936 0 0 0 0 0 0 0 0 0 0 0 0 0 0 0 0 0 0 0 0 0 0 0 0 0 0 0 0 
0 0 0 0 0 0.917642 6.7453 6.73656 15.1536 18.9733 14.31 11.3865 10.9513 9.34865 10.2807 8.09901 7.39792 7.14164 5.61255 4.8674 4.40858 4.28108 3.5108 3.17202 3.41336 3.14689 3.55342 2.6682 2.62941 2.63815 2.07806 2.0655 0.855163 1.73163 0.620192 0.753892 1.21271 0.947692 1.36534 1.27281 0.682671 1.45549 0.896334 0.366292 0.488871 0.876471 1.17154 0.0901493 1.01891 0.458821 0.560092 0.488871 0.590142 1.25388 0.437513 0.80525 0.652621 0.142442 0.22385 0.295071 0.1938 0 0 0.0300498 0.0712211 0.336242 0.336242 0.0300498 0.295071 0.0300498 0.295071 0.1938 0.22385 0.1938 0.325121 0.1938 0.1938 0.0600995 0.101271 0.1938 0.0300498 0 0.22385 0 0.0712211 0.0300498 0 0 0.265021 0.265021 0 0.3876 0 0.22385 0.1938 0 0 0.0300498 0.0300498 0.0300498 
0 0 0 0 0 0 0 0 0 0 0 0 0 0 0 0 0 0 0 0 0 0 0 0 0 0 0 0 0 0 0 0 0 0 0 0 0 0 0 0 0 0 0 0 0 0 0 0 0 0 0 0 0 0 0 0 0 0 0 0 0 0 0 0 0 0 0 0 0 0 0 0 0 0 0 0 0 0 0 0 0 0 0 0 0 0 0 0 0 0 0 0 0 0 0 0 0 0 0 0 
0 0 0 0 0 -0.00052499 17.227 22.4334 29.4063 13.7723 22.3997 19.8224 16.0477 -0.693293 2.58493 5.61772 19.1875 12.2977 8.39321 -0.171147 5.13621 6.86128 0.868485 2.5731 7.7036 2.73925 0 3.42113 3.42815 -2.73854 -0.86004 0 2.56811 0 2.39696 -2.56811 0 5.3158 0.00844482 2.56811 5.13621 0 0 0 0 0 -2.56811 0.0993975 -2.56811 2.56811 0 2.56811 0 0.00844482 2.56811 0 -2.56811 0 0.855048 0 2.56882 0 2.56811 0.0095805 0 0 0 0 0 2.56811 0 0 0 0 0 0 0 0 0 0 0 0 0 0 -0.86004 0 0 0.00844482 0 0 0 0 -0.00071337 0 0 0 0 0 0 0.171147 

100 0 200
0 0 0 0 0 0 0 0 0 0 0 0 0 0 0 0 0 0 0 0 0 0 0 0 0 0 0 0 0 0 0 0 0 0 0 0 0 0 0 0 0 0 0 0 0 0 0 0 0 0 0 0 0 0 0 0 0 0 0 0 0 0 0 0 0 0 0 0 0 0 0 0 0 0 0 0 0 0 0 0 0 0 0 0 0 0 0 0 0 0 0 0 0 0 0 0 0 0 0 0 
0 0 0 0 0 0 0 0 0 0 0 0 0 0 0 0 0 0 0 0 0 0 0 0 0 0 0 0 0 0 0 0 0 0 0 0 0 0 0 0 0 0 0 0 0 0 0 0 0 0 0 0 0 0 0 0 0 0 0 0 0 0 0 0 0 0 0 0 0 0 0 0 0 0 0 0 0 0 0 0 0 0 0 0 0 0 0 0 0 0 0 0 0 0 0 0 0 0 0 0 
0 0 0 0 0 0 0 0 0 0 0 0 0 0 0 0 0 0 0 0 0 0 0 0 0 0 0 0 0 0 0 0 0 0 0 0 0 0 0 0 0 0 0 0 0 0 0 0 0 0 0 0 0 0 0 0 0 0 0 0 0 0 0 0 0 0 0 0 0 0 0 0 0 0 0 0 0 0 0 0 0 0 0 0 0 0 0 0 0 0 0 0 0 0 0 0 0 0 0 0 
0 0 0 0 0 0 0 0 0 0 0 0 0 0 0 0 0 0 0 0 0 0 0 0 0 0 0 0 0.564255 0 0 0 0 0 0 0 0 0 0 0 0 0 0 0 0 0 0 0 0 0 0 0 0 0 0 0 0 0 0 0 0 0 0 0 0 0 0 0 0 0 0 0 0 0 0 0 0 0 0 0 0 0 0 0 0 0 0 0 0 0 0 0 0 0 0 0 0 0 0 0 
0 0 0 0 0 0 0 0 0 0 0 0 0 0 0 0 0 0 0 0 0 0 0 0 0 0 0 0 0 0 0 0 0 0 0 0 0 0 0 0 0 0 0 0 0 0 0 0 0 0 0 0 0 0 0 0 0 0 0 0 0 0 0 0 0 0 0 0 0 0 0 0 0 0 0 0 0 0 0 0 0 0 0 0 0 0 0 0 0 0 0 0 0 0 0 0 0 0 0 0 
0 0 0 0 0 0 0 0 0 0 0.185463 0 0 0 0 0 0 0 0 0 0 0 0 0 0 0 0 0 0 0 0 0 0 0 0 0 0 0 0 0 0 0 0 0 0 0 0 0 0 0 0 0 0 0 0 0 0 0 0 0 0 0 0 0 0 0 0 0 0 0 0 0 0 0 0 0 0 0 0 0 0 0 0 0 0 0 0 0 0 0 0 0 0 0 0 0 0 0 0 0 
0 0 0 0 0 0 0 0 0 0 0 0 0 0 0 0 0 0 0 0 0 0 0 0 0 0 0 0 0 0 0 0 0 0 0 0 0 0 0 0 0 0 0 0 0 0 0 0 0 0 0 0 0 0 0 0 0 0 0 0 0 0 0 0 0 0 0 0 0 0 0 0 0 0 0 0 0 0 0 0 0 0 0 0 0 0 0 0 0 0 0 0 0 0 0 0 0 0 0 0 
0 0 0 0 0 0.80525 1.15023 1.58919 3.12703 3.38967 1.57569 2.33052 2.16915 1.53545 1.37408 0.977742 1.98791 1.12018 0.813992 1.24276 1.4453 0.579955 0.601263 0.682671 0.568834 0.142442 0.712721 0.295071 0.243713 0.202542 0.131321 0.682671 0.41765 0.488871 0.265021 0.488871 0.458821 0.5814 0 0.488871 0 0.1938 0 0.1938 0.295071 0.22385 0 0 0 0.1938 0.1938 0 0 0.1938 0 0 0 0 0.41765 0.1938 0.22385 0.3876 0.0712211 0.16137 0 0 0.0300498 0.0712211 0.0300498 0 0 0 0 0 0.0712211 0 0 0 0 0 0 0 0 0 0.1938 0 0 0 0.0712211 0 0 0 0 0 0 0 0.101271 0 0 0 
0 0 0 0 0 0 0 0 0 0 0 0 0 0 0 0 0 0 0 0 0 0 0 0 0 0 0 0 0 0 0 0 0 0 0 0 0 0 0 0 0 0 0 0 0 0 0 0 0 0 0 0 0 0 0 0 0 0 0 0 0 0 0 0 0 0 0 0 0 0 0 0 0 0 0 0 0 0 0 0 0 0 0 0 0 0 0 0 0 0 0 0 0 0 0 0 0 0 0 0 
0 0 0 0 0 0 -0.171147 -0.0993975 0.81064 0 5.30755 3.42815 -4.27617 5.99625 0.00844482 3.42815 3.42815 0 -2.56811 0 2.56811 2.56811 0 0 0 2.56811 -0.0993975 0 0 0 0 0 0.171147 0 0 0 0 0 0 -0.00071337 0 0 0 0 0 0.171147 0 0 0 0 0 0 -0.0993975 0 0 0 0 0 0 0 0 0 -0.0993975 0 0 0 0 0 0 0 0 0.00844482 0 0 0 0 0 0 0 0 0 -2.56811 0 0 0 0 0 0 0 0 0 0 0 0 0 0 0 0 -2.56811 0 

100 0 200
0 0 0 0 0 0 0 0 0 0 0 0 0 0 0 0 0 0 0 0 0 0 0 0 0 0 0 0 0 0 0 0 0 0 0 0 0 0 0 0 0 0 0 0 0 0 0 0 0 0 0 0 0 0 0 0 0 0 0 0 0 0 0 0 0 0 0 0 0 0 0 0 0 0 0 0 0 0 0 0 0 0 0 0 0 0 0 0 0 0 0 0 0 0 0 0 0 0 0 0 
0 0 0 0 0 0 0 0 0 0 0 0 0 0 0 0 0 0 0 0 0 0 0 0 0 0 0 0 0 0 0 0 0 0 0 0 0 0 0 0 0 0 0 0 0 0 0 0 0 0 0 0 0 0 0 0 0 0 0 0 0 0 0 0 0 0 0 0 0 0 0 0 0 0 0 0 0 0 0 0 0 0 0 0 0 0 0 0 0 0 0 0 0 0 0 0 0 0 0 0 
0 0 0 0 0 0 0 0 0 0 0 0 0 0 0 0 0 0 0 0 0 0 0 0 0 0 0 0 0 0 0 0 0 0 0 0 0 0 0 0 0 0 0 0 0 0 0 0 0 0 0 0 0 0 0 0 0 0 0 0 0 0 0 0 0 0 0 0 0 0 0 0 0 0 0 0 0 0 0 0 0 0 0 0 0 0 0 0 0 0 0 0 0 0 0 0 0 0 0 0 
0 0 0 0 0 0 0 0 0 0 0 0 0 0 0 0 0 0 0 0 0 0 0 0 0 0 0 0 0 0 0 0 0 0 0 0 0 0 0 0 0 0 0 0 0 0 0 0 0 0 0 0 0 0 0 0 0 0 0 0 0 0 0 0 0 0 0 0 0 0 0 0 0 0 0 0 0 0 0 0 0 0 0 0 0 0 0 0 0 0 0 0 0 0 0 0 0 0 0 0 
0 0 0 0 0 0 0 0 0 0 0 0 0 0 0 0 0 0 0 0 0 0 0 0 0 0 0 0 0 0 0 0 0 0 0 0 0 0 0 0 0 0 0 0 0 0 0 0 0 0 0 0 0 0 0 0 0 0 0 0 0 0 0 0 0 0 0 0 0 0 0 0 0 0 0 0 0 0 0 0 0 0 0 0 0 0 0 0 0 0 0 0 0 0 0 0 0 0 0 0 
0 0 0 0 0 0 0 0 0 0 0 0 0 0 0 0 0 0 0 0 0 0 0 0 0 0 0 0 0 0 0 0 0 0 0 0 0 0 0 0 0 0 0 0 0 0 0 0 0 0 0 0 0 0 0 0 0 0 0 0 0 0 0 0 0 0 0 0 0 0 0 0 0 0 0 0 0 0 0 0 0 0 0 0 0 0 0 0 0 0 0 0 0 0 0 0 0 0 0 0 
0 0 0 0 0 0 0 0 0 0 0 0 0 0 0 0 0 0 0 0 0 0 0 0 0 0 0 0 0 0 0 0 0 0 0 0 0 0 0 0 0 0 0 0 0 0 0 0 0 0 0 0 0 0 0 0 0 0 0 0 0 0 0 0 0 0 0 0 0 0 0 0 0 0 0 0 0 0 0 0 0 0 0 0 0 0 0 0 0 0 0 0 0 0 0 0 0 0 0 0 
0 0 0 0 0 0.265021 0 0.458821 1.17154 1.26407 1.42782 0.846421 0.41765 0.896334 0.458821 0.631313 0.652621 0 0.41765 0.4477 0.3876 0 0.202542 0.22385 0 0.0300498 0.1938 0.4477 0.265021 0.1938 0 0 0.1938 0 0.0712211 0.1938 0 0 0 0.1938 0.1938 0.1938 0 0 0 0 0 0 0 0 0.1938 0 0 0.1938 0 0 0 0.1938 0 0 0 0 0 0 0 0 0 0 0 0 0 0.1938 0 0 0.1938 0 0 0 0 0 0 0 0 0 0 0 0 0 0 0 0 0 0 0 0 0 0 0 0 0 
0 0 0 0 0 0 0 0 0 0 0 0 0 0 0 0 0 0 0 0 0 0 0 0 0 0 0 0 0 0 0 0 0 0 0 0 0 0 0 0 0 0 0 0 0 0 0 0 0 0 0 0 0 0 0 0 0 0 0 0 0 0 0 0 0 0 0 0 0 0 0 0 0 0 0 0 0 0 0 0 0 0 0 0 0 0 0 0 0 0 0 0 0 0 0 0 0 0 0 0 
0 0 0 0 0 2.56811 0 2.56811 0 0 0.00018838 0 0 0 0 0 0 2.56811 0 0 2.56811 0 0 0 0 0 0 0 0 0 0 0 0 0 0 0 2.56811 0 0 0 0 0 0 0 0 0 0 0 0 0 0 0 0 0 0 0 0 0 0 0 0 0 0 0 0 0 0 0 0 0 0 0 0 0 0 0 0 0 0 0 0 0 0 0 0 0 0 0 0 0 0 0 0 0 0 0 0 0 0 0 

100 0 200
0 0 0 0 0 0 0 0 0 0 0 0 0 0 0 0 0 0 0 0 0 0 0 0 0 0 0 0 0 0 0 0 0 0 0 0 0 0 0 0 0 0 0 0 0 0 0 0 0 0 0 0 0 0 0 0 0 0 0 0 0 0 0 0 0 0 0 0 0 0 0 0 0 0 0 0 0 0 0 0 0 0 0 0 0 0 0 0 0 0 0 0 0 0 0 0 0 0 0 0 
0 0 0 0 0 0 0 0 0 0 0 0 0 0 0 0 0 0 0 0 0 0 0 0 0 0 0 0 0 0 0 0 0 0 0 0 0 0 0 0 0 0 0 0 0 0 0 0 0 0 0 0 0 0 0 0 0 0 0 0 0 0 0 0 0 0 0 0 0 0 0 0 0 0 0 0 0 0 0 0 0 0 0 0 0 0 0 0 0 0 0 0 0 0 0 0 0 0 0 0 
0 0 0 0 0 0 0 0 0 0 0 0 0 0 0 0 0 0 0 0 0 0 0 0 0 0 0 0 0 0 0 0 0 0 0 0 0 0 0 0 0 0 0 0 0 0 0 0 0 0 0 0 0 0 0 0 0 0 0 0 0 0 0 0 0 0 0 0 0 0 0 0 0 0 0 0 0 0 0 0 0 0 0 0 0 0 0 0 0 0 0 0 0 0 0 0 0 0 0 0 
0 0 0 0 0 0 0 0 0 0 0 0 0 0 0 0 0 0 0 0 0 0 0 0 0 0 0 0 0 0 0 0 0 0 0 0 0 0 0 0 0 0 0 0 0 0 0 0 0 0 0 0 0 0 0 0 0 0 0 0 0 0 0 0 0 0 0 0 0 0 0 0 0 0 0 0 0 0 0 0 0 0 0 0 0 0 0 0 0 0 0 0 0 0 0 0 0 0 0 0 
0 0 0 0 0 0 0 0 0 0 0 0 0 0 0 0 0 0 0 0 0 0 0 0 0 0 0 0 0 0 0 0 0 0 0 0 0 0 0 0 0 0 0 0 0 0 0 0 0 0 0 0 0 0 0 0 0 0 0 0 0 0 0 0 0 0 0 0 0 0 0 0 0 0 0 0 0 0 0 0 0 0 0 0 0 0 0 0 0 0 0 0 0 0 0 0 0 0 0 0 
0 0 0 0 0 0 0 0 0 0 0 0 0 0 0 0 0 0 0 0 0 0 0 0 0 0 0 0 0 0 0 0 0 0 0 0 0 0 0 0 0 0 0 0 0 0 0 0 0 0 0 0 0 0 0 0 0 0 0 0 0 0 0 0 0 0 0 0 0 0 0 0 0 0 0 0 0 0 0 0 0 0 0 0 0 0 0 0 0 0 0 0 0 0 0 0 0 0 0 0 
0 0 0 0 0 0 0 0 0 0 0 0 0 0 0 0 0 0 0 0 0 0 0 0 0 0 0 0 0 0 0 0 0 0 0 0 0 0 0 0 0 0 0 0 0 0 0 0 0 0 0 0 0 0 0 0 0 0 0 0 0 0 0 0 0 0 0 0 0 0 0 0 0 0 0 0 0 0 0 0 0 0 0 0 0 0 0 0 0 0 0 0 0 0 0 0 0 0 0 0 
0 0 0 0 0 0.0712211 0.1938 0 0.5814 0 0 0.1938 0.0300498 0.3876 0.3876 0 0.0300498 0 0 0.0300498 0 0 0.1938 0.0300498 0 0 0 0 0 0 0 0 0 0 0 0 0 0 0 0 0 0 0 0 0.0300498 0 0 0 0 0 0 0 0 0 0 0 0.1938 0 0 0 0 0 0 0 0 0 0 0 0 0 0 0 0 0 0 0 0 0 0 0 0 0 0 0 0 0 0 0 0 0 0 0 0 0 0 0 0 0 0 0 
0 0 0 0 0 0 0 0 0 0 0 0 0 0 0 0 0 0 0 0 0 0 0 0 0 0 0 0 0 0 0 0 0 0 0 0 0 0 0 0 0 0 0 0 0 0 0 0 0 0 0 0 0 0 0 0 0 0 0 0 0 0 0 0 0 0 0 0 0 0 0 0 0 0 0 0 0 0 0 0 0 0 0 0 0 0 0 0 0 0 0 0 0 0 0 0 0 0 0 0 
0 0 0 0 0 0 0 0 0 0 0 0 0 0.0095805 0.0095805 0 0 0 0 0 0 0 0 0 0 0 0 0 0 0 0 0 0 0 0 0 0 0 0 0 0 0 0 0 0 0 0 0 0 0 0 0 0 0 0 0 0 0 0 0 0 0 0 0 0 0 0 0 0 0 0 0 0 0 0 0 0 0 0 0 0 0 0 0 0 0 0 0 0 0 0 0 0 0 0 0 0 0 0 0 

100 0 200
0 0 0 0 0 0 0 0 0 0 0 0 0 0 0 0 0 0 0 0 0 0 0 0 0 0 0 0 0 0 0 0 0 0 0 0 0 0 0 0 0 0 0 0 0 0 0 0 0 0 0 0 0 0 0 0 0 0 0 0 0 0 0 0 0 0 0 0 0 0 0 0 0 0 0 0 0 0 0 0 0 0 0 0 0 0 0 0 0 0 0 0 0 0 0 0 0 0 0 0 
0 0 0 0 0 0 0 0 0 0 0 0 0 0 0 0 0 0 0 0 0 0 0 0 0 0 0 0 0 0 0 0 0 0 0 0 0 0 0 0 0 0 0 0 0 0 0 0 0 0 0 0 0 0 0 0 0 0 0 0 0 0 0 0 0 0 0 0 0 0 0 0 0 0 0 0 0 0 0 0 0 0 0 0 0 0 0 0 0 0 0 0 0 0 0 0 0 0 0 0 
0 0 0 0 0 0 0 0 0 0 0 0 0 0 0 0 0 0 0 0 0 0 0 0 0 0 0 0 0 0 0 0 0 0 0 0 0 0 0 0 0 0 0 0 0 0 0 0 0 0 0 0 0 0 0 0 0 0 0 0 0 0 0 0 0 0 0 0 0 0 0 0 0 0 0 0 0 0 0 0 0 0 0 0 0 0 0 0 0 0 0 0 0 0 0 0 0 0 0 0 
0 0 0 0 0 0 0 0 0 0 0 0 0 0 0 0 0 0 0 0 0 0 0 0 0 0 0 0 0 0 0 0 0 0 0 0 0 0 0 0 0 0 0 0 0 0 0 0 0 0 0 0 0 0 0 0 0 0 0 0 0 0 0 0 0 0 0 0 0 0 0 0 0 0 0 0 0 0 0 0 0 0 0 0 0 0 0 0 0 0 0 0 0 0 0 0 0 0 0 0 
0 0 0 0 0 0 0 0 0 0 0 0 0 0 0 0 0 0 0 0 0 0 0 0 0 0 0 0 0 0 0 0 0 0 0 0 0 0 0 0 0 0 0 0 0 0 0 0 0 0 0 0 0 0 0 0 0 0 0 0 0 0 0 0 0 0 0 0 0 0 0 0 0 0 0 0 0 0 0 0 0 0 0 0 0 0 0 0 0 0 0 0 0 0 0 0 0 0 0 0 
0 0 0 0 0 0 0 0 0 0 0 0 0 0 0 0 0 0 0 0 0 0 0 0 0 0 0 0 0 0 0 0 0 0 0 0 0 0 0 0 0 0 0 0 0 0 0 0 0 0 0 0 0 0 0 0 0 0 0 0 0 0 0 0 0 0 0 0 0 0 0 0 0 0 0 0 0 0 0 0 0 0 0 0 0 0 0 0 0 0 0 0 0 0 0 0 0 0 0 0 
0 0 0 0 0 0 0 0 0 0 0 0 0 0 0 0 0 0 0 0 0 0 0 0 0 0 0 0 0 0 0 0 0 0 0 0 0 0 0 0 0 0 0 0 0 0 0 0 0 0 0 0 0 0 0 0 0 0 0 0 0 0 0 0 0 0 0 0 0 0 0 0 0 0 0 0 0 0 0 0 0 0 0 0 0 0 0 0 0 0 0 0 0 0 0 0 0 0 0 0 
0 0 0 0 0 0 0 0 0 0.1938 0 0 0 0 0 0 0 0 0 0 0 0 0 0 0 0 0 0 0 0 0 0 0 0 0 0 0 0 0 0 0 0 0 0 0 0 0 0 0 0 0.0300498 0 0 0 0 0 0 0 0 0 0 0 0 0 0 0 0 0 0 0 0 0 0 0 0 0 0 0 0 0 0 0 0 0 0 0 0 0 0 0 0 0 0 0 0 0 0 0 0 0 
0 0 0 0 0 0 0 0 0 0 0 0 0 0 0 0 0 0 0 0 0 0 0 0 0 0 0 0 0 0 0 0 0 0 0 0 0 0 0 0 0 0 0 0 0 0 0 0 0 0 0 0 0 0 0 0 0 0 0 0 0 0 0 0 0 0 0 0 0 0 0 0 0 0 0 0 0 0 0 0 0 0 0 0 0 0 0 0 0 0 0 0 0 0 0 0 0 0 0 0 
0 0 0 0 0 0 0 0 0 0 0 0 0 0 0 0 0 0 0 0 0 0 0 0 0 0 0 0 0 0 0 0 0 0 0 0 0 0 0 0 0 0 0 0 0 0 0 0 0 0 0 0 0 0 0 0 0 0 0 0 0 0 0 0 0 0 0 0 0 0 0 0 0 0 0 0 0 0 0 0 0 0 0 0 0 0 0 0 0 0 0 0 0 0 0 0 0 0 0 0 
