1
Photon_
m_{ee} [GeV/c^{2}]
InvM_custom_bins_plus_ph
11
0
11
10
QCD W + Jets WW WZ ZZ #bar{t}W tW t#bar{t} Drell Yan #rightarrow #tau#tau Drell Yan #rightarrow ee 

44
15 20 25 30 35 40 45 50 55 60 64 68 72 76 81 86 91 96 101 106 110 115 120 126 133 141 150 160 171 185 200 220 243 273 320 380 440 510 600 700 830 1000 1500 3000 
0 0 0 0 0 0 0 0 0 0 0 0 0 0 0 0 0 0 0 0 0 0 0 0 0 0 0 0 0 0 0 0 0 0 0 0 0 0 0 0 0 0 0 
0 0 0 0 0 0 0 0 0 0 0 0 0 0 0 0 0 0 0 0 0 0 10.2266 0 0 0 0 0 0 0 0 0 0 0 0 0 0 0 0 0 0 0 0 
0 0 0 0 0 0 0 0 0 0 0 0 0 0 0.609323 0 0 0 0 0 0 0 0 0 0 0 0 0 0 0 0 0 0 0 0 0 0 0 0 0 0 0 0 
0 0 0 0 0 0 0 0 0 0 0 0 0 0 0 0 0 0 0 0 0 0 0 0 0 0 0 0 0 0 0 0 0 0 0 0 0 0 0 0 0 0 0 
0 0 0 0 0 0 0 0 0 0 0 0 0 0 0 0 0 0 0 0 0 0 0 0 0 0 0 0.593798 0 0 0 0 0 0 0 0 0 0 0 0 0 0 0 
0 0 0 0 0 0 0 0 0 0 0 0 0 0 0 0 0 0 0 0 0 0 0 0 0 0 0 0 0 0 0 0 0 0 0 0 0 0 0 0 0 0 0 
0 0 0 0 0 0 0 0 0 0 0 0 0 0 0 0 0 0 0 0 0 0 0 0 0 0 0 0 0 0 0 0 0 0 0 0 0 0 0 0 0 0 0 
0 0 0 0 0 0 0 0 0 0 0 0 0 0 0 0.1938 0.3876 0.1938 0 0 0 0 0 0 0 0.1938 0 0 0 0 0 0.3876 0.22385 0.1938 0.142442 0.265021 0 0 0 0 0 0 0 
0 0 0 0 0 0 0 0 0 0 0 0 0 0 0 0 -2.56754 0 0 0 0 0 0 0 0 0 0 0 0 0 0 0 0 0 0 0 0 0 0 0 0 0 0 
0 0 0 6.47276 0 0 0 0 0 0 0 0 0 0 -2.56811 0 5.99625 5.13621 2.56811 7.70432 20.5448 20.5448 35.9535 140.386 160.083 56.5103 21.4289 0 0 1.72008 0.86004 0 0 1.72008 0.684587 0.342294 0.342294 0 0 0.0993975 0 0.0591695 -0.00844482 
0 1 0 0 1 0 0 0 0 0 0 3 2 2 3 5 1 11 7 8 7 24 39 116 157 67 8 0 1 3 0 2 0 0 1 2 0 0 0 0 0 0 0 

44
15 20 25 30 35 40 45 50 55 60 64 68 72 76 81 86 91 96 101 106 110 115 120 126 133 141 150 160 171 185 200 220 243 273 320 380 440 510 600 700 830 1000 1500 3000 
0 0 6.5667 0 0 0 0 0 0 0 0 0 0 0 0 0 0 0 0 0 0 0 29.0381 0 0 0 0 0 0 0 4878.77 0 0 161.573 161.573 0 35.6048 0 29.0381 6.5667 0 0 168.14 
0 10.2266 117.606 138.06 127.833 194.306 92.0398 143.173 117.606 189.193 122.72 61.3599 138.06 153.4 163.626 189.193 214.759 250.553 378.386 271.006 301.686 388.612 296.573 521.559 547.125 490.879 501.105 357.932 373.272 373.272 495.992 475.539 485.766 444.859 393.726 296.573 199.42 127.833 76.6998 81.8131 76.6998 20.4533 66.4732 
0 3.04661 20.1077 32.9034 38.9967 43.2619 55.4484 62.1509 79.8213 72.5094 56.667 64.5882 70.0721 84.0865 109.069 109.069 141.363 137.707 185.234 177.313 163.298 237.636 230.324 288.21 323.55 402.153 421.042 488.068 516.706 584.341 620.291 706.205 728.141 776.886 866.457 760.435 463.085 364.984 285.163 176.094 125.52 81.6492 59.7136 
0 0 0.564255 2.25702 3.38553 2.25702 1.69277 3.38553 3.38553 3.94979 5.64255 4.51404 7.89957 6.77106 5.0783 11.2851 15.7991 18.6204 17.4919 17.4919 18.6204 21.4417 28.2128 34.9838 50.783 65.4536 100.437 194.104 802.371 6057.28 1797.72 249.965 117.929 85.2025 79.56 52.4757 37.2408 25.3915 16.3634 9.59234 9.02808 6.20681 3.94979 
0 2.96899 8.90697 12.4698 13.0636 8.31317 10.6884 7.12557 6.53178 10.0946 6.53178 3.56279 9.50077 10.0946 6.53178 4.75038 7.12557 9.50077 10.0946 9.50077 7.12557 11.876 16.6263 14.8449 17.8139 31.4713 61.755 125.885 532.637 4314.54 1330.11 173.983 67.0992 51.0666 33.8465 26.7209 20.1891 10.0946 10.0946 8.90697 5.34418 4.75038 4.15658 
0 0.185463 7.41852 14.0952 14.4661 19.2881 22.9974 28.9322 27.4485 30.4159 26.5212 27.0776 29.6741 29.1177 45.6239 42.1001 45.8094 47.664 54.897 55.4534 48.0349 54.5261 63.0574 73.2579 92.9169 107.569 118.511 140.025 150.967 182.866 198.074 260.575 258.164 284.5 354.791 297.483 207.533 143.919 108.125 59.9045 38.7618 29.1177 15.9498 
0 0.739746 5.17822 12.3907 18.8635 22.0074 26.261 29.4049 29.7748 34.5831 24.0417 23.8568 30.5145 27.5555 41.0559 43.4601 48.4534 50.3027 48.0835 55.6659 44.3848 62.3236 65.4675 75.4541 94.1327 102.455 131.49 139.812 154.237 183.087 178.279 243.191 248.555 278.514 343.982 307.549 202.69 141.476 113.181 63.4332 44.1998 22.9321 13.3154 
0 5.4264 114.717 214.003 295.07 361.827 426.127 447.385 511.998 539.444 454.405 506.139 529.442 549.448 708.358 770.971 828.979 910.093 941.681 1006 839.12 1087.33 1123.68 1394.36 1657.95 1943.62 2246.78 2436.5 2698.43 3389.55 3384.43 4230.88 4403.08 4987.92 6180.79 5647.33 3816.55 2951.94 2326.4 1510.68 1036.89 632.166 414.785 
0 -3.94332 23.4759 20.5403 16.965 10.4542 27.4192 29.6187 21.9161 41.0806 43.6481 74.4586 46.2157 101.326 159.187 279.862 487.832 1187.39 2005.25 2339.03 2215.78 2921.86 3116.99 3450.77 3060.5 2883.34 1984.71 1263.23 546.885 219.432 147.725 118.107 100.134 66.756 56.4858 41.0806 25.6754 10.2701 7.70261 0 7.70261 0 0 
0 466.039 7670.6 8854.26 8551.75 7620.25 6621.71 5750 5535.94 5132.06 3911.54 4031.95 3714.86 4032.4 4705.25 5791.37 7361.41 11041 15032.3 19719.4 19010.2 28497.5 32186.8 41549.5 53577.7 76191.9 124162 275985 1.12469e+06 8.0788e+06 2.24379e+06 286574 107759 63918.8 46268.2 26989.1 13255.5 8432.67 5834.16 3289.28 2164.72 1313.32 1114.59 
0 1160 8785 8327 7839 7068 6498 5999 5530 5181 4197 4161 4093 4267 5556 6247 8334 11901 15966 20949 20549 29930 33162 43035 55147 75669 120910 266411 1.07813e+06 7.22215e+06 2.06133e+06 272388 104776 65637 50777 31841 16780 10926 7716 4535 2991 1778 1436 

44
15 20 25 30 35 40 45 50 55 60 64 68 72 76 81 86 91 96 101 106 110 115 120 126 133 141 150 160 171 185 200 220 243 273 320 380 440 510 600 700 830 1000 1500 3000 
0 0 0 0 0 0 0 0 0 0 0 0 0 0 0 0 0 0 0 0 0 0 0 0 0 0 0 0 0 0 0 161.573 31055.5 29.0381 168.14 2437.91 0 0 0 58.4618 0 58.0762 6.5667 
0 0 0 0 0 0 0 0 -5.11332 -5.11332 5.11332 0 5.11332 0 15.34 5.11332 35.7932 0 10.2266 25.5666 20.4533 25.5666 51.1332 25.5666 81.8131 20.4533 97.1531 71.5865 51.1332 25.5666 81.8131 132.946 102.266 173.853 153.4 178.966 122.72 81.8131 86.9265 71.5865 30.6799 20.4533 46.0199 
0 0 0 0 0 0 0 0 0 0.609323 0 0.609323 1.21865 2.43729 1.21865 1.82797 3.65594 3.04661 4.87458 9.13984 5.4839 9.13984 9.13984 13.4051 18.889 17.6704 32.9034 32.9034 44.4806 67.0255 66.4162 98.101 104.804 114.553 160.252 149.284 97.4916 96.273 71.2908 52.4018 34.7314 24.9822 23.1543 
0 0 0 0 0 0 0 0 0 0 0 0.564255 0 0 0 0.564255 0.564255 1.12851 0 0.564255 0.564255 2.82128 1.12851 5.0783 5.64255 19.1847 23.6987 42.8834 74.4817 102.694 363.38 795.6 795.036 775.851 725.632 498.802 270.278 202.003 147.271 81.2528 52.4757 33.8553 23.1345 
0 0 0 0 0 1.1876 0 0.593798 0.593798 0 0 1.1876 1.78139 0 0 0.593798 0 1.1876 1.78139 2.96899 0 1.1876 1.78139 4.75038 3.56279 11.876 12.4698 28.5023 42.7534 55.2232 239.301 583.109 483.945 385.969 351.528 193.578 105.102 69.4743 43.3472 21.9705 21.3767 11.2822 6.53178 
0 0 0 0 0.185463 0.185463 0 0 0.556389 0.741852 0.370926 0.556389 0.741852 1.11278 1.66917 3.5238 2.22556 7.60398 5.74935 6.86213 6.86213 9.27315 13.5388 14.4661 19.8445 25.0375 33.9397 40.4309 52.6715 64.1702 82.9019 104.601 119.809 138.541 191.583 182.496 140.766 101.819 84.2002 58.0499 34.4961 21.6992 20.03 
0 0 0 0 0 0 0 0.739746 0.184936 0.739746 0.739746 0.369873 1.10962 2.40417 2.21924 2.21924 3.14392 3.88367 4.80835 6.1029 6.84265 8.32214 8.87695 17.9388 19.4183 28.4802 37.5421 41.4258 58.6249 70.8307 81.1871 101.53 114.661 145.36 189.56 183.642 132.599 104.674 90.0641 59.3646 36.6174 23.1171 20.1581 
0 0 0 0 0.3876 1.3566 5.30382 8.86344 14.535 16.738 18.6247 24.9488 30.6703 40.963 65.0228 84.9028 111.218 139.565 177.089 210.145 197.823 291.441 321.245 459.046 605.405 818.894 1005.63 1227.52 1491.34 2011.13 2219.04 3025.59 3289.2 3926.27 5182.96 5013.29 3568.21 2892.51 2453.16 1645.7 1189.32 746.022 542.603 
0 0 0 0 0 0 0 0 0 0 0 0 5.13507 2.56754 3.75929 0 5.13507 7.70261 19.3485 7.70261 28.2429 69.3235 97.5664 146.35 210.538 273.535 300.402 306.913 326.077 360.831 281.237 228.511 290.132 193.757 178.536 120.674 61.6209 35.9455 59.0533 10.2701 33.378 7.70261 -2.56754 
0 0 6.47276 0 19.4183 58.2549 -12.9455 77.6732 116.51 88.0506 138.496 226.547 213.601 172.197 340.488 606.998 854.3 898.378 908.545 1402.94 1215.49 1728.01 1684.2 2622.05 4112.62 7127.47 16767.2 40297 56424.6 44635.2 156815 287850 213699 156378 125800 75882.2 36890 22986.7 14246.3 7220.94 4369.86 2232.18 1641.28 
0 0 1 7 27 49 68 95 138 135 135 175 244 318 516 693 824 1002 1191 1457 1283 1930 2156 3035 4392 6895 14738 33506 49147 42754 142163 261199 196551 148426 124468 79470 41955 26484 17177 9068 5421 2915 2233 

44
15 20 25 30 35 40 45 50 55 60 64 68 72 76 81 86 91 96 101 106 110 115 120 126 133 141 150 160 171 185 200 220 243 273 320 380 440 510 600 700 830 1000 1500 3000 
0 0 0 0 0 0 0 0 0 0 0 0 0 0 0 0 0 0 0 0 0 0 0 0 0 0 0 0 29.0381 0 0 0 0 0 0 0 0 6.5667 29.0381 0 0 0 0 
0 0 0 0 0 0 0 0 0 0 0 -5.11332 0 0 0 0 0 0 0 0 0 0 0 5.11332 5.11332 5.11332 15.34 10.2266 15.34 5.11332 10.2266 5.11332 10.2266 -10.2266 40.9066 71.5865 46.0199 56.2465 0 5.11332 15.34 10.2266 0 
0 0 0 0 0 0 0 0 0 0 0 0 0 0 0 0 0 0 0 0 0 0 0 0 0 0.609323 0.609323 0.609323 3.04661 4.26526 6.70255 4.87458 11.5771 14.0144 21.9356 26.8102 18.2797 17.6704 14.6237 15.2331 9.74916 10.9678 10.3585 
0 0 0 0 0 0 0 0 0 0 0 0 0 0 0 0 0 0 0 0 0 0 0 0 0 0 2.25702 1.12851 3.94979 4.51404 11.2851 28.777 78.4315 119.622 192.411 174.355 104.951 80.1242 71.0962 34.4196 25.3915 14.1064 13.5421 
0 0 0 0 0 0 0 0 0 0 0 0 0 0 0 0 0 0 0 1.1876 0 0 0 0 0 1.78139 0.593798 1.1876 1.1876 2.96899 8.90697 29.0961 84.9131 103.915 141.324 121.135 64.1302 48.0976 35.0341 22.5643 15.4387 11.2822 9.50077 
0 0 0 0 0 0 0 0 0.185463 0 0 0 0 0 0.370926 0 0 0.370926 0.370926 0 0.185463 0.370926 0.556389 0.556389 0.556389 1.11278 2.22556 3.33833 6.12028 12.426 9.64407 16.3207 21.6992 32.456 48.2204 52.6715 42.2856 40.2455 34.6816 23.1829 15.9498 14.2806 13.1679 
0 0 0 0 0 0 0 0 0 0 0 0 0 0 0 0.184936 0 0 0.369873 0.184936 0.184936 0 0.184936 1.10962 1.47949 2.95898 0.924682 5.36316 5.36316 10.1715 12.2058 19.9731 26.261 28.8501 54.0015 56.2207 44.5697 36.2476 34.5831 24.4116 16.8292 12.9456 12.2058 
0 0 0 0 0 0 0 0.1938 0.1938 0.5814 0.5814 0.723842 1.1628 0.969 1.7442 3.2946 4.845 6.07902 6.34404 9.1086 9.76122 17.8495 22.1945 36.3317 56.3328 77.192 136.125 186.887 253.705 428.752 546.935 835.64 1036.47 1379.22 2055.78 2176.47 1656.51 1438.43 1291.44 901.479 707.004 452.148 380.712 
0 0 0 0 0 0 0 0 0 0 0 0 0 0 0 0 0 0 0 0 0 2.56754 2.56754 0 5.13507 25.6754 23.1078 28.2429 23.1078 32.0022 24.2996 46.2157 71.891 55.2941 82.1612 45.0239 2.56754 23.1078 25.6754 2.56754 5.13507 -5.13507 7.70261 
0 0 0 0 0 6.47276 0 0 0 6.47276 6.47276 0 0 0 12.9455 -19.4183 6.47276 19.4183 -19.4183 25.8911 -6.47276 19.4183 89.2821 107.469 108.49 254.796 317.73 536.811 960.504 2060.57 3416.49 9175.59 17592.3 23687.3 30011 23513.2 13645.3 8640.05 6103.56 3686.58 2395.41 1381.34 1061.61 
0 0 0 0 0 1 1 0 3 2 2 4 2 2 9 13 14 23 18 34 31 65 71 123 172 328 495 699 1161 2485 3701 9762 18064 25073 30735 25249 15245 10550 7963 4797 3145 1844 1375 

44
15 20 25 30 35 40 45 50 55 60 64 68 72 76 81 86 91 96 101 106 110 115 120 126 133 141 150 160 171 185 200 220 243 273 320 380 440 510 600 700 830 1000 1500 3000 
0 0 0 0 0 0 0 0 0 0 0 0 0 0 0 0 0 0 0 0 0 0 0 0 0 0 0 0 0 0 0 0 0 0 0 0 0 0 0 0 0 0 6.5667 
0 0 0 0 0 0 0 0 0 0 0 0 0 0 0 0 0 0 0 0 0 0 0 0 0 0 0 0 0 0 0 0 -5.11332 -10.2266 -5.11332 10.2266 0 5.11332 0 0 10.2266 10.2266 15.34 
0 0 0 0 0 0 0 0 0 0 0 0 0 0 0 0 0 0 0 0 0 0 0 0 0 0 0 0 0 0.609323 0 0 1.82797 0.609323 1.82797 3.65594 3.04661 3.65594 2.43729 5.4839 1.82797 1.21865 0.609323 
0 0 0 0 0 0 0 0 0 0 0 0 0 0 0 0 0 0 0 0 0 0 0 0 0 0 0 0 0 0 1.12851 1.12851 4.51404 4.51404 12.4136 39.4979 20.3132 16.9277 21.4417 10.1566 9.59234 3.94979 5.0783 
0 0 0 0 0 0 0 0 0 0 0 0 0 0 0 0 0 0 0 0 0 0 0 0 0 0 0 0 0 0 0 0 1.78139 7.12557 21.3767 22.5643 15.4387 14.2511 8.90697 7.71937 5.34418 1.78139 5.34418 
0 0 0 0 0 0 0 0 0 0 0 0 0 0 0 0 0 0 0 0 0 0 0 0 0 0 0.185463 0.370926 0 0.370926 0.741852 1.4837 1.4837 4.82204 7.04759 10.5714 10.9423 9.08769 7.60398 7.41852 7.41852 4.82204 4.26565 
0 0 0 0 0 0 0 0 0 0 0 0 0 0 0 0 0 0 0 0 0 0 0.184936 0 0.184936 0 0 0.184936 0 0 0.924682 2.40417 1.29456 4.43848 7.76733 10.3564 9.06189 10.5414 9.98657 7.5824 6.65771 3.14392 3.88367 
0 0 0 0 0 0 0 0 0.1938 0 0 0 0 0 0.1938 0 0.1938 0 0.458821 0.3876 0.1938 1.3566 1.3566 0.7752 1.3566 3.876 4.0698 13.2797 19.5525 32.3317 58.6173 113.052 167.901 262.789 479.734 583.352 515.025 487.873 450.225 341.77 277.257 204.779 171.389 
0 0 0 0 0 0 0 0 0 0 0 0 0 0 0 0 0 0 0 0 0 0 0 0 0 0 0 0 0 7.70261 2.56754 2.56754 10.2701 12.8377 7.70261 0 5.13507 7.70261 0 -5.13507 2.56754 5.13507 7.70261 
0 0 0 0 0 0 0 0 0 0 0 0 0 0 0 6.47276 6.47276 0 0 0 0 0 0 -6.47276 0 -6.47276 11.609 9.04087 47.8774 33.4904 136.158 199.198 733.646 1539.99 2930.74 3742.61 2604.1 2141.53 1644.61 1049.11 762.741 542.381 512.662 
0 0 0 0 0 0 0 0 0 0 0 0 0 0 0 0 0 0 1 0 1 1 1 2 5 5 14 25 44 85 167 354 879 1925 3808 4505 3361 2837 2334 1578 1184 720 650 

44
15 20 25 30 35 40 45 50 55 60 64 68 72 76 81 86 91 96 101 106 110 115 120 126 133 141 150 160 171 185 200 220 243 273 320 380 440 510 600 700 830 1000 1500 3000 
0 0 0 0 0 0 0 0 0 0 0 0 0 0 0 0 0 0 0 0 0 0 0 0 0 0 0 0 0 0 0 0 0 0 0 0 0 0 0 0 0 0 0 
0 0 0 0 0 0 0 0 0 0 0 0 0 0 0 0 0 0 0 0 0 0 0 0 0 0 0 0 0 0 0 0 0 0 0 5.11332 0 0 0 -10.2266 0 5.11332 0 
0 0 0 0 0 0 0 0 0 0 0 0 0 0 0 0 0 0 0 0 0 0 0 0 0 0 0 0 0 0 0 0 0 0 0.609323 0 0 0 0 0.609323 1.21865 1.21865 0 
0 0 0 0 0 0 0 0 0 0 0 0 0 0 0 0 0 0 0 0 0 0 0 0 0 0 0 0 0 0 0 0 0.564255 1.12851 1.12851 2.82128 3.38553 4.51404 5.0783 2.82128 1.69277 3.38553 1.69277 
0 0 0 0 0 0 0 0 0 0 0 0 0 0 0 0 0 0 0 0 0 0 0 0 0 0 0 0 0 0 0 0 0 0 1.78139 3.56279 2.96899 1.78139 0.593798 3.56279 1.1876 1.1876 0.593798 
0 0 0 0 0 0 0 0 0 0 0 0 0 0 0 0 0 0 0 0 0 0 0 0 0 0 0 0 0 0 0 0 0.185463 0.185463 1.29824 0.556389 1.85463 2.22556 1.66917 1.85463 2.22556 0.741852 1.4837 
0 0 0 0 0 0 0 0 0 0 0 0 0 0 0 0 0 0 0 0 0 0 0 0 0 0 0 0 0 0 0 0 0.369873 0.554809 0.554809 2.40417 2.21924 1.84936 1.66443 1.84936 1.84936 1.47949 1.29456 
0 0 0 0 0 0 0 0 0 0 0 0 0 0 0 0 0 0 0 0 0 0 0 0 0 0 0 1.1628 0.969 1.62162 2.35565 9.52625 16.034 34.4136 70.7502 109.195 111.893 115.084 122.774 93.0729 90.2344 66.8493 61.5345 
0 0 0 0 0 0 0 0 0 0 0 0 0 0 0 0 0 0 0 0 0 0 0 0 0 0 0 0 0 0 0 0 0 0 2.56754 2.56754 2.56754 2.56754 0 0 0 5.13507 7.70261 
0 0 0 0 0 0 0 0 0 0 0 0 0 0 0 0 0 0 0 0 0 0 0 0 0 0 0 0 0 0 0 15.5136 -2.56811 63.5526 215.745 382.034 316.645 381.693 284.563 216.349 205.204 85.0806 98.53 
0 0 0 0 0 0 0 0 0 0 0 0 0 0 0 0 0 0 0 0 0 0 0 0 0 0 0 1 1 5 8 26 41 114 324 605 582 525 513 408 329 245 208 

44
15 20 25 30 35 40 45 50 55 60 64 68 72 76 81 86 91 96 101 106 110 115 120 126 133 141 150 160 171 185 200 220 243 273 320 380 440 510 600 700 830 1000 1500 3000 
0 0 0 0 0 0 0 0 0 0 0 0 0 0 0 0 0 0 0 0 0 0 0 0 0 0 0 0 0 0 0 0 0 0 0 0 0 0 0 0 0 0 0 
0 0 0 0 0 0 0 0 0 0 0 0 0 0 0 0 0 0 0 0 0 0 0 0 0 0 0 0 0 0 0 0 0 0 0 0 0 0 0 0 0 0 0 
0 0 0 0 0 0 0 0 0 0 0 0 0 0 0 0 0 0 0 0 0 0 0 0 0 0 0 0 0 0 0 0 0 0 0 0 0 0 0 0 0 0 0.609323 
0 0 0 0 0 0 0 0 0 0 0 0 0 0 0 0 0 0 0 0 0 0 0 0 0 0 0 0 0 0 0 0 0 0 0 0.564255 0 0.564255 0 0 0.564255 0.564255 0 
0 0 0 0 0 0 0 0 0 0 0 0 0 0 0 0 0 0 0 0 0 0 0 0 0 0 0 0 0 0 0 0 0 0 1.1876 0 0 0 1.78139 0 0 0 0 
0 0 0 0 0 0 0 0 0 0 0 0 0 0 0 0 0 0 0 0 0 0 0 0 0 0 0 0 0 0 0 0 0 0 0 0.185463 0 0.370926 0.370926 0.741852 0.556389 0.370926 0.927315 
0 0 0 0 0 0 0 0 0 0 0 0 0 0 0 0 0 0 0 0 0 0 0 0 0 0 0 0 0 0 0 0 0 0 0 0.184936 0.554809 0 0.184936 0.369873 0.924682 0.184936 0.554809 
0 0 0 0 0 0 0 0 0 0 0 0 0 0 0 0 0 0 0 0 0 0 0 0 0 0 0 0 0 0 0 0.723842 0.969 2.7132 8.50589 19.7536 18.1291 23.024 23.8734 21.512 20.2741 18.382 16.9064 
0 0 0 0 0 0 0 0 0 0 0 0 0 0 0 0 0 0 0 0 0 0 0 0 0 0 0 0 0 0 0 0 0 0 0 0 0 0 5.13507 0 0 0 0 
0 0 0 0 0 0 0 0 0 0 0 0 0 0 0 0 0 0 0 0 0 0 0 0 0 0 0 0 0 0 0 0 6.47276 0 5.13621 51.8506 53.5587 28.9088 52.2221 44.9134 61.2587 0.35431 28.9052 
0 0 0 0 0 0 0 0 0 0 0 0 0 0 0 0 0 0 0 0 0 0 0 0 0 0 0 0 0 0 0 0 2 8 17 56 65 83 91 102 78 58 57 

44
15 20 25 30 35 40 45 50 55 60 64 68 72 76 81 86 91 96 101 106 110 115 120 126 133 141 150 160 171 185 200 220 243 273 320 380 440 510 600 700 830 1000 1500 3000 
0 0 0 0 0 0 0 0 0 0 0 0 0 0 0 0 0 0 0 0 0 0 0 0 0 0 0 0 0 0 0 0 0 0 0 0 0 0 0 0 0 0 0 
0 0 0 0 0 0 0 0 0 0 0 0 0 0 0 0 0 0 0 0 0 0 0 0 0 0 0 0 0 0 0 0 0 0 0 0 0 0 0 0 0 5.11332 0 
0 0 0 0 0 0 0 0 0 0 0 0 0 0 0 0 0 0 0 0 0 0 0 0 0 0 0 0 0 0 0 0 0 0 0 0 0 0 0 0 0 0 0 
0 0 0 0 0 0 0 0 0 0 0 0 0 0 0 0 0 0 0 0 0 0 0 0 0 0 0 0 0 0 0 0 0 0 0 0 0 0 0.564255 0 0 0 0 
0 0 0 0 0 0 0 0 0 0 0 0 0 0 0 0 0 0 0 0 0 0 0 0 0 0 0 0 0 0 0 0 0 0 0 0 0 0 0 0 0 0 0 
0 0 0 0 0 0 0 0 0 0 0 0 0 0 0 0 0 0 0 0 0 0 0 0 0 0 0 0 0 0 0 0 0 0 0 0 0 0 0 0.185463 0 0.185463 0 
0 0 0 0 0 0 0 0 0 0 0 0 0 0 0 0 0 0 0 0 0 0 0 0 0 0 0 0 0 0 0 0 0 0 0 0 0 0 0 0 0.184936 0.184936 0.184936 
0 0 0 0 0 0 0 0 0 0 0 0 0 0 0 0 0 0 0 0 0 0 0 0 0 0 0 0 0 0 0 0 0 0.3876 0.5814 2.03927 3.75342 2.46804 6.18904 4.65323 3.65562 6.05787 4.06613 
0 0 0 0 0 0 0 0 0 0 0 0 0 0 0 0 0 0 0 0 0 0 0 0 0 0 0 0 0 0 0 0 0 0 0 0 0 0 0 0 0 0 0 
0 0 0 0 0 0 0 0 0 0 0 0 0 0 0 0 0 0 0 0 0 0 0 0 0 0 0 0 0 0 0 0 0 0 0 -5.13621 4.27617 6.00827 11.1325 7.70432 16.9576 10.2724 4.48755 
0 0 0 0 0 0 0 0 0 0 0 0 0 0 0 0 0 0 0 0 0 0 0 0 0 0 0 0 0 0 0 0 1 0 0 4 9 12 14 22 15 5 14 

44
15 20 25 30 35 40 45 50 55 60 64 68 72 76 81 86 91 96 101 106 110 115 120 126 133 141 150 160 171 185 200 220 243 273 320 380 440 510 600 700 830 1000 1500 3000 
0 0 0 0 0 0 0 0 0 0 0 0 0 0 0 0 0 0 0 0 0 0 0 0 0 0 0 0 0 0 0 0 0 0 0 0 0 0 0 0 0 0 0 
0 0 0 0 0 0 0 0 0 0 0 0 0 0 0 0 0 0 0 0 0 0 0 0 0 0 0 0 0 0 0 0 0 0 0 0 0 0 0 0 0 0 0 
0 0 0 0 0 0 0 0 0 0 0 0 0 0 0 0 0 0 0 0 0 0 0 0 0 0 0 0 0 0 0 0 0 0 0 0 0 0 0 0 0 0 0 
0 0 0 0 0 0 0 0 0 0 0 0 0 0 0 0 0 0 0 0 0 0 0 0 0 0 0 0 0 0 0 0 0 0 0 0 0 0 0 0 0 0 0 
0 0 0 0 0 0 0 0 0 0 0 0 0 0 0 0 0 0 0 0 0 0 0 0 0 0 0 0 0 0 0 0 0 0 0 0 0 0 0 0 0 0 0 
0 0 0 0 0 0 0 0 0 0 0 0 0 0 0 0 0 0 0 0 0 0 0 0 0 0 0 0 0 0 0 0 0 0 0 0 0 0 0 0 0 0 0 
0 0 0 0 0 0 0 0 0 0 0 0 0 0 0 0 0 0 0 0 0 0 0 0 0 0 0 0 0 0 0 0 0 0 0 0 0 0 0 0 0 0 0 
0 0 0 0 0 0 0 0 0 0 0 0 0 0 0 0 0 0 0 0 0 0 0 0 0 0 0 0 0 0 0 0 0 0 0.1938 0 0.5814 0.3876 1.30524 1.45787 0.783942 1.0291 2.38426 
0 0 0 0 0 0 0 0 0 0 0 0 0 0 0 0 0 0 0 0 0 0 0 0 0 0 0 0 0 0 0 0 0 0 0 0 0 0 0 0 0 0 0 
0 0 0 0 0 0 0 0 0 0 0 0 0 0 0 0 0 0 0 0 0 0 0 0 0 0 0 0 0 0 0 0 0 0 0 0 0 0 -2.56811 2.56811 -3.42815 -0.171147 5.13621 
0 0 0 0 0 0 0 0 0 0 0 0 0 0 0 0 0 0 0 0 0 0 0 0 0 0 0 0 0 0 0 0 0 0 0 0 2 0 2 2 3 2 0 

44
15 20 25 30 35 40 45 50 55 60 64 68 72 76 81 86 91 96 101 106 110 115 120 126 133 141 150 160 171 185 200 220 243 273 320 380 440 510 600 700 830 1000 1500 3000 
0 0 0 0 0 0 0 0 0 0 0 0 0 0 0 0 0 0 0 0 0 0 0 0 0 0 0 0 0 0 0 0 0 0 0 0 0 0 0 0 0 0 0 
0 0 0 0 0 0 0 0 0 0 0 0 0 0 0 0 0 0 0 0 0 0 0 0 0 0 0 0 0 0 0 0 0 0 0 0 0 0 0 0 0 0 0 
0 0 0 0 0 0 0 0 0 0 0 0 0 0 0 0 0 0 0 0 0 0 0 0 0 0 0 0 0 0 0 0 0 0 0 0 0 0 0 0 0 0 0 
0 0 0 0 0 0 0 0 0 0 0 0 0 0 0 0 0 0 0 0 0 0 0 0 0 0 0 0 0 0 0 0 0 0 0 0 0 0 0 0 0 0 0 
0 0 0 0 0 0 0 0 0 0 0 0 0 0 0 0 0 0 0 0 0 0 0 0 0 0 0 0 0 0 0 0 0 0 0 0 0 0 0 0 0 0 0 
0 0 0 0 0 0 0 0 0 0 0 0 0 0 0 0 0 0 0 0 0 0 0 0 0 0 0 0 0 0 0 0 0 0 0 0 0 0 0 0 0 0 0 
0 0 0 0 0 0 0 0 0 0 0 0 0 0 0 0 0 0 0 0 0 0 0 0 0 0 0 0 0 0 0 0 0 0 0 0 0 0 0 0 0 0 0 
0 0 0 0 0 0 0 0 0 0 0 0 0 0 0 0 0 0 0 0 0 0 0 0 0 0 0 0 0 0 0 0 0 0 0 0 0.1938 0 0 0 0.458821 0.0300498 0.41765 
0 0 0 0 0 0 0 0 0 0 0 0 0 0 0 0 0 0 0 0 0 0 0 0 0 0 0 0 0 0 0 0 0 0 0 0 0 0 0 0 0 0 0 
0 0 0 0 0 0 0 0 0 0 0 0 0 0 0 0 0 0 0 0 0 0 0 0 0 0 0 0 0 0 0 0 0 0 0 0 0 0 0 0 0 0 0 
0 0 0 0 0 0 0 0 0 0 0 0 0 0 0 0 0 0 0 0 0 0 0 0 0 0 0 0 0 0 0 0 0 0 0 0 0 0 0 2 0 2 0 

44
15 20 25 30 35 40 45 50 55 60 64 68 72 76 81 86 91 96 101 106 110 115 120 126 133 141 150 160 171 185 200 220 243 273 320 380 440 510 600 700 830 1000 1500 3000 
0 0 0 0 0 0 0 0 0 0 0 0 0 0 0 0 0 0 0 0 0 0 0 0 0 0 0 0 0 0 0 0 0 0 0 0 0 0 0 0 0 0 0 
0 0 0 0 0 0 0 0 0 0 0 0 0 0 0 0 0 0 0 0 0 0 0 0 0 0 0 0 0 0 0 0 0 0 0 0 0 0 0 0 0 0 0 
0 0 0 0 0 0 0 0 0 0 0 0 0 0 0 0 0 0 0 0 0 0 0 0 0 0 0 0 0 0 0 0 0 0 0 0 0 0 0 0 0 0 0 
0 0 0 0 0 0 0 0 0 0 0 0 0 0 0 0 0 0 0 0 0 0 0 0 0 0 0 0 0 0 0 0 0 0 0 0 0 0 0 0 0 0 0 
0 0 0 0 0 0 0 0 0 0 0 0 0 0 0 0 0 0 0 0 0 0 0 0 0 0 0 0 0 0 0 0 0 0 0 0 0 0 0 0 0 0 0 
0 0 0 0 0 0 0 0 0 0 0 0 0 0 0 0 0 0 0 0 0 0 0 0 0 0 0 0 0 0 0 0 0 0 0 0 0 0 0 0 0 0 0 
0 0 0 0 0 0 0 0 0 0 0 0 0 0 0 0 0 0 0 0 0 0 0 0 0 0 0 0 0 0 0 0 0 0 0 0 0 0 0 0 0 0 0 
0 0 0 0 0 0 0 0 0 0 0 0 0 0 0 0 0 0 0 0 0 0 0 0 0 0 0 0 0 0 0 0 0 0 0 0 0 0 0 0 0 0 0 
0 0 0 0 0 0 0 0 0 0 0 0 0 0 0 0 0 0 0 0 0 0 0 0 0 0 0 0 0 0 0 0 0 0 0 0 0 0 0 0 0 0 0 
0 0 0 0 0 0 0 0 0 0 0 0 0 0 0 0 0 0 0 0 0 0 0 0 0 0 0 0 0 0 0 0 0 0 0 0 0 0 0 0 0 0 0 
0 0 0 0 0 0 0 0 0 0 0 0 0 0 0 0 0 0 0 0 0 0 0 0 0 0 0 0 0 0 0 0 0 0 0 0 0 0 0 0 0 0 0 
