1
Photon_
#Delta R
high_dr
11
0
11
10
QCD W + Jets WW WZ ZZ #bar{t}W tW t#bar{t} Drell Yan #rightarrow #tau#tau Drell Yan #rightarrow ee 

100
0.00402555 0.00436083 0.00472403 0.00511748 0.0055437 0.00600542 0.00650559 0.00704742 0.00763438 0.00827023 0.00895903 0.0097052 0.0105135 0.0113892 0.0123377 0.0133653 0.0144785 0.0156843 0.0169906 0.0184057 0.0199387 0.0215993 0.0233983 0.025347 0.0274581 0.029745 0.0322224 0.0349061 0.0378133 0.0409627 0.0443744 0.0480702 0.0520738 0.0564109 0.0611092 0.0661988 0.0717123 0.077685 0.0841551 0.0911642 0.098757 0.106982 0.115892 0.125545 0.136001 0.147328 0.159599 0.172891 0.187291 0.20289 0.219788 0.238093 0.257923 0.279405 0.302676 0.327885 0.355193 0.384776 0.416823 0.451539 0.489146 0.529886 0.574019 0.621827 0.673617 0.729721 0.790497 0.856335 0.927657 1.00492 1.08862 1.17928 1.2775 1.3839 1.49916 1.62402 1.75928 1.90581 2.06454 2.23649 2.42276 2.62454 2.84313 3.07993 3.33645 3.61433 3.91536 4.24146 4.59471 4.97739 5.39195 5.84103 6.32751 6.85451 7.4254 8.04384 8.71379 9.43953 10.2257 11.0774 
0 0 0 0 0 0 0 0 0 0 0 0 0 0 0 0 0 0 0 0 0 0 0 0 0 0 0 0 0 0 0 0 0 0 0 0 0 0 0 0 0 0 0 0 0 0 0 0 0 0 0 0 0 0 0 0 0 0 0 0 0 0 0 0 0 0 0 0 0 0 0 0 0 0 0 0 0 0 0 0 0 0 0 0 0 0 0 0 0 0 0 0 0 0 0 0 0 0 0 
0 0 0 0 0 0 0 0 0 0 0 0 0 0 0 0 0 0 0 0 0 0 0 0 0 0 0 0 0 0 0 0 0 0 0 0 0 0 0 0 0 0 0 0 0 0 0 0 0 0 0 0 0 0 0 0 0 0 0 0 0 0 0 0 0 0 0 0 0 0 0 0 0 0 0 0 0 0 0 5.11332 5.11332 0 0 0 0 0 0 0 0 0 0 0 0 0 0 0 0 0 0 
0 0 0 0 0 0 0 0 0 0 0 0 0 0 0 0 0 0 0 0 0 0 0 0 0 0 0 0 0 0 0 0 0 0 0 0 0 0 0 0 0 0 0 0 0 0 0 0 0 0 0 0 0 0 0 0 0 0 0 0 0 0 0 0 0 0 0 0 0 0 0 0 0 0 0 0 0 0 0 0 0 0 0 0 0 0 0.609323 0 0 0 0 0 0 0 0 0 0 0 0 
0 0 0 0 0 0 0 0 0 0 0 0 0 0 0 0 0 0 0 0 0 0 0 0 0 0 0 0 0 0 0 0 0 0 0 0 0 0 0 0 0 0 0 0 0 0 0 0 0 0 0 0 0 0 0 0 0 0 0 0 0 0 0 0 0 0 0 0 0 0 0 0 0 0 0 0 0 0 0 0 0 0 0 0 0 0 0 0 0 0 0 0 0 0 0 0 0 0 0 
0 0 0 0 0 0 0 0 0 0 0 0 0 0 0 0 0 0 0 0 0 0 0 0 0 0 0 0 0 0 0 0 0 0 0 0 0 0 0 0 0 0 0 0 0 0 0 0 0 0 0 0 0 0 0 0 0 0 0 0 0 0 0 0 0 0 0 0 0 0 0 0 0 0 0 0 0 0 0 0 0.593798 0 0 0 0 0 0 0 0 0 0 0 0 0 0 0 0 0 0 
0 0 0 0 0 0 0 0 0 0 0 0 0 0 0 0 0 0 0 0 0 0 0 0 0 0 0 0 0 0 0 0 0 0 0 0 0 0 0 0 0 0 0 0 0 0 0 0 0 0 0 0 0 0 0 0 0 0 0 0 0 0 0 0 0 0 0 0 0 0 0 0 0 0 0 0 0 0 0 0 0 0 0 0 0 0 0 0 0 0 0 0 0 0 0 0 0 0 0 
0 0 0 0 0 0 0 0 0 0 0 0 0 0 0 0 0 0 0 0 0 0 0 0 0 0 0 0 0 0 0 0 0 0 0 0 0 0 0 0 0 0 0 0 0 0 0 0 0 0 0 0 0 0 0 0 0 0 0 0 0 0 0 0 0 0 0 0 0 0 0 0 0 0 0 0 0 0 0 0 0 0 0 0 0 0 0 0 0 0 0 0 0 0 0 0 0 0 0 
0 0 0 0 0 0 0 0 0 0 0 0 0 0 0 0 0 0 0 0 0 0 0 0 0 0 0 0 0 0 0 0 0 0 0 0 0 0 0 0 0 0 0 0 0 0 0 0 0 0 0 0 0 0 0 0 0 0 0 0 0 0 0 0 0 0 0 0 0 0 0 0 0 0 0 0 0 0 0.3876 0 0 0.1938 0.3876 0.3876 0.336242 0.1938 0.0300498 0 0.1938 0 0.0712211 0 0 0 0 0 0 0 0 
0 0 0 0 0 0 0 0 0 0 0 0 0 0 0 0 0 0 0 0 0 0 0 0 0 0 0 0 0 0 0 0 0 0 0 0 0 0 0 0 0 0 0 0 0 0 0 0 0 0 0 0 0 0 0 0 0 0 0 0 0 0 0 0 0 0 0 0 0 0 0 0 0 0 0 0 0 0 0 0 0 -2.56754 0 0 0 0 0 0 0 0 0 0 0 0 0 0 0 0 0 
0 0 0 0 0 0 0 0 0 0 0 0 0 0 0 0 0 0 0 0 0 0 0 0 0 0 0 0 0 0 0 0 0 0 0 0 0 0 0 0 0 0 0 0 0 0 0 0 0 0 0 0 0 0 0 0 0 0 0 0 0 0 0 0 6.47276 0 0 0 0 0 0 2.56811 2.56811 -0.86004 2.56811 0 0 2.56811 1.70806 0 7.70432 1.03119 1.72008 91.6026 154.952 125.172 61.1204 16.2602 10.2724 3.42815 -2.56811 -1.70806 0 0 0 0 0 0 0 
0 0 0 0 0 0 0 0 0 0 0 0 0 0 0 0 0 0 0 0 0 0 0 0 0 0 0 0 0 0 0 0 0 0 0 0 0 0 0 0 0 0 0 0 0 0 0 0 0 0 0 0 0 0 0 0 0 0 0 0 1 0 0 0 0 0 1 1 1 1 0 0 0 1 2 1 3 1 2 7 6 13 19 77 150 99 50 18 6 8 0 0 3 0 0 0 0 0 0 

100
0.00402555 0.00436083 0.00472403 0.00511748 0.0055437 0.00600542 0.00650559 0.00704742 0.00763438 0.00827023 0.00895903 0.0097052 0.0105135 0.0113892 0.0123377 0.0133653 0.0144785 0.0156843 0.0169906 0.0184057 0.0199387 0.0215993 0.0233983 0.025347 0.0274581 0.029745 0.0322224 0.0349061 0.0378133 0.0409627 0.0443744 0.0480702 0.0520738 0.0564109 0.0611092 0.0661988 0.0717123 0.077685 0.0841551 0.0911642 0.098757 0.106982 0.115892 0.125545 0.136001 0.147328 0.159599 0.172891 0.187291 0.20289 0.219788 0.238093 0.257923 0.279405 0.302676 0.327885 0.355193 0.384776 0.416823 0.451539 0.489146 0.529886 0.574019 0.621827 0.673617 0.729721 0.790497 0.856335 0.927657 1.00492 1.08862 1.17928 1.2775 1.3839 1.49916 1.62402 1.75928 1.90581 2.06454 2.23649 2.42276 2.62454 2.84313 3.07993 3.33645 3.61433 3.91536 4.24146 4.59471 4.97739 5.39195 5.84103 6.32751 6.85451 7.4254 8.04384 8.71379 9.43953 10.2257 11.0774 
0 0 0 0 0 0 0 0 0 0 0 0 0 0 0 0 0 0 0 0 0 0 0 0 0 0 0 0 0 0 0 0 0 0 0 0 0 0 0 0 0 0 0 0 0 0 0 0 0 0 0 0 0 0 0 0 6.5667 6.5667 0 0 0 0 0 0 0 0 0 0 0 0 0 0 0 0 13.1334 0 0 58.0762 0 0 323.146 0 323.146 9492.48 0 0 323.146 84.343 323.146 0 58.0762 0 0 0 0 0 0 0 0 
0 0 0 0 0 0 0 0 0 0 0 0 0 0 0 0 0 0 0 0 0 0 0 0 0 0 0 0 0 0 0 0 0 0 0 0 0 0 0 0 0 0 0 0 0 0 0 0 0 0 0 0 0 0 5.11332 30.6799 61.3599 127.833 56.2465 138.06 76.6998 143.173 143.173 127.833 178.966 230.099 224.986 71.5865 224.986 398.839 255.666 148.286 306.799 199.42 368.159 276.119 434.632 444.859 997.098 623.825 838.585 910.171 1283.44 1487.98 2014.65 1871.48 1636.26 1523.77 1145.38 664.732 628.939 306.799 276.119 51.1332 0 0 0 0 0 
0 0 0 0 0 0 0 0 0 0 0 0 0 0 0 0 0 0 0 0 0 0 0 0 0 0 0 0 0 0 0 0 0 0 0 0 0 0 0 0 0 0 0 0 0 0 0 0 0 0 0 0 0 0 0 4.26526 14.0144 21.3263 25.5916 33.5128 38.3873 50.5738 56.0577 69.4628 77.9933 88.3518 104.194 116.381 120.037 152.331 179.141 247.994 238.245 336.955 338.783 427.135 420.433 557.53 697.675 854.88 1042.55 1349.65 1690.26 1988.83 2353.81 2389.15 2102.16 1599.47 1148.57 737.89 411.293 232.152 127.348 17.6704 2.43729 0 0 0 0 
0 0 0 0 0 0 0 0 0 0 0 0 0 0 0 0 0 0 0 0 0 0 0 0 0 0 0 0 0 0 0 0 0 0 0 0 0 0 0 0 0 0 0 0 0 0 0 0 0 0 0 0 0 0 0.564255 1.69277 1.69277 5.64255 11.8494 9.02808 20.3132 27.0843 24.8272 27.0843 53.04 49.6545 74.4817 77.303 119.058 123.008 190.718 235.859 283.82 322.754 451.404 528.707 653.972 796.164 954.156 1124 1218.23 1402.17 1574.27 1624.49 1653.83 1667.94 1408.38 1166.88 883.059 610.524 330.654 194.668 91.4094 2.82128 0 0 0 0 0 
0 0 0 0 0 0 0 0 0 0 0 0 0 0 0 0 0 0 0 0 0 0 0 0 0 0 0 0 0 0 0 0 0 0 0 0 0 0 0 0 0 0 0 0 0 0 0 0 0 0 0 0 0 0 0.593798 10.6884 17.2201 16.0325 24.3457 22.5643 21.9705 15.4387 13.0636 24.9395 44.5348 50.4728 43.941 65.3178 71.2557 102.727 150.825 187.64 197.141 255.927 308.181 366.967 446.536 544.513 596.767 718.495 869.914 966.109 1075.96 1198.28 1274.29 1173.94 1085.46 780.844 605.08 346.184 215.549 91.4449 75.4123 0 0 0 0 0 0 
0 0 0 0 0 0 0 0 0 0 0 0 0 0 0 0 0 0 0 0 0 0 0 0 0 0 0 0 0 0 0 0 0 0 0 0 0 0 0 0 0 0 0 0 0 0 0 0 0 0 0 0 0 0 0 8.5313 10.7569 16.6917 20.2155 21.8846 28.9322 27.634 31.7142 33.9397 41.3582 53.4133 57.8644 83.0874 71.4032 89.9495 99.9645 123.518 141.323 160.611 182.496 205.307 240.36 270.776 319.738 360.355 406.906 419.703 483.502 559.913 581.797 567.888 551.567 471.076 347.187 268.736 187.318 109.98 60.8319 4.08019 0.741852 0 0 0 0 
0 0 0 0 0 0 0 0 0 0 0 0 0 0 0 0 0 0 0 0 0 0 0 0 0 0 0 0 0 0 0 0 0 0 0 0 0 0 0 0 0 0 0 0 0 0 0 0 0 0 0 0 0 0 0.184936 6.65771 14.2401 17.0142 16.2744 22.5623 27.3706 30.8844 35.5078 39.7613 44.9396 52.7069 63.2483 67.8717 77.6733 97.4615 106.893 118.914 137.223 161.634 191.409 210.273 235.239 264.644 303.296 355.263 407.23 453.649 481.944 522.076 550.001 568.495 539.46 473.992 364.88 262.055 167.368 100.975 60.1044 6.47278 0.369873 0 0 0 0 
0 0 0 0 0 0 0 0 0 0 0 0 0 0 0 0 0 0 0 0 0 0 0 0 0 0 0 0 0 0 0 0 0 0 0 0 0 0 0 0 0 0 0 0 0 0 0 0 0 0 0 0 0 0.7752 6.29269 97.3947 207.586 250.555 300.281 353.348 396.21 457.983 580.944 669.258 749.924 885.794 1028.21 1161.08 1382.43 1612.22 1822.21 2124.37 2443.41 2831.93 3246.31 3712.06 4223.72 4801.24 5545 6329 7121.67 8070.46 9169.21 10067.9 10772.5 10900.4 10194.6 8702.93 6898.96 5145.53 3390.06 2058.21 1177.07 137.575 10.4825 0 0 0 0 
0 0 0 0 0 0 0 0 0 0 0 0 0 0 0 0 0 0 0 0 0 0 0 0 0 0 0 0 0 0 0 0 0 0 0 0 0 0 0 0 0 0 0 0 0 0 0 0 0 0 0 0 0 0 0 0 49.3353 28.4269 11.4619 25.6754 88.0324 42.6404 55.11 52.9106 96.7427 63.1807 46.2157 79.7777 107.653 122.05 201.46 218.241 251.619 292.699 390.266 485.264 472.427 654.722 839.585 960.259 1273.5 2272.27 3689.55 8889 19194.7 9900.42 3910.36 1473.77 798.504 539.183 300.402 146.166 295.267 -5.13507 0 0 0 0 0 
0 0 0 0 0 0 0 0 0 0 0 0 0 0 0 0 0 0 0 0 0 0 0 0 0 0 0 0 0 0 0 0 0 0 0 0 0 0 0 0 0 0 0 0 0 0 0 0 0 0 0 0 0 38.8366 186.374 2995.54 5259.64 6887.21 8180.56 9328.71 9379.16 9774.72 10549.7 11134.6 11954.1 12356 13375.7 15155.2 17558.1 20871.2 24785.3 31296.4 39510.8 47945.2 62840.3 82117.7 107276 146401 203345 298788 468809 790903 1.51365e+06 3.65193e+06 7.9702e+06 5.4945e+06 2.70082e+06 1.04538e+06 399607 166409 73002.6 33143 83526 1266.16 3.2604 0 0 0 0 
0 0 0 0 0 0 0 0 0 0 0 0 0 0 0 0 0 0 0 0 0 0 0 0 0 0 0 0 0 0 0 0 0 0 0 0 0 0 0 0 0 0 0 0 0 0 0 0 0 0 0 0 0 8 198 3490 6284 7756 8818 9928 9572 9649 9764 10183 11029 11997 13378 15306 17913 21353 25644 31112 38236 48340 61014 78536 102037 135677 187094 266585 405275 674499 1.29615e+06 3.33982e+06 7.59431e+06 5.07091e+06 2.3725e+06 886181 337746 144579 66624 31047 79373 944 20 1 0 0 0 

100
0.00402555 0.00436083 0.00472403 0.00511748 0.0055437 0.00600542 0.00650559 0.00704742 0.00763438 0.00827023 0.00895903 0.0097052 0.0105135 0.0113892 0.0123377 0.0133653 0.0144785 0.0156843 0.0169906 0.0184057 0.0199387 0.0215993 0.0233983 0.025347 0.0274581 0.029745 0.0322224 0.0349061 0.0378133 0.0409627 0.0443744 0.0480702 0.0520738 0.0564109 0.0611092 0.0661988 0.0717123 0.077685 0.0841551 0.0911642 0.098757 0.106982 0.115892 0.125545 0.136001 0.147328 0.159599 0.172891 0.187291 0.20289 0.219788 0.238093 0.257923 0.279405 0.302676 0.327885 0.355193 0.384776 0.416823 0.451539 0.489146 0.529886 0.574019 0.621827 0.673617 0.729721 0.790497 0.856335 0.927657 1.00492 1.08862 1.17928 1.2775 1.3839 1.49916 1.62402 1.75928 1.90581 2.06454 2.23649 2.42276 2.62454 2.84313 3.07993 3.33645 3.61433 3.91536 4.24146 4.59471 4.97739 5.39195 5.84103 6.32751 6.85451 7.4254 8.04384 8.71379 9.43953 10.2257 11.0774 
0 0 0 0 0 0 0 0 0 0 0 0 0 0 0 0 0 0 0 0 0 0 0 0 0 0 0 0 0 0 0 0 0 0 0 0 0 0 0 0 0 0 0 0 0 0 0 0 0 0 0 0 0 0 0 0 0 0 0 0 0 0 0 0 0 0 0 0 58.0762 0 13.1334 0 0 0 6.5667 0 0 0 0 219.649 0 262.206 6.5667 98162.1 29.0381 468.336 145.962 2466.95 29.0381 0 58.0762 0 0 0 0 0 0 0 0 
0 0 0 0 0 0 0 0 0 0 0 0 0 0 0 0 0 0 0 0 0 0 0 0 0 0 0 0 0 0 0 0 0 0 0 0 0 0 0 0 0 0 0 0 0 0 0 0 0 0 0 0 0 10.2266 0 20.4533 66.4732 51.1332 1.77636e-15 15.34 20.4533 20.4533 15.34 5.11332 40.9066 56.2465 10.2266 71.5865 30.6799 51.1332 56.2465 127.833 10.2266 107.38 35.7932 46.0199 117.606 61.3599 189.193 102.266 276.119 199.42 480.652 250.553 434.632 511.332 409.066 393.726 449.972 255.666 209.646 189.193 92.0398 40.9066 15.34 5.11332 0 0 0 
0 0 0 0 0 0 0 0 0 0 0 0 0 0 0 0 0 0 0 0 0 0 0 0 0 0 0 0 0 0 0 0 0 0 0 0 0 0 0 0 0 0 0 0 0 0 0 0 0 0 0 0 0 0.609323 0 5.4839 4.26526 4.87458 6.70255 10.9678 4.87458 10.3585 7.9212 10.9678 13.4051 14.0144 24.9822 19.4983 23.7636 24.3729 37.778 34.7314 50.5738 45.0899 49.9645 68.8535 97.4916 109.678 124.302 132.832 171.22 221.793 274.195 311.364 364.375 397.888 399.716 321.113 254.088 195.593 141.363 93.8357 37.778 18.2797 4.26526 0.609323 0 0 0 
0 0 0 0 0 0 0 0 0 0 0 0 0 0 0 0 0 0 0 0 0 0 0 0 0 0 0 0 0 0 0 0 0 0 0 0 0 0 0 0 0 0 0 0 0 0 0 0 0 0 0 0 0 0 0 5.0783 7.89957 7.33532 11.2851 9.59234 12.9779 24.263 25.3915 27.0843 34.9838 45.7047 80.6885 92.5379 85.2025 123.572 160.813 168.712 224.009 275.921 281.563 334.039 409.649 477.924 538.3 616.167 747.638 844.69 894.345 1026.38 1188.32 1195.09 1270.14 1127.38 996.475 755.538 538.864 304.134 165.327 25.3915 2.82128 0.564255 0 0 0 
0 0 0 0 0 0 0 0 0 0 0 0 0 0 0 0 0 0 0 0 0 0 0 0 0 0 0 0 0 0 0 0 0 0 0 0 0 0 0 0 0 0 0 0 0 0 0 0 0 0 0 0 0 0 0 3.56279 10.0946 7.12557 14.8449 10.0946 11.2822 11.2822 13.6574 24.9395 27.9085 26.1271 38.0031 39.7845 48.0976 69.4743 71.2557 89.6635 111.634 120.541 146.668 181.702 219.705 265.428 317.088 365.779 387.75 463.756 530.855 564.108 645.458 647.833 665.647 599.736 515.417 353.904 244.645 138.355 67.693 8.31317 1.1876 0 0 0 0 
0 0 0 0 0 0 0 0 0 0 0 0 0 0 0 0 0 0 0 0 0 0 0 0 0 0 0 0 0 0 0 0 0 0 0 0 0 0 0 0 0 0 0 0 0 0 0 0 0 0 0 0 0 0 0 3.33833 5.0075 3.70926 8.16037 10.5714 11.3132 17.4335 14.4661 17.4335 24.6666 24.6666 26.1503 32.6415 40.9873 39.8745 52.3006 57.4935 64.7266 71.2178 83.2729 106.641 124.26 145.403 162.095 195.292 236.28 279.122 299.894 339.212 377.603 364.806 374.264 349.227 274.671 219.217 173.408 102.005 47.8494 7.41852 0.741852 0 0 0 0 
0 0 0 0 0 0 0 0 0 0 0 0 0 0 0 0 0 0 0 0 0 0 0 0 0 0 0 0 0 0 0 0 0 0 0 0 0 0 0 0 0 0 0 0.369873 0 0 0 0 0 0 0 0 0 0 0 3.69873 7.39746 7.95227 9.06189 10.9113 14.9799 11.8359 18.8635 20.343 18.3087 21.4526 24.9664 34.7681 36.4325 41.9806 51.5973 61.214 71.5704 85.4407 96.9067 108.373 116.14 143.141 167.922 186.786 229.876 268.528 294.604 338.064 377.825 394.47 387.627 332.331 288.686 224.143 165.518 107.633 49.0082 6.84265 1.47949 0 0 0 0 
0 0 0 0 0 0 0 0 0 0 0 0 0 0 0 0 0 0 0 0 0 0 0 0 0 0 0 0 0 0 0 0 0 0 0 0 0 0 0 0 0 0 0 0 0 0 0 0 0 0 0 0 0 0.969 4.14102 73.3505 129.011 172.524 200.521 246.471 306.324 329.183 396.521 434.681 524.794 616.276 707.972 848.114 956.197 1151.33 1311.7 1514.87 1817.12 2107.86 2436.09 2893.83 3370.14 3991.54 4677.53 5453.17 6433.24 7494.78 8621.28 9783.48 10719.2 11050.9 10698.2 9703.01 8221.79 6449.93 4813.38 3059.17 1489.06 233.161 34.6987 2.2593 0 0 0 
0 0 0 0 0 0 0 0 0 0 0 0 0 0 0 0 0 0 0 0 0 0 0 0 0 0 0 0 0 0 0 0 0 0 0 0 0 0 0 0 0 0 0 0 0 0 0 0 0 0 0 0 0 0 0 5.13507 5.13507 15.4052 -16.781 -1.37578 32.1862 36.1295 27.0512 64.3725 28.4269 74.4586 118.291 89.8638 44.8399 67.9477 156.62 48.7832 182.295 189.998 215.673 192.565 362.023 297.834 344.05 323.51 498.102 518.642 623.911 1002.53 1167.04 942.47 806.207 815.285 654.722 430.154 287.748 284.997 48.7832 23.1078 0 0 0 0 0 
0 0 0 0 0 0 0 0 0 0 0 0 0 0 0 0 0 0 0 0 0 0 0 0 0 0 0 0 0 0 0 0 0 0 0 0 0 0 0 0 0 0.00071337 0.00071337 0 0.019161 -6.47276 -3.90466 13.1181 0.00037676 2.73925 7.50433 26.0622 20.2785 66.0644 125.622 2008.96 2749.87 3513.34 3398.3 3477.42 4200.08 4156.07 4652.79 5068.46 4696.17 5417.34 6906.64 7516.69 9278.5 10566.2 14194.7 16830.7 21608.6 26473.2 33922.7 44215.9 57722.5 75882.4 98522.3 127939 163547 212831 274137 378908 532427 474432 374417 279745 207114 152004 105969 66629.4 39206.5 8801.55 2056.74 176.472 0 0 0 
0 0 0 0 0 0 0 0 0 0 0 0 0 0 0 0 0 0 0 0 0 0 0 0 0 0 0 0 0 0 0 0 0 0 0 0 0 0 0 0 2 0 0 0 2 2 1 0 9 7 5 6 3 15 117 1697 2954 3424 3906 4094 4105 4458 4552 4918 5394 6085 6904 8019 9733 11731 14400 17371 22294 27424 35418 43806 56739 72859 93146 120824 153898 197591 255717 355135 502902 445207 347276 263665 199339 146803 103420 66289 39781 8711 2305 319 5 0 0 

100
0.00402555 0.00436083 0.00472403 0.00511748 0.0055437 0.00600542 0.00650559 0.00704742 0.00763438 0.00827023 0.00895903 0.0097052 0.0105135 0.0113892 0.0123377 0.0133653 0.0144785 0.0156843 0.0169906 0.0184057 0.0199387 0.0215993 0.0233983 0.025347 0.0274581 0.029745 0.0322224 0.0349061 0.0378133 0.0409627 0.0443744 0.0480702 0.0520738 0.0564109 0.0611092 0.0661988 0.0717123 0.077685 0.0841551 0.0911642 0.098757 0.106982 0.115892 0.125545 0.136001 0.147328 0.159599 0.172891 0.187291 0.20289 0.219788 0.238093 0.257923 0.279405 0.302676 0.327885 0.355193 0.384776 0.416823 0.451539 0.489146 0.529886 0.574019 0.621827 0.673617 0.729721 0.790497 0.856335 0.927657 1.00492 1.08862 1.17928 1.2775 1.3839 1.49916 1.62402 1.75928 1.90581 2.06454 2.23649 2.42276 2.62454 2.84313 3.07993 3.33645 3.61433 3.91536 4.24146 4.59471 4.97739 5.39195 5.84103 6.32751 6.85451 7.4254 8.04384 8.71379 9.43953 10.2257 11.0774 
0 0 0 0 0 0 0 0 0 0 0 0 0 0 0 0 0 0 0 0 0 0 0 0 0 0 0 0 0 0 0 0 0 0 0 0 0 0 0 0 0 0 0 0 0 0 0 0 0 0 0 0 0 0 0 0 0 29.0381 29.0381 0 0 0 0 0 13.1334 6.5667 0 0 0 0 6.5667 0 87.1143 29.0381 0 0 0 0 0 0 0 0 0 0 0 58.0762 0 0 0 0 0 0 0 0 0 0 0 0 0 
0 0 0 0 0 0 0 0 0 0 0 0 0 0 0 0 0 0 0 0 0 0 0 0 0 0 0 0 0 0 0 0 0 0 0 0 0 0 0 0 0 0 0 0 0 0 0 0 0 0 0 0 0 0 0 10.2266 30.6799 15.34 25.5666 30.6799 -15.34 -15.34 -10.2266 -10.2266 15.34 10.2266 0 15.34 20.4533 15.34 5.11332 20.4533 5.11332 30.6799 -5.11332 35.7932 30.6799 51.1332 15.34 30.6799 -1.77636e-15 112.493 102.266 112.493 25.5666 102.266 86.9265 132.946 143.173 117.606 25.5666 -15.34 30.6799 -10.2266 5.11332 0 0 0 0 
0 0 0 0 0 0 0 0 0 0 0 0 0 0 0 0 0 0 0 0 0 0 0 0 0 0 0 0 0 0 0 0 0 0 0 0 0 0 0 0 0 0 0 0 0 0 0 0 0 0 0 0 0 0 0 0 0 0 1.21865 0 2.43729 1.21865 1.21865 0 0.609323 3.04661 3.04661 4.87458 3.04661 4.87458 5.4839 1.82797 9.13984 12.7958 9.74916 10.3585 14.0144 12.1865 16.4517 26.2009 28.0288 40.2153 42.6526 68.2441 53.6204 81.0399 71.2908 70.0721 59.7136 44.4806 40.8246 23.1543 10.3585 2.43729 0 0 0 0 0 
0 0 0 0 0 0 0 0 0 0 0 0 0 0 0 0 0 0 0 0 0 0 0 0 0 0 0 0 0 0 0 0 0 0 0 0 0 0 0 0 0 0 0 0 0 0 0 0 0 0 0 0 0 0 0 1.69277 2.82128 1.12851 1.12851 4.51404 6.77106 7.33532 5.64255 3.38553 9.02808 19.1847 14.1064 27.0843 22.5702 31.034 46.8332 54.7328 62.0681 84.074 77.8672 82.9455 99.3089 107.773 111.158 135.421 128.086 180.562 215.546 231.345 299.62 332.346 310.34 310.34 261.25 231.909 154.606 108.337 60.9396 14.1064 2.25702 0.564255 0 0 0 
0 0 0 0 0 0 0 0 0 0 0 0 0 0 0 0 0 0 0 0 0 0 0 0 0 0 0 0 0 0 0 0 0 0 0 0 0 0 0 0 0 0 0 0 0 0 0 0 0 0 0 0 0 0 0 1.78139 2.37519 3.56279 3.56279 5.34418 2.96899 4.75038 8.31317 2.96899 18.4077 11.2822 16.6263 13.6574 16.0325 16.6263 23.7519 34.4403 45.7224 48.6914 58.1922 54.6294 65.9116 90.2573 96.789 97.9766 131.823 148.449 172.201 196.547 214.955 245.832 238.707 222.08 176.358 118.166 103.321 62.9426 38.0031 7.12557 0.593798 0 0 0 0 
0 0 0 0 0 0 0 0 0 0 0 0 0 0 0 0 0 0 0 0 0 0 0 0 0 0 0 0 0 0 0 0 0 0 0 0 0 0 0 0 0 0 0 0 0 0 0 0 0 0 0 0 0 0 0 1.11278 2.04009 2.22556 1.85463 3.33833 3.15287 4.82204 3.15287 6.67667 5.93481 6.4912 8.71676 8.5313 7.97491 9.45861 12.0551 14.2806 18.9172 25.0375 27.8194 27.634 42.2856 37.649 45.8094 55.6389 81.4182 88.6513 92.7315 115.914 129.639 141.694 135.202 112.02 99.4081 83.8293 57.679 45.8094 19.4736 2.59648 1.11278 0 0 0 0 
0 0 0 0 0 0 0 0 0 0 0 0 0 0 0 0 0 0 0 0 0 0 0 0 0 0 0 0 0 0 0 0 0 0 0 0 0 0 0 0 0 0 0 0 0 0 0 0 0 0 0 0 0 0 0.184936 0.924682 1.84936 2.77405 2.0343 1.84936 3.88367 2.21924 6.1029 5.91797 4.80835 5.73303 8.32214 8.87695 13.1305 15.7196 14.0552 17.9388 22.0074 26.4459 34.953 35.5078 32.7338 41.4258 51.9672 56.7755 68.4265 87.29 93.3929 115.215 134.819 143.326 142.956 129.825 108.373 79.5227 61.7688 36.9873 20.8978 2.58911 0.924682 0 0 0 0 
0 0 0 0 0 0 0 0 0 0 0 0 0 0 0 0 0 0 0 0 0 0 0 0 0 0 0 0 0 0 0 0 0 0 0 0 0 0 0 0 0 0 0 0 0 0 0 0 0 0 0.3876 0 0 0.1938 2.49809 29.8539 47.0193 65.4081 82.9712 85.8574 113.615 127.023 144.244 163.958 203.082 221.227 259.584 309.746 375.429 427.968 532.23 622.764 758.329 900.161 1045.62 1227.35 1474.18 1742.67 2045.98 2442.47 2972.27 3461.64 4110.5 4738.39 5261.16 5453.99 5354.57 4893.85 4252.65 3476.13 2625.67 1727.37 810.403 142.474 25.4732 1.88188 0.265021 0 0 
0 0 0 0 0 0 0 0 0 0 0 0 0 0 0 0 0 0 0 0 0 0 0 0 0 0 0 0 0 0 0 0 0 0 0 0 0 0 0 0 0 0 0 0 0 0 0 0 0 0 0 0 0 0 0 7.88664 0 0 7.70261 15.4052 2.56754 0.18403 -5.3191 -25.8594 12.8377 2.56754 -2.56754 15.4052 30.8104 30.8104 23.1078 30.8104 35.9455 26.8671 100.134 59.0533 92.4313 52.7265 74.4586 84.7287 46.2157 66.756 52.5425 127.185 133.328 188.806 177.16 184.863 177.16 105.269 86.1045 53.9183 33.378 10.2701 0 0 0 0 0 
0 0 0 0 0 0 0 0 0 0 0 0 0 0 0 0 0 0 0 0 0 0 0 0 0 0 0 0 0 0 0 0 0 0 0 0 0 0 0 0 0 0 0 0 0 -6.47276 6.47276 0 0 12.9455 -0.00499251 0.00345231 2.57655 6.47276 29.9669 623.87 713.389 496.328 914.453 751.249 871.334 1147.92 820.856 998.234 1177.88 1503.95 1503.29 1957.72 2667.66 2994.31 3826.52 5057.8 5993.95 7539.57 8856.54 10503.6 12659.9 15037.9 17660 21566.8 25510.6 29939.5 35514.8 43454.7 56817.7 56599.3 54284.7 47056.2 39772.1 32293.2 23218.9 13817.4 7618.33 1851.68 379.409 18.5542 0 0 0 
0 0 0 0 0 0 0 0 0 0 0 0 0 0 0 0 0 0 0 0 0 0 0 0 0 0 0 0 0 0 0 0 0 0 0 0 0 0 0 0 0 0 0 0 0 0 3 1 2 2 1 2 0 8 36 387 658 757 793 976 941 987 1160 1305 1470 1744 1986 2334 2820 3627 4527 5693 6702 8326 9884 11652 14364 17121 20121 23383 27356 32375 38494 47697 60308 62694 58144 51582 43540 35028 25549 16337 8687 2117 473 82 0 0 0 

100
0.00402555 0.00436083 0.00472403 0.00511748 0.0055437 0.00600542 0.00650559 0.00704742 0.00763438 0.00827023 0.00895903 0.0097052 0.0105135 0.0113892 0.0123377 0.0133653 0.0144785 0.0156843 0.0169906 0.0184057 0.0199387 0.0215993 0.0233983 0.025347 0.0274581 0.029745 0.0322224 0.0349061 0.0378133 0.0409627 0.0443744 0.0480702 0.0520738 0.0564109 0.0611092 0.0661988 0.0717123 0.077685 0.0841551 0.0911642 0.098757 0.106982 0.115892 0.125545 0.136001 0.147328 0.159599 0.172891 0.187291 0.20289 0.219788 0.238093 0.257923 0.279405 0.302676 0.327885 0.355193 0.384776 0.416823 0.451539 0.489146 0.529886 0.574019 0.621827 0.673617 0.729721 0.790497 0.856335 0.927657 1.00492 1.08862 1.17928 1.2775 1.3839 1.49916 1.62402 1.75928 1.90581 2.06454 2.23649 2.42276 2.62454 2.84313 3.07993 3.33645 3.61433 3.91536 4.24146 4.59471 4.97739 5.39195 5.84103 6.32751 6.85451 7.4254 8.04384 8.71379 9.43953 10.2257 11.0774 
0 0 0 0 0 0 0 0 0 0 0 0 0 0 0 0 0 0 0 0 0 0 0 0 0 0 0 0 0 0 0 0 0 0 0 0 0 0 0 0 0 0 0 0 0 0 0 0 0 0 0 0 0 0 0 0 0 0 0 0 0 0 0 0 0 0 0 0 0 0 0 0 0 0 0 0 0 0 0 0 0 6.5667 6.5667 0 13.1334 0 0 0 0 6.5667 0 0 0 0 0 0 0 0 0 
0 0 0 0 0 0 0 0 0 0 0 0 0 0 0 0 0 0 0 0 0 0 0 0 0 0 0 0 0 0 0 0 0 0 0 0 0 0 0 0 0 0 0 0 0 0 0 0 0 0 0 0 0 0 0 0 5.11332 5.11332 0 0 0 0 -10.2266 0 10.2266 0 -15.34 -5.11332 0 0 -10.2266 0 10.2266 0 0 10.2266 0 0 0 -5.11332 5.11332 0 -5.11332 10.2266 10.2266 61.3599 -10.2266 0 5.11332 40.9066 15.34 25.5666 0 0 0 0 0 0 0 
0 0 0 0 0 0 0 0 0 0 0 0 0 0 0 0 0 0 0 0 0 0 0 0 0 0 0 0 0 0 0 0 0 0 0 0 0 0 0 0 0 0 0 0 0 0 0 0 0 0 0 0 0 0 0 0 0 0 0 0 0 0 0 0 1.21865 0 2.43729 0 1.21865 0 2.43729 2.43729 0 2.43729 0 1.21865 2.43729 1.82797 4.87458 3.04661 2.43729 11.5771 10.3585 9.13984 10.9678 11.5771 12.1865 10.9678 5.4839 8.53052 7.31187 4.87458 2.43729 0.609323 0 0 0 0 0 
0 0 0 0 0 0 0 0 0 0 0 0 0 0 0 0 0 0 0 0 0 0 0 0 0 0 0 0 0 0 0 0 0 0 0 0 0 0 0 0 0 0 0 0 0 0 0 0 0 0 0 0 0 0 0 0 0 1.12851 2.25702 0 0.564255 0.564255 0 2.25702 2.82128 2.25702 2.25702 2.82128 6.77106 5.0783 15.2349 11.8494 16.9277 12.4136 17.4919 16.3634 18.6204 27.0843 16.9277 26.52 26.52 31.034 31.5983 49.6545 60.3753 57.554 60.3753 60.3753 57.554 36.6766 37.2408 24.263 9.02808 2.82128 0 0 0 0 0 
0 0 0 0 0 0 0 0 0 0 0 0 0 0 0 0 0 0 0 0 0 0 0 0 0 0 0 0 0 0 0 0 0 0 0 0 0 0 0 0 0 0 0 0 0 0 0 0 0 0 0 0 0 0 0 0 0.593798 0.593798 0.593798 2.96899 1.1876 1.1876 1.1876 0 1.1876 4.75038 4.75038 2.96899 5.34418 7.71937 9.50077 7.12557 4.75038 8.90697 7.12557 13.6574 9.50077 12.4698 12.4698 21.3767 21.3767 24.3457 30.2837 39.1907 39.7845 55.2232 45.7224 50.4728 35.6279 37.4093 23.7519 14.2511 9.50077 1.1876 0 0 0 0 0 
0 0 0 0 0 0 0 0 0 0 0 0 0 0 0 0 0 0 0 0 0 0 0 0 0 0 0 0 0 0 0 0 0 0 0 0 0 0 0 0 0 0 0 0 0 0 0 0 0 0 0 0 0 0 0 0.556389 0.185463 0 0 0.370926 0.185463 0.927315 0.370926 1.11278 1.85463 1.66917 1.29824 1.85463 2.78194 2.04009 2.96741 4.82204 5.0075 6.4912 4.08019 8.16037 7.41852 7.60398 11.1278 13.7243 15.0225 22.441 26.3357 26.3357 33.7543 33.1979 37.649 31.8996 22.6265 20.03 20.7719 13.9097 6.30574 1.29824 0.556389 0 0 0 0 
0 0 0 0 0 0 0 0 0 0 0 0 0 0 0 0 0 0 0 0 0 0 0 0 0 0 0 0 0 0 0 0 0 0 0 0 0 0 0 0 0 0 0 0 0 0 0 0 0 0 0 0 0 0 0 0 0 0.369873 0.739746 0.369873 0 1.47949 0.369873 0.554809 0.554809 0.739746 2.21924 2.40417 2.40417 2.21924 2.40417 4.43848 5.54809 5.17822 6.84265 4.25354 8.69201 15.7196 12.2058 16.4593 15.9045 17.569 24.2267 29.22 29.5898 32.1789 29.5898 32.9187 31.4392 21.6376 19.4183 10.3564 6.84265 0.369873 0.184936 0 0 0 0 
0 0 0 0 0 0 0 0 0 0 0 0 0 0 0 0 0 0 0 0 0 0 0 0 0 0 0 0 0 0 0 0 0 0 0 0 0 0 0 0 0 0 0 0 0 0 0 0 0.0712211 0 0.0712211 0 0.1938 0.5814 0.41765 7.62942 15.7778 20.8767 22.3258 25.3762 28.2507 27.1795 36.8932 53.0247 58.4836 60.1551 73.9551 90.1626 101.402 125.514 170.975 183.635 213.46 255.238 323.827 365.307 463.149 523.783 658.774 757.888 937.262 1108.97 1345.79 1568.27 1755.48 1796.07 1803.5 1628.9 1491.97 1174.86 894.784 615.869 284.083 53.9386 8.29188 0.336242 0 0 0 
0 0 0 0 0 0 0 0 0 0 0 0 0 0 0 0 0 0 0 0 0 0 0 0 0 0 0 0 0 0 0 0 0 0 0 0 0 0 0 0 0 0 0 0 0 0 0 0 0 0 0 0 0 0 0 0 -5.13507 0 5.13507 5.13507 0 0 0 0 0 5.13507 5.13507 -10.2701 -5.13507 15.4052 2.56754 15.4052 17.9728 10.2701 10.2701 5.13507 2.56754 5.13507 2.56754 10.2701 10.2701 28.2429 7.70261 23.1078 30.8104 23.1078 38.5131 28.2429 38.5131 -12.8377 17.9728 12.8377 2.56754 0 0 0 0 0 0 
0 0 0 0 0 0 0 0 0 0 0 0 0 0 0 0 0 0 0 0 0 0 0 0 0 0 0 0 0 0 0 0 0 0 0 0 0 0 0 0 0 0 0 0 0.00142674 0 0 0 0 0 0 0 6.47276 0 1.33655 78.9287 140.749 108.607 151.454 119.994 67.5392 87.9067 196.268 382.743 271.46 303.226 318.182 370.777 545.532 538.418 1085.84 974.689 1341.23 1254.7 1683.93 1845.05 2243.9 2528.49 2338.81 3233 3776.47 4314.08 5186.39 6011.41 7377.5 8421.53 8337.64 7493.3 6779.57 5162 3781.57 2904.19 1475.96 394.345 44.5787 16.2694 0.00071337 0 0 
0 0 0 0 0 0 0 0 0 0 0 0 0 0 0 0 0 0 0 0 0 0 0 0 0 0 0 0 0 0 0 0 0 0 0 0 0 0 0 0 0 0 0 0 0 0 1 2 1 0 0 0 1 2 11 78 96 134 156 195 194 228 223 285 367 485 500 594 726 891 1093 1364 1549 1805 2118 2425 2797 3126 3687 3988 4792 5765 6724 8481 10082 10747 10480 9689 8530 7312 5461 3660 1856 406 100 13 0 0 0 

100
0.00402555 0.00436083 0.00472403 0.00511748 0.0055437 0.00600542 0.00650559 0.00704742 0.00763438 0.00827023 0.00895903 0.0097052 0.0105135 0.0113892 0.0123377 0.0133653 0.0144785 0.0156843 0.0169906 0.0184057 0.0199387 0.0215993 0.0233983 0.025347 0.0274581 0.029745 0.0322224 0.0349061 0.0378133 0.0409627 0.0443744 0.0480702 0.0520738 0.0564109 0.0611092 0.0661988 0.0717123 0.077685 0.0841551 0.0911642 0.098757 0.106982 0.115892 0.125545 0.136001 0.147328 0.159599 0.172891 0.187291 0.20289 0.219788 0.238093 0.257923 0.279405 0.302676 0.327885 0.355193 0.384776 0.416823 0.451539 0.489146 0.529886 0.574019 0.621827 0.673617 0.729721 0.790497 0.856335 0.927657 1.00492 1.08862 1.17928 1.2775 1.3839 1.49916 1.62402 1.75928 1.90581 2.06454 2.23649 2.42276 2.62454 2.84313 3.07993 3.33645 3.61433 3.91536 4.24146 4.59471 4.97739 5.39195 5.84103 6.32751 6.85451 7.4254 8.04384 8.71379 9.43953 10.2257 11.0774 
0 0 0 0 0 0 0 0 0 0 0 0 0 0 0 0 0 0 0 0 0 0 0 0 0 0 0 0 0 0 0 0 0 0 0 0 0 0 0 0 0 0 0 0 0 0 0 0 0 0 0 0 0 0 0 0 0 0 0 0 0 0 0 0 0 0 0 0 0 0 0 0 0 0 0 0 0 0 0 0 0 0 0 0 0 0 0 0 0 0 0 0 0 0 0 0 0 0 0 
0 0 0 0 0 0 0 0 0 0 0 0 0 0 0 0 0 0 0 0 0 0 0 0 0 0 0 0 0 0 0 0 0 0 0 0 0 0 0 0 0 0 0 0 0 0 0 0 0 0 0 0 0 0 0 0 0 0 0 0 0 10.2266 0 -10.2266 0 0 0 0 0 0 0 0 0 0 0 0 0 0 10.2266 0 0 0 -10.2266 10.2266 -5.11332 -10.2266 0 5.11332 5.11332 5.11332 0 0 -10.2266 0 0 0 0 0 0 
0 0 0 0 0 0 0 0 0 0 0 0 0 0 0 0 0 0 0 0 0 0 0 0 0 0 0 0 0 0 0 0 0 0 0 0 0 0 0 0 0 0 0 0 0 0 0 0 0 0 0 0 0 0 0 0 0 0 0 0 0 0 0 1.21865 0 0 0 0 1.21865 0 0 0 0 0 0 0 0 0 0.609323 3.04661 0 1.21865 0 2.43729 2.43729 5.4839 3.04661 0.609323 3.65594 4.26526 0 0 0 0 0 0 0 0 0 
0 0 0 0 0 0 0 0 0 0 0 0 0 0 0 0 0 0 0 0 0 0 0 0 0 0 0 0 0 0 0 0 0 0 0 0 0 0 0 0 0 0 0 0 0 0 0 0 0 0 0 0 0 0 0 1.12851 0 0 0 1.12851 0 0 1.12851 1.12851 0 1.12851 0.564255 0 1.69277 1.69277 2.82128 1.69277 5.64255 4.51404 5.0783 5.0783 3.38553 1.69277 5.64255 3.38553 3.94979 5.64255 6.77106 13.5421 9.02808 8.46383 18.6204 16.3634 11.2851 8.46383 6.77106 8.46383 1.69277 1.12851 0.564255 0 0 0 0 
0 0 0 0 0 0 0 0 0 0 0 0 0 0 0 0 0 0 0 0 0 0 0 0 0 0 0 0 0 0 0 0 0 0 0 0 0 0 0 0 0 0 0 0 0 0 0 0 0 0 0 0 0 0 0 0 0 0 0 0 0 0 0 1.1876 0 0 0 1.1876 0 1.1876 1.1876 0 1.1876 1.1876 0 0.593798 4.75038 3.56279 3.56279 6.53178 5.34418 4.75038 5.93798 12.4698 9.50077 7.71937 3.56279 8.31317 7.71937 4.15658 3.56279 2.37519 1.1876 0.593798 0 0 0 0 0 
0 0 0 0 0 0 0 0 0 0 0 0 0 0 0 0 0 0 0 0 0 0 0 0 0 0 0 0 0 0 0 0 0 0 0 0 0 0 0 0 0 0 0 0 0 0 0 0 0 0 0 0 0 0 0 0 0 0 0 0 0 0 0 0.185463 0.185463 0 0.741852 0.556389 1.4837 0.185463 0.370926 0.556389 1.11278 1.11278 1.29824 2.59648 1.4837 2.41102 1.85463 2.59648 3.15287 4.45111 6.30574 5.74935 8.34583 6.67667 5.0075 6.67667 9.82954 5.56389 4.08019 3.70926 1.66917 0 0.185463 0 0 0 0 
0 0 0 0 0 0 0 0 0 0 0 0 0 0 0 0 0 0 0 0 0 0 0 0 0 0 0 0 0 0 0 0 0 0 0 0 0 0 0 0 0 0 0 0 0 0 0 0 0 0 0 0 0 0 0 0 0.369873 0 0.369873 0 0 0.184936 0.184936 0 0 0 0.369873 0 0.554809 0.924682 0.739746 0.739746 1.47949 1.66443 1.47949 1.66443 1.29456 1.66443 1.47949 4.43848 4.0686 3.51379 7.39746 8.32214 7.02759 9.43176 6.65771 9.6167 8.32214 5.36316 3.88367 2.40417 1.66443 0 0.369873 0 0 0 0 
0 0 0 0 0 0 0 0 0 0 0 0 0 0 0 0 0 0 0 0 0 0 0 0 0 0 0 0 0 0 0 0 0 0 0 0 0 0 0 0 0 0 0 0 0 0 0 0 0 0 0 0 0 0 0.1938 1.1628 4.10859 4.94627 3.24324 5.4264 4.6512 4.35469 9.31114 6.85422 11.7191 17.4406 20.1926 22.3156 28.4034 28.3932 39.622 48.7829 55.4681 71.1499 83.8841 106.315 106.371 136.806 163.336 196.868 236.386 289.536 334.707 408.928 462.988 487.442 471.821 439.338 378.491 314.67 244.033 187.914 80.2106 15.8052 1.94674 0.1938 0 0 0 
0 0 0 0 0 0 0 0 0 0 0 0 0 0 0 0 0 0 0 0 0 0 0 0 0 0 0 0 0 0 0 0 0 0 0 0 0 0 0 0 0 0 0 0 0 0 0 0 0 0 0 0 0 0 0 0 0 0 0 0 0 0 0 5.13507 0 2.56754 2.56754 2.56754 5.13507 5.13507 0 5.13507 5.13507 2.56754 2.56754 0 0 5.13507 5.13507 2.56754 2.56754 0 2.56754 10.2701 2.56754 2.56754 5.13507 5.13507 15.4052 15.4052 15.4052 7.70261 2.56754 0 0 0 0 0 0 
0 0 0 0 0 0 0 0 0 0 0 0 0 0 0 0 0 0 0 0 0 0 0 0 0 0 0 0 0 0 0 0 0 0 0 0 0 0 0 0 0 0 0 0 0 0 0 0 0 0 0 0 0 0 0 12.9455 -7.80932 37.5 -1.33655 -7.80932 11.609 9.04087 38.5336 5.01919 61.1015 59.9557 49.444 63.3254 66.1499 114.139 138.435 161.888 201.945 158.902 257.54 123.324 285.152 345.665 397.965 508.706 623.318 698.414 752.884 905.218 975.969 1089.68 1162.76 1139.55 970.358 863.358 702.227 418.76 248.378 65.4015 19.0081 0.86004 0 0 0 
0 0 0 0 0 0 0 0 0 0 0 0 0 0 0 0 0 0 0 0 0 0 0 0 0 0 0 0 0 0 0 0 0 0 0 0 0 0 0 0 0 0 0 0 0 0 0 0 0 0 0 0 0 1 0 7 21 23 22 56 38 53 42 61 75 70 114 137 174 221 258 289 324 341 436 461 523 625 685 812 947 1049 1250 1520 1857 2041 2017 1838 1720 1521 1102 775 371 87 21 3 0 0 0 

100
0.00402555 0.00436083 0.00472403 0.00511748 0.0055437 0.00600542 0.00650559 0.00704742 0.00763438 0.00827023 0.00895903 0.0097052 0.0105135 0.0113892 0.0123377 0.0133653 0.0144785 0.0156843 0.0169906 0.0184057 0.0199387 0.0215993 0.0233983 0.025347 0.0274581 0.029745 0.0322224 0.0349061 0.0378133 0.0409627 0.0443744 0.0480702 0.0520738 0.0564109 0.0611092 0.0661988 0.0717123 0.077685 0.0841551 0.0911642 0.098757 0.106982 0.115892 0.125545 0.136001 0.147328 0.159599 0.172891 0.187291 0.20289 0.219788 0.238093 0.257923 0.279405 0.302676 0.327885 0.355193 0.384776 0.416823 0.451539 0.489146 0.529886 0.574019 0.621827 0.673617 0.729721 0.790497 0.856335 0.927657 1.00492 1.08862 1.17928 1.2775 1.3839 1.49916 1.62402 1.75928 1.90581 2.06454 2.23649 2.42276 2.62454 2.84313 3.07993 3.33645 3.61433 3.91536 4.24146 4.59471 4.97739 5.39195 5.84103 6.32751 6.85451 7.4254 8.04384 8.71379 9.43953 10.2257 11.0774 
0 0 0 0 0 0 0 0 0 0 0 0 0 0 0 0 0 0 0 0 0 0 0 0 0 0 0 0 0 0 0 0 0 0 0 0 0 0 0 0 0 0 0 0 0 0 0 0 0 0 0 0 0 0 0 0 0 0 0 0 0 0 0 0 0 0 0 0 0 0 0 0 0 0 0 0 0 0 0 0 0 0 0 0 0 0 0 0 0 0 0 0 0 0 0 0 0 0 0 
0 0 0 0 0 0 0 0 0 0 0 0 0 0 0 0 0 0 0 0 0 0 0 0 0 0 0 0 0 0 0 0 0 0 0 0 0 0 0 0 0 0 0 0 0 0 0 0 0 0 0 0 0 0 0 0 0 0 0 0 0 0 0 0 0 0 0 0 0 0 0 0 0 0 0 0 0 0 0 0 0 0 0 0 0 0 0 0 0 0 0 0 0 0 0 0 0 0 0 
0 0 0 0 0 0 0 0 0 0 0 0 0 0 0 0 0 0 0 0 0 0 0 0 0 0 0 0 0 0 0 0 0 0 0 0 0 0 0 0 0 0 0 0 0 0 0 0 0 0 0 0 0 0 0 0 0 0 0 0 0 0 0 0 0 0 0 0 0 0 0 0 0 0 0 0 0 0 0 0 0 1.21865 0 0 0 0 1.82797 1.21865 0 0 0 0 0 0 0 0 0 0 0 
0 0 0 0 0 0 0 0 0 0 0 0 0 0 0 0 0 0 0 0 0 0 0 0 0 0 0 0 0 0 0 0 0 0 0 0 0 0 0 0 0 0 0 0 0 0 0 0 0 0 0 0 0 0 0 0 0 0 0 0 0 0 0 0 0 0 0 0 0 0 0 0 0 0 0 0 0.564255 0.564255 0 0 1.12851 0.564255 0.564255 1.69277 1.12851 0 3.38553 2.25702 0.564255 1.12851 1.69277 0.564255 0 0 0 0 0 0 0 
0 0 0 0 0 0 0 0 0 0 0 0 0 0 0 0 0 0 0 0 0 0 0 0 0 0 0 0 0 0 0 0 0 0 0 0 0 0 0 0 0 0 0 0 0 0 0 0 0 0 0 0 0 0 0 0 0 0 0 0 0 0 0 0 0 0 0 0 0 0 0 0 1.1876 0 3.56279 0 0 0 1.1876 0 1.1876 0.593798 1.1876 0.593798 0.593798 1.78139 0.593798 5.34418 0 1.1876 1.1876 0.593798 0 0 0 0 0 0 0 
0 0 0 0 0 0 0 0 0 0 0 0 0 0 0 0 0 0 0 0 0 0 0 0 0 0 0 0 0 0 0 0 0 0 0 0 0 0 0 0 0 0 0 0 0 0 0 0 0 0 0 0 0 0 0 0 0 0 0 0 0.370926 0 0 0 0 0 0 0.556389 0 0 0.185463 0.741852 0.370926 0.185463 0.185463 0.185463 0 0.370926 1.11278 0.741852 0.741852 2.04009 1.11278 0.370926 2.22556 2.22556 2.78194 2.78194 1.85463 1.11278 1.29824 1.66917 0.556389 0.185463 0 0 0 0 0 
0 0 0 0 0 0 0 0 0 0 0 0 0 0 0 0 0 0 0 0 0 0 0 0 0 0 0 0 0 0 0 0 0 0 0 0 0 0 0 0 0 0 0 0 0 0 0 0 0 0 0 0 0 0 0 0 0.369873 0 0 0 0 0 0 0 0 0 0 0 0.184936 0 0 0 0 0.369873 0.184936 0 0.184936 0.924682 0.924682 0 0.554809 0.924682 1.29456 3.14392 2.0343 2.58911 0.554809 0.369873 1.10962 1.84936 2.95898 0.184936 0 0 0 0 0 0 0 
0 0 0 0 0 0 0 0 0 0 0 0 0 0 0 0 0 0 0 0 0 0 0 0 0 0 0 0 0 0 0 0 0 0 0 0 0 0 0 0 0 0 0 0 0 0 0 0 0 0 0 0 0 0 0 0.3876 1.1628 1.1628 0.5814 0.969 0.3876 1.7442 1.7442 3.2946 4.16089 3.43704 2.92686 3.2946 4.54849 6.87409 8.11829 12.3518 14.9813 16.051 20.6993 18.9251 24.43 30.9796 36.8449 47.2271 50.5706 61.8671 80.2171 92.7107 96.8394 115.643 105.078 94.7385 85.0619 75.6841 61.0146 42.4311 18.411 5.10569 0.232592 0.3876 0 0 0 
0 0 0 0 0 0 0 0 0 0 0 0 0 0 0 0 0 0 0 0 0 0 0 0 0 0 0 0 0 0 0 0 0 0 0 0 0 0 0 0 0 0 0 0 0 0 0 0 0 0 0 0 0 0 0 0 0 0 0 0 0 0 0 0 5.13507 0 0 0 0 0 0 0 0 0 0 0 0 2.56754 0 0 2.56754 0 0 0 5.13507 0 2.56754 7.70261 0 2.56754 7.70261 0 0 0 0 0 0 0 0 
0 0 0 0 0 0 0 0 0 0 0 0 0 0 0 0 0 0 0 0 0 0 0 0 0 0 0 0 0 0 0 0 0 0 0 0 0 0 0 0 0 0 0 0 0 0 0 0 0 0 0 0 0 0 0 12.9455 0 -5.13621 0 -15.5136 0 10.2724 20.6498 0.953024 10.2724 -6.85629 4.79392 3.90466 14.1771 46.5682 15.4086 29.1092 25.7861 26.8705 39.3936 109.637 65.8566 63.1297 81.1124 53.5251 105.61 142.924 101.442 158.428 114.366 259.085 119.265 154.066 189.298 104.096 167.571 147.687 82.9499 17.6344 0 0 0 0 0 
0 0 0 0 0 0 0 0 0 0 0 0 0 0 0 0 0 0 0 0 0 0 0 0 0 0 0 0 0 0 0 0 0 0 0 0 0 0 0 0 0 0 0 0 0 0 0 0 0 0 0 0 0 1 1 0 1 3 3 6 11 9 12 15 18 18 21 28 15 38 43 57 67 63 72 74 110 120 124 137 157 210 210 266 348 380 357 411 296 235 212 178 80 21 10 0 0 0 0 

100
0.00402555 0.00436083 0.00472403 0.00511748 0.0055437 0.00600542 0.00650559 0.00704742 0.00763438 0.00827023 0.00895903 0.0097052 0.0105135 0.0113892 0.0123377 0.0133653 0.0144785 0.0156843 0.0169906 0.0184057 0.0199387 0.0215993 0.0233983 0.025347 0.0274581 0.029745 0.0322224 0.0349061 0.0378133 0.0409627 0.0443744 0.0480702 0.0520738 0.0564109 0.0611092 0.0661988 0.0717123 0.077685 0.0841551 0.0911642 0.098757 0.106982 0.115892 0.125545 0.136001 0.147328 0.159599 0.172891 0.187291 0.20289 0.219788 0.238093 0.257923 0.279405 0.302676 0.327885 0.355193 0.384776 0.416823 0.451539 0.489146 0.529886 0.574019 0.621827 0.673617 0.729721 0.790497 0.856335 0.927657 1.00492 1.08862 1.17928 1.2775 1.3839 1.49916 1.62402 1.75928 1.90581 2.06454 2.23649 2.42276 2.62454 2.84313 3.07993 3.33645 3.61433 3.91536 4.24146 4.59471 4.97739 5.39195 5.84103 6.32751 6.85451 7.4254 8.04384 8.71379 9.43953 10.2257 11.0774 
0 0 0 0 0 0 0 0 0 0 0 0 0 0 0 0 0 0 0 0 0 0 0 0 0 0 0 0 0 0 0 0 0 0 0 0 0 0 0 0 0 0 0 0 0 0 0 0 0 0 0 0 0 0 0 0 0 0 0 0 0 0 0 0 0 0 0 0 0 0 0 0 0 0 0 0 0 0 0 0 0 0 0 0 0 0 0 0 0 0 0 0 0 0 0 0 0 0 0 
0 0 0 0 0 0 0 0 0 0 0 0 0 0 0 0 0 0 0 0 0 0 0 0 0 0 0 0 0 0 0 0 0 0 0 0 0 0 0 0 0 0 0 0 0 0 0 0 0 0 0 0 0 0 0 0 0 0 0 0 0 0 0 0 0 0 0 0 0 0 0 0 0 0 0 0 0 0 0 0 0 0 0 0 10.2266 0 15.34 0 15.34 0 0 0 0 0 0 0 0 0 0 
0 0 0 0 0 0 0 0 0 0 0 0 0 0 0 0 0 0 0 0 0 0 0 0 0 0 0 0 0 0 0 0 0 0 0 0 0 0 0 0 0 0 0 0 0 0 0 0 0 0 0 0 0 0 0 0 0 0 0 0 0 0 0 0 0 0 0 0 0 0 0 0 0 0 0 0 0 0 0 0 0 0 0 0 0 0 0 0 0 0 0 0 0 0 0 0 0 0 0 
0 0 0 0 0 0 0 0 0 0 0 0 0 0 0 0 0 0 0 0 0 0 0 0 0 0 0 0 0 0 0 0 0 0 0 0 0 0 0 0 0 0 0 0 0 0 0 0 0 0 0 0 0 0 0 0 0 0 0 0 0 0 0 0 0 0 0 0 0 0 0 0 0 0 1.12851 0 0 0 0.564255 0 0 0 0 0 1.12851 0.564255 0 0 0 0 1.12851 0 0 0 0 0 0 0 0 
0 0 0 0 0 0 0 0 0 0 0 0 0 0 0 0 0 0 0 0 0 0 0 0 0 0 0 0 0 0 0 0 0 0 0 0 0 0 0 0 0 0 0 0 0 0 0 0 0 0 0 0 0 0 0 0 0 0 0 0 0 0 0 0 0 0 0 0 0 0 0 0 0 0 0 0 0 0 0 0 0 0 0 0 0 0 0 0 0 0 0 0 0 0 0 0 0 0 0 
0 0 0 0 0 0 0 0 0 0 0 0 0 0 0 0 0 0 0 0 0 0 0 0 0 0 0 0 0 0 0 0 0 0 0 0 0 0 0 0 0 0 0 0 0 0 0 0 0 0 0 0 0 0 0 0 0 0 0 0 0 0 0 0 0 0 0 0 0 0.185463 0 0 0.370926 0 0.370926 0 0 0 0 0 0 0.556389 0 0.370926 0.741852 0 0.370926 0 0 0 0 0 0 0 0 0 0 0 0 
0 0 0 0 0 0 0 0 0 0 0 0 0 0 0 0 0 0 0 0 0 0 0 0 0 0 0 0 0 0 0 0 0 0 0 0 0 0 0 0 0 0 0 0 0 0 0 0 0 0 0 0 0 0 0 0 0 0 0 0 0 0 0 0 0 0 0 0.369873 0 0 0 0 0 0 0.369873 0.369873 0 0 0 0 0 0.554809 0.739746 0.184936 0.554809 0.554809 0.184936 0.184936 0.369873 0 0 0 0 0 0 0 0 0 0 
0 0 0 0 0 0 0 0 0 0 0 0 0 0 0 0 0 0 0 0 0 0 0 0 0 0 0 0 0 0 0 0 0 0 0 0 0 0 0 0 0 0 0 0 0 0 0 0 0 0 0 0 0 0 0 0 0 0 0.3876 0.723842 0.336242 0.3876 0.0712211 0.265021 0.5814 0.1938 0.7752 1.76406 2.39682 2.22288 1.55914 3.49714 1.16136 2.63035 4.15944 7.18902 4.62556 7.09267 7.04513 11.3539 14.2589 14.2532 16.3431 18.1959 19.5363 23.1991 26.9323 23.1674 22.3276 15.4564 12.8545 10.5827 5.67265 0.753892 0.1938 0 0 0 0 
0 0 0 0 0 0 0 0 0 0 0 0 0 0 0 0 0 0 0 0 0 0 0 0 0 0 0 0 0 0 0 0 0 0 0 0 0 0 0 0 0 0 0 0 0 0 0 0 0 0 0 0 0 0 0 0 0 0 0 0 0 0 0 0 0 0 0 0 0 0 0 0 0 0 0 0 0 0 0 0 0 0 0 0 0 0 0 0 0 0 0 0 0 0 0 0 0 0 0 
0 0 0 0 0 0 0 0 0 0 0 0 0 0 0 0 0 0 0 0 0 0 0 0 0 0 0 0 0 0 0 0 0 0 0 0 0 0 0 0 0 0 0 0 0 0 0 0 0 0 0 0 0 0 0 0 0 5.13621 0 -5.13621 0 0 5.13621 0 5.13621 0 10.2724 0 0 -5.13621 5.13621 0 8.55234 0 0 3.41613 15.4186 19.0321 2.74796 12.8216 46.4586 3.77617 15.5764 15.4287 56.9974 40.7931 7.02796 59.887 21.9965 31.9441 28.2665 0.96779 6.95416 -0.85046 0 0 0 0 0 
0 0 0 0 0 0 0 0 0 0 0 0 0 0 0 0 0 0 0 0 0 0 0 0 0 0 0 0 0 0 0 0 0 0 0 0 0 0 0 0 0 0 0 0 0 0 0 0 0 0 0 0 0 0 0 0 0 0 0 0 0 4 4 2 5 2 3 4 5 8 6 10 11 15 14 13 30 21 20 25 21 28 28 52 66 60 76 58 67 69 33 28 8 2 2 0 0 0 0 

100
0.00402555 0.00436083 0.00472403 0.00511748 0.0055437 0.00600542 0.00650559 0.00704742 0.00763438 0.00827023 0.00895903 0.0097052 0.0105135 0.0113892 0.0123377 0.0133653 0.0144785 0.0156843 0.0169906 0.0184057 0.0199387 0.0215993 0.0233983 0.025347 0.0274581 0.029745 0.0322224 0.0349061 0.0378133 0.0409627 0.0443744 0.0480702 0.0520738 0.0564109 0.0611092 0.0661988 0.0717123 0.077685 0.0841551 0.0911642 0.098757 0.106982 0.115892 0.125545 0.136001 0.147328 0.159599 0.172891 0.187291 0.20289 0.219788 0.238093 0.257923 0.279405 0.302676 0.327885 0.355193 0.384776 0.416823 0.451539 0.489146 0.529886 0.574019 0.621827 0.673617 0.729721 0.790497 0.856335 0.927657 1.00492 1.08862 1.17928 1.2775 1.3839 1.49916 1.62402 1.75928 1.90581 2.06454 2.23649 2.42276 2.62454 2.84313 3.07993 3.33645 3.61433 3.91536 4.24146 4.59471 4.97739 5.39195 5.84103 6.32751 6.85451 7.4254 8.04384 8.71379 9.43953 10.2257 11.0774 
0 0 0 0 0 0 0 0 0 0 0 0 0 0 0 0 0 0 0 0 0 0 0 0 0 0 0 0 0 0 0 0 0 0 0 0 0 0 0 0 0 0 0 0 0 0 0 0 0 0 0 0 0 0 0 0 0 0 0 0 0 0 0 0 0 0 0 0 0 0 0 0 0 0 0 0 0 0 0 0 0 0 0 0 0 0 0 0 0 0 0 0 0 0 0 0 0 0 0 
0 0 0 0 0 0 0 0 0 0 0 0 0 0 0 0 0 0 0 0 0 0 0 0 0 0 0 0 0 0 0 0 0 0 0 0 0 0 0 0 0 0 0 0 0 0 0 0 0 0 0 0 0 0 0 0 0 0 0 0 0 0 0 0 0 0 0 0 0 0 0 0 0 0 0 0 0 0 0 0 0 0 0 0 0 0 0 0 0 0 0 0 0 0 0 0 0 0 0 
0 0 0 0 0 0 0 0 0 0 0 0 0 0 0 0 0 0 0 0 0 0 0 0 0 0 0 0 0 0 0 0 0 0 0 0 0 0 0 0 0 0 0 0 0 0 0 0 0 0 0 0 0 0 0 0 0 0 0 0 0 0 0 0 0 0 0 0 0 0 0 0 0 0 0 0 0 0 0 0 0 0 0 0 0 0 0 0 0 0 0 0 0 0 0 0 0 0 0 
0 0 0 0 0 0 0 0 0 0 0 0 0 0 0 0 0 0 0 0 0 0 0 0 0 0 0 0 0 0 0 0 0 0 0 0 0 0 0 0 0 0 0 0 0 0 0 0 0 0 0 0 0 0 0 0 0 0 0 0 0 0 0 0 0 0 0 0 0 0 0 0 0 0 0 0 0 0 0 0 0 0 0 0 0 0 0 0 0 0 0 0 0 0 0 0 0 0 0 
0 0 0 0 0 0 0 0 0 0 0 0 0 0 0 0 0 0 0 0 0 0 0 0 0 0 0 0 0 0 0 0 0 0 0 0 0 0 0 0 0 0 0 0 0 0 0 0 0 0 0 0 0 0 0 0 0 0 0 0 0 0 0 0 0 0 0 0 0 0 0 0 0 0 0 0 0 0 0 0 0 0 0 0 0 0 0 0 0 0 0 0 0 0 0 0 0 0 0 
0 0 0 0 0 0 0 0 0 0 0 0 0 0 0 0 0 0 0 0 0 0 0 0 0 0 0 0 0 0 0 0 0 0 0 0 0 0 0 0 0 0 0 0 0 0 0 0 0 0 0 0 0 0 0 0 0 0 0 0 0 0 0 0 0 0 0 0 0 0 0 0 0 0 0 0 0 0 0 0 0 0 0 0 0 0 0 0 0 0 0 0 0 0 0 0 0 0 0 
0 0 0 0 0 0 0 0 0 0 0 0 0 0 0 0 0 0 0 0 0 0 0 0 0 0 0 0 0 0 0 0 0 0 0 0 0 0 0 0 0 0 0 0 0 0 0 0 0 0 0 0 0 0 0 0 0 0 0 0 0 0 0 0 0 0 0 0 0 0 0 0 0 0 0 0 0 0 0 0 0 0 0 0 0 0 0 0 0 0 0 0 0 0 0 0 0 0 0 
0 0 0 0 0 0 0 0 0 0 0 0 0 0 0 0 0 0 0 0 0 0 0 0 0 0 0 0 0 0 0 0 0 0 0 0 0 0 0 0 0 0 0 0 0 0 0 0 0 0 0 0 0 0 0 0 0 0.1938 0.1938 0 0.3876 0 0.1938 0.1938 0 0.5814 0.5814 1.1628 0.1938 0.41765 0.5814 1.7442 0.969 1.94674 1.5504 2.20302 3.38569 3.10954 2.68077 3.09698 1.8644 3.84451 2.37313 4.986 6.08937 3.97107 7.27772 8.17788 6.36976 3.20843 3.61972 0.661363 1.10032 0.0712211 0 0 0 0 0 
0 0 0 0 0 0 0 0 0 0 0 0 0 0 0 0 0 0 0 0 0 0 0 0 0 0 0 0 0 0 0 0 0 0 0 0 0 0 0 0 0 0 0 0 0 0 0 0 0 0 0 0 0 0 0 0 0 0 0 0 0 0 0 0 0 0 0 0 0 0 0 0 0 0 0 0 0 0 0 0 0 0 0 0 0 0 0 0 0 0 0 0 0 0 0 0 0 0 0 
0 0 0 0 0 0 0 0 0 0 0 0 0 0 0 0 0 0 0 0 0 0 0 0 0 0 0 0 0 0 0 0 0 0 0 0 0 0 0 0 0 0 0 0 0 0 0 0 0 0 0 0 0 0 0 0 0 0 0 0 -2.56811 -5.13621 0 5.13621 0 2.56811 2.56811 5.13621 0 8.55234 0 0 0 0 0 -2.56882 -2.9104 2.56811 2.56848 -2.56811 7.70184 0.00018838 5.14598 2.23539 -5.31809 -2.72929 -1.68935 3.79309 6.84465 -12.8403 -0.00071337 -2.56739 0 0 0 0 0 0 0 
0 0 0 0 0 0 0 0 0 0 0 0 0 0 0 0 0 0 0 0 0 0 0 0 0 0 0 0 0 0 0 0 0 0 0 0 0 0 0 0 0 0 0 0 0 0 0 0 0 0 0 0 0 0 0 0 2 0 0 0 0 0 0 0 0 2 3 1 2 2 0 0 0 0 0 7 3 3 3 4 6 6 8 9 6 15 14 5 5 7 3 7 2 1 0 0 0 0 0 

100
0.00402555 0.00436083 0.00472403 0.00511748 0.0055437 0.00600542 0.00650559 0.00704742 0.00763438 0.00827023 0.00895903 0.0097052 0.0105135 0.0113892 0.0123377 0.0133653 0.0144785 0.0156843 0.0169906 0.0184057 0.0199387 0.0215993 0.0233983 0.025347 0.0274581 0.029745 0.0322224 0.0349061 0.0378133 0.0409627 0.0443744 0.0480702 0.0520738 0.0564109 0.0611092 0.0661988 0.0717123 0.077685 0.0841551 0.0911642 0.098757 0.106982 0.115892 0.125545 0.136001 0.147328 0.159599 0.172891 0.187291 0.20289 0.219788 0.238093 0.257923 0.279405 0.302676 0.327885 0.355193 0.384776 0.416823 0.451539 0.489146 0.529886 0.574019 0.621827 0.673617 0.729721 0.790497 0.856335 0.927657 1.00492 1.08862 1.17928 1.2775 1.3839 1.49916 1.62402 1.75928 1.90581 2.06454 2.23649 2.42276 2.62454 2.84313 3.07993 3.33645 3.61433 3.91536 4.24146 4.59471 4.97739 5.39195 5.84103 6.32751 6.85451 7.4254 8.04384 8.71379 9.43953 10.2257 11.0774 
0 0 0 0 0 0 0 0 0 0 0 0 0 0 0 0 0 0 0 0 0 0 0 0 0 0 0 0 0 0 0 0 0 0 0 0 0 0 0 0 0 0 0 0 0 0 0 0 0 0 0 0 0 0 0 0 0 0 0 0 0 0 0 0 0 0 0 0 0 0 0 0 0 0 0 0 0 0 0 0 0 0 0 0 0 0 0 0 0 0 0 0 0 0 0 0 0 0 0 
0 0 0 0 0 0 0 0 0 0 0 0 0 0 0 0 0 0 0 0 0 0 0 0 0 0 0 0 0 0 0 0 0 0 0 0 0 0 0 0 0 0 0 0 0 0 0 0 0 0 0 0 0 0 0 0 0 0 0 0 0 0 0 0 0 0 0 0 0 0 0 0 0 0 0 0 0 0 0 0 0 0 0 0 0 0 0 0 0 0 0 0 0 0 0 0 0 0 0 
0 0 0 0 0 0 0 0 0 0 0 0 0 0 0 0 0 0 0 0 0 0 0 0 0 0 0 0 0 0 0 0 0 0 0 0 0 0 0 0 0 0 0 0 0 0 0 0 0 0 0 0 0 0 0 0 0 0 0 0 0 0 0 0 0 0 0 0 0 0 0 0 0 0 0 0 0 0 0 0 0 0 0 0 0 0 0 0 0 0 0 0 0 0 0 0 0 0 0 
0 0 0 0 0 0 0 0 0 0 0 0 0 0 0 0 0 0 0 0 0 0 0 0 0 0 0 0 0 0 0 0 0 0 0 0 0 0 0 0 0 0 0 0 0 0 0 0 0 0 0 0 0 0 0 0 0 0 0 0 0 0 0 0 0 0 0 0 0 0 0 0 0 0 0 0 0 0 0 0 0 0 0 0 0 0 0 0 0 0 0 0 0 0 0 0 0 0 0 
0 0 0 0 0 0 0 0 0 0 0 0 0 0 0 0 0 0 0 0 0 0 0 0 0 0 0 0 0 0 0 0 0 0 0 0 0 0 0 0 0 0 0 0 0 0 0 0 0 0 0 0 0 0 0 0 0 0 0 0 0 0 0 0 0 0 0 0 0 0 0 0 0 0 0 0 0 0 0 0 0 0 0 0 0 0 0 0 0 0 0 0 0 0 0 0 0 0 0 
0 0 0 0 0 0 0 0 0 0 0 0 0 0 0 0 0 0 0 0 0 0 0 0 0 0 0 0 0 0 0 0 0 0 0 0 0 0 0 0 0 0 0 0 0 0 0 0 0 0 0 0 0 0 0 0 0 0 0 0 0 0 0 0 0 0 0 0 0 0 0 0 0 0 0 0 0 0 0 0 0 0 0 0 0 0 0 0 0 0 0 0 0 0 0 0 0 0 0 
0 0 0 0 0 0 0 0 0 0 0 0 0 0 0 0 0 0 0 0 0 0 0 0 0 0 0 0 0 0 0 0 0 0 0 0 0 0 0 0 0 0 0 0 0 0 0 0 0 0 0 0 0 0 0 0 0 0 0 0 0 0 0 0 0 0 0 0 0 0 0 0 0 0 0 0 0 0 0 0 0 0 0 0 0 0 0 0 0 0 0 0 0 0 0 0 0 0 0 
0 0 0 0 0 0 0 0 0 0 0 0 0 0 0 0 0 0 0 0 0 0 0 0 0 0 0 0 0 0 0 0 0 0 0 0 0 0 0 0 0 0 0 0 0 0 0 0 0 0 0 0 0 0 0 0 0 0 0 0 0 0 0 0 0 0 0 0 0 0 0 0.7752 0.1938 0.5814 0 0.1938 0.3876 0.988864 0.0600995 0.325121 0.99905 0.99905 0.477749 1.00779 0.41765 0.955499 0.265021 1.25295 1.01891 0.6415 0.0600995 1.4167 0.1938 0.0300498 0 0 0 0 0 
0 0 0 0 0 0 0 0 0 0 0 0 0 0 0 0 0 0 0 0 0 0 0 0 0 0 0 0 0 0 0 0 0 0 0 0 0 0 0 0 0 0 0 0 0 0 0 0 0 0 0 0 0 0 0 0 0 0 0 0 0 0 0 0 0 0 0 0 0 0 0 0 0 0 0 0 0 0 0 0 0 0 0 0 0 0 0 0 0 0 0 0 0 0 0 0 0 0 0 
0 0 0 0 0 0 0 0 0 0 0 0 0 0 0 0 0 0 0 0 0 0 0 0 0 0 0 0 0 0 0 0 0 0 0 0 0 0 0 0 0 0 0 0 0 0 0 0 0 0 0 0 0 0 0 0 0 0 0 0 0 0 0 0 0 0 0 0 0 0 0 0 0 0 0 0 0 0 0 0.019161 0.0095805 0.0095805 0 0 0.0095805 0 0.019161 0.0095805 0.0095805 0 0 0 0.0095805 0 0 0 0 0 0 
0 0 0 0 0 0 0 0 0 0 0 0 0 0 0 0 0 0 0 0 0 0 0 0 0 0 0 0 0 0 0 0 0 0 0 0 0 0 0 0 0 0 0 0 0 0 0 0 0 0 0 0 0 0 0 0 0 0 0 0 0 0 0 0 0 0 0 0 0 0 0 0 4 0 0 0 0 2 6 1 2 1 3 3 1 3 2 0 5 1 1 4 0 1 0 0 0 0 0 

100
0.00402555 0.00436083 0.00472403 0.00511748 0.0055437 0.00600542 0.00650559 0.00704742 0.00763438 0.00827023 0.00895903 0.0097052 0.0105135 0.0113892 0.0123377 0.0133653 0.0144785 0.0156843 0.0169906 0.0184057 0.0199387 0.0215993 0.0233983 0.025347 0.0274581 0.029745 0.0322224 0.0349061 0.0378133 0.0409627 0.0443744 0.0480702 0.0520738 0.0564109 0.0611092 0.0661988 0.0717123 0.077685 0.0841551 0.0911642 0.098757 0.106982 0.115892 0.125545 0.136001 0.147328 0.159599 0.172891 0.187291 0.20289 0.219788 0.238093 0.257923 0.279405 0.302676 0.327885 0.355193 0.384776 0.416823 0.451539 0.489146 0.529886 0.574019 0.621827 0.673617 0.729721 0.790497 0.856335 0.927657 1.00492 1.08862 1.17928 1.2775 1.3839 1.49916 1.62402 1.75928 1.90581 2.06454 2.23649 2.42276 2.62454 2.84313 3.07993 3.33645 3.61433 3.91536 4.24146 4.59471 4.97739 5.39195 5.84103 6.32751 6.85451 7.4254 8.04384 8.71379 9.43953 10.2257 11.0774 
0 0 0 0 0 0 0 0 0 0 0 0 0 0 0 0 0 0 0 0 0 0 0 0 0 0 0 0 0 0 0 0 0 0 0 0 0 0 0 0 0 0 0 0 0 0 0 0 0 0 0 0 0 0 0 0 0 0 0 0 0 0 0 0 0 0 0 0 0 0 0 0 0 0 0 0 0 0 0 0 0 0 0 0 0 0 0 0 0 0 0 0 0 0 0 0 0 0 0 
0 0 0 0 0 0 0 0 0 0 0 0 0 0 0 0 0 0 0 0 0 0 0 0 0 0 0 0 0 0 0 0 0 0 0 0 0 0 0 0 0 0 0 0 0 0 0 0 0 0 0 0 0 0 0 0 0 0 0 0 0 0 0 0 0 0 0 0 0 0 0 0 0 0 0 0 0 0 0 0 0 0 0 0 0 0 0 0 0 0 0 0 0 0 0 0 0 0 0 
0 0 0 0 0 0 0 0 0 0 0 0 0 0 0 0 0 0 0 0 0 0 0 0 0 0 0 0 0 0 0 0 0 0 0 0 0 0 0 0 0 0 0 0 0 0 0 0 0 0 0 0 0 0 0 0 0 0 0 0 0 0 0 0 0 0 0 0 0 0 0 0 0 0 0 0 0 0 0 0 0 0 0 0 0 0 0 0 0 0 0 0 0 0 0 0 0 0 0 
0 0 0 0 0 0 0 0 0 0 0 0 0 0 0 0 0 0 0 0 0 0 0 0 0 0 0 0 0 0 0 0 0 0 0 0 0 0 0 0 0 0 0 0 0 0 0 0 0 0 0 0 0 0 0 0 0 0 0 0 0 0 0 0 0 0 0 0 0 0 0 0 0 0 0 0 0 0 0 0 0 0 0 0 0 0 0 0 0 0 0 0 0 0 0 0 0 0 0 
0 0 0 0 0 0 0 0 0 0 0 0 0 0 0 0 0 0 0 0 0 0 0 0 0 0 0 0 0 0 0 0 0 0 0 0 0 0 0 0 0 0 0 0 0 0 0 0 0 0 0 0 0 0 0 0 0 0 0 0 0 0 0 0 0 0 0 0 0 0 0 0 0 0 0 0 0 0 0 0 0 0 0 0 0 0 0 0 0 0 0 0 0 0 0 0 0 0 0 
0 0 0 0 0 0 0 0 0 0 0 0 0 0 0 0 0 0 0 0 0 0 0 0 0 0 0 0 0 0 0 0 0 0 0 0 0 0 0 0 0 0 0 0 0 0 0 0 0 0 0 0 0 0 0 0 0 0 0 0 0 0 0 0 0 0 0 0 0 0 0 0 0 0 0 0 0 0 0 0 0 0 0 0 0 0 0 0 0 0 0 0 0 0 0 0 0 0 0 
0 0 0 0 0 0 0 0 0 0 0 0 0 0 0 0 0 0 0 0 0 0 0 0 0 0 0 0 0 0 0 0 0 0 0 0 0 0 0 0 0 0 0 0 0 0 0 0 0 0 0 0 0 0 0 0 0 0 0 0 0 0 0 0 0 0 0 0 0 0 0 0 0 0 0 0 0 0 0 0 0 0 0 0 0 0 0 0 0 0 0 0 0 0 0 0 0 0 0 
0 0 0 0 0 0 0 0 0 0 0 0 0 0 0 0 0 0 0 0 0 0 0 0 0 0 0 0 0 0 0 0 0 0 0 0 0 0 0 0 0 0 0 0 0 0 0 0 0 0 0 0 0 0 0 0 0 0 0 0 0 0 0 0 0 0 0 0 0 0 0 0 0 0.1938 0 0.1938 0 0 0 0.5814 0 0.1938 0.0300498 0 0.0901493 0.41765 0.0901493 0.969 0 0.7752 0.1938 0.2539 0.61145 0 0 0 0 0 0 
0 0 0 0 0 0 0 0 0 0 0 0 0 0 0 0 0 0 0 0 0 0 0 0 0 0 0 0 0 0 0 0 0 0 0 0 0 0 0 0 0 0 0 0 0 0 0 0 0 0 0 0 0 0 0 0 0 0 0 0 0 0 0 0 0 0 0 0 0 0 0 0 0 0 0 0 0 0 0 0 0 0 0 0 0 0 0 0 0 0 0 0 0 0 0 0 0 0 0 
0 0 0 0 0 0 0 0 0 0 0 0 0 0 0 0 0 0 0 0 0 0 0 0 0 0 0 0 0 0 0 0 0 0 0 0 0 0 0 0 0 0 0 0 0 0 0 0 0 0 0 0 0 0 0 0 0 0 0 0 0 0 0 0 0 0 0 0 0 0 0 0 0 0 0 0 0 0 0 0 0 0 0 0 0 0 0 0 0 0 0 0 0 0 0 0 0 0 0 
0 0 0 0 0 0 0 0 0 0 0 0 0 0 0 0 0 0 0 0 0 0 0 0 0 0 0 0 0 0 0 0 0 0 0 0 0 0 0 0 0 0 0 0 0 0 0 0 0 0 0 0 0 0 0 0 0 0 0 0 0 0 0 0 0 2 0 1 0 0 0 0 0 0 0 0 0 0 1 0 0 0 1 0 0 2 1 2 0 1 0 0 0 0 0 0 0 0 0 
