1
Photon_
p_T [GeV/c]
pT_dr_cut_low_pT_order
11
0
0
10
QCD W + Jets WW WZ ZZ #bar{t}W tW t#bar{t} Drell Yan #rightarrow #tau#tau Drell Yan #rightarrow ee 

100 0 200
0 0 0 0 0 0 0 0 0 0 0 0 0 0 0 0 0 0 0 0 0 0 0 0 2512.37 35656.1 0 6.5667 6.5667 29.0381 0 0 0 0 0 0 0 0 0 0 0 29.0381 0 58.4618 0 0 0 161.573 161.573 0 0 29.0381 0 0 0 0 0 0 0 0 161.573 0 29.0381 0 0 0 6.5667 0 0 0 0 0 0 0 0 0 0 0 0 0 0 0 0 0 0 0 0 0 0 0 0 0 0 0 0 29.0381 0 0 0 0 
0 0 0 0 0 0 0 0 0 0 0 0 5.11332 5.11332 163.626 639.165 782.338 777.225 623.825 634.052 649.392 542.012 419.292 516.445 383.499 311.913 398.839 373.272 214.759 178.966 224.986 230.099 153.4 235.213 158.513 112.493 81.8131 132.946 92.0398 122.72 97.1531 86.9265 51.1332 20.4533 92.0398 35.7932 20.4533 30.6799 40.9066 35.7932 46.0199 51.1332 61.3599 10.2266 15.34 25.5666 35.7932 0 30.6799 0 25.5666 30.6799 10.2266 30.6799 0 0 10.2266 25.5666 15.34 15.34 30.6799 15.34 10.2266 15.34 25.5666 10.2266 -10.2266 0 5.11332 0 5.11332 -5.11332 10.2266 10.2266 5.11332 5.11332 5.11332 0 -5.11332 0 0 0 5.11332 10.2266 0 10.2266 5.11332 10.2266 5.11332 5.11332 
0 0 0 0 0 0 0 0 0 0 0 0 0 1.21865 53.0111 232.152 317.457 396.669 432.01 446.634 503.301 495.379 492.942 483.193 476.49 429.573 428.354 403.372 383.873 361.938 348.533 323.55 265.665 276.633 238.855 232.152 227.887 192.546 208.388 177.922 146.237 151.721 140.754 138.316 121.865 110.897 102.366 88.3518 88.9611 84.0865 70.0721 79.8213 62.1509 65.1975 60.9323 54.2297 60.9323 56.0577 34.1221 34.1221 42.0433 35.3407 32.2941 32.2941 28.6382 32.2941 24.3729 22.5449 23.7636 15.8424 19.4983 16.4517 17.6704 12.7958 15.8424 14.0144 13.4051 10.9678 9.13984 18.2797 10.9678 10.9678 4.87458 6.09323 8.53052 7.9212 7.9212 5.4839 4.26526 3.65594 2.43729 3.65594 2.43729 4.26526 1.21865 2.43729 0.609323 1.82797 5.4839 3.65594 
0 0 0 0 0 0 0 0 0 0 0 0 0 1.12851 12.9779 69.4034 110.03 155.734 160.813 219.495 288.899 371.28 450.276 571.591 647.201 695.162 665.257 704.755 664.128 637.044 545.635 558.613 515.729 445.762 422.063 392.157 342.503 333.475 323.883 270.278 254.479 231.909 237.551 210.467 180.562 168.712 134.857 141.064 134.857 120.186 103.259 110.03 101.566 90.2808 76.7387 66.5821 73.9174 56.4255 66.0179 57.554 56.4255 46.2689 38.3694 54.1685 40.0621 23.6987 32.7268 28.777 28.2128 24.263 23.1345 17.4919 29.3413 18.6204 15.2349 14.6706 18.6204 18.6204 16.9277 12.9779 14.6706 7.89957 9.59234 8.46383 7.89957 5.64255 7.33532 6.77106 5.0783 3.94979 5.64255 5.0783 4.51404 2.25702 8.46383 3.94979 2.82128 3.94979 2.25702 1.12851 
0 0 0 0 0 0 0 0 0 0 0 0 0 0.593798 11.2822 39.1907 49.2852 71.8495 86.1007 128.854 148.449 224.456 284.429 368.748 452.474 462.569 451.88 466.725 425.159 430.503 415.658 356.279 328.964 301.649 264.834 267.209 265.428 214.361 197.735 188.828 189.422 160.919 157.356 133.605 130.042 108.665 105.102 97.9766 90.2573 80.7565 74.2247 64.724 73.6309 68.2868 63.5364 49.2852 45.7224 43.941 40.3783 30.2837 30.2837 29.0961 30.8775 27.3147 29.6899 25.5333 26.7209 17.8139 17.8139 16.6263 16.6263 10.0946 14.2511 16.6263 14.8449 15.4387 11.2822 8.31317 2.96899 13.0636 8.90697 6.53178 6.53178 9.50077 5.93798 4.15658 2.96899 6.53178 5.93798 4.15658 3.56279 2.96899 2.37519 4.75038 1.78139 2.96899 4.15658 2.96899 1.78139 1.78139 
0 0 0 0 0 0 0 0 0 0 0 0 0.370926 0.556389 10.9423 42.2856 53.9697 73.8143 87.3531 95.5134 112.947 115.729 126.857 129.082 136.501 143.548 142.065 140.952 141.508 145.032 147.814 135.388 134.461 136.872 133.348 122.591 118.882 122.591 109.98 105.899 97.739 96.0698 89.7641 96.2553 79.7491 79.9345 69.9195 77.1526 68.6213 68.2504 62.3156 62.6865 60.2755 47.4785 48.4058 51.0023 48.7768 46.1803 38.9472 39.8745 36.7217 34.867 34.1252 32.456 25.4084 31.8996 26.8921 19.6591 22.0701 20.5864 17.0626 16.1353 16.5062 17.9899 14.6516 13.5388 11.4987 12.6115 10.9423 12.426 10.3859 7.78944 9.08769 6.67667 7.60398 6.86213 7.97491 7.41852 5.93481 6.4912 4.26565 4.63657 3.15287 3.15287 2.22556 3.5238 3.15287 2.22556 2.78194 3.15287 
0 0 0 0 0 0 0 0 0 0 0 0 0 0.554809 10.5414 47.1588 59.3646 74.5294 85.4407 90.6189 103.01 114.291 138.887 136.483 137.963 139.257 137.593 143.696 147.209 142.771 151.278 139.627 135.374 135.374 120.394 119.469 124.462 115.03 112.256 107.448 102.825 95.7971 97.6465 95.982 83.5913 79.8926 76.5637 66.7621 70.8307 69.7211 69.1662 56.0358 56.2207 58.0701 47.5287 51.9672 42.7203 43.4601 41.9806 36.4325 37.727 33.1036 30.8844 29.5898 28.8501 29.5898 25.1514 22.9321 21.4526 17.7539 19.6033 17.384 17.384 16.0895 16.6443 14.0552 12.2058 12.9456 11.0962 11.0962 9.80163 9.43176 9.80163 9.80163 7.95227 6.47278 4.80835 5.54809 4.80835 6.1029 4.99329 4.25354 4.43848 4.25354 4.62341 3.69873 1.84936 2.21924 3.32886 2.58911 
0 0 0 0 0 0 0 0 0 0 0.1938 0.1938 0.458821 7.96329 216.72 1018.39 1451.13 1737.98 2057.28 2281.95 2563.39 2763.72 2985.09 3079.79 3199.16 3213.9 3328.9 3348.6 3306.91 3326.55 3295.54 3240.32 3121.62 3073.74 2944.41 2869.6 2750.28 2712.98 2566.08 2451.4 2377.43 2222.59 2124.3 2018.58 1940.41 1847.53 1736.07 1710.45 1555.68 1510.2 1414.94 1341.46 1253.27 1198.71 1142.78 1039.94 968.242 936.708 878.491 827.42 792.415 728.685 678.881 642.189 600.998 574.086 520.095 509.471 472.956 444.345 419.58 381.365 352.978 343.045 298.679 273.787 263.527 241.685 217.808 203.494 195.549 185.041 163.658 161.608 148.571 132.77 121.082 110.37 103.726 99.8848 94.9092 87.7375 76.6117 75.4889 67.667 64.598 60.7694 52.2722 52.0321 48.289 
0 0 0 0 0 0 0 0 0 0 0 0 7.70261 71.891 1048.93 3883.49 4054.32 3858.82 3167.33 2751.21 2090.34 1694.76 1284.96 915.419 717.719 510.94 390.266 301.778 346.802 192.565 246.484 159.187 128.377 121.866 148.917 98.7582 118.107 110.404 94.9989 53.9183 35.9455 53.9183 71.891 39.8888 30.8104 35.9455 25.6754 -11.6459 17.9728 17.9728 -5.13507 10.2701 23.1078 17.9728 10.2701 -2.56754 7.70261 5.13507 10.2701 20.5403 12.8377 30.8104 0 15.4052 20.5403 12.8377 5.13507 7.70261 10.2701 3.94332 2.56754 10.2701 10.2701 5.13507 0 5.13507 2.56754 -2.56754 -2.56754 2.56754 2.56754 5.13507 5.13507 5.13507 0 0 -2.56754 0 7.70261 5.13507 0 0 0 -2.56754 2.56754 0 5.13507 0 0 2.56754 
0 0 0 0 0 0 0 0 0 0 -2.56811 18.4532 102.841 2595.86 60148.4 251948 345344 428310 525700 641079 782067 958744 1.20169e+06 1.47466e+06 1.38425e+06 1.03578e+06 761710 577499 446205 353802 286614 233637 193005 161109 138157 117069 99130.9 86488.3 74340 66562.6 57731.2 51129.6 45255 39377.8 35453.4 30310.5 28275.9 24895.7 23086.5 20655 18110.1 16239 15119.2 14056.7 12265.5 11454.3 9995.57 9186.21 8565.11 7962.31 6998.06 5973.61 5929.03 5283.63 4768.77 4474.51 4288.59 3528.3 3347.08 3111.93 2743.39 2457.51 2388.18 2237.38 2018.7 1760.78 1509.44 1527.12 1347.53 1290.64 1222.47 988.329 1122.61 944.999 943.718 787.53 688.751 638.47 543.794 594.491 492.108 495.189 406.88 526.631 444.205 349.683 328.343 295.71 271.856 314.176 

100 0 200
0 0 0 0 0 0 0 0 35.6048 0 0 0 0 0 0 161.573 0 0 6.5667 0 58.0762 6.5667 38168.5 161.573 0 161.573 0 0 0 161.573 0 0 0 0 0 0 0 0 0 0 0 0 0 0 29.0381 0 0 0 0 0 0 0 29.0381 0 0 0 0 0 0 0 0 0 0 0 0 0 0 0 0 0 0 0 0 0 0 0 0 0 0 0 0 0 0 0 0 0 0 0 0 0 0 0 0 0 0 0 0 0 0 0 
0 0 0 0 0 0 0 10.2266 81.8131 429.519 516.445 680.072 572.692 685.185 726.092 598.259 449.972 301.686 357.932 337.479 194.306 224.986 163.626 76.6998 199.42 122.72 71.5865 61.3599 81.8131 46.0199 66.4732 35.7932 30.6799 66.4732 76.6998 35.7932 30.6799 10.2266 15.34 5.11332 -30.6799 10.2266 1.77636e-15 10.2266 15.34 30.6799 10.2266 10.2266 15.34 20.4533 20.4533 15.34 10.2266 15.34 0 10.2266 -5.11332 15.34 0 0 -5.11332 0 15.34 5.11332 0 5.11332 5.11332 5.11332 -5.11332 0 -5.11332 5.11332 0 5.11332 5.11332 0 5.11332 0 5.11332 0 0 5.11332 -5.11332 5.11332 0 0 5.11332 0 0 5.11332 -10.2266 0 0 0 5.11332 0 -5.11332 0 0 0 
0 0 0 0 0 0 0 0 4.26526 61.5416 140.144 198.03 260.79 377.171 575.81 622.728 633.086 609.323 561.796 556.921 486.24 438.712 383.264 366.203 322.941 309.536 278.46 229.105 207.17 184.625 178.532 149.284 127.958 129.176 101.148 87.7425 96.8823 84.6959 79.212 69.4628 62.7602 52.4018 51.7924 46.3085 38.3873 37.778 34.7314 23.7636 29.2475 26.8102 29.2475 19.4983 19.4983 21.9356 20.1077 17.6704 21.9356 12.1865 14.0144 12.7958 17.6704 14.0144 12.1865 9.13984 6.70255 8.53052 11.5771 7.31187 3.65594 4.87458 6.09323 5.4839 9.13984 2.43729 3.65594 3.65594 3.65594 3.04661 1.82797 2.43729 1.21865 3.65594 0.609323 2.43729 0 0.609323 1.21865 1.21865 0.609323 0 1.82797 2.43729 0.609323 1.21865 1.21865 0.609323 1.82797 0 0.609323 0.609323 
0 0 0 0 0 0 0 0.564255 2.82128 53.6042 86.3311 165.327 257.865 398.928 618.988 779.801 838.483 917.479 955.284 940.614 874.031 849.204 705.883 571.026 432.22 337.989 304.698 220.624 210.467 154.042 150.656 130.343 106.644 86.8953 92.5379 72.7889 69.9677 58.6825 51.3472 43.4477 44.0119 35.5481 33.8553 36.1123 33.2911 25.9557 23.1345 23.6987 21.4417 20.3132 19.1847 13.5421 15.2349 13.5421 12.9779 7.33532 8.46383 8.46383 11.8494 7.89957 10.1566 6.77106 3.94979 2.25702 4.51404 2.82128 5.0783 2.82128 2.25702 1.69277 4.51404 3.38553 2.82128 3.38553 2.82128 3.38553 3.94979 3.38553 2.25702 1.12851 1.69277 1.12851 1.12851 1.12851 0 1.12851 0.564255 0 1.69277 0.564255 1.12851 0 0 0 0 1.12851 0.564255 0.564255 0.564255 0.564255 
0 0 0 0 0 0 0 0 1.1876 30.8775 65.9116 116.978 170.42 283.242 430.503 517.792 546.888 593.204 637.145 635.364 624.082 562.327 491.071 375.28 283.242 216.142 163.294 153.794 131.229 110.446 99.758 67.693 68.8806 51.6604 48.6914 40.9721 35.0341 29.0961 38.0031 25.5333 21.3767 25.5333 21.9705 26.7209 13.6574 13.6574 13.0636 11.876 13.6574 7.71937 12.4698 10.6884 9.50077 8.90697 11.876 6.53178 6.53178 8.90697 5.34418 1.78139 5.93798 4.15658 3.56279 1.78139 6.53178 1.1876 4.15658 2.96899 1.1876 2.37519 1.1876 1.78139 1.78139 2.96899 0.593798 0 1.78139 1.1876 0 0 0 0 0.593798 0 0 0 0 0 1.1876 0.593798 0 0.593798 0.593798 0.593798 0.593798 0 0.593798 0.593798 0 0 
0 0 0 0 0 0 0 0 2.59648 21.1428 43.0274 57.679 85.1275 140.025 196.22 235.167 240.545 243.142 229.603 227.749 220.145 205.307 201.598 181.383 163.578 150.41 141.137 113.874 110.536 96.9971 96.0698 83.0874 80.8619 70.2905 66.0248 53.9697 54.3406 42.471 40.2455 37.4635 33.0124 35.238 31.3432 26.8921 24.852 21.3282 18.5463 19.6591 14.0952 13.9097 16.8771 13.1679 12.6115 12.6115 9.45861 10.015 7.41852 8.90222 6.67667 6.67667 6.67667 4.08019 5.19296 5.0075 5.37843 3.5238 4.26565 2.59648 3.5238 2.22556 2.41102 1.85463 1.4837 2.22556 1.66917 1.85463 1.11278 2.04009 1.29824 1.4837 0.927315 0.741852 1.29824 0.741852 0.741852 0.556389 0.556389 0.556389 0.370926 0.370926 0.185463 0.927315 0.370926 0 0.185463 0.927315 0.370926 0.556389 0.185463 0.370926 
0 0 0 0 0 0 0.184936 0.554809 2.40417 20.1581 44.7546 64.173 87.8448 135.743 198.992 242.082 230.246 238.753 231.356 232.835 218.965 201.211 186.971 173.285 154.977 149.244 131.675 125.572 114.106 103.01 101.9 81.1871 76.3788 66.7621 61.7688 57.8851 53.6316 52.1521 42.7203 40.3162 37.1722 30.3296 33.2886 30.3296 22.1924 20.5279 24.2267 16.4593 20.343 16.6443 14.2401 16.8292 12.0209 12.3907 11.8359 9.6167 10.1715 8.32214 7.95227 5.54809 8.87695 6.1029 5.54809 3.69873 3.51379 3.88367 3.69873 3.51379 3.88367 1.84936 3.88367 2.95898 2.58911 2.40417 2.77405 0.739746 1.29456 1.29456 1.47949 0.554809 0.369873 0.924682 0.369873 1.10962 0.739746 0.924682 0.739746 0.369873 0.369873 0.184936 0.184936 0 0.184936 0.554809 0.369873 0.554809 0.369873 0.184936 0.184936 0 
0 0 0 0 0 0 0 2.78298 48.534 440.328 866.391 1297.28 1783.64 2797.96 4205.67 4952.9 5228.53 5244.45 5158.85 5042 4802.53 4557.08 4217.29 3974.09 3703.78 3396.46 3061.22 2853.34 2586.11 2347.58 2155.33 1954.78 1787.36 1626.86 1468.3 1381.95 1215.03 1125.19 1009.4 916.083 859.257 765.675 725.442 679.97 585.72 540.919 526.044 459.307 429.422 396.457 364.451 342.475 305.488 274.986 261.46 239.974 218.248 206.081 202.778 183.572 169.645 149.226 142.721 130.934 115.047 107.11 93.5771 96.5694 84.521 82.7646 72.364 65.2696 59.6023 50.5913 49.5536 41.9371 42.6506 41.1641 36.0275 32.3173 30.1842 25.0702 25.1772 19.5352 19.9351 20.1954 16.4281 15.8798 16.8876 13.6816 12.3811 10.0245 9.27205 10.208 6.72337 7.74069 7.7506 6.2795 7.43992 6.3531 
0 0 0 0 0 0 0 12.8377 53.9183 587.966 1119.45 1199.04 1549.6 2128.86 2355.81 2034.87 1626.63 1055.26 722.854 418.509 300.402 191.374 146.35 151.669 101.51 55.11 87.2963 25.6754 41.0806 33.378 28.2429 28.2429 16.781 25.6754 5.13507 23.1078 23.1078 20.5403 10.2701 17.9728 15.4052 10.2701 12.8377 10.2701 5.13507 -2.56754 12.8377 7.70261 0 2.56754 2.56754 5.13507 0 2.56754 2.56754 5.13507 2.56754 7.70261 2.56754 2.56754 0 2.56754 0 0 0 2.56754 -2.56754 0 -2.56754 0 2.56754 0 2.56754 2.56754 0 0 -2.56754 0 0 0 2.56754 0 0 0 0 0 2.56754 0 0 0 2.56754 0 0 0 0 0 0 0 0 0 
0 0 0 0 0 2.56811 22.7414 227.671 3329.45 29232.4 64906.1 104767 173757 321039 562060 746193 896048 1.04371e+06 1.1867e+06 1.31755e+06 1.40203e+06 1.40087e+06 1.18608e+06 645755 228802 113622 73859.8 53693.1 40218.6 32042.8 25921.9 21481.6 18352.4 15220.3 13467.3 11604.9 9456.32 8477.71 7787.2 7027.41 6063.43 5222.21 4552.42 4294.45 3911.07 3401.29 3095.92 2812.35 2405.51 2280.29 2128.93 1869.47 1717.09 1531.08 1381.19 1401.4 1266.28 1175.07 910.04 976.402 886.71 821.183 729.544 596.233 546.965 470.391 528.602 473.176 470.55 357.858 416.57 328.461 314.375 305.576 261.178 250.807 237.359 177.414 196.29 136.027 158.561 177.696 172.466 138.771 117.514 113.156 64.4197 96.6493 116.232 55.3075 82.2165 71.427 48.3105 58.6639 67.9929 48.8846 43.4982 45.0155 37.4894 17.7755 

100 0 200
0 0 0 0 0 0 0 0 0 29.0381 0 0 29.0381 0 0 0 0 0 0 0 0 0 0 29.0381 0 0 0 0 0 0 0 0 0 0 0 0 0 0 0 0 0 0 0 0 0 0 0 0 0 0 0 0 0 0 0 0 0 0 0 0 0 0 0 0 0 0 0 0 0 0 0 0 0 0 0 0 0 0 0 0 0 0 0 0 0 0 0 0 0 0 0 0 0 0 0 0 0 0 0 0 
0 0 0 0 0 0 0 0 10.2266 15.34 66.4732 30.6799 66.4732 15.34 40.9066 0 -25.5666 25.5666 25.5666 5.11332 20.4533 15.34 10.2266 -5.11332 10.2266 10.2266 5.11332 15.34 10.2266 5.11332 0 10.2266 0 0 0 5.11332 0 0 5.11332 -5.11332 0 0 0 0 0 0 0 0 0 0 0 0 0 0 0 0 0 0 0 0 0 0 0 0 0 0 0 0 0 0 0 0 0 0 0 0 0 0 -5.11332 0 0 0 0 0 0 0 0 0 0 0 0 0 0 0 0 0 0 0 0 0 
0 0 0 0 0 0 0 0 1.21865 3.04661 10.3585 7.31187 14.0144 15.2331 21.9356 24.9822 18.889 16.4517 17.061 11.5771 9.74916 8.53052 10.3585 6.70255 12.1865 6.70255 3.04661 4.87458 3.65594 3.65594 5.4839 4.26526 1.21865 2.43729 3.04661 0.609323 1.82797 4.26526 3.04661 0 0.609323 1.21865 0 0 0.609323 0 0 0.609323 1.21865 0.609323 0 1.21865 1.21865 0 0 0 0 0 0 0 0 0 0 0 0 0 0 0 0 0.609323 0.609323 0 0 0 0 0 0 0 0 0 0 0 0 0.609323 0 0 0 0 0 0 0 0 0 0 0 0 0 0 0 0 
0 0 0 0 0 0 0.564255 1.12851 1.12851 16.3634 33.8553 38.9336 58.6825 64.3251 96.4876 108.337 103.259 95.9234 89.1523 87.4596 58.1183 44.0119 50.2187 43.4477 22.006 25.9557 19.7489 16.9277 15.7991 15.2349 16.9277 8.46383 7.33532 10.1566 8.46383 9.02808 8.46383 4.51404 8.46383 6.77106 5.64255 1.69277 4.51404 2.82128 2.25702 1.12851 1.69277 0 0.564255 0 1.12851 0.564255 2.82128 1.12851 2.25702 1.69277 0.564255 1.12851 1.12851 0 0.564255 1.12851 1.12851 2.25702 0.564255 0 0.564255 0 0.564255 0 0.564255 0 0 0 0.564255 0.564255 0.564255 0.564255 0 0 0 0 0 0 0.564255 0 0.564255 0 0 0 0 0 0 0 0 0 0 0.564255 0 0 
0 0 0 0 0 0 0 0 1.1876 10.6884 16.0325 27.3147 29.0961 42.1596 43.3472 47.5038 52.2542 40.3783 40.3783 27.3147 36.8155 35.0341 27.3147 16.0325 12.4698 19.5953 7.71937 9.50077 8.31317 8.31317 10.0946 6.53178 2.37519 4.15658 1.1876 8.31317 2.37519 1.78139 1.1876 2.37519 1.1876 2.37519 1.1876 0.593798 1.1876 1.1876 0 0 1.78139 0 0 0.593798 1.1876 1.78139 0.593798 0.593798 0 0 0.593798 0 0 1.1876 0 0 0 0 0.593798 0.593798 0 0.593798 0 0.593798 0 0 0 0 0 0 0 0 0 0 0 0 0 0 0 0 0 0 0 0 0 0 0 0 0 0 0 0 
0 0 0 0 0 0 0 0 1.11278 5.93481 10.015 12.2406 17.8044 20.5864 27.4485 28.5613 26.7067 28.0049 21.8846 23.9247 18.7318 18.3608 13.7243 11.4987 12.2406 8.5313 9.45861 7.04759 4.82204 5.0075 5.37843 2.59648 4.45111 2.59648 2.78194 1.66917 3.33833 1.29824 1.66917 0.556389 1.66917 1.11278 1.4837 1.29824 1.11278 1.29824 0.556389 0.927315 0.741852 0 0.927315 0.370926 0.556389 0.185463 0.185463 0 0.370926 0.556389 0.370926 0 0.370926 0.185463 0.556389 0.370926 0 0.185463 0.185463 0.185463 0 0.185463 0.185463 0.185463 0 0.185463 0 0.185463 0 0 0 0 0 0 0 0 0 0 0 0 0 0 0 0 0 0 0 0 0 0 0 0 
0 0 0 0 0 0 0 0 1.47949 5.73303 10.9113 15.3497 18.8635 23.6719 26.4459 26.4459 31.0693 23.4869 26.4459 20.8978 19.9731 14.425 12.7606 12.0209 12.5757 8.87695 7.02759 8.32214 7.21252 6.47278 2.77405 3.14392 4.25354 3.32886 3.51379 1.66443 2.95898 1.84936 1.84936 1.29456 0.739746 0.184936 1.66443 0.554809 1.29456 0.739746 0.924682 0 1.29456 0.369873 0.369873 0.184936 0 0.924682 0.184936 0 0.924682 0.369873 0.184936 0.184936 0.369873 0 0.184936 0.184936 0.369873 0 0 0 0 0.184936 0 0 0 0 0 0.184936 0 0 0.184936 0 0 0.184936 0 0 0 0 0 0 0 0.184936 0 0 0 0 0 0 0 0 0 0 
0 0 0 0 0 0 1.0291 4.30095 27.9113 193.686 357.303 460.1 566.232 783.181 1056.69 1102.78 1007.68 949.1 864.579 773.865 652.8 581.627 492.794 424.952 383.66 329.658 298.703 249.248 215 198.378 176.178 144.825 133.472 119.546 106.43 89.723 79.4053 73.9178 61.7882 57.998 51.6137 49.3333 37.5872 38.6215 35.8308 32.3525 30.1446 27.4405 25.0621 19.8076 20.4714 17.0065 11.9769 13.627 12.4459 13.0267 10.5748 9.59158 7.06676 6.61481 8.48584 6.14037 5.77408 5.71305 4.08838 5.21399 3.92276 2.40717 3.17362 2.71098 2.74579 2.50844 1.26805 1.34946 1.14692 1.97203 1.46185 0.595569 0.924004 1.03784 0.961861 0.554397 0.61145 0.742771 0.456441 0.57902 0.330547 0.374099 0.458821 0.671549 0.120199 0.0600995 0.0300498 0.374099 0.0300498 0.0300498 0.2539 0.101271 0.202542 0 
0 0 0 0 0 0 -2.56754 7.70261 7.70261 43.6481 43.6481 66.756 56.4858 55.2941 66.756 84.7287 15.4052 53.9183 21.732 34.7538 17.9728 10.2701 15.4052 10.2701 12.8377 0 15.4052 -2.56754 -2.56754 -5.13507 2.56754 -2.56754 2.56754 -2.56754 0 2.56754 2.56754 2.56754 2.56754 0 5.13507 0 -2.56754 0 0 2.56754 5.13507 0 5.13507 0 0 2.56754 0 2.56754 0 0 0 0 0 0 0 0 0 0 0 0 -2.56754 0 0 0 0 0 0 0 0 0 0 0 0 0 0 0 0 0 0 0 0 0 0 0 0 0 0 0 0 0 0 0 0 0 
0 0 0 0 0 10.2724 71.5687 169.058 589.684 3892.06 6617.96 8274.52 9380.29 11577 14643.4 14260.5 12136.9 11226.8 10201.1 8738.22 7207.24 6034.38 5230.54 4222.95 3393.89 2830.65 2357.3 1967.99 1622.38 1326.37 1401.35 981.226 1007.63 933.124 737.024 693.676 660.191 551.763 499.317 417.906 332.11 335.008 355.105 231.505 198.735 256.291 166.932 144.058 202.19 65.2115 145.304 133.026 103.576 81.6926 77.6464 54.7455 107.296 32.4587 41.353 1.94706 53.861 51.4293 49.7738 34.8782 20.8872 50.8609 32.0015 34.4281 7.25958 28.5864 25.147 27.5444 31.7098 9.6253 11.5669 3.45528 0.320746 16.3724 9.95141 4.02092 14.897 3.13835 -0.0726928 12.1666 9.53637 -4.85817 6.9203 9.8435 4.80113 0.832262 3.85577 4.01651 3.43659 -0.0750556 -0.527703 -0.920903 7.07723 0.131776 0.245744 0.769801 

100 0 200
0 0 0 0 0 0 0 0 0 0 0 0 0 0 0 0 0 0 0 0 0 0 0 0 0 0 0 0 0 0 0 0 0 0 0 0 0 0 0 0 0 0 0 0 0 0 0 0 0 0 0 0 0 0 0 0 0 0 0 0 0 0 0 0 0 0 0 0 0 0 0 0 0 0 0 0 0 0 0 0 0 0 0 0 0 0 0 0 0 0 0 0 0 0 0 0 0 0 0 0 
0 0 0 0 0 0 0 0 0 0 -15.34 0 10.2266 0 0 5.11332 5.11332 0 5.11332 0 0 0 0 0 0 0 0 0 0 0 0 0 0 0 0 0 0 0 0 0 0 0 0 0 0 0 0 0 0 0 0 0 0 0 0 0 0 0 0 0 0 0 0 0 0 0 0 0 0 0 0 0 0 0 0 0 0 0 0 0 0 0 0 0 0 0 0 0 0 0 0 0 0 0 0 0 0 0 0 0 
0 0 0 0 0 0 0 0 0 0.609323 1.82797 1.21865 0 0 0 0 1.21865 0.609323 0.609323 0 0.609323 0 0 0.609323 0 0 0 0 0 0 0 0 0 0 0 0 0 0 0.609323 0 0 0 0 0 0 0 0 0 0.609323 0 0 0 0 0 0 0 0 0 0 0 0 0 0 0 0 0 0 0 0 0 0 0 0 0 0 0 0 0 0 0 0 0 0 0 0 0 0 0 0 0 0 0 0 0 0 0 0 0 0 0 
0 0 0 0 0 0 0 0 0 0.564255 2.25702 2.82128 3.38553 4.51404 3.94979 4.51404 6.20681 6.20681 3.38553 1.69277 3.38553 3.94979 1.69277 1.12851 0 2.25702 1.69277 0.564255 0 0.564255 1.12851 0 0 0.564255 0 0 0.564255 0 0 0 0 0 0.564255 0 0 0 0 0 0 0 0 0 0 0 0 0 0 0 0 0 0 0 0 0 0 0 0 0 0 0 0 0 0 0 0 0 0 0 0 0 0 0 0 0 0 0 0 0 0 0 0 0 0 0 0 0 0 0 0 0 
0 0 0 0 0 0 0 0 0 0.593798 1.78139 2.96899 1.1876 5.34418 5.34418 5.34418 4.75038 3.56279 3.56279 3.56279 2.96899 0 0.593798 2.96899 0 0 1.78139 1.1876 0 0.593798 0.593798 0 0 0.593798 0 0 0 0 0 0 0 0 0 0 0 0.593798 0 0 0 0.593798 0 0 0 0 0 0 0 0 0 0 0 0 0 0 0 0 0 0 0 0 0 0 0 0 0 0 0 0 0 0 0 0 0 0 0 0 0 0 0 0 0 0 0 0 0 0 0 0 0 0 
0 0 0 0 0 0 0 0 0.370926 1.11278 2.22556 1.85463 2.41102 0.927315 2.78194 3.89472 1.4837 1.4837 1.85463 1.29824 1.66917 0.927315 0.370926 0.556389 0.927315 0 0.370926 0.370926 1.11278 0 0.370926 0.370926 0.185463 0.185463 0.185463 0 0.185463 0.185463 0 0.185463 0 0.370926 0 0.185463 0 0 0 0 0 0 0 0.185463 0.185463 0 0 0 0 0.185463 0 0 0 0 0 0 0 0.185463 0 0 0 0 0 0 0 0 0 0 0 0 0 0 0 0 0 0 0 0 0 0 0 0 0 0 0 0 0 0 0 0 0 0 
0 0 0 0 0 0 0 0 0.184936 1.29456 1.66443 2.21924 2.0343 1.47949 3.69873 3.32886 2.21924 2.21924 1.66443 2.0343 1.84936 0.369873 0.554809 0.554809 0.739746 0.554809 0.739746 0.184936 0.739746 0.184936 0.369873 0.184936 0 0 0.184936 0 0 0 0.184936 0.184936 0.369873 0 0 0 0 0 0 0.184936 0 0.184936 0 0 0 0 0 0 0 0.184936 0 0 0 0 0 0 0 0 0 0 0 0 0 0 0 0 0 0 0 0 0 0 0 0 0 0 0 0 0 0 0 0 0 0 0 0 0 0 0 0 0 0 
0 0 0 0 0 0.0300498 0.61145 2.16185 9.06072 43.7125 75.9844 83.3972 100.163 118.877 146.291 142.378 129.112 101.274 89.0821 69.1517 61.5492 49.41 42.3325 32.3182 29.6508 28.4852 20.3581 19.1667 11.9373 12.4655 10.6084 8.84772 6.79537 7.07788 6.46534 6.05167 4.9275 4.05103 2.59554 2.72592 2.75835 2.35183 0.935126 1.8116 1.62892 1.09794 1.44293 0.628933 0.691413 0.893955 1.28393 0.63912 0.518921 0.846421 0.35517 0.396342 0.2539 0.477749 0.712721 0.295071 0.2539 0.16137 0.0712211 0 0.41765 0.2539 0.0300498 0.22385 0 0 0.22385 0 0.0300498 0.0300498 0.0300498 0 0 0 0 0 0 0 0.1938 0 0.0300498 0 0 0 0 0 0 0 0 0 0 0 0 0 0 0 
0 0 0 0 0 0 0 0 0 0 5.13507 2.56754 -9.07839 5.13507 12.8377 10.2701 0 -2.56754 5.13507 0 0 -2.56754 2.56754 0 0 0 0 -2.56754 0 0 0 0 0 0 0 0 0 0 0 0 0 0 0 0 0 0 0 0 0 0 0 0 0 0 0 0 0 0 0 0 0 0 0 0 0 0 0 0 0 0 0 0 0 0 0 0 0 0 0 0 0 0 0 0 0 0 0 0 0 0 0 0 0 0 0 0 0 0 0 0 
0 0 0 2.56811 0 0 6.53193 9.49773 66.3367 319.101 394.203 324.776 474.105 543.275 734.407 713.463 594.817 496.024 365.231 348.415 300.835 222.797 179.34 147.848 117.15 85.1522 59.7417 62.1557 78.0743 16.635 47.4391 19.383 32.0273 30.7406 13.6886 18.0882 5.49052 -11.6339 15.1387 3.43773 4.55873 9.52379 7.36202 4.38401 2.91489 2.55966 4.28819 2.57655 2.83884 0.270544 14.7909 5.19538 5.30736 7.71633 5.14466 0 0 5.9928 0.171147 2.56829 5.13621 8.04661 0 0 0.86004 0 0 2.56811 0.0993975 0 0 0 0 0 0 0.0591695 -0.0584562 0 0.0993975 2.57655 2.56811 0 0.0993975 2.56811 0.855048 0 0 0 0 0 0 0 0.0591695 0 0 0 0 0 0 0 

100 0 200
0 0 0 0 0 0 0 0 0 0 0 0 0 0 0 0 0 0 0 0 0 0 0 0 0 0 0 0 0 0 0 0 0 0 0 0 0 0 0 0 0 0 0 0 0 0 0 0 0 0 0 0 0 0 0 0 0 0 0 0 0 0 0 0 0 0 0 0 0 0 0 0 0 0 0 0 0 0 0 0 0 0 0 0 0 0 0 0 0 0 0 0 0 0 0 0 0 0 0 0 
0 0 0 0 0 0 0 0 0 0 0 0 0 0 0 0 0 0 -5.11332 0 0 0 0 0 0 0 0 0 0 0 0 0 0 0 0 0 0 0 0 0 0 0 0 0 0 0 0 0 0 0 0 0 0 0 0 0 0 0 0 0 0 0 0 0 0 0 0 0 0 0 0 0 0 0 0 0 0 0 0 0 0 0 0 0 0 0 0 0 0 0 0 0 0 0 0 0 0 0 0 0 
0 0 0 0 0 0 0 0 0 0 0.609323 0 0 0.609323 0 0 0 0 0 0 0 0.609323 0 0 0 0 0 0 0 0 0 0 0 0 0 0 0 0 0 0 0 0 0 0 0 0 0 0 0 0 0 0 0 0 0 0 0 0 0 0 0 0 0 0 0 0 0 0 0 0 0 0 0 0 0 0 0 0 0 0 0 0 0 0 0 0 0 0 0 0 0 0 0 0 0 0 0 0 0 0 
0 0 0 0 0 0 0 0 0 0 0 0 0 0.564255 0 0.564255 0.564255 0.564255 0 0.564255 0 0.564255 0 0 0 0 0 0 0 0 0 0 0 0 0 0 0 0 0 0 0 0 0 0 0 0 0 0 0 0 0 0 0 0 0 0 0 0 0 0 0 0 0 0 0 0 0 0 0 0 0 0 0 0 0 0 0 0 0 0 0 0 0 0 0 0 0 0 0 0 0 0 0 0 0 0 0 0 0 0 
0 0 0 0 0 0 0 0 0 0 0.593798 0.593798 0 0 0 0 0 0 0 0 0 0 0.593798 0 0 0 0 0 0 0 0 0 0 0 0 0 0 0 0 0 0 0 0 0 0 0 0 0 0 0 0 0 0 0 0 0 0 0 0 0 0 0 0 0 0 0 0 0 0 0 0 0 0 0 0 0 0 0 0 0 0 0 0 0 0 0 0 0 0 0 0 0 0 0 0 0 0 0 0 0 
0 0 0 0 0 0 0 0 0 0.185463 0 0.185463 0 0.185463 0 0.185463 0.370926 0.185463 0 0 0.185463 0.185463 0 0 0 0 0 0 0 0 0 0 0 0 0 0 0 0 0 0 0 0 0 0 0 0 0 0 0 0 0 0 0 0 0 0 0 0 0 0 0 0 0 0 0 0 0 0 0 0 0 0 0 0 0 0 0 0 0 0 0 0 0 0 0 0 0 0 0 0 0 0 0 0 0 0 0 0 0 0 
0 0 0 0 0 0 0 0 0 0.184936 0.369873 0.369873 0.184936 0.554809 0.184936 0 0.184936 0 0 0.184936 0 0.184936 0.184936 0 0.184936 0 0 0 0.184936 0 0 0 0 0 0 0 0 0 0 0 0 0 0 0 0 0 0 0 0 0 0 0 0 0 0 0 0 0 0 0 0 0 0 0 0 0 0 0 0 0 0 0 0 0 0 0 0 0 0 0 0 0 0 0 0 0 0 0 0 0 0 0 0 0 0 0 0 0 0 0 
0 0 0 0 0 0 0.1938 0.652621 1.6914 9.49729 11.5666 12.2129 10.0424 14.5086 14.2532 16.6366 13.5744 7.60047 4.90713 6.23274 3.47345 4.14832 2.62797 2.67933 2.31065 1.17154 1.15898 1.68172 1.10906 0.6415 0.742771 0.825113 0.101271 0.265021 0.530042 0.0712211 0 0.22385 0.0300498 0.0300498 0 0.0300498 0 0.0712211 0 0.1938 0.0300498 0 0 0 0 0 0 0.0300498 0 0 0.0712211 0 0 0 0 0 0 0 0 0 0 0 0 0 0 0 0 0 0 0 0 0 0 0 0 0 0 0 0 0 0 0 0 0 0 0 0 0 0 0 0 0 0 0 
0 0 0 0 0 0 0 0 0 0 0 0 2.56754 -2.56754 0 0 2.56754 0 0 0 0 0 0 0 0 0 0 0 0 0 0 0 0 0 0 0 0 0 0 0 0 0 0 0 0 0 0 0 0 0 0 0 0 0 0 0 0 0 0 0 0 0 0 0 0 0 0 0 0 0 0 0 0 0 0 0 0 0 0 0 0 0 0 0 0 0 0 0 0 0 0 0 0 0 0 0 0 0 0 0 
0 0 0 0 0 0.00071337 0.171147 0 -7.81003 38.5096 56.0314 33.7745 56.7865 41.0801 68.9673 36.2958 25.6811 22.2649 33.3974 3.75861 14.5486 5.13621 14.5486 15.4086 2.56811 5.99625 1.70806 2.39696 0 -2.22581 5.13621 0 -2.56811 0.86004 0 0 0 0 2.56811 2.56811 0 2.56811 0 0 0 0.00844482 0 0.171147 0 3.42815 0 0 0 0 0 0 0 0 0 0 0 0 0 0 0 0 0 0 0 0 0 0 0 0 0 0 0 0 0 0 0 0 0 0 0 0 0 0 0 0 0 0 0 0 0 0 0 0 0 0 

100 0 200
0 0 0 0 0 0 0 0 0 0 0 0 0 0 0 0 0 0 0 0 0 0 0 0 0 0 0 0 0 0 0 0 0 0 0 0 0 0 0 0 0 0 0 0 0 0 0 0 0 0 0 0 0 0 0 0 0 0 0 0 0 0 0 0 0 0 0 0 0 0 0 0 0 0 0 0 0 0 0 0 0 0 0 0 0 0 0 0 0 0 0 0 0 0 0 0 0 0 0 0 
0 0 0 0 0 0 0 0 0 -5.11332 0 0 0 0 0 0 0 0 0 0 0 0 0 0 0 0 0 0 0 0 0 0 0 0 0 0 0 0 0 0 0 0 0 0 0 0 0 0 0 0 0 0 0 0 0 0 0 0 0 0 0 0 0 0 0 0 0 0 0 0 0 0 0 0 0 0 0 0 0 0 0 0 0 0 0 0 0 0 0 0 0 0 0 0 0 0 0 0 0 0 
0 0 0 0 0 0 0 0 0 0 0 0 0 0 0 0 0 0 0 0 0 0 0 0 0 0 0 0 0 0 0 0 0 0 0 0 0 0 0 0 0 0 0 0 0 0 0 0 0 0 0 0 0 0 0 0 0 0 0 0 0 0 0 0 0 0 0 0 0 0 0 0 0 0 0 0 0 0 0 0 0 0 0 0 0 0 0 0 0 0 0 0 0 0 0 0 0 0 0 0 
0 0 0 0 0 0 0 0 0 0 0 0 0 0 0 0 0 0 0 0 0 0 0 0 0 0 0 0 0 0 0 0 0 0 0 0 0 0 0 0 0 0 0 0 0 0 0 0 0 0 0 0 0 0 0 0 0 0 0 0 0 0 0 0 0 0 0 0 0 0 0 0 0 0 0 0 0 0 0 0 0 0 0 0 0 0 0 0 0 0 0 0 0 0 0 0 0 0 0 0 
0 0 0 0 0 0 0 0 0 0.593798 0 0 0 0 0 0 0 0 0 0 0 0 0 0 0 0 0 0 0 0 0 0 0 0 0 0 0 0 0 0 0 0 0 0 0 0 0 0 0 0 0 0 0 0 0 0 0 0 0 0 0 0 0 0 0 0 0 0 0 0 0 0 0 0 0 0 0 0 0 0 0 0 0 0 0 0 0 0 0 0 0 0 0 0 0 0 0 0 0 0 
0 0 0 0 0 0 0 0 0 0 0 0 0 0 0 0 0 0 0 0 0 0 0 0 0 0 0 0 0 0 0 0 0 0 0 0 0 0 0 0 0 0 0 0 0 0 0 0 0 0 0 0 0 0 0 0 0 0 0 0 0 0 0 0 0 0 0 0 0 0 0 0 0 0 0 0 0 0 0 0 0 0 0 0 0 0 0 0 0 0 0 0 0 0 0 0 0 0 0 0 
0 0 0 0 0 0 0 0 0 0 0 0 0 0 0 0 0.184936 0.184936 0 0 0 0 0 0 0 0 0 0 0 0 0 0 0 0 0 0 0 0 0 0 0 0 0 0 0 0 0 0 0 0 0 0 0 0 0 0 0 0 0 0 0 0 0 0 0 0 0 0 0 0 0 0 0 0 0 0 0 0 0 0 0 0 0 0 0 0 0 0 0 0 0 0 0 0 0 0 0 0 0 0 
0 0 0 0 0 0 0 0 0.458821 1.56788 2.46566 2.56693 1.78299 0.988864 1.64148 0.885213 1.40651 1.30524 1.10032 0.35517 0.142442 0.265021 0.61145 0 0.1938 0 0.1938 0.1938 0 0.0300498 0 0 0 0 0 0 0 0 0 0 0 0 0 0 0 0 0 0 0 0 0 0 0 0 0 0 0 0 0 0 0 0 0 0 0 0 0 0 0 0 0 0 0 0 0 0 0 0 0 0 0 0 0 0 0 0 0 0 0 0 0 0 0 0 0 0 0 0 0 0 
0 0 0 0 0 0 0 0 0 0 0 0 0 0 2.56754 0 0 0 0 0 0 0 0 0 0 0 0 0 0 0 0 0 0 0 0 0 0 0 0 0 0 0 0 0 0 0 0 0 0 0 0 0 0 0 0 0 0 0 0 0 0 0 0 0 0 0 0 0 0 0 0 0 0 0 0 0 0 0 0 0 0 0 0 0 0 0 0 0 0 0 0 0 0 0 0 0 0 0 0 0 
0 0 0 0 0 0 0 0 0 0.86004 5.13621 -2.56811 6.84428 -2.56811 3.42815 0.86004 -2.56811 2.56811 0 2.56811 2.56811 0 0 -2.56811 2.56811 0 0 0 0 0 0 0 0 0 0 0 0 0 0 0 0 0 0 0 0 0 0 0 0 0 0 0 0 0 0 0 0 0 0 0 0 0 0 0 0 0 0 0 0 0 0 0 0 0 0 0 0 0 0 0 0 0 0 0 0 0 0 0 0 0 0 0 0 0 0 0 0 0 0 0 

100 0 200
0 0 0 0 0 0 0 0 0 0 0 0 0 0 0 0 0 0 0 0 0 0 0 0 0 0 0 0 0 0 0 0 0 0 0 0 0 0 0 0 0 0 0 0 0 0 0 0 0 0 0 0 0 0 0 0 0 0 0 0 0 0 0 0 0 0 0 0 0 0 0 0 0 0 0 0 0 0 0 0 0 0 0 0 0 0 0 0 0 0 0 0 0 0 0 0 0 0 0 0 
0 0 0 0 0 0 0 0 0 0 0 0 0 0 0 0 0 0 0 0 0 0 0 0 0 0 0 0 0 0 0 0 0 0 0 0 0 0 0 0 0 0 0 0 0 0 0 0 0 0 0 0 0 0 0 0 0 0 0 0 0 0 0 0 0 0 0 0 0 0 0 0 0 0 0 0 0 0 0 0 0 0 0 0 0 0 0 0 0 0 0 0 0 0 0 0 0 0 0 0 
0 0 0 0 0 0 0 0 0 0 0 0 0 0 0 0 0 0 0 0 0 0 0 0 0 0 0 0 0 0 0 0 0 0 0 0 0 0 0 0 0 0 0 0 0 0 0 0 0 0 0 0 0 0 0 0 0 0 0 0 0 0 0 0 0 0 0 0 0 0 0 0 0 0 0 0 0 0 0 0 0 0 0 0 0 0 0 0 0 0 0 0 0 0 0 0 0 0 0 0 
0 0 0 0 0 0 0 0 0 0 0 0 0 0 0 0 0 0 0 0 0 0 0 0 0 0 0 0 0 0 0 0 0 0 0 0 0 0 0 0 0 0 0 0 0 0 0 0 0 0 0 0 0 0 0 0 0 0 0 0 0 0 0 0 0 0 0 0 0 0 0 0 0 0 0 0 0 0 0 0 0 0 0 0 0 0 0 0 0 0 0 0 0 0 0 0 0 0 0 0 
0 0 0 0 0 0 0 0 0 0 0 0 0 0 0 0 0 0 0 0 0 0 0 0 0 0 0 0 0 0 0 0 0 0 0 0 0 0 0 0 0 0 0 0 0 0 0 0 0 0 0 0 0 0 0 0 0 0 0 0 0 0 0 0 0 0 0 0 0 0 0 0 0 0 0 0 0 0 0 0 0 0 0 0 0 0 0 0 0 0 0 0 0 0 0 0 0 0 0 0 
0 0 0 0 0 0 0 0 0 0 0 0 0 0 0 0 0 0 0 0 0 0 0 0 0 0 0 0 0 0 0 0 0 0 0 0 0 0 0 0 0 0 0 0 0 0 0 0 0 0 0 0 0 0 0 0 0 0 0 0 0 0 0 0 0 0 0 0 0 0 0 0 0 0 0 0 0 0 0 0 0 0 0 0 0 0 0 0 0 0 0 0 0 0 0 0 0 0 0 0 
0 0 0 0 0 0 0 0 0 0 0 0 0 0 0 0 0 0 0 0 0 0 0 0 0 0 0 0 0 0 0 0 0 0 0 0 0 0 0 0 0 0 0 0 0 0 0 0 0 0 0 0 0 0 0 0 0 0 0 0 0 0 0 0 0 0 0 0 0 0 0 0 0 0 0 0 0 0 0 0 0 0 0 0 0 0 0 0 0 0 0 0 0 0 0 0 0 0 0 0 
0 0 0 0 0 0 0 0.1938 0 0.1938 0.3876 0.1938 0.488871 0 0.101271 0.1938 0.0300498 0 0 0 0 0 0 0 0 0 0 0 0 0 0 0 0 0 0 0 0 0 0 0 0 0 0 0 0 0 0 0 0 0 0 0 0 0 0 0 0 0 0 0 0 0 0 0 0 0 0 0 0 0 0 0 0 0 0 0 0 0 0 0 0 0 0 0 0 0 0 0 0 0 0 0 0 0 0 0 0 0 0 0 
0 0 0 0 0 0 0 0 0 0 0 0 0 0 0 0 0 0 0 0 0 0 0 0 0 0 0 0 0 0 0 0 0 0 0 0 0 0 0 0 0 0 0 0 0 0 0 0 0 0 0 0 0 0 0 0 0 0 0 0 0 0 0 0 0 0 0 0 0 0 0 0 0 0 0 0 0 0 0 0 0 0 0 0 0 0 0 0 0 0 0 0 0 0 0 0 0 0 0 0 
0 0 0 0 0 0 0 0 0 0 0 0 0 0 0 2.56811 0 0 0 0 0 0 0 0 0 0 0 0 0 0 0 0 0 0 0 0 0 0 0 0 0 0 0 0 0 0 0 0 0 0 0 0 0 0 0 0 0 0 0 0 0 0 0 0 0 0 0 0 0 0 0 0 0 0 0 0 0 0 0 0 0 0 0 0 0 0 0 0 0 0 0 0 0 0 0 0 0 0 0 0 

100 0 200
0 0 0 0 0 0 0 0 0 0 0 0 0 0 0 0 0 0 0 0 0 0 0 0 0 0 0 0 0 0 0 0 0 0 0 0 0 0 0 0 0 0 0 0 0 0 0 0 0 0 0 0 0 0 0 0 0 0 0 0 0 0 0 0 0 0 0 0 0 0 0 0 0 0 0 0 0 0 0 0 0 0 0 0 0 0 0 0 0 0 0 0 0 0 0 0 0 0 0 0 
0 0 0 0 0 0 0 0 0 0 0 0 0 0 0 0 0 0 0 0 0 0 0 0 0 0 0 0 0 0 0 0 0 0 0 0 0 0 0 0 0 0 0 0 0 0 0 0 0 0 0 0 0 0 0 0 0 0 0 0 0 0 0 0 0 0 0 0 0 0 0 0 0 0 0 0 0 0 0 0 0 0 0 0 0 0 0 0 0 0 0 0 0 0 0 0 0 0 0 0 
0 0 0 0 0 0 0 0 0 0 0 0 0 0 0 0 0 0 0 0 0 0 0 0 0 0 0 0 0 0 0 0 0 0 0 0 0 0 0 0 0 0 0 0 0 0 0 0 0 0 0 0 0 0 0 0 0 0 0 0 0 0 0 0 0 0 0 0 0 0 0 0 0 0 0 0 0 0 0 0 0 0 0 0 0 0 0 0 0 0 0 0 0 0 0 0 0 0 0 0 
0 0 0 0 0 0 0 0 0 0 0 0 0 0 0 0 0 0 0 0 0 0 0 0 0 0 0 0 0 0 0 0 0 0 0 0 0 0 0 0 0 0 0 0 0 0 0 0 0 0 0 0 0 0 0 0 0 0 0 0 0 0 0 0 0 0 0 0 0 0 0 0 0 0 0 0 0 0 0 0 0 0 0 0 0 0 0 0 0 0 0 0 0 0 0 0 0 0 0 0 
0 0 0 0 0 0 0 0 0 0 0 0 0 0 0 0 0 0 0 0 0 0 0 0 0 0 0 0 0 0 0 0 0 0 0 0 0 0 0 0 0 0 0 0 0 0 0 0 0 0 0 0 0 0 0 0 0 0 0 0 0 0 0 0 0 0 0 0 0 0 0 0 0 0 0 0 0 0 0 0 0 0 0 0 0 0 0 0 0 0 0 0 0 0 0 0 0 0 0 0 
0 0 0 0 0 0 0 0 0 0 0 0 0 0 0 0 0 0 0 0 0 0 0 0 0 0 0 0 0 0 0 0 0 0 0 0 0 0 0 0 0 0 0 0 0 0 0 0 0 0 0 0 0 0 0 0 0 0 0 0 0 0 0 0 0 0 0 0 0 0 0 0 0 0 0 0 0 0 0 0 0 0 0 0 0 0 0 0 0 0 0 0 0 0 0 0 0 0 0 0 
0 0 0 0 0 0 0 0 0 0 0 0 0 0 0 0 0 0 0 0 0 0 0 0 0 0 0 0 0 0 0 0 0 0 0 0 0 0 0 0 0 0 0 0 0 0 0 0 0 0 0 0 0 0 0 0 0 0 0 0 0 0 0 0 0 0 0 0 0 0 0 0 0 0 0 0 0 0 0 0 0 0 0 0 0 0 0 0 0 0 0 0 0 0 0 0 0 0 0 0 
0 0 0 0 0 0 0 0 0 0 0 0 0 0 0 0 0 0 0 0 0 0 0 0 0 0 0 0 0 0 0 0 0 0 0 0 0 0 0 0 0 0 0 0 0 0 0 0 0 0 0 0 0 0 0 0 0 0 0 0 0 0 0 0 0 0 0 0 0 0 0 0 0 0 0 0 0 0 0 0 0 0 0 0 0 0 0 0 0 0 0 0 0 0 0 0 0 0 0 0 
0 0 0 0 0 0 0 0 0 0 0 0 0 0 0 0 0 0 0 0 0 0 0 0 0 0 0 0 0 0 0 0 0 0 0 0 0 0 0 0 0 0 0 0 0 0 0 0 0 0 0 0 0 0 0 0 0 0 0 0 0 0 0 0 0 0 0 0 0 0 0 0 0 0 0 0 0 0 0 0 0 0 0 0 0 0 0 0 0 0 0 0 0 0 0 0 0 0 0 0 
0 0 0 0 0 0 0 0 0 0 0 0 0 0 0 0 0 0 0 0 0 0 0 0 0 0 0 0 0 0 0 0 0 0 0 0 0 0 0 0 0 0 0 0 0 0 0 0 0 0 0 0 0 0 0 0 0 0 0 0 0 0 0 0 0 0 0 0 0 0 0 0 0 0 0 0 0 0 0 0 0 0 0 0 0 0 0 0 0 0 0 0 0 0 0 0 0 0 0 0 

100 0 200
0 0 0 0 0 0 0 0 0 0 0 0 0 0 0 0 0 0 0 0 0 0 0 0 0 0 0 0 0 0 0 0 0 0 0 0 0 0 0 0 0 0 0 0 0 0 0 0 0 0 0 0 0 0 0 0 0 0 0 0 0 0 0 0 0 0 0 0 0 0 0 0 0 0 0 0 0 0 0 0 0 0 0 0 0 0 0 0 0 0 0 0 0 0 0 0 0 0 0 0 
0 0 0 0 0 0 0 0 0 0 0 0 0 0 0 0 0 0 0 0 0 0 0 0 0 0 0 0 0 0 0 0 0 0 0 0 0 0 0 0 0 0 0 0 0 0 0 0 0 0 0 0 0 0 0 0 0 0 0 0 0 0 0 0 0 0 0 0 0 0 0 0 0 0 0 0 0 0 0 0 0 0 0 0 0 0 0 0 0 0 0 0 0 0 0 0 0 0 0 0 
0 0 0 0 0 0 0 0 0 0 0 0 0 0 0 0 0 0 0 0 0 0 0 0 0 0 0 0 0 0 0 0 0 0 0 0 0 0 0 0 0 0 0 0 0 0 0 0 0 0 0 0 0 0 0 0 0 0 0 0 0 0 0 0 0 0 0 0 0 0 0 0 0 0 0 0 0 0 0 0 0 0 0 0 0 0 0 0 0 0 0 0 0 0 0 0 0 0 0 0 
0 0 0 0 0 0 0 0 0 0 0 0 0 0 0 0 0 0 0 0 0 0 0 0 0 0 0 0 0 0 0 0 0 0 0 0 0 0 0 0 0 0 0 0 0 0 0 0 0 0 0 0 0 0 0 0 0 0 0 0 0 0 0 0 0 0 0 0 0 0 0 0 0 0 0 0 0 0 0 0 0 0 0 0 0 0 0 0 0 0 0 0 0 0 0 0 0 0 0 0 
0 0 0 0 0 0 0 0 0 0 0 0 0 0 0 0 0 0 0 0 0 0 0 0 0 0 0 0 0 0 0 0 0 0 0 0 0 0 0 0 0 0 0 0 0 0 0 0 0 0 0 0 0 0 0 0 0 0 0 0 0 0 0 0 0 0 0 0 0 0 0 0 0 0 0 0 0 0 0 0 0 0 0 0 0 0 0 0 0 0 0 0 0 0 0 0 0 0 0 0 
0 0 0 0 0 0 0 0 0 0 0 0 0 0 0 0 0 0 0 0 0 0 0 0 0 0 0 0 0 0 0 0 0 0 0 0 0 0 0 0 0 0 0 0 0 0 0 0 0 0 0 0 0 0 0 0 0 0 0 0 0 0 0 0 0 0 0 0 0 0 0 0 0 0 0 0 0 0 0 0 0 0 0 0 0 0 0 0 0 0 0 0 0 0 0 0 0 0 0 0 
0 0 0 0 0 0 0 0 0 0 0 0 0 0 0 0 0 0 0 0 0 0 0 0 0 0 0 0 0 0 0 0 0 0 0 0 0 0 0 0 0 0 0 0 0 0 0 0 0 0 0 0 0 0 0 0 0 0 0 0 0 0 0 0 0 0 0 0 0 0 0 0 0 0 0 0 0 0 0 0 0 0 0 0 0 0 0 0 0 0 0 0 0 0 0 0 0 0 0 0 
0 0 0 0 0 0 0 0 0 0 0 0 0 0 0 0 0 0 0 0 0 0 0 0 0 0 0 0 0 0 0 0 0 0 0 0 0 0 0 0 0 0 0 0 0 0 0 0 0 0 0 0 0 0 0 0 0 0 0 0 0 0 0 0 0 0 0 0 0 0 0 0 0 0 0 0 0 0 0 0 0 0 0 0 0 0 0 0 0 0 0 0 0 0 0 0 0 0 0 0 
0 0 0 0 0 0 0 0 0 0 0 0 0 0 0 0 0 0 0 0 0 0 0 0 0 0 0 0 0 0 0 0 0 0 0 0 0 0 0 0 0 0 0 0 0 0 0 0 0 0 0 0 0 0 0 0 0 0 0 0 0 0 0 0 0 0 0 0 0 0 0 0 0 0 0 0 0 0 0 0 0 0 0 0 0 0 0 0 0 0 0 0 0 0 0 0 0 0 0 0 
0 0 0 0 0 0 0 0 0 0 0 0 0 0 0 0 0 0 0 0 0 0 0 0 0 0 0 0 0 0 0 0 0 0 0 0 0 0 0 0 0 0 0 0 0 0 0 0 0 0 0 0 0 0 0 0 0 0 0 0 0 0 0 0 0 0 0 0 0 0 0 0 0 0 0 0 0 0 0 0 0 0 0 0 0 0 0 0 0 0 0 0 0 0 0 0 0 0 0 0 

100 0 200
0 0 0 0 0 0 0 0 0 0 0 0 0 0 0 0 0 0 0 0 0 0 0 0 0 0 0 0 0 0 0 0 0 0 0 0 0 0 0 0 0 0 0 0 0 0 0 0 0 0 0 0 0 0 0 0 0 0 0 0 0 0 0 0 0 0 0 0 0 0 0 0 0 0 0 0 0 0 0 0 0 0 0 0 0 0 0 0 0 0 0 0 0 0 0 0 0 0 0 0 
0 0 0 0 0 0 0 0 0 0 0 0 0 0 0 0 0 0 0 0 0 0 0 0 0 0 0 0 0 0 0 0 0 0 0 0 0 0 0 0 0 0 0 0 0 0 0 0 0 0 0 0 0 0 0 0 0 0 0 0 0 0 0 0 0 0 0 0 0 0 0 0 0 0 0 0 0 0 0 0 0 0 0 0 0 0 0 0 0 0 0 0 0 0 0 0 0 0 0 0 
0 0 0 0 0 0 0 0 0 0 0 0 0 0 0 0 0 0 0 0 0 0 0 0 0 0 0 0 0 0 0 0 0 0 0 0 0 0 0 0 0 0 0 0 0 0 0 0 0 0 0 0 0 0 0 0 0 0 0 0 0 0 0 0 0 0 0 0 0 0 0 0 0 0 0 0 0 0 0 0 0 0 0 0 0 0 0 0 0 0 0 0 0 0 0 0 0 0 0 0 
0 0 0 0 0 0 0 0 0 0 0 0 0 0 0 0 0 0 0 0 0 0 0 0 0 0 0 0 0 0 0 0 0 0 0 0 0 0 0 0 0 0 0 0 0 0 0 0 0 0 0 0 0 0 0 0 0 0 0 0 0 0 0 0 0 0 0 0 0 0 0 0 0 0 0 0 0 0 0 0 0 0 0 0 0 0 0 0 0 0 0 0 0 0 0 0 0 0 0 0 
0 0 0 0 0 0 0 0 0 0 0 0 0 0 0 0 0 0 0 0 0 0 0 0 0 0 0 0 0 0 0 0 0 0 0 0 0 0 0 0 0 0 0 0 0 0 0 0 0 0 0 0 0 0 0 0 0 0 0 0 0 0 0 0 0 0 0 0 0 0 0 0 0 0 0 0 0 0 0 0 0 0 0 0 0 0 0 0 0 0 0 0 0 0 0 0 0 0 0 0 
0 0 0 0 0 0 0 0 0 0 0 0 0 0 0 0 0 0 0 0 0 0 0 0 0 0 0 0 0 0 0 0 0 0 0 0 0 0 0 0 0 0 0 0 0 0 0 0 0 0 0 0 0 0 0 0 0 0 0 0 0 0 0 0 0 0 0 0 0 0 0 0 0 0 0 0 0 0 0 0 0 0 0 0 0 0 0 0 0 0 0 0 0 0 0 0 0 0 0 0 
0 0 0 0 0 0 0 0 0 0 0 0 0 0 0 0 0 0 0 0 0 0 0 0 0 0 0 0 0 0 0 0 0 0 0 0 0 0 0 0 0 0 0 0 0 0 0 0 0 0 0 0 0 0 0 0 0 0 0 0 0 0 0 0 0 0 0 0 0 0 0 0 0 0 0 0 0 0 0 0 0 0 0 0 0 0 0 0 0 0 0 0 0 0 0 0 0 0 0 0 
0 0 0 0 0 0 0 0 0 0 0 0 0 0 0 0 0 0 0 0 0 0 0 0 0 0 0 0 0 0 0 0 0 0 0 0 0 0 0 0 0 0 0 0 0 0 0 0 0 0 0 0 0 0 0 0 0 0 0 0 0 0 0 0 0 0 0 0 0 0 0 0 0 0 0 0 0 0 0 0 0 0 0 0 0 0 0 0 0 0 0 0 0 0 0 0 0 0 0 0 
0 0 0 0 0 0 0 0 0 0 0 0 0 0 0 0 0 0 0 0 0 0 0 0 0 0 0 0 0 0 0 0 0 0 0 0 0 0 0 0 0 0 0 0 0 0 0 0 0 0 0 0 0 0 0 0 0 0 0 0 0 0 0 0 0 0 0 0 0 0 0 0 0 0 0 0 0 0 0 0 0 0 0 0 0 0 0 0 0 0 0 0 0 0 0 0 0 0 0 0 
0 0 0 0 0 0 0 0 0 0 0 0 0 0 0 0 0 0 0 0 0 0 0 0 0 0 0 0 0 0 0 0 0 0 0 0 0 0 0 0 0 0 0 0 0 0 0 0 0 0 0 0 0 0 0 0 0 0 0 0 0 0 0 0 0 0 0 0 0 0 0 0 0 0 0 0 0 0 0 0 0 0 0 0 0 0 0 0 0 0 0 0 0 0 0 0 0 0 0 0 

100 0 200
0 0 0 0 0 0 0 0 0 0 0 0 0 0 0 0 0 0 0 0 0 0 0 0 0 0 0 0 0 0 0 0 0 0 0 0 0 0 0 0 0 0 0 0 0 0 0 0 0 0 0 0 0 0 0 0 0 0 0 0 0 0 0 0 0 0 0 0 0 0 0 0 0 0 0 0 0 0 0 0 0 0 0 0 0 0 0 0 0 0 0 0 0 0 0 0 0 0 0 0 
0 0 0 0 0 0 0 0 0 0 0 0 0 0 0 0 0 0 0 0 0 0 0 0 0 0 0 0 0 0 0 0 0 0 0 0 0 0 0 0 0 0 0 0 0 0 0 0 0 0 0 0 0 0 0 0 0 0 0 0 0 0 0 0 0 0 0 0 0 0 0 0 0 0 0 0 0 0 0 0 0 0 0 0 0 0 0 0 0 0 0 0 0 0 0 0 0 0 0 0 
0 0 0 0 0 0 0 0 0 0 0 0 0 0 0 0 0 0 0 0 0 0 0 0 0 0 0 0 0 0 0 0 0 0 0 0 0 0 0 0 0 0 0 0 0 0 0 0 0 0 0 0 0 0 0 0 0 0 0 0 0 0 0 0 0 0 0 0 0 0 0 0 0 0 0 0 0 0 0 0 0 0 0 0 0 0 0 0 0 0 0 0 0 0 0 0 0 0 0 0 
0 0 0 0 0 0 0 0 0 0 0 0 0 0 0 0 0 0 0 0 0 0 0 0 0 0 0 0 0 0 0 0 0 0 0 0 0 0 0 0 0 0 0 0 0 0 0 0 0 0 0 0 0 0 0 0 0 0 0 0 0 0 0 0 0 0 0 0 0 0 0 0 0 0 0 0 0 0 0 0 0 0 0 0 0 0 0 0 0 0 0 0 0 0 0 0 0 0 0 0 
0 0 0 0 0 0 0 0 0 0 0 0 0 0 0 0 0 0 0 0 0 0 0 0 0 0 0 0 0 0 0 0 0 0 0 0 0 0 0 0 0 0 0 0 0 0 0 0 0 0 0 0 0 0 0 0 0 0 0 0 0 0 0 0 0 0 0 0 0 0 0 0 0 0 0 0 0 0 0 0 0 0 0 0 0 0 0 0 0 0 0 0 0 0 0 0 0 0 0 0 
0 0 0 0 0 0 0 0 0 0 0 0 0 0 0 0 0 0 0 0 0 0 0 0 0 0 0 0 0 0 0 0 0 0 0 0 0 0 0 0 0 0 0 0 0 0 0 0 0 0 0 0 0 0 0 0 0 0 0 0 0 0 0 0 0 0 0 0 0 0 0 0 0 0 0 0 0 0 0 0 0 0 0 0 0 0 0 0 0 0 0 0 0 0 0 0 0 0 0 0 
0 0 0 0 0 0 0 0 0 0 0 0 0 0 0 0 0 0 0 0 0 0 0 0 0 0 0 0 0 0 0 0 0 0 0 0 0 0 0 0 0 0 0 0 0 0 0 0 0 0 0 0 0 0 0 0 0 0 0 0 0 0 0 0 0 0 0 0 0 0 0 0 0 0 0 0 0 0 0 0 0 0 0 0 0 0 0 0 0 0 0 0 0 0 0 0 0 0 0 0 
0 0 0 0 0 0 0 0 0 0 0 0 0 0 0 0 0 0 0 0 0 0 0 0 0 0 0 0 0 0 0 0 0 0 0 0 0 0 0 0 0 0 0 0 0 0 0 0 0 0 0 0 0 0 0 0 0 0 0 0 0 0 0 0 0 0 0 0 0 0 0 0 0 0 0 0 0 0 0 0 0 0 0 0 0 0 0 0 0 0 0 0 0 0 0 0 0 0 0 0 
0 0 0 0 0 0 0 0 0 0 0 0 0 0 0 0 0 0 0 0 0 0 0 0 0 0 0 0 0 0 0 0 0 0 0 0 0 0 0 0 0 0 0 0 0 0 0 0 0 0 0 0 0 0 0 0 0 0 0 0 0 0 0 0 0 0 0 0 0 0 0 0 0 0 0 0 0 0 0 0 0 0 0 0 0 0 0 0 0 0 0 0 0 0 0 0 0 0 0 0 
0 0 0 0 0 0 0 0 0 0 0 0 0 0 0 0 0 0 0 0 0 0 0 0 0 0 0 0 0 0 0 0 0 0 0 0 0 0 0 0 0 0 0 0 0 0 0 0 0 0 0 0 0 0 0 0 0 0 0 0 0 0 0 0 0 0 0 0 0 0 0 0 0 0 0 0 0 0 0 0 0 0 0 0 0 0 0 0 0 0 0 0 0 0 0 0 0 0 0 0 
