1
Photon_
#phi
phi_dr_cut_mid_pT_order
11
0
0
10
QCD W + Jets WW WZ ZZ #bar{t}W tW t#bar{t} Drell Yan #rightarrow #tau#tau Drell Yan #rightarrow ee 

100 -4 4
0 0 0 0 0 0 0 0 0 0 0 0 0 0 0 0 0 0 0 0 0 0 0 0 0 0 0 0 0 0 0 0 0 0 0 0 0 0 0 0 0 0 0 0 0 0 0 0 0 0 0 0 0 0 0 0 0 0 0 0 0 0 0 0 0 0 0 0 0 0 0 0 0 0 0 0 0 0 0 0 0 0 0 0 0 0 0 0 0 0 0 0 0 0 0 0 0 0 0 0 
0 0 0 0 0 0 0 0 0 0 0 0 0 0 0 0 5.11332 10.2266 0 0 5.11332 0 0 5.11332 5.11332 0 0 0 0 0 0 0 5.11332 0 0 10.2266 0 0 0 0 5.11332 10.2266 0 0 -5.11332 0 5.11332 10.2266 5.11332 0 0 -5.11332 5.11332 5.11332 0 0 0 5.11332 0 0 10.2266 5.11332 0 5.11332 -5.11332 0 0 0 0 0 5.11332 0 -5.11332 0 0 0 5.11332 0 5.11332 0 0 0 0 0 0 0 -5.11332 10.2266 5.11332 -5.11332 0 0 0 0 0 0 0 0 0 0 
0 0 0 0 0 0 0 0 0 0 0 0 0.609323 0.609323 0 0.609323 0 0 0 0 0 1.21865 0 0 1.21865 0.609323 0 0 0.609323 0 0 0 0 0.609323 1.82797 1.21865 0 0 0 0 0 0 0.609323 0 0.609323 0 0 0 0 0.609323 0 0.609323 0 0 0 1.82797 0.609323 0 0 0 0.609323 0 0 0 0 0.609323 0 0 0 0 0 0 0 1.21865 0.609323 0 0.609323 0 1.21865 0 0 0.609323 0 0 0 0 0 0.609323 0.609323 0 0 0 0 0 0 0 0 0 0 0 
0 0 0 0 0 0 0 0 0 0 0 0 0 0 0 0 0.564255 0 0 0.564255 1.12851 0 0 0 0 0 0.564255 0 0 0.564255 0 0 0 0 0 0 0 0.564255 0 0.564255 0 0 1.69277 0 0 0 0 0 0 0 0 0 0.564255 0 0 0 0.564255 0 0 0 0.564255 0 0 0 0 0.564255 0 0.564255 1.12851 0 0 0 0 0 0 0 0.564255 0.564255 0.564255 0 0 0.564255 0 0 0 0 0.564255 1.12851 0 1.12851 0 0 0 0 0 0 0 0 0 0 
0 0 0 0 0 0 0 0 0 0 0 0 0 0 0 0 0.593798 0 0 0 0.593798 1.1876 0 0 0 0 0 0 0 0 0 0 0.593798 0 0 0 0.593798 0 0 0 0 0.593798 0 0 0 0 0 0 0 0.593798 0.593798 0 0 0.593798 0.593798 0 0 0 0 0 0 0 0 0 0 0 0 0 0 0 0 0 0 0 0 0 0 0 0.593798 0 0 0 0.593798 0 0 0 0 0 0 0 0 0 0 0 0 0 0 0 0 0 
0 0 0 0 0 0 0 0 0 0 0 0 0 0 0.370926 0 0 0 0 0 0.370926 0 0 0 0 0 0 0 0.185463 0 0 0 0.185463 0.185463 0 0 0 0 0 0 0 0.185463 0 0.185463 0 0 0.185463 0 0 0.185463 0 0 0.185463 0.185463 0.370926 0 0 0 0 0 0.185463 0 0 0 0.185463 0 0 0 0 0 0 0 0 0 0.185463 0 0.185463 0 0 0 0.185463 0 0.185463 0 0 0.185463 0.185463 0 0 0.185463 0 0 0 0 0 0 0 0 0 0 
0 0 0 0 0 0 0 0 0 0 0 0 0 0 0 0 0 0 0.184936 0 0 0 0 0 0.184936 0.184936 0.184936 0.184936 0 0 0 0 0.184936 0.184936 0 0 0 0 0 0 0 0.184936 0 0.184936 0 0 0.184936 0 0 0 0.184936 0 0 0 0.184936 0 0 0 0 0 0 0.184936 0 0.184936 0 0 0 0.184936 0 0 0 0 0.184936 0 0 0.184936 0 0 0 0.184936 0 0 0 0 0 0 0 0.184936 0 0 0 0 0 0 0 0 0 0 0 0 
0 0 0 0 0 0 0 0 0 0 0 0 1.04022 1.26407 1.26407 0.969 1.67153 0.80525 1.30524 1.18266 1.95786 1.5504 0.1938 0.80525 1.38665 0.846421 0.723842 1.5504 0.99905 1.42782 1.42782 1.07027 0.712721 1.04022 1.88664 1.42782 1.42782 0.917642 1.11144 1.3566 0.7752 1.8043 1.75294 1.2229 1.19285 1.42782 0.682671 1.33529 0.61145 1.52909 1.24276 0.99905 0.846421 1.5504 1.18266 1.14149 1.21271 0.652621 1.23402 1.26407 0.41765 0.61145 1.18266 1.26407 0.8353 0.61145 1.42782 0.652621 1.19285 0.652621 0.969 0.295071 1.1628 1.81542 1.04022 1.04022 1.65167 0.652621 1.07027 0.3876 0.947692 1.1628 1.6105 1.01891 1.26407 1.23402 1.23402 1.7442 0.3876 0.969 0 0 0 0 0 0 0 0 0 0 
0 0 0 0 0 0 0 0 0 0 0 0 0 5.13507 0 -2.56754 5.13507 0 0 -2.56754 2.56754 2.56754 2.56754 5.13507 5.13507 0 7.70261 2.56754 5.13507 2.56754 10.2701 2.56754 0 2.56754 0 2.56754 0 2.56754 0 2.56754 0 2.56754 0 0 0 5.13507 2.56754 2.56754 0 0 2.56754 2.56754 0 7.70261 0 2.56754 2.56754 0 2.56754 2.56754 5.13507 5.13507 5.13507 2.56754 5.13507 7.70261 2.56754 -5.13507 5.13507 0 0 0 0 2.56754 0 2.56754 5.13507 0 5.13507 2.56754 2.56754 0 2.56754 2.56754 2.56754 2.56754 0 0 7.70261 0 2.56754 0 0 0 0 0 0 0 0 0 
0 0 0 0 0 0 0 0 0 0 0 65.0627 353.031 356.455 396.603 350.378 358.298 467.947 394.683 342.84 391.173 418.656 316.922 351.444 364.962 401.846 391.842 350.194 341.294 378.301 417.73 420.499 372.994 420.266 354.622 396.555 385.722 423.271 413.187 360.775 361.935 347.124 371.392 318.96 352.18 358.552 365.714 403.114 357.126 319.241 368.142 474.136 468.333 368.373 351.273 348.786 321.132 302.65 349.907 350.165 382.003 374.298 305.159 376.798 375.701 374.996 336.81 477.535 444.528 462.125 341.642 367.458 386.418 341.619 375.355 437.378 519.668 471.784 484.543 406.047 395.703 393.631 396.251 389.828 348.801 333.606 321.765 339.832 383.79 332.548 73.627 0 0 0 0 0 0 0 0 0 

100 -4 4
0 0 0 0 0 0 0 0 0 0 0 0 0 0 0 0 0 0 0 0 0 0 0 0 0 0 0 0 0 0 58.4618 0 0 0 0 0 0 0 0 0 0 0 0 0 0 0 0 0 0 0 0 0 0 0 0 0 0 0 0 0 0 0 0 0 0 0 0 0 0 0 0 0 0 0 0 0 0 0 0 0 0 0 0 0 0 0 0 0 0 0 0 0 0 0 0 0 0 0 0 0 
0 0 0 0 0 0 0 0 0 0 0 5.11332 5.11332 5.11332 15.34 0 5.11332 0 5.11332 20.4533 5.11332 5.11332 -5.11332 5.11332 5.11332 10.2266 -5.11332 0 -5.11332 15.34 15.34 10.2266 5.11332 10.2266 0 0 5.11332 10.2266 10.2266 5.11332 5.11332 0 0 5.11332 5.11332 0 5.11332 10.2266 -5.11332 25.5666 5.11332 5.11332 10.2266 5.11332 10.2266 0 0 0 5.11332 5.11332 10.2266 -5.11332 0 10.2266 5.11332 0 0 5.11332 15.34 5.11332 0 -15.34 5.11332 0 5.11332 0 -5.11332 0 10.2266 -5.11332 5.11332 0 15.34 0 0 0 10.2266 10.2266 0 10.2266 0 0 0 0 0 0 0 0 0 0 
0 0 0 0 0 0 0 0 0 0 0 0 1.21865 0.609323 0 0.609323 1.21865 1.21865 0.609323 1.21865 1.21865 1.82797 0 0 0.609323 1.21865 2.43729 1.82797 0.609323 1.21865 2.43729 0 0.609323 0.609323 1.21865 0.609323 0.609323 0.609323 0 0.609323 1.21865 1.21865 1.21865 0 1.21865 0 0.609323 1.82797 0.609323 0.609323 0.609323 1.21865 1.82797 0.609323 0.609323 2.43729 1.21865 0.609323 0 0.609323 0 1.82797 1.21865 1.21865 0.609323 1.21865 0 0.609323 1.21865 1.82797 1.82797 0.609323 0.609323 1.21865 1.21865 1.21865 1.21865 3.04661 0 0 0 1.21865 1.21865 0.609323 0.609323 0.609323 1.21865 1.21865 0.609323 0.609323 0 0 0 0 0 0 0 0 0 0 
0 0 0 0 0 0 0 0 0 0 0 0.564255 0.564255 0 1.69277 0 0 0 1.12851 0.564255 0 0.564255 0 1.12851 0.564255 1.12851 1.12851 0.564255 0.564255 0.564255 0.564255 1.69277 1.69277 0 1.12851 0.564255 1.69277 0 0.564255 0 0 0 0 0.564255 0 0.564255 0.564255 0 0 0.564255 0.564255 1.12851 1.12851 1.12851 0 1.12851 1.12851 1.12851 1.69277 2.25702 0.564255 0.564255 0 1.69277 1.12851 1.12851 0.564255 1.12851 1.12851 1.12851 0.564255 0.564255 1.12851 1.69277 0.564255 0 1.69277 1.69277 0.564255 0.564255 1.12851 0.564255 0 0.564255 0.564255 0 0 0.564255 0.564255 0.564255 0 0 0 0 0 0 0 0 0 0 
0 0 0 0 0 0 0 0 0 0 0 0 0 1.1876 1.78139 1.78139 0.593798 0.593798 1.1876 0 1.1876 0.593798 0.593798 0 0 0 0.593798 0 0 0.593798 1.1876 0 0 0.593798 0 0 0 0 0.593798 0.593798 0 1.1876 1.1876 0 0.593798 0 0 0.593798 0 0.593798 0 0 0 0 0 0 0 0 0 0 0.593798 0 0.593798 0.593798 0 0 1.78139 0 0.593798 0 0 0 0 0 0.593798 1.78139 0 0.593798 0.593798 1.1876 0.593798 0 0 0 0 0 0.593798 0.593798 0.593798 0 0 0 0 0 0 0 0 0 0 0 
0 0 0 0 0 0 0 0 0 0 0 0 0.185463 0 0.185463 0.556389 0.556389 0 0.185463 0.370926 0.185463 0 0.741852 0.185463 0.741852 0 0.370926 0.556389 0 0.185463 0.185463 0.370926 0 0.370926 0.185463 0.185463 0.556389 0.556389 0 0.556389 0 0.185463 0.556389 0.185463 0 0.556389 0.556389 0.185463 0 0 0.185463 0.370926 0.185463 0.370926 0.556389 0.741852 0.556389 0 0.370926 0.185463 0.185463 0.370926 0.185463 0.370926 0 0.370926 0 0.370926 0.370926 0.185463 0.185463 0.556389 0.741852 0.741852 0 0 0.556389 0.185463 0.185463 0.185463 0.370926 0.556389 0.185463 0 0 0.370926 0.185463 0.185463 0 0.185463 0 0 0 0 0 0 0 0 0 0 
0 0 0 0 0 0 0 0 0 0 0 0 0.184936 0 0.184936 0 0.369873 0.184936 0.369873 0.554809 0.554809 0.554809 0 0 0.184936 0.369873 0.184936 0.184936 0.554809 0.184936 0.554809 0 0.184936 0.554809 0.369873 0.184936 0.369873 0.554809 0.184936 0 0.924682 0.554809 0.554809 0.554809 0.739746 0.554809 0.554809 0.369873 0.184936 0.369873 0 0 0.184936 0.554809 0.369873 0.184936 0.184936 0.554809 0.369873 0.184936 0.369873 0.554809 0.369873 0 0.184936 0.369873 0.184936 0.184936 0.554809 0.184936 0.184936 0.184936 0.184936 0.554809 0.369873 0.369873 0.369873 0.369873 0 0.369873 0.554809 0 0.184936 0.369873 0.369873 0.369873 0.184936 0 0.924682 0 0 0 0 0 0 0 0 0 0 0 
0 0 0 0 0 0 0 0 0 0 0 0.652621 5.03736 6.65898 5.70016 8.00446 6.38284 5.72003 4.95595 5.47631 5.85228 6.51654 6.07664 6.27138 5.41477 7.16916 5.56884 5.11732 5.10858 5.11876 6.4027 5.23116 5.41383 6.62893 3.58823 5.96519 6.34166 5.83148 5.56884 5.34355 3.45453 4.99619 8.84943 6.87409 4.53736 7.70939 6.4313 5.72003 5.84261 6.61781 4.16963 5.96425 5.34261 4.32319 5.41383 6.25151 5.40365 6.71034 5.83148 2.44673 4.78108 4.54849 5.83386 5.73989 5.98505 6.80142 6.22002 6.25151 4.77234 7.08681 5.03736 5.36248 5.57759 5.22003 5.7612 6.17791 2.91574 5.40365 5.90271 7.92211 6.68903 6.3426 4.48601 6.15899 4.45596 6.7302 6.55533 4.59984 4.34356 4.36343 0.5814 0 0 0 0 0 0 0 0 0 
0 0 0 0 0 0 0 0 0 0 0 0 2.56754 5.13507 10.2701 2.56754 5.13507 7.70261 12.8377 2.56754 10.2701 10.2701 10.2701 2.56754 10.2701 2.56754 12.8377 17.9728 -2.56754 -2.56754 -2.56754 7.70261 7.70261 7.70261 5.13507 5.13507 15.4052 -2.56754 5.13507 0 0 10.2701 5.13507 7.70261 5.13507 0 0 -3.94332 0 0 0 10.2701 2.56754 0 7.70261 7.70261 0 5.13507 5.13507 2.56754 7.70261 5.13507 0 7.70261 7.70261 7.70261 10.2701 5.13507 0 2.56754 10.2701 12.8377 10.2701 10.2701 7.70261 7.70261 7.70261 2.56754 7.70261 2.56754 5.13507 2.56754 10.2701 7.70261 0 2.56754 7.70261 12.8377 17.9728 10.2701 2.56754 0 0 0 0 0 0 0 0 0 
0 0 0 0 0 0 0 0 0 0 0 123.386 727.407 802.026 763.002 830.591 716.215 630.811 646.829 731.474 737.011 892.522 580.921 665.077 735.786 813.982 788.389 632.207 855.148 791.085 718.447 714.35 726.89 772.939 778.264 712.519 756.135 869.134 830.787 686.108 656.522 718.592 677.109 660.376 681.78 816.078 788.536 657.206 713.597 666.733 788.293 800.933 682.191 647.163 776.166 673.506 672.862 741.881 692.694 887.922 715.899 679.625 689.924 769.261 691.817 618.801 626.301 674.082 735.808 657.289 655.629 656.678 722.935 838.6 801.101 728.825 735.624 644.286 728.975 593.783 678.18 656.714 662.908 666.987 624.808 709.772 696.439 759.879 670.032 563.801 90.9149 0 0 0 0 0 0 0 0 0 

100 -4 4
0 0 0 0 0 0 0 0 0 0 0 0 0 0 0 0 0 0 0 0 0 0 0 0 0 0 0 0 0 0 0 0 0 0 0 0 0 0 0 0 0 0 0 0 0 0 0 0 0 0 0 0 0 0 0 0 0 0 0 0 0 0 0 0 0 0 0 58.4618 0 0 0 0 0 0 0 0 0 0 0 0 0 0 0 6.5667 0 0 0 0 0 0 0 0 0 0 0 0 0 0 0 0 
0 0 0 0 0 0 0 0 0 0 0 0 0 0 10.2266 0 0 5.11332 5.11332 0 0 5.11332 0 0 0 0 0 0 0 0 10.2266 0 0 0 0 0 0 0 0 0 5.11332 0 0 0 0 5.11332 0 -5.11332 0 0 5.11332 0 0 0 0 0 0 0 5.11332 0 0 5.11332 0 0 0 0 10.2266 0 0 0 0 0 0 0 5.11332 0 0 0 5.11332 5.11332 0 0 0 5.11332 0 0 5.11332 0 0 0 0 0 0 0 0 0 0 0 0 0 
0 0 0 0 0 0 0 0 0 0 0 0 0 0 0 0 0 0 0 0 0 0 0 0 0 0 0.609323 0 0 0 0 0 0.609323 0 0 0 0 0 0 0 0 0 0 0 0 0 0 0 0 0 0 0 0 0 0 0 0 0 0 0 0 0 0 0 0 0 0 0 0 0 0 0 0 0 0 0 0 0.609323 0 0 0 0 0 0.609323 0 0 0 0 0 0 0 0 0 0 0 0 0 0 0 0 
0 0 0 0 0 0 0 0 0 0 0 0 0.564255 0.564255 0 0 0 0 0 0 0.564255 0 0 0 0 0 0 1.12851 0.564255 0 0 0 0 0 0 0 0.564255 0 0 0.564255 0.564255 0 0 0.564255 1.12851 0.564255 0 0.564255 0 1.12851 0 0 0 0 0.564255 0 0.564255 0.564255 0 0.564255 1.12851 0.564255 0 0.564255 0 0 0.564255 0 0 0.564255 0 0.564255 0 0 0 0.564255 0 0 0.564255 0 0.564255 0 0 0 0 0 0 0 0.564255 0 0 0 0 0 0 0 0 0 0 0 
0 0 0 0 0 0 0 0 0 0 0 0 0.593798 0 0 0 1.1876 0 0 0 0 0.593798 0 0 0 0 0 0.593798 0 0.593798 0 0.593798 0.593798 0 0 0 1.1876 0.593798 0 0 0 0 0 0 0 0 0.593798 0 0 0.593798 0 0 0.593798 0.593798 0 0 1.1876 0 0.593798 0.593798 0.593798 0 0.593798 0 0.593798 0.593798 0 0 0 0 0.593798 0 0 0 0 0 0 0 0 0 0.593798 0 0 0 0 0 0 0 0 0 0 0 0 0 0 0 0 0 0 0 
0 0 0 0 0 0 0 0 0 0 0 0 0 0.185463 0 0 0 0 0 0 0.185463 0 0.185463 0 0.185463 0 0 0.185463 0 0 0 0.556389 0 0 0 0.370926 0 0.185463 0.370926 0 0 0.185463 0 0 0.185463 0.185463 0 0 0.185463 0.185463 0.185463 0.370926 0.556389 0.185463 0.370926 0 0.370926 0.185463 0.370926 0.185463 0.185463 0 0 0.185463 0 0 0 0 0 0 0.370926 0 0 0 0 0 0 0 0 0.185463 0 0 0 0 0 0 0.556389 0 0 0 0 0 0 0 0 0 0 0 0 0 
0 0 0 0 0 0 0 0 0 0 0 0 0.184936 0 0 0 0 0 0 0 0 0 0 0 0.184936 0 0.184936 0 0 0 0 0.184936 0 0 0.184936 0.369873 0 0 0 0 0.184936 0 0 0 0 0 0 0 0 0 0 0 0.184936 0 0 0.184936 0 0.184936 0 0 0.184936 0 0.184936 0.184936 0.184936 0 0 0 0 0.184936 0 0 0 0.184936 0 0.184936 0 0 0.184936 0 0 0 0 0 0 0 0.184936 0.184936 0.184936 0 0 0 0 0 0 0 0 0 0 0 
0 0 0 0 0 0 0 0 0 0 0 0.4477 1.33529 1.67153 3.20207 3.1008 1.74276 3.34451 3.40317 2.18171 2.35421 3.80334 2.03927 2.69189 3.20207 1.65167 2.70063 2.94579 1.88426 2.87551 2.01796 4.07616 2.21176 2.3256 3.42448 2.11049 2.28298 1.04022 2.83433 1.4167 2.21176 2.76311 2.23307 2.21176 3.23212 2.54945 3.16964 2.40556 2.08044 1.68172 2.4666 2.38426 2.08918 2.74087 2.41668 3.62846 2.65072 2.24181 2.57806 2.13036 3.38475 2.62067 2.20064 2.01796 1.18266 3.24086 3.37456 3.20207 1.52909 3.07949 3.1081 3.55962 2.73306 2.73162 2.51796 2.61049 1.69046 2.5795 2.32416 2.30429 3.76216 2.35565 1.79411 3.62846 2.41668 1.14149 2.80429 1.48792 2.66965 2.14054 0.0712211 0 0 0 0 0 0 0 0 0 
0 0 0 0 0 0 0 0 0 0 0 2.56754 2.56754 -2.56754 0 0 0 0 2.56754 0 -2.56754 2.56754 0 2.56754 0 2.56754 0 5.13507 0 2.56754 2.56754 0 0 0 2.56754 0 0 0 0 5.13507 0 -2.56754 -2.56754 0 0 2.56754 5.13507 0 0 0 0 0 0 0 0 0 0 0 0 0 -2.56754 5.13507 0 0 0 2.56754 -2.56754 0 0 0 0 0 2.56754 2.56754 2.56754 0 0 0 0 0 2.56754 0 0 2.56754 0 0 2.56754 0 0 0 2.56754 0 0 0 0 0 0 0 0 0 
0 0 0 0 0 0 0 0 0 0 0 6.01082 34.1415 58.0348 68.6497 77.2203 47.1614 76.8514 18.6337 46.3946 61.896 87.1455 43.1894 41.7688 68.4716 26.4535 51.7165 50.1445 34.027 39.7107 70.2739 52.137 48.504 49.4778 36.305 41.7673 36.2965 60.2477 38.613 36.612 100.077 31.5943 90.9271 35.3869 85.7721 49.3703 78.8479 58.5861 35.9037 66.4681 43.5065 44.9918 88.5538 63.2154 65.8887 25.7787 49.3578 65.986 55.9711 44.709 54.3005 85.8365 45.6566 55.0918 71.7848 65.0126 29.5734 86.7824 45.8884 49.2148 20.323 55.1434 98.9904 73.3147 55.5752 64.5692 64.3456 64.9706 89.3648 49.3354 87.1331 52.5894 53.5203 60.8322 44.2401 72.57 75.2291 47.8821 68.6782 34.5757 6.87366 0 0 0 0 0 0 0 0 0 

100 -4 4
0 0 0 0 0 0 0 0 0 0 0 0 0 0 0 0 0 0 0 0 0 0 0 0 0 0 0 0 0 0 0 0 0 0 0 0 0 0 0 0 0 0 0 0 0 0 0 0 0 0 0 0 0 0 0 0 0 0 0 0 0 0 0 0 0 0 0 0 0 0 0 0 0 0 0 0 0 0 0 0 0 0 0 0 0 0 0 0 0 0 0 0 0 0 0 0 0 0 0 0 
0 0 0 0 0 0 0 0 0 0 0 0 0 0 0 0 0 0 0 0 0 0 0 0 0 0 0 0 0 0 0 0 0 0 0 0 0 0 0 0 0 0 0 0 0 0 0 0 0 0 0 0 0 0 0 -5.11332 0 0 0 0 0 0 -5.11332 0 0 0 0 0 0 0 0 0 0 -5.11332 0 0 0 0 0 0 0 0 0 0 0 0 0 0 0 0 0 0 0 0 0 0 0 0 0 0 
0 0 0 0 0 0 0 0 0 0 0 0 0 0 0 0 0 0 0 0 0 0 0 0.609323 0 0 0 0 0 0 0 0 0 0 0 0 0 0 0 0 0 0 0 0 0 0 0 0 0 0 0 0 0.609323 0 0 0 0 0 0 0 0 0 0 0 0 0 0 0 0 0 0 0 0 0 0 0 0 0 0 0 0 0 0 0 0 0 0 0 0 0 0 0 0 0 0 0 0 0 0 0 
0 0 0 0 0 0 0 0 0 0 0 0 0 0 0 0 0 0 0 0 0 0 0 0 0 0 0 0 0.564255 0 0 0 0 0 0 0 0 0 0 0 0 0 0 0 0.564255 0 0 0 0 0 0 0 0 0 0 0 0 0 0 0 0 0 0 0 0 0 0 0 0 0 0 0 0 0.564255 0.564255 0 0.564255 0 0 0 0 0 0 0 0 0 0 0 0.564255 0 0 0 0 0 0 0 0 0 0 0 
0 0 0 0 0 0 0 0 0 0 0 0 0 0 0 0 0 0 0 0 0 0 0 0 0 0 0 0 0 0 0 0 0 0 0 0 0 0 0 0 0 0 0 0 0 0 0 0 0 0 0 0 0 0 0 0 0 0 0 0 0 0 0.593798 0.593798 0 0 0 0 0 0 0 0 0 0 0 0 0 0 0 0 0 0 0 0 0 0 0 0 0.593798 0 0 0 0 0 0 0 0 0 0 0 
0 0 0 0 0 0 0 0 0 0 0 0 0 0 0 0 0.185463 0.185463 0 0 0 0 0.185463 0 0.185463 0 0 0 0 0 0 0 0 0 0 0 0 0 0 0 0.185463 0 0 0 0 0 0 0 0 0 0 0 0 0 0 0 0 0 0 0 0 0 0 0 0 0 0 0 0 0 0 0 0 0 0 0 0 0 0 0.185463 0 0 0 0 0.185463 0 0 0 0.185463 0 0 0 0 0 0 0 0 0 0 0 
0 0 0 0 0 0 0 0 0 0 0 0 0 0 0 0 0 0 0 0 0 0 0 0 0 0 0 0 0 0.184936 0 0 0 0 0 0 0 0 0 0.184936 0 0 0.184936 0 0 0 0 0 0 0 0 0 0 0 0 0 0 0 0 0.184936 0 0 0 0 0 0 0.184936 0.369873 0 0.184936 0 0 0 0 0 0 0 0 0 0 0 0 0 0 0 0 0 0 0 0 0 0 0 0 0 0 0 0 0 0 
0 0 0 0 0 0 0 0 0 0 0 0.22385 0.652621 0.336242 0.22385 1.57026 0.652621 0.458821 0.682671 0.142442 1.42782 1.04022 0.969 0.488871 1.3566 0.969 1.33529 1.04022 0.8353 0.7752 1.04022 0.652621 0.969 0.652621 0.753892 0.7752 0.61145 0.488871 0.458821 0.488871 1.32511 0.530042 1.34403 0.407463 0.5814 0.1938 0.80525 1.11144 1.7442 0.295071 1.09013 1.42782 0.80525 0.712721 0.99905 0.601263 0.2539 0.101271 1.40651 1.1628 0.478685 0.80525 0.723842 0.61145 0.7752 0.3876 0.560092 0.5814 0.906521 0.458821 0.488871 0.458821 0.3876 0 0.652621 0.652621 0.530042 0.518921 0.753892 0.1938 0.336242 0.2539 1.11144 0.3876 0.336242 0.314934 1.1628 0.61145 0.22385 0.5814 0.458821 0 0 0 0 0 0 0 0 0 
0 0 0 0 0 0 0 0 0 0 0 0 0 0 0 2.56754 2.56754 0 0 0 0 0 0 0 0 0 0 0 0 0 0 0 0 0 0 0 0 0 0 0 0 0 0 0 0 0 0 0 0 0 0 0 0 0 0 0 0 0 0 0 0 0 0 0 0 0 0 0 0 0 0 0 0 0 0 0 0 0 0 0 0 0 0 0 0 2.56754 0 0 0 0 0 0 0 0 0 0 0 0 0 0 
0 0 0 0 0 0 0 0 0 0 0 0 10.3312 10.2621 12.8574 2.39615 5.30807 7.7249 8.55478 0.00113568 8.46995 2.57347 -0.775229 9.05795 2.57452 2.56829 0.193451 23.9734 5.14537 2.64166 -1.33441 2.66731 1.29917 7.87618 -4.96506 10.332 4.4619 1.69777 14.8705 5.99696 -1.53091 6.93615 -0.688808 2.79973 1.35843 6.34699 11.4797 7.8738 -0.00773145 14.6381 5.31499 2.479 0.878066 3.42247 8.57893 13.4712 4.00462 -3.25576 3.52773 7.71551 7.53686 5.14158 1.60867 -2.39553 0.855498 5.14139 2.59704 3.89508 0.00161512 14.7352 5.08291 5.29854 13.1333 -1.80675 0.188037 3.4696 4.31965 -4.96007 7.86127 3.41376 8.63197 2.65348 5.12277 11.1387 1.76662 11.1822 1.72027 10.2846 3.57364 0.189361 0.00499251 0 0 0 0 0 0 0 0 0 

100 -4 4
0 0 0 0 0 0 0 0 0 0 0 0 0 0 0 0 0 0 0 0 0 0 0 0 0 0 0 0 0 0 0 0 0 0 0 0 0 0 0 0 0 0 0 0 0 0 0 0 0 0 0 0 0 0 0 0 0 0 0 0 0 0 0 0 0 0 0 0 0 0 0 0 0 0 0 0 0 0 0 0 0 0 0 0 0 0 0 0 0 0 0 0 0 0 0 0 0 0 0 0 
0 0 0 0 0 0 0 0 0 0 0 0 0 0 0 0 0 0 0 0 0 0 0 0 0 0 0 0 0 0 0 0 0 0 0 0 0 0 0 0 0 0 0 0 0 0 0 0 0 0 0 0 0 0 0 0 0 0 0 0 0 0 0 0 0 0 0 0 0 0 0 0 0 0 0 0 0 0 0 0 0 0 0 0 0 0 0 0 0 0 0 0 0 0 0 0 0 0 0 0 
0 0 0 0 0 0 0 0 0 0 0 0 0 0 0 0 0 0 0 0 0 0 0 0 0 0 0 0 0 0 0 0 0 0 0 0 0 0 0 0 0 0 0 0 0 0 0 0 0 0 0 0 0 0 0 0 0 0 0 0 0 0 0 0 0 0 0 0 0 0 0 0 0 0 0 0 0 0 0 0 0 0 0 0 0 0 0 0 0 0 0 0 0 0 0 0 0 0 0 0 
0 0 0 0 0 0 0 0 0 0 0 0 0 0 0 0 0 0 0 0 0 0 0 0 0 0 0 0 0 0 0.564255 0 0 0 0 0 0 0 0 0 0 0 0 0 0 0 0 0 0 0 0 0 0 0 0 0 0 0 0 0 0 0 0 0 0 0 0 0 0 0 0 0 0 0 0 0 0 0 0 0 0 0 0 0 0 0 0 0 0 0 0 0 0 0 0 0 0 0 0 0 
0 0 0 0 0 0 0 0 0 0 0 0 0 0 0 0 0 0 0 0 0 0 0 0 0 0 0 0 0 0 0 0 0 0 0 0 0 0 0 0 0 0 0 0 0 0 0 0 0 0 0 0 0 0 0 0 0 0 0 0 0 0 0 0 0 0 0 0 0 0 0 0 0 0 0 0 0 0 0 0 0 0 0 0 0 0 0 0 0 0 0 0 0 0 0 0 0 0 0 0 
0 0 0 0 0 0 0 0 0 0 0 0 0 0 0 0 0 0 0 0 0 0 0 0 0 0 0 0 0 0 0 0 0 0 0 0 0 0 0 0 0 0 0.185463 0 0 0 0.185463 0 0 0 0 0 0 0 0 0 0 0 0 0 0 0 0 0 0 0 0 0 0 0 0 0 0 0 0 0 0 0 0 0 0 0 0 0 0 0 0 0 0 0 0 0 0 0 0 0 0 0 0 0 
0 0 0 0 0 0 0 0 0 0 0 0 0 0 0 0 0 0 0 0 0 0 0 0 0 0 0 0 0 0 0 0 0 0 0 0 0 0 0 0 0 0 0 0 0 0 0 0 0 0 0 0 0 0 0 0 0 0 0 0 0 0 0 0 0 0 0 0 0 0 0 0 0 0 0 0 0 0 0 0 0 0 0 0 0 0 0 0 0 0 0 0 0 0 0 0 0 0 0 0 
0 0 0 0 0 0 0 0 0 0 0 0 0.1938 0.0712211 0.295071 0 0.295071 0 0.0712211 0.1938 0.22385 0 0 0.1938 0.1938 0.1938 0.1938 0 0.1938 0.0712211 0.1938 0.0712211 0.5814 0 0.0300498 0 0.1938 0.560092 0.0300498 0.213663 0 0.1938 0.22385 0 0.0712211 0.0712211 0.1938 0 0 0.0712211 0.1938 0.1938 0.22385 0 0 0.1938 0.3876 0 0.295071 0.265021 0 0.3876 0 0.0712211 0.1938 0.3876 0.3876 0 0 0.265021 0 0.22385 0.3876 0.1938 0.1938 0 0.1938 0 0 0 0.2539 0.5814 0.1938 0.265021 0.295071 0.1938 0 0.1938 0 0.22385 0 0 0 0 0 0 0 0 0 0 
0 0 0 0 0 0 0 0 0 0 0 0 0 0 0 0 0 0 0 0 0 0 0 0 0 0 0 0 0 0 0 0 0 0 0 0 0 0 0 0 0 0 0 0 0 0 0 0 0 0 0 0 0 0 0 0 0 0 0 0 0 0 0 0 0 0 0 0 0 0 0 0 0 0 0 0 0 0 0 0 0 0 0 0 0 0 0 0 0 0 0 0 0 0 0 0 0 0 0 0 
0 0 0 0 0 0 0 0 0 0 0 0 2.56811 2.56811 2.56811 0 -2.56811 0 0 2.56811 0 0.171147 2.56811 1.03119 0.00018838 0 -2.6675 0.86004 0.0584562 2.56811 0 -0.049589 6.46432 0 0.00018838 0.00499251 0.868485 -2.56811 0 0 0 0 0 0.0598829 2.56829 0 -0.00018838 -2.56311 0.00018838 0.0593579 -0.00825644 -0.170433 0.00518089 2.56811 0 0 0.00071337 -2.56811 -2.56739 0 3.4316 -2.56811 -2.62727 -0.00499251 3.42815 0 5.19538 0 -2.56811 2.56811 -5.13621 0.00071337 -0.107842 2.56811 0 -0.00018838 0.0086332 0 0 0.00071337 0 0.00018838 2.56811 0.171147 0.860754 4.96506 0.171147 2.56811 2.56792 -2.56811 -0.00071337 0 0 0 0 0 0 0 0 0 

100 -4 4
0 0 0 0 0 0 0 0 0 0 0 0 0 0 0 0 0 0 0 0 0 0 0 0 0 0 0 0 0 0 0 0 0 0 0 0 0 0 0 0 0 0 0 0 0 0 0 0 0 0 0 0 0 0 0 0 0 0 0 0 0 0 0 0 0 0 0 0 0 0 0 0 0 0 0 0 0 0 0 0 0 0 0 0 0 0 0 0 0 0 0 0 0 0 0 0 0 0 0 0 
0 0 0 0 0 0 0 0 0 0 0 0 0 0 0 0 0 0 0 0 0 0 0 0 0 0 0 0 0 0 0 0 0 0 0 0 0 0 0 0 0 0 0 0 0 0 0 0 0 0 0 0 0 0 0 0 0 0 0 0 0 0 0 0 0 0 0 0 0 0 0 0 0 0 0 0 0 0 0 0 0 0 0 0 0 0 0 0 0 0 0 0 0 0 0 0 0 0 0 0 
0 0 0 0 0 0 0 0 0 0 0 0 0 0 0 0 0 0 0 0 0 0 0 0 0 0 0 0 0 0 0 0 0 0 0 0 0 0 0 0 0 0 0 0 0 0 0 0 0 0 0 0 0 0 0 0 0 0 0 0 0 0 0 0 0 0 0 0 0 0 0 0 0 0 0 0 0 0 0 0 0 0 0 0 0 0 0 0 0 0 0 0 0 0 0 0 0 0 0 0 
0 0 0 0 0 0 0 0 0 0 0 0 0 0 0 0 0 0 0 0 0 0 0 0 0 0 0 0 0 0 0 0 0 0 0 0 0 0 0 0 0 0 0 0 0 0 0 0 0 0 0 0 0 0 0 0 0 0 0 0 0 0 0 0 0 0 0 0 0 0 0 0 0 0 0 0 0 0 0 0 0 0 0 0 0 0 0 0 0 0 0 0 0 0 0 0 0 0 0 0 
0 0 0 0 0 0 0 0 0 0 0 0 0 0 0 0 0 0 0 0 0 0 0 0 0 0 0 0 0 0 0 0 0 0 0 0 0 0 0 0 0 0 0 0 0 0 0 0 0 0 0 0 0 0 0 0 0 0 0 0 0 0 0 0 0 0 0 0 0 0 0 0 0 0 0 0 0 0 0 0 0 0 0 0 0 0 0 0 0 0 0 0 0 0 0 0 0 0 0 0 
0 0 0 0 0 0 0 0 0 0 0 0 0 0 0 0 0 0 0 0 0 0 0 0 0 0 0 0 0 0 0 0 0 0 0 0 0 0 0 0 0 0 0 0 0 0 0 0 0 0 0 0 0 0 0 0 0 0 0 0 0 0 0 0 0 0 0 0 0 0 0 0 0 0 0 0 0 0 0 0 0 0 0 0 0 0 0 0 0 0 0 0 0 0 0 0 0 0 0 0 
0 0 0 0 0 0 0 0 0 0 0 0 0 0 0 0 0 0 0 0 0 0 0 0 0 0 0 0 0 0 0 0 0 0 0 0 0 0 0 0 0 0 0 0 0 0 0 0 0 0 0 0 0 0 0 0 0 0 0 0 0 0 0 0 0 0 0 0 0.184936 0 0 0 0 0 0 0 0 0 0 0 0 0 0 0 0 0 0 0 0 0 0 0 0 0 0 0 0 0 0 0 
0 0 0 0 0 0 0 0 0 0 0 0 0.1938 0 0 0 0 0 0.0300498 0 0.1938 0.265021 0 0 0 0 0.1938 0.1938 0 0 0 0 0 0 0 0 0 0 0 0 0 0 0 0 0.1938 0 0 0 0 0 0 0.0300498 0 0 0 0 0 0 0 0 0 0 0.0712211 0.1938 0 0.3876 0 0.1938 0.0712211 0 0 0 0 0 0.1938 0 0.265021 0.265021 0.1938 0 0.3876 0 0 0 0 0 0 0.0300498 0 0 0 0 0 0 0 0 0 0 0 0 
0 0 0 0 0 0 0 0 0 0 0 0 0 0 0 0 0 0 0 0 0 0 0 0 0 0 0 0 0 0 0 0 0 0 0 0 0 0 0 0 0 0 0 0 0 0 0 0 0 0 0 0 0 0 0 0 0 0 0 0 0 0 0 0 0 0 0 0 0 0 0 0 0 0 0 0 0 0 0 0 0 0 0 0 0 0 0 0 0 0 0 0 0 0 0 0 0 0 0 0 
0 0 0 0 0 0 0 0 0 0 0 0 0 0 0 0 0 -0.00018838 0 0 0 0 0 0 0 0 0.00844482 0 0 2.56311 0 0.171147 0.00018838 2.56811 0 0 0 0 -0.00018838 0 0 0 -0.86004 0 0 0 0 0 0 0 0 0 -2.56811 0.00018838 0 0 -0.0591695 0.00844482 0.00071337 0 0 0 0 0 0 0 0 0 0 0 0 0 0 0 0 0 0 0 0 0 0 0.00844482 0 0 0 0 0 0 0 2.56811 0 0 0 0 0 0 0 0 0 0 

100 -4 4
0 0 0 0 0 0 0 0 0 0 0 0 0 0 0 0 0 0 0 0 0 0 0 0 0 0 0 0 0 0 0 0 0 0 0 0 0 0 0 0 0 0 0 0 0 0 0 0 0 0 0 0 0 0 0 0 0 0 0 0 0 0 0 0 0 0 0 0 0 0 0 0 0 0 0 0 0 0 0 0 0 0 0 0 0 0 0 0 0 0 0 0 0 0 0 0 0 0 0 0 
0 0 0 0 0 0 0 0 0 0 0 0 0 0 0 0 0 0 0 0 0 0 0 0 0 0 0 0 0 0 0 0 0 0 0 0 0 0 0 0 0 0 0 0 0 0 0 0 0 0 0 0 0 0 0 0 0 0 0 0 0 0 0 0 0 0 0 0 0 0 0 0 0 0 0 0 0 0 0 0 0 0 0 0 0 0 0 0 0 0 0 0 0 0 0 0 0 0 0 0 
0 0 0 0 0 0 0 0 0 0 0 0 0 0 0 0 0 0 0 0 0 0 0 0 0 0 0 0 0 0 0 0 0 0 0 0 0 0 0 0 0 0 0 0 0 0 0 0 0 0 0 0 0 0 0 0 0 0 0 0 0 0 0 0 0 0 0 0 0 0 0 0 0 0 0 0 0 0 0 0 0 0 0 0 0 0 0 0 0 0 0 0 0 0 0 0 0 0 0 0 
0 0 0 0 0 0 0 0 0 0 0 0 0 0 0 0 0 0 0 0 0 0 0 0 0 0 0 0 0 0 0 0 0 0 0 0 0 0 0 0 0 0 0 0 0 0 0 0 0 0 0 0 0 0 0 0 0 0 0 0 0 0 0 0 0 0 0 0 0 0 0 0 0 0 0 0 0 0 0 0 0 0 0 0 0 0 0 0 0 0 0 0 0 0 0 0 0 0 0 0 
0 0 0 0 0 0 0 0 0 0 0 0 0 0 0 0 0 0 0 0 0 0 0 0 0 0 0 0 0 0 0 0 0 0 0 0 0 0 0 0 0 0 0 0 0 0 0 0 0 0 0 0 0 0 0 0 0 0 0 0 0 0 0 0 0 0 0 0 0 0 0 0 0 0 0 0 0 0 0 0 0 0 0 0 0 0 0 0 0 0 0 0 0 0 0 0 0 0 0 0 
0 0 0 0 0 0 0 0 0 0 0 0 0 0 0 0 0 0 0 0 0 0 0 0 0 0 0 0 0 0 0 0 0 0 0 0 0 0 0 0 0 0 0 0 0 0 0 0 0 0 0 0 0 0 0 0 0 0 0 0 0 0 0 0 0 0 0 0 0 0 0 0 0 0 0 0 0 0 0 0 0 0 0 0 0 0 0 0 0 0 0 0 0 0 0 0 0 0 0 0 
0 0 0 0 0 0 0 0 0 0 0 0 0 0 0 0 0 0 0 0 0 0 0 0 0 0 0 0 0 0 0 0 0 0 0 0 0 0 0 0 0 0 0 0 0 0 0 0 0 0 0 0 0 0 0 0 0 0 0 0 0 0 0 0 0 0 0 0 0 0 0 0 0 0 0 0 0 0 0 0 0 0 0 0 0 0 0 0 0 0 0 0 0 0 0 0 0 0 0 0 
0 0 0 0 0 0 0 0 0 0 0 0 0 0 0 0 0 0 0 0 0 0 0 0 0 0 0 0 0 0 0 0 0 0 0 0 0 0 0 0 0 0 0 0 0 0 0 0 0 0 0 0 0 0 0 0 0 0 0 0 0 0 0 0 0 0 0 0 0 0 0 0 0 0 0 0 0 0 0 0 0 0 0 0 0 0 0 0 0 0 0 0 0 0 0 0 0 0 0 0 
0 0 0 0 0 0 0 0 0 0 0 0 0 0 0 0 0 0 0 0 0 0 0 0 0 0 0 0 0 0 0 0 0 0 0 0 0 0 0 0 0 0 0 0 0 0 0 0 0 0 0 0 0 0 0 0 0 0 0 0 0 0 0 0 0 0 0 0 0 0 0 0 0 0 0 0 0 0 0 0 0 0 0 0 0 0 0 0 0 0 0 0 0 0 0 0 0 0 0 0 
0 0 0 0 0 0 0 0 0 0 0 0 0 0 0 0 0 0 0 0 0 -0.0591695 0 0 0 0 0 0 0 0 0 0 0 0 0 0 0 0 0 0 0 0 0 0 0 -0.0095805 0 0 0 0 0 0 0 0 0 0 0 0 0 0 0 0 0 0 0 0 0 0 0 0 0 0 0 0 0 0 0 0 0 0 0 0 0 0 0 0 0 0 0 0 0 0 0 0 0 0 0 0 0 0 

100 -4 4
0 0 0 0 0 0 0 0 0 0 0 0 0 0 0 0 0 0 0 0 0 0 0 0 0 0 0 0 0 0 0 0 0 0 0 0 0 0 0 0 0 0 0 0 0 0 0 0 0 0 0 0 0 0 0 0 0 0 0 0 0 0 0 0 0 0 0 0 0 0 0 0 0 0 0 0 0 0 0 0 0 0 0 0 0 0 0 0 0 0 0 0 0 0 0 0 0 0 0 0 
0 0 0 0 0 0 0 0 0 0 0 0 0 0 0 0 0 0 0 0 0 0 0 0 0 0 0 0 0 0 0 0 0 0 0 0 0 0 0 0 0 0 0 0 0 0 0 0 0 0 0 0 0 0 0 0 0 0 0 0 0 0 0 0 0 0 0 0 0 0 0 0 0 0 0 0 0 0 0 0 0 0 0 0 0 0 0 0 0 0 0 0 0 0 0 0 0 0 0 0 
0 0 0 0 0 0 0 0 0 0 0 0 0 0 0 0 0 0 0 0 0 0 0 0 0 0 0 0 0 0 0 0 0 0 0 0 0 0 0 0 0 0 0 0 0 0 0 0 0 0 0 0 0 0 0 0 0 0 0 0 0 0 0 0 0 0 0 0 0 0 0 0 0 0 0 0 0 0 0 0 0 0 0 0 0 0 0 0 0 0 0 0 0 0 0 0 0 0 0 0 
0 0 0 0 0 0 0 0 0 0 0 0 0 0 0 0 0 0 0 0 0 0 0 0 0 0 0 0 0 0 0 0 0 0 0 0 0 0 0 0 0 0 0 0 0 0 0 0 0 0 0 0 0 0 0 0 0 0 0 0 0 0 0 0 0 0 0 0 0 0 0 0 0 0 0 0 0 0 0 0 0 0 0 0 0 0 0 0 0 0 0 0 0 0 0 0 0 0 0 0 
0 0 0 0 0 0 0 0 0 0 0 0 0 0 0 0 0 0 0 0 0 0 0 0 0 0 0 0 0 0 0 0 0 0 0 0 0 0 0 0 0 0 0 0 0 0 0 0 0 0 0 0 0 0 0 0 0 0 0 0 0 0 0 0 0 0 0 0 0 0 0 0 0 0 0 0 0 0 0 0 0 0 0 0 0 0 0 0 0 0 0 0 0 0 0 0 0 0 0 0 
0 0 0 0 0 0 0 0 0 0 0 0 0 0 0 0 0 0 0 0 0 0 0 0 0 0 0 0 0 0 0 0 0 0 0 0 0 0 0 0 0 0 0 0 0 0 0 0 0 0 0 0 0 0 0 0 0 0 0 0 0 0 0 0 0 0 0 0 0 0 0 0 0 0 0 0 0 0 0 0 0 0 0 0 0 0 0 0 0 0 0 0 0 0 0 0 0 0 0 0 
0 0 0 0 0 0 0 0 0 0 0 0 0 0 0 0 0 0 0 0 0 0 0 0 0 0 0 0 0 0 0 0 0 0 0 0 0 0 0 0 0 0 0 0 0 0 0 0 0 0 0 0 0 0 0 0 0 0 0 0 0 0 0 0 0 0 0 0 0 0 0 0 0 0 0 0 0 0 0 0 0 0 0 0 0 0 0 0 0 0 0 0 0 0 0 0 0 0 0 0 
0 0 0 0 0 0 0 0 0 0 0 0 0 0 0 0 0 0 0 0 0 0 0 0 0 0 0 0 0 0 0 0 0 0 0 0 0 0 0 0 0 0 0 0 0 0 0 0 0 0 0 0 0 0 0 0 0 0 0 0 0 0 0 0 0 0 0 0 0 0 0 0 0 0 0 0 0 0 0 0 0 0 0 0 0 0 0 0 0 0 0 0 0 0 0 0 0 0 0 0 
0 0 0 0 0 0 0 0 0 0 0 0 0 0 0 0 0 0 0 0 0 0 0 0 0 0 0 0 0 0 0 0 0 0 0 0 0 0 0 0 0 0 0 0 0 0 0 0 0 0 0 0 0 0 0 0 0 0 0 0 0 0 0 0 0 0 0 0 0 0 0 0 0 0 0 0 0 0 0 0 0 0 0 0 0 0 0 0 0 0 0 0 0 0 0 0 0 0 0 0 
0 0 0 0 0 0 0 0 0 0 0 0 0 0 0 0 0 0 0 0 0 0 0 0 0 0 0 0 0 0 0 0 0 0 0 0 0 0 0 0 0 0 0 0 0 0 0 0 0 0 0 0 0 0 0 0 0 0 0 0 0 0 0 0 0 0 0 0 0 0 0 0 0 0 0 0 0 0 0 0 0 0 0 0 0 0 0 0 0 0 0 0 0 0 0 0 0 0 0 0 

100 -4 4
0 0 0 0 0 0 0 0 0 0 0 0 0 0 0 0 0 0 0 0 0 0 0 0 0 0 0 0 0 0 0 0 0 0 0 0 0 0 0 0 0 0 0 0 0 0 0 0 0 0 0 0 0 0 0 0 0 0 0 0 0 0 0 0 0 0 0 0 0 0 0 0 0 0 0 0 0 0 0 0 0 0 0 0 0 0 0 0 0 0 0 0 0 0 0 0 0 0 0 0 
0 0 0 0 0 0 0 0 0 0 0 0 0 0 0 0 0 0 0 0 0 0 0 0 0 0 0 0 0 0 0 0 0 0 0 0 0 0 0 0 0 0 0 0 0 0 0 0 0 0 0 0 0 0 0 0 0 0 0 0 0 0 0 0 0 0 0 0 0 0 0 0 0 0 0 0 0 0 0 0 0 0 0 0 0 0 0 0 0 0 0 0 0 0 0 0 0 0 0 0 
0 0 0 0 0 0 0 0 0 0 0 0 0 0 0 0 0 0 0 0 0 0 0 0 0 0 0 0 0 0 0 0 0 0 0 0 0 0 0 0 0 0 0 0 0 0 0 0 0 0 0 0 0 0 0 0 0 0 0 0 0 0 0 0 0 0 0 0 0 0 0 0 0 0 0 0 0 0 0 0 0 0 0 0 0 0 0 0 0 0 0 0 0 0 0 0 0 0 0 0 
0 0 0 0 0 0 0 0 0 0 0 0 0 0 0 0 0 0 0 0 0 0 0 0 0 0 0 0 0 0 0 0 0 0 0 0 0 0 0 0 0 0 0 0 0 0 0 0 0 0 0 0 0 0 0 0 0 0 0 0 0 0 0 0 0 0 0 0 0 0 0 0 0 0 0 0 0 0 0 0 0 0 0 0 0 0 0 0 0 0 0 0 0 0 0 0 0 0 0 0 
0 0 0 0 0 0 0 0 0 0 0 0 0 0 0 0 0 0 0 0 0 0 0 0 0 0 0 0 0 0 0 0 0 0 0 0 0 0 0 0 0 0 0 0 0 0 0 0 0 0 0 0 0 0 0 0 0 0 0 0 0 0 0 0 0 0 0 0 0 0 0 0 0 0 0 0 0 0 0 0 0 0 0 0 0 0 0 0 0 0 0 0 0 0 0 0 0 0 0 0 
0 0 0 0 0 0 0 0 0 0 0 0 0 0 0 0 0 0 0 0 0 0 0 0 0 0 0 0 0 0 0 0 0 0 0 0 0 0 0 0 0 0 0 0 0 0 0 0 0 0 0 0 0 0 0 0 0 0 0 0 0 0 0 0 0 0 0 0 0 0 0 0 0 0 0 0 0 0 0 0 0 0 0 0 0 0 0 0 0 0 0 0 0 0 0 0 0 0 0 0 
0 0 0 0 0 0 0 0 0 0 0 0 0 0 0 0 0 0 0 0 0 0 0 0 0 0 0 0 0 0 0 0 0 0 0 0 0 0 0 0 0 0 0 0 0 0 0 0 0 0 0 0 0 0 0 0 0 0 0 0 0 0 0 0 0 0 0 0 0 0 0 0 0 0 0 0 0 0 0 0 0 0 0 0 0 0 0 0 0 0 0 0 0 0 0 0 0 0 0 0 
0 0 0 0 0 0 0 0 0 0 0 0 0 0 0 0 0 0 0 0 0 0 0 0 0 0 0 0 0 0 0 0 0 0 0 0 0 0 0 0 0 0 0 0 0 0 0 0 0 0 0 0 0 0 0 0 0 0 0 0 0 0 0 0 0 0 0 0 0 0 0 0 0 0 0 0 0 0 0 0 0 0 0 0 0 0 0 0 0 0 0 0 0 0 0 0 0 0 0 0 
0 0 0 0 0 0 0 0 0 0 0 0 0 0 0 0 0 0 0 0 0 0 0 0 0 0 0 0 0 0 0 0 0 0 0 0 0 0 0 0 0 0 0 0 0 0 0 0 0 0 0 0 0 0 0 0 0 0 0 0 0 0 0 0 0 0 0 0 0 0 0 0 0 0 0 0 0 0 0 0 0 0 0 0 0 0 0 0 0 0 0 0 0 0 0 0 0 0 0 0 
0 0 0 0 0 0 0 0 0 0 0 0 0 0 0 0 0 0 0 0 0 0 0 0 0 0 0 0 0 0 0 0 0 0 0 0 0 0 0 0 0 0 0 0 0 0 0 0 0 0 0 0 0 0 0 0 0 0 0 0 0 0 0 0 0 0 0 0 0 0 0 0 0 0 0 0 0 0 0 0 0 -2.56811 0 0 0 0 0 0 0 0 0 0 0 0 0 0 0 0 0 0 

100 -4 4
0 0 0 0 0 0 0 0 0 0 0 0 0 0 0 0 0 0 0 0 0 0 0 0 0 0 0 0 0 0 0 0 0 0 0 0 0 0 0 0 0 0 0 0 0 0 0 0 0 0 0 0 0 0 0 0 0 0 0 0 0 0 0 0 0 0 0 0 0 0 0 0 0 0 0 0 0 0 0 0 0 0 0 0 0 0 0 0 0 0 0 0 0 0 0 0 0 0 0 0 
0 0 0 0 0 0 0 0 0 0 0 0 0 0 0 0 0 0 0 0 0 0 0 0 0 0 0 0 0 0 0 0 0 0 0 0 0 0 0 0 0 0 0 0 0 0 0 0 0 0 0 0 0 0 0 0 0 0 0 0 0 0 0 0 0 0 0 0 0 0 0 0 0 0 0 0 0 0 0 0 0 0 0 0 0 0 0 0 0 0 0 0 0 0 0 0 0 0 0 0 
0 0 0 0 0 0 0 0 0 0 0 0 0 0 0 0 0 0 0 0 0 0 0 0 0 0 0 0 0 0 0 0 0 0 0 0 0 0 0 0 0 0 0 0 0 0 0 0 0 0 0 0 0 0 0 0 0 0 0 0 0 0 0 0 0 0 0 0 0 0 0 0 0 0 0 0 0 0 0 0 0 0 0 0 0 0 0 0 0 0 0 0 0 0 0 0 0 0 0 0 
0 0 0 0 0 0 0 0 0 0 0 0 0 0 0 0 0 0 0 0 0 0 0 0 0 0 0 0 0 0 0 0 0 0 0 0 0 0 0 0 0 0 0 0 0 0 0 0 0 0 0 0 0 0 0 0 0 0 0 0 0 0 0 0 0 0 0 0 0 0 0 0 0 0 0 0 0 0 0 0 0 0 0 0 0 0 0 0 0 0 0 0 0 0 0 0 0 0 0 0 
0 0 0 0 0 0 0 0 0 0 0 0 0 0 0 0 0 0 0 0 0 0 0 0 0 0 0 0 0 0 0 0 0 0 0 0 0 0 0 0 0 0 0 0 0 0 0 0 0 0 0 0 0 0 0 0 0 0 0 0 0 0 0 0 0 0 0 0 0 0 0 0 0 0 0 0 0 0 0 0 0 0 0 0 0 0 0 0 0 0 0 0 0 0 0 0 0 0 0 0 
0 0 0 0 0 0 0 0 0 0 0 0 0 0 0 0 0 0 0 0 0 0 0 0 0 0 0 0 0 0 0 0 0 0 0 0 0 0 0 0 0 0 0 0 0 0 0 0 0 0 0 0 0 0 0 0 0 0 0 0 0 0 0 0 0 0 0 0 0 0 0 0 0 0 0 0 0 0 0 0 0 0 0 0 0 0 0 0 0 0 0 0 0 0 0 0 0 0 0 0 
0 0 0 0 0 0 0 0 0 0 0 0 0 0 0 0 0 0 0 0 0 0 0 0 0 0 0 0 0 0 0 0 0 0 0 0 0 0 0 0 0 0 0 0 0 0 0 0 0 0 0 0 0 0 0 0 0 0 0 0 0 0 0 0 0 0 0 0 0 0 0 0 0 0 0 0 0 0 0 0 0 0 0 0 0 0 0 0 0 0 0 0 0 0 0 0 0 0 0 0 
0 0 0 0 0 0 0 0 0 0 0 0 0 0 0 0 0 0 0 0 0 0 0 0 0 0 0 0 0 0 0 0 0 0 0 0 0 0 0 0 0 0 0 0 0 0 0 0 0 0 0 0 0 0 0 0 0 0 0 0 0 0 0 0 0 0 0 0 0 0 0 0 0 0 0 0 0 0 0 0 0 0 0 0 0 0 0 0 0 0 0 0 0 0 0 0 0 0 0 0 
0 0 0 0 0 0 0 0 0 0 0 0 0 0 0 0 0 0 0 0 0 0 0 0 0 0 0 0 0 0 0 0 0 0 0 0 0 0 0 0 0 0 0 0 0 0 0 0 0 0 0 0 0 0 0 0 0 0 0 0 0 0 0 0 0 0 0 0 0 0 0 0 0 0 0 0 0 0 0 0 0 0 0 0 0 0 0 0 0 0 0 0 0 0 0 0 0 0 0 0 
0 0 0 0 0 0 0 0 0 0 0 0 0 0 0 0 0 0 0 0 0 0 0 0 0 0 0 0 0 0 0 0 0 0 0 0 0 0 0 0 0 0 0 0 0 0 0 0 0 0 0 0 0 0 0 0 0 0 0 0 0 0 0 0 0 0 0 0 0 0 0 0 0 0 0 0 0 0 0 0 0 0 0 0 0 0 0 0 0 0 0 0 0 0 0 0 0 0 0 0 

100 -4 4
0 0 0 0 0 0 0 0 0 0 0 0 0 0 0 0 0 0 0 0 0 0 0 0 0 0 0 0 0 0 0 0 0 0 0 0 0 0 0 0 0 0 0 0 0 0 0 0 0 0 0 0 0 0 0 0 0 0 0 0 0 0 0 0 0 0 0 0 0 0 0 0 0 0 0 0 0 0 0 0 0 0 0 0 0 0 0 0 0 0 0 0 0 0 0 0 0 0 0 0 
0 0 0 0 0 0 0 0 0 0 0 0 0 0 0 0 0 0 0 0 0 0 0 0 0 0 0 0 0 0 0 0 0 0 0 0 0 0 0 0 0 0 0 0 0 0 0 0 0 0 0 0 0 0 0 0 0 0 0 0 0 0 0 0 0 0 0 0 0 0 0 0 0 0 0 0 0 0 0 0 0 0 0 0 0 0 0 0 0 0 0 0 0 0 0 0 0 0 0 0 
0 0 0 0 0 0 0 0 0 0 0 0 0 0 0 0 0 0 0 0 0 0 0 0 0 0 0 0 0 0 0 0 0 0 0 0 0 0 0 0 0 0 0 0 0 0 0 0 0 0 0 0 0 0 0 0 0 0 0 0 0 0 0 0 0 0 0 0 0 0 0 0 0 0 0 0 0 0 0 0 0 0 0 0 0 0 0 0 0 0 0 0 0 0 0 0 0 0 0 0 
0 0 0 0 0 0 0 0 0 0 0 0 0 0 0 0 0 0 0 0 0 0 0 0 0 0 0 0 0 0 0 0 0 0 0 0 0 0 0 0 0 0 0 0 0 0 0 0 0 0 0 0 0 0 0 0 0 0 0 0 0 0 0 0 0 0 0 0 0 0 0 0 0 0 0 0 0 0 0 0 0 0 0 0 0 0 0 0 0 0 0 0 0 0 0 0 0 0 0 0 
0 0 0 0 0 0 0 0 0 0 0 0 0 0 0 0 0 0 0 0 0 0 0 0 0 0 0 0 0 0 0 0 0 0 0 0 0 0 0 0 0 0 0 0 0 0 0 0 0 0 0 0 0 0 0 0 0 0 0 0 0 0 0 0 0 0 0 0 0 0 0 0 0 0 0 0 0 0 0 0 0 0 0 0 0 0 0 0 0 0 0 0 0 0 0 0 0 0 0 0 
0 0 0 0 0 0 0 0 0 0 0 0 0 0 0 0 0 0 0 0 0 0 0 0 0 0 0 0 0 0 0 0 0 0 0 0 0 0 0 0 0 0 0 0 0 0 0 0 0 0 0 0 0 0 0 0 0 0 0 0 0 0 0 0 0 0 0 0 0 0 0 0 0 0 0 0 0 0 0 0 0 0 0 0 0 0 0 0 0 0 0 0 0 0 0 0 0 0 0 0 
0 0 0 0 0 0 0 0 0 0 0 0 0 0 0 0 0 0 0 0 0 0 0 0 0 0 0 0 0 0 0 0 0 0 0 0 0 0 0 0 0 0 0 0 0 0 0 0 0 0 0 0 0 0 0 0 0 0 0 0 0 0 0 0 0 0 0 0 0 0 0 0 0 0 0 0 0 0 0 0 0 0 0 0 0 0 0 0 0 0 0 0 0 0 0 0 0 0 0 0 
0 0 0 0 0 0 0 0 0 0 0 0 0 0 0 0 0 0 0 0 0 0 0 0 0 0 0 0 0 0 0 0 0 0 0 0 0 0 0 0 0 0 0 0 0 0 0 0 0 0 0 0 0 0 0 0 0 0 0 0 0 0 0 0 0 0 0 0 0 0 0 0 0 0 0 0 0 0 0 0 0 0 0 0 0 0 0 0 0 0 0 0 0 0 0 0 0 0 0 0 
0 0 0 0 0 0 0 0 0 0 0 0 0 0 0 0 0 0 0 0 0 0 0 0 0 0 0 0 0 0 0 0 0 0 0 0 0 0 0 0 0 0 0 0 0 0 0 0 0 0 0 0 0 0 0 0 0 0 0 0 0 0 0 0 0 0 0 0 0 0 0 0 0 0 0 0 0 0 0 0 0 0 0 0 0 0 0 0 0 0 0 0 0 0 0 0 0 0 0 0 
0 0 0 0 0 0 0 0 0 0 0 0 0 0 0 0 0 0 0 0 0 0 0 0 0 0 0 0 0 0 0 0 0 0 0 0 0 0 0 0 0 0 0 0 0 0 0 0 0 0 0 0 0 0 0 0 0 0 0 0 0 0 0 0 0 0 0 0 0 0 0 0 0 0 0 0 0 0 0 0 0 0 0 0 0 0 0 0 0 0 0 0 0 0 0 0 0 0 0 0 
