1
Photon_
#phi
phi
3
3
0
10
QCD W + Jets WW WZ ZZ #bar{t}W tW t#bar{t} Drell Yan #rightarrow #tau#tau Drell Yan #rightarrow ee 
_full_dr_cut_low
100 -4 4
0 0 0 0 0 0 0 0 0 0 0 0 0 0 0 161.573 0 0 0 6.5667 0 0 6.5667 0 29.0381 58.4618 0 0 0 0 38175.1 0 0 0 0 0 190.611 0 0 0 0 29.0381 0 29.0381 161.573 0 0 0 0 0 0 0 190.611 35.6048 0 0 29.0381 0 0 0 0 161.573 190.611 35.6048 0 0 0 38168.5 0 0 29.0381 0 0 0 0 0 0 35.6048 29.0381 0 0 0 29.0381 0 29.0381 0 161.573 0 6.5667 0 0 0 0 0 0 0 0 0 0 0 
0 0 0 0 0 0 0 0 0 0 0 46.0199 194.306 209.646 102.266 281.233 332.366 214.759 184.08 148.286 286.346 271.006 240.326 204.533 327.253 219.873 235.213 271.006 163.626 337.479 388.612 209.646 342.593 214.759 209.646 178.966 168.74 291.459 199.42 260.779 271.006 230.099 224.986 219.873 158.513 281.233 173.853 271.006 240.326 194.306 230.099 240.326 194.306 271.006 260.779 286.346 240.326 255.666 332.366 245.439 189.193 199.42 230.099 209.646 276.119 281.233 168.74 168.74 250.553 209.646 204.533 219.873 271.006 240.326 214.759 189.193 209.646 265.893 276.119 327.253 230.099 204.533 153.4 178.966 250.553 209.646 301.686 132.946 265.893 255.666 30.6799 0 0 0 0 0 0 0 0 0 
0 0 0 0 0 0 0 0 0 0 0 46.9179 246.776 270.539 264.446 283.335 297.349 274.805 262.618 277.851 262.009 294.912 250.432 269.93 255.916 262.618 258.353 246.776 262.009 274.805 273.586 257.134 266.274 244.948 273.586 270.539 271.149 267.493 279.07 269.321 269.321 270.539 252.869 256.525 276.633 270.539 281.507 285.163 251.041 276.633 256.525 284.554 272.367 263.227 268.102 271.149 284.554 271.149 271.758 255.306 272.977 265.665 262.618 279.679 281.507 286.991 283.335 282.726 279.679 278.46 255.306 271.149 293.084 270.539 289.428 272.367 256.525 276.633 279.679 266.274 269.321 237.027 241.901 263.227 263.837 262.618 269.93 273.586 257.134 294.303 46.9179 0 0 0 0 0 0 0 0 0 
0 0 0 0 0 0 0 0 0 0 0 60.3753 346.453 354.917 378.615 375.794 362.252 372.973 317.676 336.86 351.531 354.917 330.654 371.28 336.296 347.017 357.738 344.196 355.481 328.397 341.939 327.832 328.961 341.939 369.023 326.14 335.732 346.453 336.86 353.224 354.352 346.453 350.967 373.537 317.111 335.732 368.459 357.738 344.76 367.33 325.011 354.917 347.017 311.469 336.296 361.123 359.431 355.481 342.503 317.111 316.547 353.788 343.631 350.967 352.095 356.609 342.503 354.917 391.593 359.995 351.531 362.252 348.145 330.089 350.403 341.374 340.246 351.531 374.665 361.688 350.967 359.431 347.017 336.296 336.296 358.302 319.368 344.76 341.939 363.38 50.783 0 0 0 0 0 0 0 0 0 
0 0 0 0 0 0 0 0 0 0 0 39.7845 213.767 237.519 235.738 235.738 255.927 202.485 214.955 229.206 226.237 236.925 216.736 228.612 210.798 226.237 224.456 220.893 234.55 228.018 220.893 206.048 224.456 222.08 224.456 228.018 220.299 218.518 251.77 230.987 213.767 227.425 239.894 246.426 214.955 242.863 232.769 236.332 200.704 217.33 233.363 235.738 226.237 239.894 243.457 218.518 222.08 214.361 234.55 209.611 242.27 239.301 214.955 222.08 251.176 250.583 210.204 236.332 235.144 225.643 225.643 228.612 228.612 232.769 240.488 234.55 229.206 223.862 240.488 227.425 213.767 213.173 222.674 207.829 223.268 233.956 232.769 241.676 206.048 242.863 38.5969 0 0 0 0 0 0 0 0 0 
0 0 0 0 0 0 0 0 0 0 0 18.1754 119.624 129.824 119.253 127.599 135.388 126.486 108.867 120.18 123.147 124.446 120.922 127.413 122.776 123.518 126.3 114.245 126.486 120.18 114.431 121.107 124.817 117.027 126.115 118.696 132.977 120.365 124.26 117.398 123.518 119.438 133.348 127.969 114.987 116.1 128.526 129.268 125.187 127.784 116.1 130.751 116.656 117.027 124.817 125.373 131.864 116.285 119.995 127.784 114.245 114.245 122.962 122.406 125.373 127.413 117.769 127.413 113.318 125.744 107.569 124.446 117.213 115.729 126.3 122.591 126.115 122.22 130.01 132.791 129.639 121.107 127.228 112.576 122.591 120.18 125.373 128.155 121.664 133.348 27.0776 0 0 0 0 0 0 0 0 0 
0 0 0 0 0 0 0 0 0 0 0 21.6376 128.901 116.695 123.723 115.215 127.976 130.565 107.263 123.538 124.462 126.497 118.729 132.784 123.538 132.415 124.832 119.654 134.264 124.832 132.045 113.181 111.332 123.353 128.161 126.312 123.538 120.394 125.387 130.565 123.538 115.4 122.613 125.942 119.839 120.948 131.675 132.599 125.942 130.01 116.695 122.983 124.647 107.633 117.065 128.346 125.942 116.88 126.681 119.284 123.353 125.017 127.421 122.983 122.243 137.593 113.551 126.312 127.236 128.346 117.435 125.572 127.421 127.976 124.277 118.729 127.236 121.873 131.12 110.777 114.291 117.435 110.777 112.441 126.681 123.168 127.791 125.017 120.394 129.64 22.7472 0 0 0 0 0 0 0 0 0 
0 0 0 0 0 0 0 0 0 0 0 483.19 2790.66 2843.49 2966.35 2927.62 2982.69 2914.33 2727.18 2850.99 2900.42 2935.2 2714.72 2934.15 2834.57 2887.69 2882.44 2835.73 2870.32 2798.59 2892.67 2693.45 2855.54 2872.64 2923 2747.14 2917.13 2808.48 2938.52 2981.04 2821.14 2836.1 2925.16 2903.49 2742.46 2884.4 2947.41 2930.71 2762.64 2977.86 2853.8 2944.58 2837.15 2670.6 2907.22 2911.99 2962.64 2774.28 2882.96 2743.74 2849.31 2748.81 2863.68 2900.07 2850.73 2937.72 2777.24 2925.81 2929.88 2885.51 2674.74 2977.38 2850.5 2854.82 2857.1 2856.55 2893.9 2835.3 2995.03 2784.65 2763.07 2662.15 2783.92 2664.77 2772.78 2844.62 2893.67 2919.74 2797.22 2921.64 534.306 0 0 0 0 0 0 0 0 0 
0 0 0 0 0 0 0 0 0 0 0 97.5664 519.834 558.531 618.776 710.016 657.473 566.418 652.154 523.778 480.129 564.858 600.804 626.663 575.312 668.751 530.104 559.723 539.183 552.02 602.179 495.719 607.13 621.344 663.616 528.913 617.401 641.884 630.422 629.231 554.588 507.181 557.156 477.562 509.748 598.236 647.019 657.289 474.994 622.536 534.048 680.397 566.234 542.942 601.995 605.939 647.019 549.637 588.15 562.475 707.448 568.617 644.452 621.344 668.935 664.992 534.232 683.149 544.502 557.34 494.159 604.563 618.776 562.291 536.615 672.695 561.099 607.13 629.047 562.291 680.581 536.615 584.023 675.078 563.666 566.05 563.666 561.099 597.044 604.747 96.3747 0 0 0 0 0 0 0 0 0 
0 0 0 0 0 0 0 0 0 0 0 50341.3 312219 322910 330727 336326 332235 331629 306638 321472 320868 330251 307940 331592 319143 324943 327609 320027 329010 315385 329099 301379 315163 316994 329746 313375 329045 312820 332531 334377 318935 312818 321557 320115 307220 319376 329667 335796 316738 333483 317033 330974 323060 306406 326905 329257 338014 317677 325747 312875 314491 314161 326449 329397 321702 340685 313330 328443 329426 321964 301598 331362 317910 316615 326712 326107 326470 313310 339889 322674 311991 308592 313221 303733 317870 322245 327833 335869 321915 334365 55995.1 0 0 0 0 0 0 0 0 0 
_full_dr_cut_mid
100 -4 4
0 0 0 0 0 0 0 0 0 0 0 0 0 0 0 0 0 0 0 0 0 0 0 0 0 0 0 0 0 0 58.4618 0 0 0 0 0 0 0 0 0 0 0 0 0 0 0 0 0 0 0 0 0 0 0 0 0 0 0 0 0 0 0 0 0 0 0 0 58.4618 0 0 0 0 0 0 0 0 0 0 0 0 0 0 0 6.5667 0 0 0 0 0 0 0 0 0 0 0 0 0 0 0 0 
0 0 0 0 0 0 0 0 0 0 0 5.11332 5.11332 5.11332 25.5666 0 10.2266 15.34 10.2266 20.4533 10.2266 10.2266 -5.11332 10.2266 10.2266 10.2266 -5.11332 0 -5.11332 15.34 25.5666 10.2266 10.2266 10.2266 0 10.2266 5.11332 10.2266 10.2266 5.11332 15.34 10.2266 0 5.11332 0 5.11332 10.2266 15.34 0 25.5666 10.2266 0 15.34 10.2266 10.2266 -5.11332 0 5.11332 10.2266 5.11332 20.4533 5.11332 -5.11332 15.34 0 0 10.2266 5.11332 15.34 5.11332 5.11332 -15.34 0 -5.11332 10.2266 0 0 0 20.4533 0 5.11332 0 15.34 5.11332 0 0 10.2266 20.4533 5.11332 5.11332 0 0 0 0 0 0 0 0 0 0 
0 0 0 0 0 0 0 0 0 0 0 0 1.82797 1.21865 0 1.21865 1.21865 1.21865 0.609323 1.21865 1.21865 3.04661 0 0.609323 1.82797 1.82797 3.04661 1.82797 1.21865 1.21865 2.43729 0 1.21865 1.21865 3.04661 1.82797 0.609323 0.609323 0 0.609323 1.21865 1.21865 1.82797 0 1.82797 0 0.609323 1.82797 0.609323 1.21865 0.609323 1.82797 2.43729 0.609323 0.609323 4.26526 1.82797 0.609323 0 0.609323 0.609323 1.82797 1.21865 1.21865 0.609323 1.82797 0 0.609323 1.21865 1.82797 1.82797 0.609323 0.609323 2.43729 1.82797 1.21865 1.82797 3.65594 1.21865 0 0 1.82797 1.21865 1.21865 0.609323 0.609323 1.21865 1.82797 1.21865 0.609323 0 0 0 0 0 0 0 0 0 0 
0 0 0 0 0 0 0 0 0 0 0 0.564255 1.12851 0.564255 1.69277 0 0.564255 0 1.12851 1.12851 1.69277 0.564255 0 1.12851 0.564255 1.12851 1.69277 1.69277 1.69277 1.12851 1.12851 1.69277 1.69277 0 1.12851 0.564255 2.25702 0.564255 0.564255 1.12851 0.564255 0 1.69277 1.12851 1.69277 1.12851 0.564255 0.564255 0 1.69277 0.564255 1.12851 1.69277 1.12851 0.564255 1.12851 2.25702 1.69277 1.69277 2.82128 2.25702 1.12851 0 2.25702 1.12851 1.69277 1.12851 1.69277 2.25702 1.69277 0.564255 1.12851 1.12851 2.25702 1.12851 0.564255 2.82128 2.25702 1.69277 0.564255 1.69277 1.12851 0 0.564255 0.564255 0 0.564255 1.69277 1.69277 1.69277 0 0 0 0 0 0 0 0 0 0 
0 0 0 0 0 0 0 0 0 0 0 0 0.593798 1.1876 1.78139 1.78139 2.37519 0.593798 1.1876 0 1.78139 2.37519 0.593798 0 0 0 0.593798 0.593798 0 1.1876 1.1876 0.593798 1.1876 0.593798 0 0 1.78139 0.593798 0.593798 0.593798 0 1.78139 1.1876 0 0.593798 0 0.593798 0.593798 0 1.78139 0.593798 0 0.593798 1.1876 0.593798 0 1.1876 0 0.593798 0.593798 1.1876 0 1.78139 1.1876 0.593798 0.593798 1.78139 0 0.593798 0 0.593798 0 0 0 0.593798 1.78139 0 0.593798 1.1876 1.1876 1.1876 0 0.593798 0 0 0 0.593798 0.593798 1.1876 0 0 0 0 0 0 0 0 0 0 0 
0 0 0 0 0 0 0 0 0 0 0 0 0.185463 0.185463 0.556389 0.556389 0.741852 0.185463 0.185463 0.370926 0.741852 0 1.11278 0.185463 1.11278 0 0.370926 0.741852 0.185463 0.185463 0.185463 0.927315 0.185463 0.556389 0.185463 0.556389 0.556389 0.741852 0.370926 0.556389 0.185463 0.556389 0.741852 0.370926 0.185463 0.741852 0.927315 0.185463 0.185463 0.370926 0.370926 0.741852 0.927315 0.741852 1.29824 0.741852 0.927315 0.185463 0.741852 0.370926 0.556389 0.370926 0.185463 0.556389 0.185463 0.370926 0 0.370926 0.370926 0.185463 0.556389 0.556389 0.741852 0.741852 0.185463 0 0.741852 0.185463 0.185463 0.556389 0.556389 0.556389 0.370926 0 0.185463 0.556389 0.927315 0.185463 0.185463 0.370926 0 0 0 0 0 0 0 0 0 0 
0 0 0 0 0 0 0 0 0 0 0 0 0.369873 0 0.184936 0 0.369873 0.184936 0.554809 0.554809 0.554809 0.554809 0 0 0.554809 0.554809 0.554809 0.369873 0.554809 0.369873 0.554809 0.184936 0.369873 0.739746 0.554809 0.554809 0.369873 0.554809 0.184936 0.184936 1.10962 0.739746 0.739746 0.739746 0.739746 0.554809 0.739746 0.369873 0.184936 0.369873 0.184936 0 0.369873 0.554809 0.554809 0.369873 0.184936 0.739746 0.369873 0.369873 0.554809 0.739746 0.554809 0.369873 0.369873 0.369873 0.369873 0.739746 0.739746 0.554809 0.184936 0.184936 0.369873 0.739746 0.369873 0.739746 0.369873 0.369873 0.184936 0.554809 0.554809 0 0.184936 0.369873 0.369873 0.369873 0.369873 0.369873 1.10962 0 0 0 0 0 0 0 0 0 0 0 
0 0 0 0 0 0 0 0 0 0 0 1.32417 8.45309 10.002 10.6852 13.6445 10.7448 10.3286 10.4483 9.17693 12.0098 13.1755 9.27871 10.4512 11.5539 10.83 10.7162 10.8475 9.02099 10.2685 11.0825 11.1014 9.88872 10.6474 9.68329 10.2787 10.8577 8.83831 10.0035 8.81938 7.7666 10.2874 14.4033 10.7162 9.80876 11.9517 11.2827 10.5723 10.2787 10.1949 9.16292 10.9992 9.30732 9.32718 10.0122 11.8165 9.90858 9.70604 11.3451 7.26898 9.06216 8.97346 10.0122 9.8984 8.97201 11.8165 11.9701 10.8814 8.47202 11.5428 9.60333 9.89984 10.2486 9.96088 10.3596 10.4812 7.24674 9.41971 10.2448 10.8078 12.3766 10.6963 9.19586 11.459 8.76803 9.61445 11.7564 8.66726 7.62466 8.27822 1.11144 0 0 0 0 0 0 0 0 0 
0 0 0 0 0 0 0 0 0 0 0 2.56754 5.13507 7.70261 10.2701 2.56754 12.8377 7.70261 15.4052 0 10.2701 15.4052 12.8377 10.2701 15.4052 5.13507 20.5403 25.6754 2.56754 2.56754 10.2701 10.2701 7.70261 10.2701 7.70261 7.70261 15.4052 0 5.13507 7.70261 0 10.2701 2.56754 7.70261 5.13507 7.70261 7.70261 -1.37578 0 0 2.56754 12.8377 2.56754 7.70261 7.70261 10.2701 2.56754 5.13507 7.70261 5.13507 10.2701 15.4052 5.13507 10.2701 12.8377 17.9728 10.2701 0 5.13507 2.56754 10.2701 12.8377 12.8377 15.4052 10.2701 10.2701 12.8377 2.56754 12.8377 5.13507 10.2701 2.56754 12.8377 12.8377 2.56754 7.70261 10.2701 12.8377 25.6754 10.2701 7.70261 0 0 0 0 0 0 0 0 0 
0 0 0 0 0 0 0 0 0 0 0 194.46 1127.48 1229.35 1243.68 1260.59 1124.41 1183.33 1068.7 1123.28 1198.55 1401.01 942.825 1068.38 1171.79 1244.85 1229.48 1057.38 1235.67 1216.87 1205.12 1189.77 1156.15 1253.13 1164.23 1161.18 1183.48 1351.78 1297.46 1089.49 1117 1104.25 1137.88 1017.58 1123.66 1230.34 1244.58 1124.22 1106.62 1067.14 1205.25 1322.37 1237.39 1084.74 1201.91 1061.54 1047.3 1104.7 1099.53 1290.51 1163.17 1142.33 1039.72 1198.75 1143.59 1063.95 1000.48 1242.29 1223.66 1185.93 1017.54 1084.58 1221.37 1254.29 1232.22 1234.24 1323.97 1176.08 1310.74 1052.58 1169.65 1103.03 1120.37 1128.96 1020.48 1132.09 1095.33 1160.45 1128.64 931.114 171.42 0 0 0 0 0 0 0 0 0 
_full_dr_cut_high
100 -4 4
0 0 0 0 0 0 0 0 0 0 0 0 0 0 0 0 0 0 0 0 0 0 0 0 0 0 0 58.0762 0 0 0 0 0 0 0 0 0 0 0 58.4618 0 0 0 0 0 0 0 0 0 6.5667 0 0 0 0 0 0 0 0 0 0 0 161.573 0 0 0 0 0 0 0 0 0 0 0 0 0 0 0 0 0 0 0 0 0 0 0 0 0 0 0 0 0 0 0 0 0 0 0 0 0 0 
0 0 0 0 0 0 0 0 0 0 0 10.2266 0 10.2266 10.2266 -5.11332 -5.11332 -5.11332 5.11332 0 0 0 0 5.11332 10.2266 0 5.11332 10.2266 0 5.11332 10.2266 5.11332 0 5.11332 5.11332 15.34 0 5.11332 15.34 20.4533 15.34 10.2266 10.2266 10.2266 10.2266 0 0 -5.11332 15.34 5.11332 0 10.2266 -10.2266 5.11332 5.11332 10.2266 0 15.34 10.2266 0 5.11332 -5.11332 0 10.2266 0 5.11332 10.2266 5.11332 15.34 -5.11332 5.11332 0 5.11332 -5.11332 -5.11332 0 -5.11332 5.11332 5.11332 5.11332 5.11332 10.2266 15.34 5.11332 -5.11332 -5.11332 10.2266 0 5.11332 0 5.11332 0 0 0 0 0 0 0 0 0 
0 0 0 0 0 0 0 0 0 0 0 0 3.65594 1.82797 4.26526 2.43729 1.21865 3.65594 4.26526 5.4839 2.43729 1.82797 1.21865 1.21865 1.82797 4.87458 3.04661 2.43729 3.04661 3.04661 4.26526 1.21865 1.21865 1.21865 0.609323 1.82797 3.04661 2.43729 4.26526 3.04661 2.43729 2.43729 1.21865 1.82797 3.65594 2.43729 2.43729 1.82797 6.09323 7.31187 1.82797 3.04661 1.82797 1.21865 3.04661 5.4839 3.65594 3.04661 3.04661 3.65594 4.26526 2.43729 1.21865 1.21865 2.43729 3.04661 2.43729 6.70255 1.82797 1.21865 4.87458 1.82797 1.82797 3.65594 4.87458 3.04661 1.82797 3.04661 2.43729 3.65594 3.04661 1.21865 3.04661 1.21865 2.43729 0.609323 2.43729 4.26526 1.82797 1.21865 1.82797 0 0 0 0 0 0 0 0 0 
0 0 0 0 0 0 0 0 0 0 0 1.12851 5.0783 7.33532 7.89957 6.20681 7.89957 6.20681 2.25702 8.46383 5.0783 12.4136 7.89957 14.1064 7.33532 9.59234 9.59234 6.77106 9.59234 13.5421 12.9779 7.33532 5.64255 14.1064 14.6706 7.89957 9.02808 10.1566 9.02808 13.5421 6.20681 8.46383 5.64255 10.1566 9.59234 10.7208 9.02808 14.1064 7.89957 10.7208 9.59234 8.46383 6.77106 11.8494 9.02808 6.77106 14.6706 6.77106 6.20681 4.51404 6.20681 5.0783 7.33532 11.2851 11.2851 12.4136 9.02808 11.8494 12.9779 11.2851 9.59234 7.89957 10.1566 11.2851 10.7208 10.7208 6.77106 12.4136 7.89957 11.2851 8.46383 7.89957 7.89957 8.46383 6.20681 3.38553 6.77106 3.94979 5.0783 7.33532 1.12851 0 0 0 0 0 0 0 0 0 
0 0 0 0 0 0 0 0 0 0 0 2.37519 2.96899 8.90697 2.96899 4.15658 4.15658 6.53178 5.93798 7.12557 5.93798 3.56279 5.93798 14.8449 6.53178 11.2822 7.71937 5.93798 13.0636 8.90697 5.34418 10.6884 6.53178 7.71937 8.31317 7.12557 10.6884 4.15658 8.90697 10.0946 5.93798 7.71937 10.6884 5.93798 11.876 9.50077 4.75038 4.15658 7.12557 8.31317 5.93798 6.53178 3.56279 8.90697 7.71937 7.12557 10.6884 6.53178 8.31317 6.53178 5.93798 11.2822 5.34418 5.93798 7.12557 7.12557 8.31317 5.93798 11.876 8.31317 10.0946 7.12557 8.31317 5.34418 7.12557 6.53178 4.15658 7.12557 7.71937 6.53178 5.93798 8.31317 5.93798 8.31317 5.34418 5.34418 4.15658 2.96899 5.34418 3.56279 1.1876 0 0 0 0 0 0 0 0 0 
0 0 0 0 0 0 0 0 0 0 0 1.11278 2.78194 3.5238 3.5238 3.15287 3.89472 4.45111 3.70926 2.96741 4.08019 3.70926 4.82204 5.37843 4.82204 2.96741 5.56389 3.70926 5.0075 5.74935 5.19296 3.70926 4.26565 4.82204 5.0075 4.45111 4.63657 5.74935 3.89472 3.5238 6.67667 4.45111 6.12028 5.19296 3.89472 7.04759 3.5238 4.26565 5.0075 5.0075 3.33833 4.82204 5.93481 5.37843 4.82204 3.89472 5.37843 5.37843 4.82204 4.26565 4.82204 6.12028 4.82204 5.93481 3.15287 4.82204 5.56389 4.45111 5.93481 6.12028 7.23306 5.56389 5.19296 5.93481 5.19296 5.19296 4.63657 4.82204 5.74935 5.0075 4.26565 2.78194 3.89472 2.59648 5.0075 3.33833 3.5238 2.41102 2.22556 2.59648 1.29824 0 0 0 0 0 0 0 0 0 
0 0 0 0 0 0 0 0 0 0 0 0.924682 2.40417 5.17822 4.25354 3.32886 2.95898 4.62341 2.40417 2.40417 4.0686 5.54809 2.95898 4.62341 5.36316 4.99329 3.88367 3.69873 7.21252 2.0343 4.80835 5.54809 4.99329 5.73303 4.43848 5.17822 6.84265 5.36316 3.32886 4.0686 4.80835 4.99329 3.14392 3.88367 5.54809 6.65771 6.28784 5.36316 5.17822 6.1029 3.32886 5.17822 4.62341 4.80835 3.88367 4.99329 5.36316 3.88367 4.0686 5.54809 4.62341 4.99329 4.0686 5.17822 4.43848 7.02759 4.25354 4.25354 5.73303 4.0686 6.47278 5.36316 3.14392 5.54809 5.36316 5.17822 5.54809 3.32886 4.99329 3.14392 3.88367 4.99329 1.84936 5.17822 2.95898 3.88367 3.14392 5.36316 1.66443 2.77405 0.554809 0 0 0 0 0 0 0 0 0 
0 0 0 0 0 0 0 0 0 0 0 46.3435 142.476 142.149 152.773 166.828 170.71 171.387 182.71 198.555 211.519 234.695 230.385 235.627 231.94 250.989 249.827 240.721 249.661 248.932 250.908 236.239 245.974 248.592 236.831 236.365 241.82 250.037 252.088 238.409 250.13 240.97 245.321 230.78 234.566 236.928 246.807 243.857 226.354 246.143 230.919 242.648 235.524 222.562 238.534 249.502 244.211 240.667 231.598 228.596 234.805 238.595 237.685 238.83 250.389 241.385 233.361 239.7 263.318 255.916 240.26 233.952 243.985 242.553 225.394 239.144 261.325 249.551 242.358 234.193 223.689 212.387 208.721 176.57 178.622 167.378 163.389 154.466 134.911 139.809 44.6437 0 0 0 0 0 0 0 0 0 
0 0 0 0 0 0 0 0 0 0 0 0 5.13507 7.70261 7.70261 0 12.8377 0 0 5.13507 7.70261 2.56754 10.2701 10.2701 5.13507 10.2701 12.8377 0 5.13507 2.56754 7.70261 10.2701 -2.56754 10.2701 5.13507 10.2701 17.9728 2.56754 -5.13507 0 7.70261 0 12.8377 12.8377 5.13507 2.56754 2.56754 2.56754 10.2701 2.56754 5.13507 5.13507 12.8377 2.56754 10.2701 2.56754 20.5403 0 5.13507 15.4052 10.2701 0 2.56754 2.56754 2.56754 5.13507 17.9728 7.70261 23.1078 2.56754 15.4052 2.56754 5.13507 2.56754 0 10.2701 5.13507 10.2701 -2.56754 2.56754 12.8377 12.8377 -2.56754 0 10.2701 5.13507 5.13507 2.56754 5.13507 0 0 0 0 0 0 0 0 0 0 0 
0 0 0 0 0 0 0 0 0 0 0 526.969 1664.01 1724.54 1933.1 1863.11 1966.62 2131.02 2259.51 2327.86 2514.95 3106.41 2647.23 3100.12 2756.28 2902.96 2864.29 2875.98 2858.54 2903.37 2854.21 2847.63 3022.91 2700.29 3148.87 2966.05 2990.09 2863.33 3038.11 3094.54 2811.61 2673.37 2977.94 2780.22 2834.94 3142.03 2900.83 3099.08 2732.42 2910.23 2789.48 2890.87 2998.52 2926.88 2904.12 2831.29 2997.99 2899.1 2855.17 2846.94 2767.17 2844.55 2941.29 2912.5 3095.21 2927.21 2973.56 3030.49 3140.66 2891.44 2878.09 2954.02 2694.58 2746.92 2754.56 2925.12 3098.89 3007.85 3116.9 2790.17 2668.83 2610.64 2505.61 2450.66 2234.36 1861.18 1858.53 1739.92 1739.73 1687.02 505.106 0 0 0 0 0 0 0 0 0 
