1
Muon_
m_{#mu#mu} [GeV/c^{2}]
InvM
3
3
3
10
QCD W + Jets WW WZ ZZ #bar{t}W tW t#bar{t} Drell Yan #rightarrow #tau#tau Drell Yan #rightarrow #mu#mu 
_1000
985
15 16 17 18 19 20 21 22 23 24 25 26 27 28 29 30 31 32 33 34 35 36 37 38 39 40 41 42 43 44 45 46 47 48 49 50 51 52 53 54 55 56 57 58 59 60 61 62 63 64 65 66 67 68 69 70 71 72 73 74 75 76 77 78 79 80 81 82 83 84 85 86 87 88 89 90 91 92 93 94 95 96 97 98 99 100 101 102 103 104 105 106 107 108 109 110 111 112 113 114 115 116 117 118 119 120 121 122 123 124 125 126 127 128 129 130 131 132 133 134 135 136 137 138 139 140 141 142 143 144 145 146 147 148 149 150 151 152 153 154 155 156 157 158 159 160 161 162 163 164 165 166 167 168 169 170 171 172 173 174 175 176 177 178 179 180 181 182 183 184 185 186 187 188 189 190 191 192 193 194 195 196 197 198 199 200 201 202 203 204 205 206 207 208 209 210 211 212 213 214 215 216 217 218 219 220 221 222 223 224 225 226 227 228 229 230 231 232 233 234 235 236 237 238 239 240 241 242 243 244 245 246 247 248 249 250 251 252 253 254 255 256 257 258 259 260 261 262 263 264 265 266 267 268 269 270 271 272 273 274 275 276 277 278 279 280 281 282 283 284 285 286 287 288 289 290 291 292 293 294 295 296 297 298 299 300 301 302 303 304 305 306 307 308 309 310 311 312 313 314 315 316 317 318 319 320 321 322 323 324 325 326 327 328 329 330 331 332 333 334 335 336 337 338 339 340 341 342 343 344 345 346 347 348 349 350 351 352 353 354 355 356 357 358 359 360 361 362 363 364 365 366 367 368 369 370 371 372 373 374 375 376 377 378 379 380 381 382 383 384 385 386 387 388 389 390 391 392 393 394 395 396 397 398 399 400 401 402 403 404 405 406 407 408 409 410 411 412 413 414 415 416 417 418 419 420 421 422 423 424 425 426 427 428 429 430 431 432 433 434 435 436 437 438 439 440 441 442 443 444 445 446 447 448 449 450 451 452 453 454 455 456 457 458 459 460 461 462 463 464 465 466 467 468 469 470 471 472 473 474 475 476 477 478 479 480 481 482 483 484 485 486 487 488 489 490 491 492 493 494 495 496 497 498 499 500 501 502 503 504 505 506 507 508 509 510 511 512 513 514 515 516 517 518 519 520 521 522 523 524 525 526 527 528 529 530 531 532 533 534 535 536 537 538 539 540 541 542 543 544 545 546 547 548 549 550 551 552 553 554 555 556 557 558 559 560 561 562 563 564 565 566 567 568 569 570 571 572 573 574 575 576 577 578 579 580 581 582 583 584 585 586 587 588 589 590 591 592 593 594 595 596 597 598 599 600 601 602 603 604 605 606 607 608 609 610 611 612 613 614 615 616 617 618 619 620 621 622 623 624 625 626 627 628 629 630 631 632 633 634 635 636 637 638 639 640 641 642 643 644 645 646 647 648 649 650 651 652 653 654 655 656 657 658 659 660 661 662 663 664 665 666 667 668 669 670 671 672 673 674 675 676 677 678 679 680 681 682 683 684 685 686 687 688 689 690 691 692 693 694 695 696 697 698 699 700 701 702 703 704 705 706 707 708 709 710 711 712 713 714 715 716 717 718 719 720 721 722 723 724 725 726 727 728 729 730 731 732 733 734 735 736 737 738 739 740 741 742 743 744 745 746 747 748 749 750 751 752 753 754 755 756 757 758 759 760 761 762 763 764 765 766 767 768 769 770 771 772 773 774 775 776 777 778 779 780 781 782 783 784 785 786 787 788 789 790 791 792 793 794 795 796 797 798 799 800 801 802 803 804 805 806 807 808 809 810 811 812 813 814 815 816 817 818 819 820 821 822 823 824 825 826 827 828 829 830 831 832 833 834 835 836 837 838 839 840 841 842 843 844 845 846 847 848 849 850 851 852 853 854 855 856 857 858 859 860 861 862 863 864 865 866 867 868 869 870 871 872 873 874 875 876 877 878 879 880 881 882 883 884 885 886 887 888 889 890 891 892 893 894 895 896 897 898 899 900 901 902 903 904 905 906 907 908 909 910 911 912 913 914 915 916 917 918 919 920 921 922 923 924 925 926 927 928 929 930 931 932 933 934 935 936 937 938 939 940 941 942 943 944 945 946 947 948 949 950 951 952 953 954 955 956 957 958 959 960 961 962 963 964 965 966 967 968 969 970 971 972 973 974 975 976 977 978 979 980 981 982 983 984 985 986 987 988 989 990 991 992 993 994 995 996 997 998 999 
164.278 0 0 161.257 0 0 0 45.2187 0 0 0 0.583697 0 0 0 0 8.39901 0 0 0 45.2187 0 0 0 0 0 0 0 0 0 0 0 0 0 0 0 0 0 1595.53 0 0 0 0 0 0.146383 0 0.0456012 0 0 0 0 1595.53 0 161.257 0 0 0 0 0 0 0 0 0 0 161.257 0 8.39901 0 0 0 0 0 0 0 0 8.39901 0 0 0 0 0 0 0 0 0 0 0.146383 0 0 0 0 0 0 0 0 0 0 0 0 0 0 0 0 0 0 0 0 0 0 0 0 0 0 0 0 0 0 0 0 0 0 0 0 0 0 0 0 0 0 0 0 0 0 0 0 0 0 0 0 0 0 0 0 0 0 0 0 0 0 0 0 0 0 0 0 0 0 0 0 0 0 0 0 0 0 0 0 0 0 0 0 0 0 0 0 0 0 0 0 0 0 0 0 0 0 0 0 0 0 0 0 0 0 0 0 0 0 0 0 0 0 0 0 0 0 0 0 0 0 0 0 0 0 0 0 0 0 0 0 0 0 0 0 0 0 0 0 0 0 0 0 0 0 0 0 0 0 0 0 0 0 0 0 0 0 0 0 0 0 0 0 0 0 0 0 0 0 0 0 0 0 0 0 0 0 0 0 0 0 0 0 0 0 0 0 0 0 0 0 0 0 0 0 0 0 0 0 0 0 0 0 0 0 0 0 0 0 0 0 0 0 0 0 0 0 0 0 0 0 0.583697 0 0 0 0 0 0 0 0 0 0 0 0 0 0.0456012 0 0 0 0 0 0 0 0 0 0 0 0 0 0 0 0 0 0 0 0 0 0 0 0 0 0 0 0 0 0 0 0 0 0 0 0 0 0 0 0 0 0 0 0 0 0 0 0 0 0 0 0 0 0 0 0 0 0 0 0 0 0 0 0 0 0 0 0 0 0 0 0 0 0 0 0 0 0 0 0 0 0 0 0 0 0 0 0 0 0 0 0 0 0 0 0 0 0 0 0 0 0 0 0 0 0.00427589 0 0 0 0 0 8.39901 0 0 0 0 0 0 0 0 0 0 0 0 0 0 0 0 0 0 0 0 0 0 0 0 0 0 0 0 0 0 0 0 0 0 0 0 0 0 0 0 0 0 0 0 0 0 0 0 0 0 0 0 0 0 0 0 0 0 0 0 0 0 0 0 0 0 0 0 0 0 0 0 0 0 0 0 0 0 0 0 0 0 0 0 0 0 0 0 0 0 0 0 0 0 0 0 0 0 0 0 0 0 0 0 0 0 0 0 0 0 0 0 0 0 0 0 0 0 0 0 0 0 0 0 0 0 0 0 0 0 0 0 0 0 0 0 0 0 0 0 0 0 0 0 0 0 0 0 0 0 0 0 0.0456012 0 0 0 0 0 0 0 0 0 0 0 0 0 0 0 0 0 0 0 0 0 0 0 0 0 0 0 0 0 0 0 0 0 0 0 0 0 0 0 0 0 0 0 0 0 0 0 0 0 0 0 0 0 0 0 0 0 0 0 0 0 0 0 0 0 0 0 0 0 0 0 0 0 0 0 0 0 0 0 0 0 0 0 0 0 0 0 0 0 0 0 0 0 0 0 0 0 0 0 0 0 0 0 0 0 0 0 0 0 0 0 0 0 0 0 0 0 0 0 0 0 0 0 0 0 0 0 0 0 0 0 0 0 0 0 0 0 0 0 0 0 0 0 0 0 0 0 0 0 0 0 0 0 0 0 0 0 0 0 0 0 0 0 0 0 0 0 0 0 0 0 0 0 0 0 0 0 0 0 0 0 0 0 0 0 0 0 0 0 0 0 0 0 0.00854128 0 0 0 0 0 0 0 0 0 0 0 0 0 0 0 0 0 0 0 0 0 0 0 0 0 0 0 0 0 0 0 0 0 0 0 0 0 0 0 0 0 0 0 0 0 0 0 0 0 0 0 0 0 0 0 0 0 0 0 0 0 0 0 0 0 0 0 0 0 0 0 0 0 0 0 0 0 0 0 0 0 0 0 0 0 0 0 0 0 0 0 0 0 0 0 0 0 0 0 0 0 0 0 0 0 0 0 0 0 0 0 0 0 0 0 0 0 0 0 0 0 0 0 0 0 0 0 0 0 0 0 0 0 0 0 0 0 0 0 0 0 0 0 0 0 0 0 0 0 0 0 0 0 0 0 0 0 0 0 0 0 0 0 0 0 0 0 0 0 0 0 0 0 0 0 0 0 0 0 0 0 0 0 0 0 0 0 0 0 0 0 0 0 0 0 0 0 0 0 0 0 
46.0199 10.2266 15.34 0 5.11332 40.9066 -10.2266 5.11332 0 15.34 10.2266 30.6799 15.34 5.11332 0 5.11332 5.11332 25.5666 -10.2266 35.7932 20.4533 35.7932 20.4533 10.2266 15.34 0 35.7932 0 10.2266 -1.77636e-15 25.5666 15.34 15.34 56.2465 35.7932 10.2266 15.34 71.5865 20.4533 51.1332 56.2465 25.5666 35.7932 46.0199 56.2465 40.9066 15.34 35.7932 40.9066 46.0199 56.2465 51.1332 71.5865 46.0199 51.1332 51.1332 25.5666 61.3599 20.4533 30.6799 15.34 20.4533 30.6799 46.0199 20.4533 5.11332 20.4533 -10.2266 25.5666 5.11332 46.0199 56.2465 30.6799 25.5666 30.6799 25.5666 20.4533 15.34 20.4533 20.4533 20.4533 -5.11332 25.5666 40.9066 5.11332 51.1332 -5.11332 0 25.5666 30.6799 30.6799 40.9066 1.77636e-15 -5.11332 20.4533 20.4533 30.6799 30.6799 5.11332 20.4533 25.5666 5.11332 10.2266 15.34 10.2266 5.11332 25.5666 -5.11332 -5.11332 -10.2266 -5.11332 10.2266 0 35.7932 10.2266 -5.11332 15.34 30.6799 5.11332 20.4533 -5.11332 10.2266 5.11332 -5.11332 -5.11332 5.11332 5.11332 20.4533 -5.11332 0 -5.11332 5.11332 0 5.11332 20.4533 15.34 -5.11332 10.2266 15.34 -5.11332 15.34 0 -5.11332 10.2266 15.34 -5.11332 -5.11332 5.11332 -5.11332 10.2266 -5.11332 0 -5.11332 0 -15.34 0 0 15.34 5.11332 -5.11332 5.11332 0 0 5.11332 10.2266 0 0 5.11332 0 0 -5.11332 0 -5.11332 0 5.11332 0 0 -5.11332 0 10.2266 -5.11332 5.11332 10.2266 0 0 0 10.2266 0 10.2266 0 5.11332 5.11332 -5.11332 5.11332 10.2266 0 0 -10.2266 0 0 0 0 10.2266 5.11332 0 5.11332 0 5.11332 5.11332 -5.11332 5.11332 0 5.11332 5.11332 0 5.11332 0 10.2266 0 0 0 0 0 5.11332 5.11332 5.11332 0 0 5.11332 0 0 -5.11332 0 0 0 0 0 0 0 0 0 5.11332 20.4533 0 0 0 0 0 5.11332 0 0 0 0 0 0 0 0 0 0 0 0 0 -5.11332 0 0 0 0 5.11332 0 0 5.11332 0 10.2266 0 0 0 5.11332 0 5.11332 0 -5.11332 0 0 0 0 5.11332 0 0 0 -5.11332 0 0 0 0 0 0 0 0 0 0 0 0 0 5.11332 0 0 0 0 0 0 5.11332 0 0 0 0 0 0 0 0 0 0 0 0 0 0 0 0 0 0 0 0 0 0 0 0 0 0 0 0 0 0 0 0 0 0 0 0 0 -5.11332 0 0 0 0 0 0 0 0 0 0 0 0 0 0 0 0 0 0 0 0 0 0 0 0 0 5.11332 0 0 0 0 0 0 0 0 0 0 0 0 0 0 0 0 0 0 0 0 0 0 0 0 0 0 0 0 0 0 0 0 5.11332 0 0 0 0 0 0 0 0 0 0 0 0 0 0 0 0 0 0 0 0 0 0 0 0 0 0 0 0 0 0 0 0 0 0 0 0 0 0 0 0 5.11332 0 0 0 0 0 0 0 0 0 0 0 0 0 0 0 0 0 0 0 0 0 0 0 0 0 0 0 0 0 0 0 0 0 0 0 0 0 0 0 0 0 0 0 0 0 0 0 0 0 0 0 0 0 0 0 0 0 0 0 0 0 0 0 0 0 0 0 0 0 0 0 0 0 0 0 0 0 0 0 0 0 0 0 0 0 0 0 0 0 0 0 0 0 0 0 0 0 0 0 0 0 0 0 0 0 0 0 0 0 0 0 0 0 0 0 0 0 0 0 0 0 0 0 0 0 0 0 0 0 0 0 0 0 0 0 0 0 0 0 0 0 0 0 0 0 0 0 0 0 0 0 0 0 0 0 0 0 0 0 0 0 0 0 0 0 0 0 0 0 0 0 0 0 0 0 0 0 0 0 0 0 0 0 0 0 0 0 0 0 0 0 0 0 0 0 0 0 0 0 0 0 0 0 0 0 0 0 0 0 0 0 0 0 0 0 0 0 0 0 0 0 0 0 0 0 0 0 0 0 0 0 0 0 0 0 0 0 0 0 0 0 0 0 0 0 0 0 0 0 0 0 0 0 0 0 0 0 0 0 0 0 0 0 0 0 0 0 0 0 0 0 0 0 0 0 0 0 0 0 0 0 0 0 0 0 0 0 0 0 0 0 0 0 0 0 0 0 0 0 0 0 0 0 0 0 0 0 0 0 0 0 0 0 0 0 0 0 0 0 0 0 0 0 0 0 0 0 0 0 0 0 0 0 0 0 0 0 0 0 0 0 0 0 0 0 0 0 0 0 0 0 0 0 0 0 0 0 0 0 0 0 0 0 0 0 0 0 0 0 0 0 0 0 0 0 0 0 0 0 0 0 0 0 0 0 0 0 0 0 0 0 0 0 0 0 0 0 0 0 0 0 0 0 0 0 0 0 0 0 0 0 0 0 0 0 0 0 0 0 0 0 0 0 0 0 0 0 0 0 0 0 0 0 0 0 0 0 0 0 0 0 0 0 0 0 0 0 0 0 0 0 0 0 0 0 0 0 0 0 0 0 0 0 0 0 0 0 0 0 0 0 0 0 0 0 0 0 0 0 0 0 0 0 0 0 0 0 0 0 0 0 0 0 0 0 0 0 0 0 0 0 0 0 0 0 0 0 0 0 0 0 0 0 0 0 0 0 0 0 0 0 0 0 0 0 0 0 0 0 0 0 0 0 0 0 
124.302 31.6848 35.3407 35.3407 40.8246 35.3407 44.4806 44.4806 59.1043 48.1365 61.5416 40.8246 49.9645 56.667 58.495 54.839 50.5738 53.6204 67.0255 71.2908 71.2908 79.8213 68.2441 79.212 74.9467 82.2586 109.069 104.194 74.9467 96.273 92.0077 112.115 106.022 135.879 124.302 128.567 137.707 146.237 158.424 160.861 157.205 161.471 145.628 168.782 165.126 178.532 173.657 199.858 173.657 171.829 167.564 174.876 188.89 186.453 190.109 200.467 166.345 183.406 179.75 177.313 170.61 174.876 169.392 184.015 198.03 168.173 166.345 169.392 168.782 172.438 151.721 166.954 150.503 135.27 148.675 150.503 143.8 143.8 157.815 135.27 148.675 146.847 141.363 135.879 130.395 129.176 128.567 123.693 118.818 120.646 124.911 116.99 131.614 135.879 127.958 124.911 124.302 96.273 131.614 109.069 112.725 134.66 110.287 98.101 106.022 107.85 97.4916 99.3196 90.7891 88.3518 98.7103 77.9933 92.0077 93.8357 91.3984 84.0865 93.2264 79.212 84.0865 74.3374 82.8679 81.0399 68.2441 76.7747 73.7281 73.7281 76.7747 71.2908 67.0255 67.6348 62.1509 61.5416 63.3696 59.1043 70.6814 62.1509 55.4484 66.4162 56.0577 62.1509 56.0577 59.1043 51.7924 56.667 57.2763 50.5738 45.0899 62.7602 53.6204 56.667 45.6992 38.3873 46.3085 45.0899 49.3551 48.7458 35.3407 59.1043 43.8712 43.2619 42.0433 43.8712 35.3407 48.1365 40.8246 35.95 37.1687 38.3873 43.8712 40.8246 36.5594 35.3407 34.1221 34.1221 32.9034 29.2475 32.9034 38.3873 31.0755 28.6382 35.95 29.8568 34.1221 28.0288 28.0288 22.5449 31.0755 28.0288 31.0755 25.5916 32.9034 36.5594 31.6848 31.6848 27.4195 26.2009 19.4983 21.9356 29.8568 24.3729 26.8102 18.2797 21.9356 24.3729 20.1077 23.7636 22.5449 25.5916 21.3263 22.5449 21.3263 24.3729 21.3263 18.889 12.7958 15.2331 21.9356 18.889 15.8424 19.4983 14.6237 20.717 20.717 21.3263 16.4517 15.2331 19.4983 21.3263 12.7958 14.6237 13.4051 17.061 12.7958 13.4051 14.0144 10.3585 11.5771 10.9678 23.1543 9.74916 10.9678 10.9678 12.7958 12.1865 14.0144 14.0144 13.4051 10.9678 17.6704 11.5771 8.53052 10.9678 12.7958 16.4517 10.9678 13.4051 11.5771 15.8424 10.9678 10.9678 8.53052 10.3585 12.7958 11.5771 12.7958 8.53052 10.3585 11.5771 6.09323 4.87458 10.3585 8.53052 12.1865 6.70255 7.31187 12.7958 9.13984 8.53052 6.70255 10.9678 10.3585 6.70255 9.74916 7.9212 10.3585 7.9212 7.31187 3.65594 7.31187 7.9212 8.53052 7.31187 7.9212 9.13984 8.53052 7.31187 8.53052 4.87458 4.87458 7.9212 6.09323 6.70255 3.04661 5.4839 8.53052 6.09323 8.53052 5.4839 6.09323 4.87458 6.70255 5.4839 4.26526 3.04661 3.65594 3.65594 1.82797 4.87458 4.87458 4.26526 1.82797 2.43729 4.87458 4.87458 4.87458 8.53052 2.43729 1.21865 3.04661 4.87458 6.70255 4.26526 1.82797 4.26526 1.82797 3.04661 5.4839 5.4839 3.04661 5.4839 4.87458 3.65594 5.4839 3.04661 6.70255 3.04661 2.43729 3.04661 5.4839 4.26526 2.43729 4.87458 1.82797 5.4839 1.82797 1.21865 1.82797 2.43729 6.09323 5.4839 3.04661 6.70255 1.21865 1.21865 3.65594 3.65594 2.43729 3.65594 4.87458 3.65594 2.43729 2.43729 3.04661 3.65594 3.04661 1.21865 2.43729 1.21865 1.21865 2.43729 0.609323 2.43729 3.04661 3.04661 4.26526 1.21865 2.43729 3.04661 1.21865 3.65594 4.26526 3.04661 5.4839 2.43729 1.82797 0 3.04661 1.21865 1.21865 2.43729 2.43729 0.609323 4.26526 1.82797 3.65594 1.21865 1.82797 2.43729 2.43729 2.43729 3.65594 1.82797 3.65594 2.43729 0.609323 1.21865 3.04661 2.43729 1.82797 1.82797 1.21865 4.26526 1.82797 0.609323 1.82797 1.21865 0 1.82797 2.43729 1.21865 1.21865 2.43729 1.82797 3.04661 2.43729 3.04661 0.609323 1.21865 2.43729 0 3.04661 1.82797 1.21865 0.609323 1.21865 0.609323 1.21865 0.609323 1.82797 1.82797 3.04661 1.82797 0.609323 0.609323 0.609323 1.82797 1.21865 1.21865 1.82797 0 0.609323 0.609323 0.609323 0.609323 3.04661 3.04661 3.04661 0.609323 0.609323 0.609323 0.609323 1.21865 0.609323 0.609323 0 1.21865 2.43729 1.21865 0 1.82797 0 0 0.609323 0.609323 1.21865 0.609323 1.21865 1.82797 2.43729 0 1.21865 0 0 0.609323 1.21865 1.82797 0.609323 2.43729 1.82797 2.43729 2.43729 0 1.21865 1.82797 0 1.82797 0.609323 1.21865 1.82797 1.21865 1.21865 1.21865 0.609323 0.609323 1.21865 0.609323 0 0.609323 0.609323 0.609323 0 1.21865 0 1.82797 0 0.609323 0.609323 1.21865 1.21865 0 1.21865 0.609323 1.21865 1.21865 0.609323 1.21865 0.609323 1.82797 0 1.21865 0 0.609323 0.609323 0 0.609323 0 0.609323 0 0 1.82797 0.609323 0 0.609323 0.609323 0.609323 0.609323 0.609323 0 0.609323 0.609323 0.609323 0.609323 0 0 1.82797 1.21865 0 0 0.609323 0.609323 0.609323 0.609323 0 0.609323 0.609323 0 0.609323 0.609323 0.609323 1.21865 0 0 0.609323 0 1.82797 1.21865 0 1.21865 1.21865 0.609323 0 0.609323 1.21865 0 0.609323 0 0.609323 0.609323 0.609323 0 0 0.609323 0 0.609323 0.609323 1.21865 0.609323 0.609323 0 0 0.609323 0 0 0 0 0.609323 0 0.609323 0 1.82797 0.609323 0 0.609323 0 0 1.21865 0 0.609323 0.609323 0 0 0 0 0.609323 0 0 0 0 0.609323 0 0.609323 0 0.609323 0 0 0.609323 1.21865 0 0.609323 0 0 0.609323 0.609323 0.609323 0 0.609323 0 1.82797 0 0 0 0 1.21865 0 0 0 0 0 0 0 0.609323 0.609323 0 0 0 1.82797 0 0 0 0 0 0 1.21865 0 0 0 0 1.21865 0.609323 0 0.609323 0 0.609323 0.609323 0 0.609323 0 0 0 0.609323 0.609323 0.609323 0 0 0 0.609323 0 0.609323 0 0 0.609323 0 0 1.21865 0 0 0 0 0 0 0.609323 0 0 0 0 0 0 0 0 0 0 0 0 0.609323 0 0.609323 0 0.609323 0 0.609323 0.609323 0 0 0.609323 0.609323 0 0 0 0 0.609323 0 0 0 0 0 0 0.609323 0 0 0 0 0.609323 0 0 0 0 0 0 0 0 0.609323 0 0.609323 0 0 0 0 0 0 0 0 0 0 0 0 0 0 0 0 0 0.609323 0 0 0 0 0 0.609323 0 0.609323 0 0 0 0 0 0 0.609323 0 0 0 0.609323 0 0.609323 0 0 0 0 0 0 0.609323 0.609323 0 0 0 0.609323 0.609323 0 0 0 0 0 0 0 0 0 0 0 0 0 0 0.609323 0 0 0 0.609323 0 0 0 0.609323 0 0 0 0 1.21865 0 0 0.609323 0 0.609323 0 0 0 0 0 0 0 0.609323 0 0 0 0 0 0 0 0 0 0 1.21865 0 0 0 0 0 0 0 0 0.609323 0 0 0 0 0 0 0 0 0 0 0 0 0 0 0 0 0 0 0.609323 0.609323 0 0 0 0 0 0 0 0 0.609323 0 0 0 0 0 0 0 0 0 0 0.609323 0 0 0 0 0 0 0 0 0.609323 0 0 0 0 0 0 0 0 0 0 0 0 0 0 0 0 0 0 0 0 0 0 0 0.609323 0 0 0 0 0 0 0 0 0 0 0 0 0 0 0 0 0 0 0 0 0 0 0 0 0 
7.89957 1.69277 3.38553 6.20681 1.12851 2.25702 2.25702 1.69277 4.51404 5.0783 6.20681 5.0783 5.64255 5.64255 4.51404 11.8494 3.38553 8.46383 11.2851 3.94979 8.46383 7.33532 7.33532 6.77106 11.2851 14.1064 10.1566 14.6706 18.6204 7.33532 12.9779 20.3132 18.0562 17.4919 19.7489 19.7489 18.6204 20.3132 26.52 18.0562 31.034 21.4417 30.4698 23.1345 33.8553 36.6766 29.9055 36.1123 34.4196 44.0119 42.8834 40.0621 44.0119 47.9617 44.0119 56.9898 56.9898 73.3532 69.9677 62.6323 69.4034 73.9174 108.337 94.7949 124.136 133.728 142.192 187.897 222.317 269.15 384.258 502.751 727.889 1064.75 1610.38 2429.68 3329.11 3251.24 2558.9 1599.1 937.228 633.094 393.85 287.77 199.746 153.477 132.6 101.002 82.3813 66.0179 66.0179 58.6825 66.0179 52.4757 49.0902 48.526 34.9838 38.9336 40.6264 30.4698 24.8272 25.9557 25.3915 23.1345 27.6485 22.5702 25.9557 22.5702 13.5421 14.1064 17.4919 15.2349 19.7489 11.8494 18.0562 20.8774 11.2851 14.6706 12.9779 9.02808 14.1064 10.7208 10.1566 16.9277 12.4136 8.46383 10.1566 11.2851 9.59234 6.77106 7.89957 8.46383 11.8494 8.46383 6.20681 10.7208 4.51404 5.64255 9.59234 4.51404 8.46383 7.89957 12.4136 6.77106 9.02808 14.6706 7.33532 5.64255 6.77106 6.20681 5.0783 7.33532 6.20681 5.64255 6.20681 3.94979 3.94979 6.20681 6.77106 6.20681 2.25702 3.38553 5.0783 5.0783 3.38553 2.82128 5.64255 5.0783 2.82128 6.77106 7.33532 6.20681 4.51404 2.82128 4.51404 6.77106 3.38553 2.25702 3.38553 3.94979 1.69277 3.38553 5.0783 3.38553 1.69277 2.82128 1.69277 2.25702 4.51404 5.0783 2.82128 3.38553 2.82128 5.0783 3.38553 3.94979 2.25702 2.82128 5.0783 3.38553 0.564255 2.25702 2.82128 3.94979 1.69277 1.69277 1.12851 0.564255 1.12851 2.25702 1.69277 2.82128 3.38553 3.94979 2.25702 2.25702 0.564255 2.82128 2.25702 1.69277 0.564255 2.82128 3.38553 3.38553 0.564255 3.94979 2.82128 2.25702 0.564255 2.25702 2.25702 0.564255 1.69277 2.25702 0.564255 2.25702 0 1.12851 1.69277 1.69277 2.82128 2.25702 1.69277 1.12851 1.69277 2.25702 1.12851 1.69277 1.12851 2.25702 2.82128 1.12851 1.12851 1.69277 1.12851 0 1.12851 2.25702 0.564255 2.25702 0 1.12851 1.12851 1.69277 1.69277 1.69277 0.564255 1.69277 0.564255 0.564255 2.82128 1.12851 1.12851 0.564255 0 1.69277 0.564255 1.12851 0.564255 1.12851 1.69277 0.564255 1.12851 0 0 0 1.12851 1.12851 0 0 1.69277 1.12851 0.564255 0 0.564255 1.12851 0.564255 0 0.564255 0.564255 1.69277 2.25702 0.564255 0 2.25702 1.12851 0 1.12851 0 1.12851 1.12851 0 1.12851 0 0 0.564255 0 0.564255 1.69277 0 1.69277 0.564255 0 0.564255 1.12851 1.12851 0.564255 1.69277 0 1.12851 0.564255 1.12851 0 1.12851 0 0 0 0 0 1.12851 0.564255 0 1.12851 0.564255 0 1.12851 0.564255 0 1.69277 0 0.564255 0.564255 0.564255 0.564255 0 0.564255 0.564255 1.12851 0 0 0.564255 0 1.12851 0 0 0 0.564255 0.564255 0 0.564255 0.564255 0 0 0 0 0 0 0.564255 0 0 0 0 0 0.564255 0 0.564255 0.564255 0.564255 0 0 0 0 0 1.12851 0.564255 0 0 0 0 0 0.564255 0 0.564255 0.564255 0 0 0 0.564255 0 0.564255 0.564255 0 0 0 0.564255 0 0.564255 0 0.564255 0 0 0 0.564255 1.12851 0 0 0 0 0.564255 0.564255 0.564255 0 0 0 0 1.12851 0 0 0.564255 0 0 0.564255 0 0 0.564255 0 0.564255 0 0 0 0 0 0.564255 0.564255 0.564255 0.564255 0 0 0 0 0 0.564255 0.564255 0 0 0.564255 0 0 0 0.564255 0 0 0 0 0 0 0 0.564255 0 0.564255 0 0 0 0 0.564255 0 0 0 0 0 0.564255 0 0 0 0 0.564255 0.564255 0 0 0.564255 0 0 0 0 0 0.564255 0 0.564255 0 0 0 0 0 0 0 0 0 0 0 0 0 0 0 0.564255 0 0 0 0 0 0 0 0 0 0 0 0 0 0 0 0 0 0 0 0 0 0 0 0 1.12851 0 0 0 0 0 0 0 0 0 0 0 0 0 0 0 0 0 0 0 0 0 0 0 0 0 0.564255 0 0 0 0 0 0 0 0 0 0 0 0 0 0 0 0 0 0 0 0 0 0 0 0.564255 0 0.564255 0 0 0 0 0 0 0 0 0.564255 0 0 0 0 0 0 0 0 0 0 0 0 0 0 0 0 0 0 0 0 0.564255 0 0 0 0 0 0 0 0 0 0 0 0 0 0 0 0 0 0 0 0 0 0 0 0 0 0 0 0 0 0 0 0 0 0 0 0 0 0 0 0 0 0.564255 0 0 0 0 0 0 0 0 0 0 0 0 0 0 0 0 0 0 0 0.564255 0 0.564255 0.564255 0 0 0 0 0 0 0 0 0 0 0 0 0 0 0.564255 0 0 0 0 0 0 0 0 0 0 0 0 0 0 0 0 0 0 0 0 0 0 0 0 0 0 0 0 0 0 0 0 0 0 0 0 0 0.564255 0 0 0 0 0 0 0 0 0 0.564255 0 0 0 0 0 0 0 0 0 0 0 0 0 0 0 0 0 0 0 0.564255 0 0 0 0 0 0 0 0 0 0.564255 0 0 0 0 0 0 0 0 0 0 0 0 0 0 0 0 0 0 0 0 0 0 0 0 0 0 0 0 0 0 0 0 0 0 0 0 0 0 0 0 0 0 0 0 0 0 0 0 0 0 0 0 0 0 0 0 0 0 0 0 0 0 0 0 0 0 0 0 0.564255 0 0 0 0 0 0 0 0 0 0 0 0 0 0 0 0 0 0 0 0 0 0 0 0 0 0 0 0 0 0 0 0 0 0 0 0 0 0 0 0 0 0 0 0 0 0 0 0 0 0 0 0 0 0 0 0 0 0 0 0 0 0 0 0 0.564255 0 0 0 0 0 0 0 0 0 0 0 0 0 0 0 0 0 0 0.564255 0 0 0 0 0 0 0 0 0 0 0 0 0 0 0 0 0 0 0 0 0 0 0 0 0 0 0 0 0 0 0 0 0 0 0 0 0 0 0 0 0 0 
78.3813 14.8449 13.6574 17.8139 10.6884 11.876 14.2511 14.8449 5.93798 9.50077 12.4698 13.0636 8.31317 8.31317 11.2822 5.34418 10.6884 4.15658 7.71937 7.12557 11.2822 8.31317 11.876 9.50077 8.31317 12.4698 6.53178 9.50077 8.31317 12.4698 7.71937 14.2511 10.6884 9.50077 11.876 11.2822 14.8449 10.6884 11.2822 15.4387 14.8449 13.6574 13.0636 21.3767 20.1891 16.0325 20.7829 17.8139 22.5643 16.0325 20.7829 19.0015 21.3767 34.4403 26.1271 30.8775 34.4403 30.8775 27.9085 26.7209 36.8155 53.4418 51.6604 67.693 67.693 81.3503 99.758 122.322 146.074 175.764 237.519 309.962 465.538 738.685 1116.93 1727.95 2165.58 2272.46 1670.35 1105.06 667.429 416.846 279.085 205.454 136.574 109.259 96.789 72.4433 61.1612 42.7534 43.3472 39.7845 29.0961 34.4403 26.7209 33.8465 16.6263 25.5333 25.5333 18.4077 15.4387 21.9705 10.0946 14.2511 12.4698 8.31317 8.90697 10.0946 11.876 12.4698 5.93798 10.0946 8.90697 8.31317 8.90697 10.0946 8.90697 4.15658 7.12557 4.15658 4.15658 5.93798 4.75038 9.50077 8.31317 5.34418 5.93798 7.12557 5.93798 6.53178 5.93798 5.34418 2.96899 3.56279 4.15658 1.1876 4.15658 4.15658 4.75038 4.75038 2.96899 2.96899 5.34418 2.37519 5.34418 2.96899 1.1876 2.37519 2.37519 3.56279 3.56279 2.96899 1.78139 2.37519 4.75038 1.78139 3.56279 4.15658 0.593798 1.78139 4.15658 3.56279 3.56279 4.75038 3.56279 1.78139 1.78139 0.593798 4.15658 1.78139 0.593798 2.37519 2.37519 3.56279 3.56279 4.15658 1.1876 1.1876 1.78139 0.593798 1.78139 1.1876 0.593798 2.37519 1.78139 2.37519 3.56279 0.593798 1.78139 0.593798 2.37519 2.37519 0 1.1876 3.56279 0 1.78139 1.1876 2.37519 1.1876 0 1.78139 0.593798 0.593798 1.78139 1.78139 0 1.78139 0 1.1876 2.37519 1.78139 1.1876 0.593798 0.593798 1.1876 0 1.1876 0 1.1876 0.593798 0.593798 0.593798 1.1876 0.593798 1.78139 2.37519 1.1876 0 1.1876 1.78139 0.593798 1.1876 0 0.593798 1.1876 1.1876 0.593798 0 1.1876 0 0.593798 0 0 0.593798 1.1876 0.593798 1.78139 0.593798 0 0 0.593798 0.593798 0 0.593798 1.1876 1.1876 0.593798 1.1876 1.1876 0 0 0.593798 1.78139 0.593798 0 0 0.593798 1.1876 1.1876 0 0.593798 1.1876 0 0.593798 0 2.37519 0 0.593798 0.593798 0 0 0.593798 0.593798 0.593798 1.1876 1.1876 0 0.593798 0 0 0 1.1876 0 1.1876 0.593798 1.1876 0.593798 0 0.593798 0 0.593798 0 0 1.1876 0 1.1876 0.593798 0 0 0.593798 0 2.96899 0 0 0 1.1876 0 0 0 0 0.593798 1.1876 0.593798 0.593798 0.593798 0.593798 0 0 0.593798 1.78139 0 0.593798 0.593798 1.1876 1.1876 0 0.593798 0 0 0.593798 0 0 1.1876 1.1876 0 0.593798 0 0 0 0.593798 0.593798 0 0.593798 1.1876 0 0 0 0.593798 0.593798 0 0 0 0 0.593798 0 0 0 0 0 0 0.593798 0 0 1.1876 0 0 0 0 0 0.593798 0 0.593798 0 0 0 0 0.593798 0 0 0.593798 0 0 0 0 0 0 0 0 0.593798 0 0 0 0 0 0 0 0 0 0 0 0 0 0 0.593798 0 1.1876 0 0 0 0.593798 0 0 0 0 0.593798 0 0 0 0 0 0 0 0 0 0 0 0 0.593798 0 0.593798 0 0 0.593798 0 0 0 0 0 0 0.593798 0 0 0 0 0.593798 1.1876 0 0 0 0 0.593798 0 0 0 0.593798 0 0 0 0 0 0 0.593798 0 0 0 0 0 0.593798 0 0 0 0 0 0 0.593798 0 0 0 0 0 0.593798 0 0 0 0 0.593798 0 0.593798 0 0 0 0 0 0 0 0 0 0 0 0 0 0 0 0 0 0 0 0 0 0 0 0 0 0 0 0 0 0 0 0 0 0 0 0 0 0 0 0 0 0 0 0 0 0 0 0 0 0 0 0 0 0 0 0 0 0 0 0 0 0 0 0 0 0 0.593798 0 0 0 0 0 0 0 0 0 0 0 0 0.593798 0 0 0.593798 0.593798 0 0 0.593798 0 0 0 0 0 0 0 0 0.593798 0 0 0.593798 0 0 0 0 0 0 0 0 0 0 0 0 0 0 0 0 0 0 0.593798 0 0.593798 0 0 0 0 0 0 0 0 0 0 0 0 0 0 0 0 0 0 0 0.593798 0 0 0 0.593798 0 0 0 0 0 0 0 0 0 0 0 0 0 0 0 0.593798 0 0 0 0 0 0 0 0 0 0 0 0 0 0 0 0 0 0 0 0 0 1.1876 0 0 0 0 0 0 0 0 0 0 0 0 0 0 0 0 0 0 0 0 0 0 0 0.593798 0 0 0 0 0 0 0 0 0 0 0 0 0.593798 0 0 0 0 0 0 0 0 0 0 0 0.593798 0 0 0 0 0 0 0 0 0 0 0 0 0 0 0 0 0 0 0 0 0 0 0 0 0 0 0 0 0 0 0 0 0 0 0 0 0 0 0 0 0 0 0 0 0 0 0 0 0 0 0 0 0 0 0 0 0 0 0 0.593798 0 0 0 0 0 0 0 0 0 0 0 0 0 0 0 0 0 0 0 0 0 0 0 0 0 0 0 0 0 0 0 0 0 0 0 0 0 0 0 0 0 0 0 0 0 0 0 0 0 0 0 0 0 0 0 0 0 0 0 0 0 0 0 0 0 0 0 0 0 0 0 0 0 0 0 0 0 0 0 0 0 0 0 0 0 0 0 0 0 0.593798 0 0 0 0 0 0 0 0 0 0 0 0 0 0 0 0 0 0 0 0 0 0 0 0 0 0 0 0 0 0 0 0 0 0 0 0 0 0 0 0 0 0 0 0 0 0 0 0 0 0 0 0 0 0 0 0 0 0 0 0 0 0 0 0 0 0 0 0 0 0 0 0 0 0 0 0 0 0 0 0 0 0 0 0 0 0 0 0 0 0 0 0 0 0 0 0 0 0 0 0 0 0 0 0 
63.0574 17.0626 17.8044 20.9573 18.3608 18.7318 19.4736 19.2881 22.8119 20.9573 26.1503 30.9723 30.7869 29.3031 27.4485 29.8595 31.3432 30.7869 33.9397 30.2305 31.7142 31.3432 38.7618 33.5688 35.0525 40.9873 36.5362 43.3983 41.9146 44.1402 43.2129 43.9547 48.0349 48.7768 48.9622 51.7442 53.2279 54.3406 54.1552 58.9772 59.7191 57.1226 63.4283 54.3406 62.3156 62.3156 60.8319 56.1953 58.4208 62.8719 65.0975 62.3156 58.6063 65.0975 66.2103 63.9847 68.6213 61.9446 64.1702 61.0173 62.8719 65.283 66.9521 63.4283 66.2103 60.6464 62.6865 65.283 63.0574 58.7918 65.6539 63.9847 59.7191 55.268 64.912 67.8794 63.0574 55.4534 57.8644 58.9772 61.7592 58.7918 59.3481 60.2755 58.2354 60.2755 55.6389 53.7843 62.3156 52.1151 52.3006 53.2279 57.8644 60.2755 48.5913 53.5988 53.0424 50.8169 52.8569 46.7367 52.3006 48.0349 40.2455 49.7041 44.1402 46.9221 45.6239 44.3256 39.5036 47.664 44.6966 46.5512 46.1803 41.1728 43.2129 41.9146 41.9146 37.4635 38.3908 40.9873 43.2129 37.8344 30.2305 35.7944 36.7217 33.7543 36.1653 37.4635 30.9723 36.7217 33.5688 37.4635 33.5688 32.8269 33.7543 36.7217 32.6415 35.4234 30.9723 28.7468 28.3758 25.9648 25.7794 30.9723 32.0851 27.8194 32.0851 28.5613 29.3031 26.1503 24.2956 22.6265 26.8921 24.6666 28.7468 23.3683 20.9573 23.5538 23.1829 21.1428 25.223 23.9247 20.4009 20.7719 18.7318 22.2556 19.8445 20.9573 18.3608 17.619 17.619 21.3282 21.6992 17.619 18.9172 18.9172 17.4335 15.208 15.7644 16.6917 18.5463 17.619 12.6115 16.1353 14.6516 20.03 15.5789 16.8771 16.1353 13.9097 12.426 11.1278 14.837 16.5062 16.1353 14.6516 13.5388 13.1679 14.4661 13.5388 13.9097 14.0952 11.8696 16.5062 15.0225 14.0952 12.9824 9.64407 12.7969 12.426 11.1278 12.0551 9.27315 13.5388 10.5714 11.1278 7.60398 7.60398 7.97491 7.97491 10.3859 7.97491 5.74935 8.16037 10.3859 6.86213 10.9423 10.2005 7.97491 7.04759 8.90222 9.45861 7.78944 8.90222 5.56389 8.5313 6.67667 7.41852 7.60398 6.4912 7.04759 6.86213 6.30574 8.16037 7.60398 7.04759 7.23306 6.67667 5.19296 5.0075 6.86213 7.04759 4.82204 5.93481 5.19296 4.45111 6.4912 6.12028 5.19296 6.30574 4.26565 5.37843 7.23306 5.19296 6.67667 4.26565 3.70926 5.37843 6.4912 4.26565 4.26565 5.0075 4.63657 6.4912 3.89472 5.93481 4.63657 3.89472 4.08019 3.70926 5.0075 2.78194 3.33833 3.15287 3.15287 4.08019 3.15287 3.70926 2.59648 3.15287 4.45111 3.33833 2.96741 1.85463 2.59648 2.78194 2.59648 1.85463 2.59648 2.78194 3.89472 2.59648 2.78194 3.89472 2.96741 2.22556 2.78194 2.04009 1.66917 3.33833 2.59648 1.66917 3.70926 3.5238 3.33833 2.22556 2.04009 3.15287 2.96741 2.78194 2.78194 2.78194 2.41102 1.85463 2.96741 1.85463 1.66917 2.22556 3.33833 2.22556 2.04009 1.4837 1.29824 2.22556 1.29824 2.22556 1.85463 1.85463 2.78194 1.4837 1.66917 2.22556 2.04009 0.741852 2.04009 1.85463 1.29824 1.85463 2.78194 1.4837 0.741852 0.741852 2.41102 2.04009 1.11278 2.04009 2.41102 1.29824 0.927315 0.741852 1.4837 1.29824 1.11278 2.04009 0.741852 1.29824 2.22556 1.29824 1.4837 1.29824 1.4837 1.11278 1.4837 1.11278 1.11278 0.556389 1.4837 1.4837 2.04009 1.4837 1.85463 0.927315 0.185463 1.4837 1.11278 1.4837 1.66917 1.66917 0.556389 1.4837 1.11278 1.4837 0.927315 1.85463 1.29824 1.4837 0.556389 0.927315 0.927315 1.29824 0.556389 0.556389 0.370926 0 1.11278 1.29824 1.29824 0.185463 0.556389 1.11278 0.370926 0.927315 0.370926 0.556389 0.741852 0.370926 0.370926 0.556389 0.185463 1.29824 0.741852 1.29824 1.4837 1.11278 0.556389 0.556389 0.741852 0.927315 1.11278 1.29824 0.927315 1.4837 0.556389 1.11278 0.741852 0.927315 0.185463 1.11278 0.370926 0.556389 0.185463 1.11278 0.741852 0.370926 0.556389 0.927315 0.927315 0.741852 0.741852 0.927315 0.185463 0.185463 0 0.741852 0.741852 0.556389 1.11278 0.927315 0.185463 0.370926 0.370926 1.11278 0.185463 0.370926 0.741852 0.185463 0.370926 0.370926 0.370926 0.556389 0.370926 0.185463 0 0.370926 0 0.556389 0.185463 0.370926 0.185463 0 0.370926 0.185463 0.556389 0.185463 0.185463 0.741852 0 0.185463 0.556389 0.556389 0.556389 0.370926 0.556389 0.370926 0 0.741852 0.370926 0.741852 0.185463 0.185463 0 0.370926 0.370926 0.185463 0.556389 0 0.185463 0.556389 0.370926 0.370926 0.556389 0.370926 0.185463 0.185463 0 0 0.185463 0 0.185463 0 0.556389 0.185463 0.185463 0.185463 0.370926 0.370926 0.185463 0.370926 0.556389 0 0.185463 0 0 0.556389 0.370926 0 0.370926 0 0.741852 0 0.556389 0.185463 0.185463 0.370926 0 0 0 0.185463 0.185463 0 0.185463 0.185463 0.185463 0.556389 0.185463 0.185463 0.556389 0 0 0.185463 0 0 0 0 0.370926 0.370926 0.185463 0 0.185463 0 0.370926 0 0.370926 0 0.185463 0.185463 0.185463 0.370926 0.370926 0.185463 0.185463 0 0.370926 0.185463 0 0.185463 0 0 0 0.185463 0.185463 0.370926 0 0 0.185463 0.185463 0 0.370926 0.185463 0.185463 0.185463 0.185463 0 0 0.370926 0 0.185463 0.185463 0.185463 0 0 0.185463 0 0.185463 0.185463 0 0 0 0 0.185463 0 0.185463 0 0.370926 0.556389 0 0.185463 0 0.185463 0 0 0.556389 0 0 0 0.185463 0 0.185463 0 0 0 0 0 0 0 0 0.185463 0 0 0.185463 0 0 0 0 0.185463 0 0 0 0 0.556389 0.370926 0.185463 0 0 0.185463 0 0 0 0 0 0 0 0.185463 0 0.185463 0.185463 0 0 0 0.185463 0 0 0 0 0 0 0.185463 0 0 0 0.185463 0 0 0 0 0 0.185463 0.185463 0 0 0 0 0 0 0 0 0 0 0.185463 0 0 0 0.185463 0 0 0 0.370926 0 0 0 0 0 0 0 0.185463 0 0.185463 0 0.185463 0 0 0.185463 0.185463 0 0 0 0.185463 0 0.556389 0 0.185463 0 0 0 0 0 0 0.185463 0.185463 0 0 0 0 0 0 0 0 0 0 0 0.185463 0 0 0 0 0 0 0.185463 0 0 0 0 0.185463 0 0 0 0 0 0 0.185463 0 0 0 0 0 0 0 0 0 0 0.185463 0 0 0 0 0 0 0 0 0 0 0 0 0 0 0 0 0 0 0 0 0 0 0 0 0 0 0.185463 0 0 0 0 0 0 0.185463 0 0 0 0 0 0 0 0 0 0 0.185463 0 0 0 0 0 0 0 0 0 0 0 0 0 0 0.185463 0 0 0 0 0 0 0 0 0 0 0 0 0 0 0.185463 0.185463 0 0.185463 0 0 0.185463 0 0 0 0 0 0 0 0.185463 0 0 0 0 0 0.185463 0 0 0 0 0 0 0 0 0 0 0 0.185463 0 0 0 0 0 0 0 0 0 0 0 0 0 0 0 0 0 0 0.185463 0 0 0 0 0 0 0 0 0 0 0 0 0 0 0 0 0 0 0 0 0.185463 0 0 0 0 0 0 0 0 0 0 0 0 0 0 0 0 0 0 0 0 0 0 0 0 0 0 0 0 0 0 0 0 0 0 0 0 0 0 0 0 0 0 0 0 0 0 
61.9537 17.384 20.1581 16.0895 17.1991 20.343 20.7129 19.4183 22.7472 25.1514 27.0007 24.0417 25.1514 26.6309 28.8501 30.5145 36.8024 30.1446 29.9597 32.5488 34.3982 36.6174 35.6927 41.0559 36.6174 40.1312 43.0902 41.9806 43.0902 45.1245 43.8299 44.3848 44.5697 52.1521 47.1588 44.3848 51.4123 50.6726 53.0768 49.9329 55.6659 55.8508 56.9604 62.1387 60.1044 59.3646 56.4056 57.1454 61.7688 55.6659 66.3922 63.8031 63.6182 61.3989 66.3922 61.9537 63.4332 67.1319 68.4265 61.214 63.988 65.8374 63.8031 62.5085 63.0633 61.7688 63.6182 61.7688 65.2826 66.2073 59.3646 60.6592 55.4809 58.9947 64.173 61.9537 63.6182 54.7412 64.173 62.6935 58.6249 59.5495 54.7412 60.8441 57.8851 59.5495 56.7755 49.7479 58.4399 58.4399 54.3713 55.6659 57.8851 55.6659 48.0835 51.7822 52.1521 51.2274 51.2274 51.2274 49.563 46.604 51.0425 56.7755 49.7479 45.8642 47.7136 46.7889 43.2751 42.1655 40.871 43.4601 36.8024 47.1588 48.8232 39.7613 39.5764 40.3162 41.9806 40.3162 39.5764 39.7613 37.727 36.6174 36.9873 35.8777 38.2819 38.0969 36.0626 33.4735 31.0693 35.1379 30.6995 33.4735 31.0693 33.2886 26.4459 33.6584 30.5145 28.8501 32.1789 28.8501 26.4459 31.4392 29.4049 25.1514 26.261 29.035 26.6309 22.7472 24.9664 23.302 22.7472 23.8568 24.2267 24.4116 24.7815 24.0417 23.302 21.4526 20.7129 24.9664 21.0828 23.1171 20.1581 24.0417 19.7882 19.9731 18.6786 17.9388 18.6786 18.8635 18.3087 16.8292 19.0485 18.4936 17.7539 16.4593 17.0142 16.2744 15.9045 14.7949 16.6443 17.9388 13.5004 19.2334 19.0485 14.7949 13.8702 12.7606 16.2744 12.5757 14.2401 14.425 14.61 14.7949 14.0552 16.0895 12.7606 14.61 14.0552 13.5004 12.7606 14.7949 13.6853 10.1715 12.9456 9.80163 11.4661 11.4661 12.0209 11.651 11.0962 9.80163 9.24682 11.4661 7.76733 10.3564 10.9113 10.3564 7.02759 11.8359 8.32214 7.76733 10.1715 8.69201 11.651 9.43176 6.1029 8.32214 9.24682 9.43176 7.76733 7.21252 7.39746 8.50708 9.24682 5.36316 9.43176 6.65771 9.6167 6.84265 8.32214 7.02759 6.65771 7.5824 5.54809 7.5824 5.73303 6.65771 5.36316 4.62341 6.65771 5.54809 7.5824 6.47278 3.88367 7.39746 7.95227 5.17822 6.47278 5.91797 7.5824 4.25354 4.80835 6.84265 5.54809 3.69873 6.84265 4.99329 5.91797 6.65771 4.43848 4.62341 3.88367 4.80835 3.88367 4.80835 5.54809 3.14392 4.62341 5.73303 3.51379 4.25354 4.0686 4.0686 4.25354 4.80835 3.14392 2.40417 2.58911 3.69873 4.43848 3.32886 4.99329 3.69873 3.69873 3.51379 3.51379 4.25354 3.14392 3.51379 2.40417 2.58911 2.40417 1.84936 3.88367 2.95898 3.51379 3.69873 4.25354 3.88367 2.58911 3.32886 2.77405 3.14392 2.40417 2.0343 2.0343 2.21924 3.32886 2.40417 1.66443 2.0343 1.66443 2.21924 2.58911 2.21924 1.47949 2.0343 2.0343 2.95898 2.58911 2.21924 2.0343 3.14392 1.10962 0.924682 1.66443 1.47949 1.29456 2.58911 2.0343 2.21924 0.369873 2.21924 1.47949 1.47949 2.77405 2.40417 1.84936 2.0343 0.924682 1.84936 2.21924 1.84936 1.47949 1.10962 1.29456 1.47949 1.84936 2.77405 2.40417 1.29456 1.84936 1.84936 2.0343 1.84936 0.554809 0.739746 0.554809 1.84936 0.924682 2.77405 1.29456 1.29456 1.84936 1.84936 0.554809 2.0343 1.29456 1.29456 0.739746 1.29456 1.10962 0.924682 1.10962 1.66443 0.739746 1.47949 0.924682 1.10962 0.369873 1.10962 0.369873 0.739746 1.29456 1.29456 0.924682 1.29456 1.29456 0.739746 0.739746 0.924682 0.739746 1.66443 0.554809 1.10962 0.924682 0.184936 0.184936 0.739746 0.554809 0.369873 1.10962 0.739746 0.184936 1.10962 0.924682 1.10962 1.29456 0.184936 0.369873 0.924682 0.184936 0.739746 0.369873 0.369873 0.369873 0.554809 0 0.924682 0.369873 0.924682 0.739746 1.29456 0.924682 0.554809 0.554809 0.369873 1.10962 0.924682 0.184936 1.29456 0.184936 0 0.184936 1.10962 0.554809 0.554809 1.10962 1.10962 0.924682 0.554809 0.554809 0.739746 0.369873 0.369873 1.29456 0.554809 0.369873 0.369873 0.184936 0.369873 0.369873 0.554809 0.369873 0.369873 0.369873 0.554809 0.369873 0.739746 0.924682 0 0.184936 0.739746 0.369873 0 0.369873 0.369873 0.184936 0.554809 0.184936 0 0.184936 0.739746 0.369873 0.369873 0.184936 0.369873 0.184936 0.184936 0.369873 0 0.554809 0.554809 0.369873 0.369873 0.184936 0.369873 0.184936 0.369873 0.369873 0.554809 0.184936 0.369873 0 0.184936 0.369873 0.369873 0.924682 0.739746 0.184936 0.184936 0.739746 0.369873 0.184936 0 0.369873 0.184936 0 0 0.184936 0.554809 0 0.369873 0.369873 0.184936 0.369873 0 0.184936 0.184936 0.924682 0 0.184936 0.184936 0.184936 0.369873 0.184936 0.184936 0.369873 0.369873 0.554809 0 0.184936 0.369873 0.369873 0.184936 0.739746 0.184936 0.184936 0.184936 0.369873 0.184936 0 0 0 0.369873 0.184936 0 0 0.184936 0 0.184936 0.184936 0 0 0 0 0.184936 0.369873 0 0 0.184936 0.184936 0.184936 0 0.369873 0.184936 0.184936 0.184936 0 0 0 0 0.184936 0 0.184936 0.184936 0.184936 0.369873 0.184936 0 0.184936 0.184936 0.184936 0 0 0.184936 0 0.369873 0.369873 0.369873 0.369873 0.184936 0 0 0 0 0.184936 0.184936 0 0 0 0 0 0 0 0.184936 0 0 0 0.369873 0.184936 0 0 0.184936 0 0 0.184936 0 0.184936 0 0 0 0.184936 0.184936 0.184936 0 0 0 0.369873 0 0 0.184936 0 0 0 0.184936 0.184936 0 0 0.184936 0 0.184936 0 0.184936 0 0 0.184936 0.184936 0 0 0 0 0 0 0 0 0 0.184936 0.184936 0.369873 0 0.369873 0 0 0 0 0 0 0 0 0.184936 0 0 0 0 0.184936 0 0 0 0.184936 0 0 0 0.184936 0.184936 0 0 0 0 0.184936 0 0 0 0.184936 0.184936 0.184936 0 0 0.184936 0.184936 0.184936 0 0 0 0 0 0.184936 0.184936 0 0 0 0 0.184936 0 0 0 0 0.184936 0 0 0.184936 0 0 0 0.184936 0 0 0 0 0 0.184936 0 0 0 0 0 0.184936 0.184936 0 0.184936 0.184936 0 0 0 0 0 0 0 0 0 0 0 0 0 0 0 0 0.184936 0 0 0 0.184936 0 0 0 0 0.184936 0 0 0 0 0 0 0 0 0 0 0 0 0 0 0 0 0 0 0 0 0 0 0 0 0 0 0 0 0 0 0.184936 0 0 0 0 0 0 0 0 0 0 0 0 0 0 0 0 0 0 0 0 0 0 0 0 0 0 0 0 0 0 0.184936 0 0 0 0 0 0 0 0 0 0.184936 0 0 0 0 0 0 0.184936 0 0 0 0 0 0 0 0 0 0 0 0 0 0 0 0 0 0 0 0 0 0 0 0 0 0 0 0.184936 0 0 0 0.184936 0 0 0 0 0 0 0 0 0 0 0 0.184936 0 0 0 0 0 0 0.184936 0 0 0 0 0 0 0 0 0 0 0 0 0 0 0 0 0 0 0 0 0 0 0 0 0 0 0 0 0 0 0 0 0 0 0 0 0 0 0.184936 0 0 0 0 0.184936 0 0 0 0 0 0 0 0 0 0 0 0 0 0 0 0 0 0 0 0 0 0 0 0 0 0 0 0 0 0 
2342.99 358.229 386.869 423.883 417.783 460.132 494.688 504.744 510.171 551.407 566.153 575.815 618.745 615.917 649.655 680.881 658.254 704.353 734.319 770.86 763.362 806.294 839.428 851.545 851.809 854.697 886.189 913.882 935.265 959.244 959.835 1005.17 1016.19 1045.05 1057.82 1112.58 1125.76 1181.05 1170.77 1184.28 1228.59 1263.63 1275.8 1279.36 1288.63 1298.15 1322.03 1356.04 1363.98 1358.13 1368.25 1358.4 1374.96 1375.98 1369.69 1409.95 1451.3 1437.17 1430.09 1389.43 1409.3 1408.23 1402.62 1373.75 1410.84 1410.92 1393.04 1386.65 1388.17 1366.66 1379.63 1365.03 1353.83 1327.14 1327.02 1326.6 1296.1 1312.8 1290.44 1253.66 1280.59 1267.73 1214.79 1245.94 1216.57 1221.25 1180.33 1193.51 1151.97 1147.47 1153.32 1143.98 1120.46 1109.83 1117.62 1076.82 1083.94 1081.04 1035.31 1016.48 1013.37 988.095 1001.45 1005.82 969.992 962.662 937.287 931.935 923.489 909.426 925.28 874.231 879.969 879.622 846.132 835.006 834.161 822.752 799.666 790.889 792.671 796.349 755.198 741.231 748.548 736.701 721.757 727.587 699.364 701.509 677.261 683.39 661.809 647.711 644.757 613.793 645.271 626.013 610.69 607.423 595.03 592.005 583.433 568.206 561.49 534.558 535.913 528.808 527.486 522.431 511.637 503.239 501.092 491.247 481.845 487.272 465.972 461.222 448.437 447.914 434.511 423.792 437.119 428.453 410.376 416.943 413.197 394.258 386.305 378.512 369.501 378.703 366.373 350.883 371.414 352.11 345.319 329.502 333.689 332.456 327.525 315.067 331.207 305.038 298.971 305.655 291.409 289.158 279.066 289.447 274.84 267.342 288.712 269.077 259.928 262.666 255.454 244.236 246.853 243.91 238.625 236.267 232.625 231.06 226.284 230.339 216.005 218.036 209.325 215.517 206.379 204.206 198.901 197.318 185.529 192.4 190.03 185.839 178.962 183.06 186.034 176.411 165.22 171.061 176.395 168.707 164.28 161.434 153.991 149.803 148.8 153.121 155.633 137.607 152.246 145.59 141.065 130.07 130.319 134.01 126.615 127.234 124.633 119.657 126.201 122.788 111.94 114.315 117.55 119.048 113.501 113.049 106.759 108.068 110.811 106.595 106.158 102.222 104.042 93.6595 94.9816 102.581 94.9315 88.6776 88.6043 92.2458 90.4747 92.0245 90.2908 91.1832 89.6552 85.8486 77.3794 84.2464 79.859 78.5471 74.7183 73.6335 73.0896 84.7635 73.4645 70.5669 66.8851 68.8574 68.983 68.6783 68.0357 69.0941 63.784 68.3874 65.5721 59.2326 62.1696 64.247 61.5482 54.0131 63.6147 56.279 56.5431 58.6071 55.026 56.9265 54.2125 53.8814 50.7527 53.7676 56.1993 50.1037 47.0188 52.6268 49.5357 46.9344 45.5619 47.6022 45.5822 46.5775 46.9293 43.0359 45.6626 39.8569 38.8173 44.5279 42.1645 41.6885 43.0413 40.9775 43.1217 39.7056 41.842 38.0515 36.0839 34.8069 37.6 35.5553 34.817 36.803 35.1616 38.9067 33.9292 31.8602 33.7364 33.2316 27.9787 33.1912 34.8043 33.4795 29.4767 28.3947 30.2637 27.1401 30.3129 28.108 27.8813 27.2518 26.6088 27.3819 27.574 27.2401 24.1849 26.4717 24.0524 28.3628 26.9667 24.0699 20.2676 23.7795 22.8452 21.3248 26.0646 22.5298 21.6807 23.8735 22.9876 21.9311 20.913 22.304 20.7714 18.4165 18.9241 20.2904 18.4452 17.878 20.4977 18.5636 17.6536 18.2751 18.2238 15.999 16.2023 16.9952 18.3682 16.277 18.7407 15.5055 17.0925 16.2084 16.8769 17.7093 15.4927 13.5129 15.6406 16.6488 16.4022 15.4132 14.9631 15.1486 14.0367 13.6165 15.5611 13.3548 13.4246 13.2448 13.8967 14.3978 12.8967 14.5726 13.5692 12.5994 12.4552 11.8268 11.5998 12.0054 10.2291 12.4805 11.8975 10.1198 9.9303 10.536 11.3206 10.6991 10.4018 11.2799 11.774 10.0717 11.2385 9.65127 9.08056 11.1294 9.62266 8.72847 9.58574 10.3436 10.7366 9.19841 8.18688 9.60018 8.55028 8.44714 8.29451 9.19958 7.65379 6.97374 8.198 8.12202 6.7797 8.0508 8.35274 8.83778 7.01822 7.95428 9.13473 8.21361 6.67867 7.25507 7.87194 7.33858 6.98459 7.68357 6.94224 6.12758 5.49772 6.88452 6.34694 7.80802 7.69113 6.07674 6.52748 5.83158 5.75587 6.70965 6.56178 5.53108 7.20847 5.76036 5.97546 6.07224 5.16385 5.60137 5.0917 5.87606 5.78049 4.67974 6.09804 4.15895 5.57912 4.53398 4.8378 5.48234 4.63076 5.40663 4.18451 4.89009 4.88228 5.63684 4.75096 5.88056 4.1346 4.189 4.40266 4.46276 3.89962 4.21456 3.8885 3.81397 4.91682 3.91075 3.40888 4.55623 3.5925 4.26354 4.21124 4.09885 3.14175 3.85065 4.32695 2.94252 3.6481 3.5324 3.24209 3.7004 3.75718 2.92809 3.36322 3.32205 3.54352 3.86177 3.40677 3.57357 2.54856 3.01043 3.47561 3.13394 3.51678 2.69881 2.35383 3.14175 3.01492 3.45668 3.01824 2.4551 3.03267 2.56417 2.77003 2.64652 2.63871 2.71442 2.395 2.35383 2.08669 2.57861 2.43617 2.4629 2.44066 2.55637 2.33158 2.01996 2.23031 2.25256 1.75732 2.29373 2.3427 1.91089 2.53413 2.29041 2.35383 2.12123 2.5831 2.61647 2.15909 1.93762 2.10231 2.18465 2.09119 2.48183 1.58815 2.47403 1.57702 2.18465 1.75732 1.34443 1.74952 1.36999 1.82854 2.09357 1.67049 1.98991 1.77957 1.85859 1.66386 1.29545 2.41061 1.41565 2.227 1.70834 2.03889 2.16241 1.19418 1.77957 1.6182 1.29214 1.64493 1.22423 1.45683 0.983836 1.24648 1.6861 1.41565 1.6783 1.5058 1.70054 1.42346 1.13408 1.16413 1.30658 1.83967 1.69722 0.961592 1.3856 1.3778 1.5581 1.47575 1.7462 1.49468 1.81742 1.00276 1.09291 1.45683 1.49468 1.20531 1.13408 1.12296 1.23536 1.23536 1.07398 1.06286 1.06286 1.18306 1.01389 1.17526 0.863637 1.12296 1.27321 1.01389 1.15301 1.29214 0.901493 0.811344 1.21311 1.23536 0.803537 0.953786 0.931543 1.12296 1.45351 1.27321 0.961592 1.03281 1.07398 0.570945 1.03281 0.964907 0.811344 0.942664 0.60431 0.953786 0.852515 1.12296 0.570945 0.882565 0.691145 0.983836 0.792415 0.762366 0.833587 0.953786 1.25428 0.683338 0.642167 1.03281 0.751244 0.882565 0.510846 0.661095 0.792415 0.582067 0.893686 0.882565 0.781294 0.912614 0.631045 0.882565 0.882565 0.661095 0.811344 0.961592 0.631045 0.912614 0.661095 0.461868 0.491918 0.450746 0.661095 0.661095 0.600995 0.683338 0.672216 0.600995 0.540896 0.721194 0.721194 0.631045 0.702266 0.721194 0.751244 0.672216 0.540896 0.540896 0.540896 0.540896 0.600995 0.450746 0.450746 0.431818 0.600995 0.582067 0.521968 0.732316 0.540896 0.612117 0.600995 0.570945 0.480796 0.360597 0.420697 0.480796 0.510846 0.450746 0.420697 0.300498 0.390647 0.330547 0.600995 0.360597 0.420697 0.600995 0.401768 0.600995 0.210348 0.360597 0.642167 0.360597 0.360597 0.360597 0.450746 0.552017 0.450746 0.300498 0.450746 0.150249 0.270448 0.420697 0.240398 0.330547 0.450746 0.461868 0.510846 0.420697 0.330547 0.240398 0.390647 0.360597 0.450746 0.510846 0.240398 0.420697 0.240398 0.300498 0.240398 0.300498 0.300498 0.450746 0.360597 0.420697 0.210348 0.150249 0.270448 0.480796 0.480796 0.480796 0.300498 0.300498 0.270448 0.240398 0.180299 0.270448 0.120199 0.360597 0.360597 0.360597 0.270448 0.300498 0.120199 0.0901493 0.480796 0.510846 0.240398 0.420697 0.150249 0.300498 0.450746 0.180299 0.210348 0.210348 0.150249 0.270448 0.300498 0.120199 0.150249 0.150249 0.120199 0.270448 0.390647 0.270448 0.270448 0.210348 0.330547 0.150249 0.240398 0.210348 0.240398 0.240398 0.150249 0.150249 0.390647 0.240398 0.270448 0.240398 0.240398 0.120199 0.240398 0.150249 0.120199 0.120199 0.210348 0.180299 0.240398 0.0901493 0.0901493 0.240398 0.150249 0.0901493 0.180299 0.0600995 0.180299 0.210348 0.360597 0.270448 0.210348 0.120199 0.120199 0.210348 0.150249 0.300498 0.0600995 0.270448 0.180299 0.180299 0.240398 0.210348 0.240398 0.150249 0.150249 0.150249 0.240398 0.240398 0.240398 0.180299 0.0901493 0.120199 0.180299 0.0600995 0.150249 0.240398 0.120199 0.210348 0.0300498 0.0901493 0.0901493 0.270448 0.0600995 0.180299 0.210348 0.150249 0.210348 0.120199 0.150249 0.120199 0.180299 0.240398 0.120199 0.150249 0.180299 0.0901493 0.0300498 0 0.120199 0.240398 0.120199 0.0901493 0.180299 0.300498 0.120199 0.120199 0.270448 0.120199 0.180299 0.0600995 0.0901493 0.150249 0.0300498 0.150249 0.150249 0 0.210348 0 0.0901493 0.180299 0.0300498 0.150249 0.0600995 0.120199 0.0600995 0.120199 0.210348 0.0600995 0.0600995 0 0.0600995 0.0300498 0.180299 0.120199 0.150249 0 0.0600995 0.0901493 0.0600995 0.120199 0.0901493 0.120199 0.210348 0.210348 0.0600995 0.120199 0.120199 0.0600995 0.0901493 0.0901493 0.0901493 0.0300498 0.0901493 0.150249 0.210348 0.0300498 0.120199 0.0600995 0.0600995 0.150249 0.120199 0.0901493 0.0600995 0.180299 0.0901493 0.0901493 0.0600995 
166.531 -2.56754 15.5893 11.6459 2.56754 2.56754 -1.19175 1.37578 14.2135 3.94332 -5.13507 28.2429 7.70261 41.0806 37.3213 51.5348 38.5131 53.9183 57.8616 86.1045 52.7265 84.7287 88.672 92.4313 107.837 107.837 168.266 146.35 259.321 251.619 369.725 418.509 605.939 831.882 911.476 1234.99 1286.34 1561.06 1512.28 1771.6 1853.76 1763.9 1858.9 1979.57 1804.98 1848.63 1971.87 1799.84 1738.22 1602.14 1448.09 1612.41 1378.77 1265.8 1360.79 1139.99 1003.91 826.747 752.288 757.423 629.047 616.209 513.507 444.184 421.076 231.078 267.024 261.889 166.89 172.025 125.809 56.4858 92.4313 84.7287 51.3507 38.5131 43.6481 15.4052 43.6481 17.9728 28.2429 15.4052 38.5131 20.5403 46.2157 12.8377 10.2701 15.4052 20.5403 12.8377 20.5403 20.5403 12.8377 20.5403 23.1078 17.9728 5.13507 2.56754 5.13507 30.8104 10.2701 -2.56754 20.5403 5.13507 -5.13507 12.8377 0 5.13507 15.4052 5.13507 0 12.8377 5.13507 15.4052 10.2701 5.13507 2.56754 12.8377 10.2701 -7.70261 0 5.13507 5.13507 7.70261 7.70261 7.70261 7.70261 2.56754 12.8377 2.56754 2.56754 2.56754 5.13507 5.13507 5.13507 7.70261 -5.13507 0 2.56754 5.13507 2.56754 -2.56754 2.56754 2.56754 5.13507 7.70261 5.13507 2.56754 0 2.56754 2.56754 2.56754 -2.56754 5.13507 7.70261 0 2.56754 5.13507 0 2.56754 5.13507 0 0 0 2.56754 2.56754 0 2.56754 0 0 -2.56754 0 -2.56754 2.56754 0 0 0 2.56754 2.56754 2.56754 5.13507 0 0 0 2.56754 0 0 5.13507 2.56754 2.56754 7.70261 0 0 0 2.56754 0 2.56754 -2.56754 2.56754 0 0 0 0 2.56754 0 0 0 0 2.56754 2.56754 0 2.56754 0 2.56754 0 0 0 2.56754 -2.56754 0 0 0 -2.56754 0 0 0 0 0 0 0 0 2.56754 0 0 5.13507 2.56754 0 0 0 0 0 0 0 0 0 0 0 0 0 0 0 0 0 0 0 0 0 0 2.56754 0 0 0 0 0 0 0 0 0 0 0 0 2.56754 0 0 -2.56754 2.56754 0 5.13507 0 0 0 0 0 0 0 0 0 0 0 0 0 0 0 0 2.56754 0 0 0 0 0 0 0 0 0 2.56754 0 0 0 0 0 0 0 0 0 0 0 0 0 0 0 0 0 0 0 0 0 0 0 0 0 0 0 0 0 0 0 0 0 0 0 0 0 0 0 0 0 0 0 0 0 0 0 0 2.56754 0 0 0 0 0 0 0 0 0 0 0 0 0 0 0 0 0 0 0 0 0 0 0 0 0 0 0 0 0 0 0 0 0 0 0 0 0 0 0 0 0 0 0 0 0 2.56754 0 0 0 0 0 0 0 0 0 0 0 0 0 0 0 0 0 0 0 0 0 0 0 0 0 0 0 0 0 0 0 0 0 0 0 0 0 0 0 0 0 0 0 0 0 0 0 0 0 0 0 0 0 0 0 0 0 0 0 0 0 0 0 0 0 0 0 0 0 0 0 0 0 0 0 0 0 0 0 0 0 0 0 0 0 0 0 0 0 0 0 0 0 0 0 0 0 0 0 0 0 0 0 0 0 0 0 0 0 0 0 0 0 0 0 0 0 0 0 0 0 0 0 0 0 0 0 0 0 0 2.56754 0 0 0 0 0 0 0 0 0 0 0 0 0 0 0 0 0 0 0 0 0 0 0 0 0 0 0 0 0 0 0 0 0 0 0 0 0 0 0 0 0 0 0 0 0 0 0 0 0 0 0 0 0 0 0 0 0 0 0 0 0 0 0 0 0 0 0 0 0 0 0 0 0 0 0 0 0 0 0 0 0 0 0 0 0 0 0 0 0 0 0 0 0 0 0 0 0 0 0 0 0 0 0 0 0 0 0 0 0 0 0 0 -2.56754 0 0 0 0 0 0 0 0 0 0 0 0 0 0 0 0 0 0 0 0 0 0 0 0 0 0 0 0 0 0 0 0 0 0 0 0 0 0 0 0 0 0 0 0 0 0 0 0 0 0 0 0 0 0 0 0 0 0 0 0 0 0 0 0 0 0 0 0 0 0 0 0 0 0 0 0 0 0 0 0 0 0 0 0 0 0 0 0 0 0 0 0 0 0 0 0 0 0 0 0 0 0 0 0 0 0 0 0 0 0 0 0 0 0 0 0 0 0 0 0 0 0 0 0 0 0 0 0 0 0 0 0 0 0 0 0 0 0 0 0 0 0 0 0 0 0 0 0 0 0 0 0 0 0 0 0 0 0 0 0 0 0 0 0 0 0 0 0 0 0 0 0 0 0 0 0 0 0 0 0 0 0 0 0 0 0 0 0 0 0 0 0 0 0 0 0 0 0 0 0 0 0 0 0 0 0 0 0 0 0 0 0 0 0 0 0 0 0 0 0 0 0 0 0 0 0 0 0 0 0 0 0 0 0 0 0 0 0 0 0 0 0 0 0 0 0 0 0 0 0 0 0 0 0 0 0 0 0 0 0 0 0 0 0 0 0 0 0 0 0 0 0 0 0 0 0 0 0 0 0 0 0 0 0 0 0 0 0 0 0 0 0 0 0 0 0 0 0 0 0 0 0 0 0 0 0 0 0 0 0 0 0 0 0 0 0 0 0 0 0 0 0 0 0 0 0 0 0 0 0 0 0 0 0 0 0 0 0 0 0 
58562.9 10231.5 8600.56 8871.2 8110.52 7226.41 7085.39 6513.21 6993.63 6293.27 6282.47 6068.48 5781.33 5502.14 5786.82 4945.43 5033.48 5149.02 4945.59 4875.92 5063.67 5018.24 4683.28 4461.99 5020.89 5069.32 5263.29 5291.14 5498.93 6068.29 7059.02 8025.6 9331.12 10505.3 12767.2 13163.7 14480.4 16704.1 17990.3 20316.9 22157 24544.2 25921.3 27308.9 28411.6 29689.1 31104.1 32385.7 33382.6 34195.2 36067.5 38222.4 39896.4 41915 44477.7 47675 49961.2 53736.9 58559.7 64195.4 69155.8 76416.8 85223 96571.7 110969 127810 150499 180408 220658 275834 358686 482968 689558 1.02165e+06 1.6e+06 2.46905e+06 3.3097e+06 3.37205e+06 2.54704e+06 1.58905e+06 943032 577154 370541 256960 188173 142342 111942 90654.6 75560.3 64130 54094.1 47016.9 40995.2 36515.2 32757.3 29459 26254.9 24184.4 21999.6 20097.4 18477.1 17221.4 15831.6 14795.2 13779.2 12901.3 11955.8 11354.8 10751.9 10138.4 9570.48 9077.22 8400.78 8060.54 7784.96 7243 6910.33 6598.33 6299.41 6097.08 5804.74 5661.42 5284.77 5011.79 4986.39 4764.69 4456.22 4254.4 4102.5 4065.16 3843.19 3735.97 3560.88 3400.92 3381.83 3218.77 3088.77 3068.55 2927.3 2657.74 2630.4 2543.28 2579.15 2421.78 2442.62 2287.26 2220.47 2133.02 2212.07 2114.87 1898.7 1955.31 1942.4 1755.02 1759.28 1809.23 1653.28 1716.99 1663.9 1508.34 1521.52 1512.89 1459.92 1419.95 1366.01 1433.27 1328.65 1266.34 1346.8 1202.97 1111.2 1143.58 1127.6 1082.25 1132.47 1062.63 1036.65 941.272 935.312 935.032 933.11 924.067 855.711 883.225 870.914 847.352 830.944 799.539 781.418 770.228 741.369 737.384 725.879 713.908 724.153 686.12 670.586 678.181 663.763 628.756 647.532 593.511 577.506 593.469 565.631 572.574 537.773 547.253 523.642 529.064 504.209 495.376 477.474 479.017 465.886 448.61 476.832 448.323 449.609 430.808 434.364 414.633 414.422 396.206 381.388 407.997 396.935 374.011 371.616 347.73 369.328 349.66 331.37 338.888 329.42 321.991 329.253 310.404 316.776 294.657 307.262 298.721 293.61 273.218 287.729 273.288 280.069 268.612 255.338 262.861 248.287 249.906 235.833 235.919 232.275 218.566 215.429 235.563 236.065 221.688 229.217 230.578 214.809 207.412 205.102 198.42 194.016 195.851 192.779 187.202 177.161 181.605 188.34 189.277 177.11 177.081 168.969 180.504 166.317 169.513 165.796 156.107 151.505 151.283 145.972 159.876 152.212 129.829 146.166 149.683 141.696 142.594 144.454 138.848 133.109 137.704 142.262 125.566 117.793 126.795 118.139 138.153 118.402 112.246 121.129 114.802 120.493 116.791 114.429 116.371 106.86 97.3439 123.222 105.047 99.1158 115.784 93.1739 97.8623 100.523 101.452 92.2541 100.536 91.9298 96.8958 98.8975 92.6185 83.5436 80.4188 87.6102 86.8567 85.682 89.3319 82.803 85.8022 91.2352 82.035 71.3506 74.6849 87.0275 69.7287 82.9917 77.8285 75.7157 66.2162 65.0732 67.2098 66.5276 64.5951 70.2591 68.8317 69.9794 69.9179 61.4041 69.2111 60.5721 55.9821 67.968 57.4781 63.3014 54.705 57.3528 55.2748 53.0554 57.3498 48.0948 60.2148 62.7351 54.2315 56.166 57.7805 49.8872 54.9736 48.6049 51.5726 54.773 50.6357 54.4094 49.0615 46.9924 47.8967 41.2128 41.4959 45.452 42.4469 50.4653 44.855 44.771 41.3934 50.1416 46.8232 44.5711 37.7238 44.2164 38.0528 40.3437 43.9658 36.7033 35.3976 41.1244 41.1299 39.5936 35.4135 37.1834 37.3387 36.2948 32.5657 35.9196 36.7354 37.4338 38.0451 32.898 33.273 33.6302 34.3282 26.3532 31.5303 33.5273 29.5007 31.8522 33.962 32.0134 29.8244 35.6819 26.1303 29.3385 27.2822 30.5242 28.7902 27.4454 27.1936 28.6896 33.2426 31.0042 30.8083 31.1632 26.7288 26.9937 22.319 23.3575 27.3951 20.945 29.4011 25.6137 24.208 24.1186 22.3046 23.5926 24.3801 25.1031 22.0584 23.7437 19.309 23.9678 23.9471 23.0947 20.9629 22.3484 23.1692 18.2038 20.6173 19.2262 22.0348 21.4466 21.0578 21.2952 20.1314 20.7903 18.9831 21.646 15.988 20.8819 21.4716 16.5882 20.1027 20.5142 21.2688 21.2189 20.3601 18.4497 19.159 16.6115 14.3613 15.8649 16.1652 19.5111 15.8469 17.6568 18.6422 18.9294 14.2731 16.2132 13.9733 15.669 16.5906 16.93 17.0453 16.0626 12.9674 13.722 16.1606 16.7862 15.7286 15.9259 13.9606 15.3717 18.9611 15.4823 13.4528 14.3219 14.9205 14.5981 13.6365 12.5806 12.5158 11.3884 15.5201 14.978 14.1556 12.3603 10.3611 13.8407 11.5719 13.2405 12.4515 14.3632 10.5668 11.9857 11.7436 13.1155 12.6993 9.83965 10.9259 12.0087 10.6233 12.5714 12.5612 12.1062 10.8786 8.9868 13.0426 10.3036 11.3282 11.1542 9.44514 12.9164 10.1643 10.6921 11.286 9.91291 9.8528 10.4866 8.8672 10.5101 7.30372 10.1053 8.77858 8.52231 11.1259 9.56554 9.69983 10.9418 9.78691 7.67908 10.7126 8.76366 8.1555 10.8158 9.722 8.92041 7.69715 9.584 10.6298 9.52276 5.7899 8.83313 9.01221 9.5076 8.3814 9.0634 7.13306 8.44108 9.24472 7.35533 8.29211 7.21349 6.45283 7.63523 7.13526 6.13151 6.10329 7.72423 7.45305 6.8095 6.92767 7.47289 6.17822 9.60484 5.60974 6.00058 6.85221 9.04352 6.2036 6.10791 5.93046 5.26752 6.49571 7.10554 5.40232 6.40039 5.98886 6.32617 6.81964 6.41349 5.26071 6.68421 6.14299 5.96396 5.76389 6.41455 7.12995 4.93506 5.40944 5.87968 7.54525 5.64893 4.56395 5.52111 4.92346 5.11567 6.63905 6.77414 5.43186 6.30458 6.61642 5.62139 4.56858 5.3099 5.39274 3.89366 5.83858 4.65048 6.40904 5.03895 4.33644 4.77704 5.2451 5.17034 5.66991 3.85989 5.08716 6.37768 4.67419 5.08903 5.66448 5.13216 3.43302 5.47051 4.02178 6.5118 2.92779 5.04926 4.66011 5.66439 4.48054 4.89685 4.95343 4.77696 4.50839 4.78437 4.65037 4.59023 4.11888 2.94624 4.29605 4.51597 3.48231 3.61615 3.7673 3.73447 3.99684 2.80865 4.06208 4.05008 3.87267 3.75553 3.64822 3.91087 3.84426 3.91061 4.48581 2.99153 4.00046 3.22229 2.66598 2.89813 3.09 3.28335 3.51524 3.72374 2.7677 3.51392 4.16444 4.05631 3.58786 3.56226 3.523 2.93154 3.17886 3.80506 3.75356 3.88875 3.48336 2.57569 3.17016 3.45789 3.46014 3.23039 3.20716 2.91219 3.11854 2.99475 2.91586 2.84663 3.01988 3.10427 2.93439 2.68211 3.00448 3.17411 2.62976 2.67708 2.6032 2.43057 2.90744 2.44177 3.27816 3.21423 3.00185 2.79139 2.46327 2.65067 2.6333 2.27272 2.28202 3.09752 2.60291 3.0626 2.46898 2.78908 2.45376 2.51053 2.72677 2.33956 2.47985 2.67414 2.2193 2.30038 2.56046 1.9619 2.55126 2.44562 2.33213 2.2247 2.05252 2.02251 2.74759 2.49765 1.89912 2.5093 2.16732 2.12394 2.50695 2.24786 2.1272 2.18832 2.24177 1.95003 1.95192 1.97856 1.68682 2.05216 2.3666 1.89908 2.50316 1.97402 1.8722 1.85498 1.91283 2.05256 2.02624 1.86147 1.99791 1.98885 2.13555 2.04047 1.83524 1.78246 2.00256 1.71248 2.02574 1.88645 1.92072 1.40041 1.97382 1.79323 1.8127 1.94177 1.77215 1.58837 1.69329 2.02077 1.67081 1.59425 1.57038 1.74011 1.71687 1.887 1.91876 1.69654 1.64113 1.92479 1.87801 1.48965 1.43768 1.36201 1.50201 1.48825 1.66451 1.42164 1.58509 1.53593 1.42519 1.56477 1.74631 1.66144 1.7603 1.14105 1.44473 1.58017 1.62874 1.46188 1.785 1.65464 1.5094 1.35314 1.29734 1.35529 1.4542 1.80675 1.44066 1.56021 1.09081 1.49477 1.53147 1.78933 1.42654 1.42671 1.4111 1.21637 1.28244 1.27097 1.37625 1.36452 1.1342 1.09124 1.59767 1.12454 1.24506 1.44703 1.17874 1.22376 1.30779 1.28047 1.31099 1.49207 1.46117 1.20375 1.38503 1.38598 1.11172 1.13962 1.2231 1.01017 1.2048 1.1249 0.919855 1.23863 1.07025 1.21899 1.06834 1.22639 1.01621 1.06988 1.23301 1.11766 1.19479 1.44283 1.05835 1.09364 1.27475 0.971886 1.16682 1.04185 0.942203 1.09388 1.08611 0.839993 1.14493 0.873555 0.910804 1.03385 1.08487 0.836279 0.826082 0.946532 0.974714 1.05678 1.20247 0.802239 0.840738 0.775566 1.11056 1.15531 1.01549 1.15715 0.917731 0.805073 0.98381 0.958709 0.878959 0.917041 1.03721 0.8923 1.26263 0.909266 0.932885 0.79602 0.852594 1.10036 0.948249 0.8424 0.829956 1.08787 0.786442 0.717034 0.735313 0.744582 0.888809 0.744868 0.786258 0.741124 0.996579 0.699315 1.10073 1.00224 0.740585 0.774855 0.757004 0.676789 0.86433 0.835756 0.644264 0.912682 0.534639 0.77307 0.695983 0.685527 0.862043 0.553078 0.663707 0.613417 0.635352 0.684182 0.719163 0.67167 0.605608 0.926872 0.688332 0.810558 0.863599 0.53241 0.717974 0.741861 0.684696 
65543 9203 8889 8625 8386 7809 7402 7203 7164 6714 6718 6492 6057 6005 5962 5858 5857 5826 5713 5630 5661 5653 5693 5996 5939 6018 6220 6431 6792 7398 8284 9495 11061 12321 13616 15401 16797 18296 20318 22294 24712 26750 28574 30129 31107 32052 33488 34274 35390 36581 38122 39272 41304 42996 45640 48003 51161 54994 58410 62910 68437 76028 83841 94760 107772 123964 145261 173687 212379 266461 344538 463803 655273 979858 1.53406e+06 2.38152e+06 3.22265e+06 3.29055e+06 2.47646e+06 1.53687e+06 908354 555455 361226 250327 182986 139939 110793 89950 74809 62567 53900 46862 41362 36987 33037 29648 26816 24411 22607 20636 19342 17942 16600 15798 14432 13738 12808 12068 11526 11086 10300 9764 9320 8984 8392 8002 7840 7527 7173 6939 6562 6404 6178 5906 5644 5478 5325 5062 5026 4714 4637 4529 4302 4139 4054 4072 3827 3687 3505 3602 3316 3288 3256 3239 3033 2876 2826 2800 2700 2629 2599 2570 2416 2489 2289 2281 2332 2189 2334 2072 2034 2071 1916 1893 1813 1804 1814 1771 1599 1587 1589 1526 1592 1543 1484 1409 1430 1428 1385 1398 1293 1265 1261 1251 1176 1297 1192 1145 1086 1048 1071 1067 996 1074 968 962 954 934 920 883 885 848 867 828 814 755 811 806 748 747 754 724 733 694 675 705 681 663 638 636 611 595 610 593 594 569 557 561 502 564 485 499 508 528 541 502 495 470 491 483 458 440 451 400 401 410 393 409 379 416 403 404 375 381 384 360 328 327 364 322 340 294 290 330 315 309 308 263 263 300 294 279 255 282 254 264 247 265 253 197 259 230 235 242 236 212 199 216 222 203 222 196 230 239 189 186 201 199 199 207 187 190 168 195 165 162 169 156 145 143 177 172 147 157 143 158 160 155 159 145 134 145 143 148 117 136 117 133 138 125 123 118 132 149 109 116 95 118 118 130 133 110 107 101 105 89 105 115 103 93 97 93 89 82 87 93 99 98 93 106 78 76 99 74 91 84 85 88 96 79 86 82 72 95 87 72 71 61 77 83 75 65 66 69 65 79 78 68 61 75 61 60 46 60 45 62 66 54 44 56 71 57 50 62 39 34 51 48 58 51 51 42 52 49 42 49 53 43 56 51 45 38 37 49 37 50 39 47 45 50 53 36 45 44 39 43 39 46 39 35 40 30 44 37 36 34 45 28 34 33 38 33 28 42 34 30 52 22 28 25 26 33 29 33 21 29 23 21 28 33 19 23 33 27 27 12 19 23 25 15 28 35 32 23 34 29 23 22 24 25 17 27 18 24 24 20 18 12 24 17 18 19 27 26 24 26 10 20 24 16 15 24 19 15 21 18 11 23 14 14 20 16 15 12 12 14 12 12 12 18 15 18 21 15 18 18 15 16 20 20 17 13 8 13 19 7 10 11 14 9 16 19 9 19 13 12 16 12 9 8 8 17 12 13 11 19 8 15 15 13 8 10 8 16 14 8 13 12 13 17 12 7 17 7 10 14 10 7 11 5 8 9 10 8 4 4 7 10 11 11 8 5 7 14 11 11 10 6 3 8 7 12 12 11 7 11 10 12 13 6 6 9 9 8 5 3 6 6 8 11 10 12 7 6 5 7 8 3 3 4 3 5 5 6 3 8 9 3 7 5 9 4 8 10 3 9 4 7 11 7 11 9 13 7 7 10 6 7 8 2 5 9 4 10 6 4 8 6 4 4 5 5 7 4 8 5 4 3 7 9 3 3 4 6 2 3 6 4 3 3 5 3 5 4 6 3 4 4 4 1 3 4 5 3 3 2 5 3 5 3 2 6 2 4 6 2 2 4 3 2 4 2 5 7 3 5 5 2 2 2 2 4 3 4 6 7 3 1 5 1 0 4 3 1 4 1 3 2 1 2 2 2 2 3 2 2 2 5 3 1 2 3 2 1 5 1 3 2 3 2 1 1 0 0 3 1 3 4 5 3 1 3 1 1 0 2 5 1 1 1 2 3 1 2 2 0 2 0 1 2 3 3 1 0 5 5 1 3 1 1 3 5 1 2 1 1 2 2 1 2 1 3 0 2 1 2 2 1 0 4 1 0 2 2 2 2 1 0 1 3 2 1 1 4 2 4 1 0 1 0 0 2 2 0 1 2 1 3 1 1 2 0 2 1 1 2 2 1 0 2 1 0 5 0 1 2 0 4 1 1 1 0 0 1 0 1 0 3 0 4 2 0 0 1 0 2 0 0 0 1 1 0 1 1 0 0 1 2 0 0 2 2 2 3 1 0 2 2 1 0 4 1 1 3 1 1 1 3 0 1 1 1 0 2 0 0 1 2 1 1 0 1 1 1 1 5 0 1 3 0 1 0 0 0 1 2 2 0 2 0 4 1 0 2 1 1 2 1 1 1 0 1 1 0 
_400
385
15 16 17 18 19 20 21 22 23 24 25 26 27 28 29 30 31 32 33 34 35 36 37 38 39 40 41 42 43 44 45 46 47 48 49 50 51 52 53 54 55 56 57 58 59 60 61 62 63 64 65 66 67 68 69 70 71 72 73 74 75 76 77 78 79 80 81 82 83 84 85 86 87 88 89 90 91 92 93 94 95 96 97 98 99 100 101 102 103 104 105 106 107 108 109 110 111 112 113 114 115 116 117 118 119 120 121 122 123 124 125 126 127 128 129 130 131 132 133 134 135 136 137 138 139 140 141 142 143 144 145 146 147 148 149 150 151 152 153 154 155 156 157 158 159 160 161 162 163 164 165 166 167 168 169 170 171 172 173 174 175 176 177 178 179 180 181 182 183 184 185 186 187 188 189 190 191 192 193 194 195 196 197 198 199 200 201 202 203 204 205 206 207 208 209 210 211 212 213 214 215 216 217 218 219 220 221 222 223 224 225 226 227 228 229 230 231 232 233 234 235 236 237 238 239 240 241 242 243 244 245 246 247 248 249 250 251 252 253 254 255 256 257 258 259 260 261 262 263 264 265 266 267 268 269 270 271 272 273 274 275 276 277 278 279 280 281 282 283 284 285 286 287 288 289 290 291 292 293 294 295 296 297 298 299 300 301 302 303 304 305 306 307 308 309 310 311 312 313 314 315 316 317 318 319 320 321 322 323 324 325 326 327 328 329 330 331 332 333 334 335 336 337 338 339 340 341 342 343 344 345 346 347 348 349 350 351 352 353 354 355 356 357 358 359 360 361 362 363 364 365 366 367 368 369 370 371 372 373 374 375 376 377 378 379 380 381 382 383 384 385 386 387 388 389 390 391 392 393 394 395 396 397 398 399 
164.278 0 0 161.257 0 0 0 45.2187 0 0 0 0.583697 0 0 0 0 8.39901 0 0 0 45.2187 0 0 0 0 0 0 0 0 0 0 0 0 0 0 0 0 0 1595.53 0 0 0 0 0 0.146383 0 0.0456012 0 0 0 0 1595.53 0 161.257 0 0 0 0 0 0 0 0 0 0 161.257 0 8.39901 0 0 0 0 0 0 0 0 8.39901 0 0 0 0 0 0 0 0 0 0 0.146383 0 0 0 0 0 0 0 0 0 0 0 0 0 0 0 0 0 0 0 0 0 0 0 0 0 0 0 0 0 0 0 0 0 0 0 0 0 0 0 0 0 0 0 0 0 0 0 0 0 0 0 0 0 0 0 0 0 0 0 0 0 0 0 0 0 0 0 0 0 0 0 0 0 0 0 0 0 0 0 0 0 0 0 0 0 0 0 0 0 0 0 0 0 0 0 0 0 0 0 0 0 0 0 0 0 0 0 0 0 0 0 0 0 0 0 0 0 0 0 0 0 0 0 0 0 0 0 0 0 0 0 0 0 0 0 0 0 0 0 0 0 0 0 0 0 0 0 0 0 0 0 0 0 0 0 0 0 0 0 0 0 0 0 0 0 0 0 0 0 0 0 0 0 0 0 0 0 0 0 0 0 0 0 0 0 0 0 0 0 0 0 0 0 0 0 0 0 0 0 0 0 0 0 0 0 0 0 0 0 0 0 0 0 0 0 0 0 0 0 0 0 0 0.583697 0 0 0 0 0 0 0 0 0 0 0 0 0 0.0456012 0 0 0 0 0 0 0 0 0 0 0 0 0 0 0 0 0 0 0 0 0 0 0 0 0 0 0 0 0 0 0 0 0 0 0 0 0 0 0 0 0 0 0 0 0 0 0 0 0 0 0 0 0 0 0 0 0 0 0 0 
46.0199 10.2266 15.34 0 5.11332 40.9066 -10.2266 5.11332 0 15.34 10.2266 30.6799 15.34 5.11332 0 5.11332 5.11332 25.5666 -10.2266 35.7932 20.4533 35.7932 20.4533 10.2266 15.34 0 35.7932 0 10.2266 -1.77636e-15 25.5666 15.34 15.34 56.2465 35.7932 10.2266 15.34 71.5865 20.4533 51.1332 56.2465 25.5666 35.7932 46.0199 56.2465 40.9066 15.34 35.7932 40.9066 46.0199 56.2465 51.1332 71.5865 46.0199 51.1332 51.1332 25.5666 61.3599 20.4533 30.6799 15.34 20.4533 30.6799 46.0199 20.4533 5.11332 20.4533 -10.2266 25.5666 5.11332 46.0199 56.2465 30.6799 25.5666 30.6799 25.5666 20.4533 15.34 20.4533 20.4533 20.4533 -5.11332 25.5666 40.9066 5.11332 51.1332 -5.11332 0 25.5666 30.6799 30.6799 40.9066 1.77636e-15 -5.11332 20.4533 20.4533 30.6799 30.6799 5.11332 20.4533 25.5666 5.11332 10.2266 15.34 10.2266 5.11332 25.5666 -5.11332 -5.11332 -10.2266 -5.11332 10.2266 0 35.7932 10.2266 -5.11332 15.34 30.6799 5.11332 20.4533 -5.11332 10.2266 5.11332 -5.11332 -5.11332 5.11332 5.11332 20.4533 -5.11332 0 -5.11332 5.11332 0 5.11332 20.4533 15.34 -5.11332 10.2266 15.34 -5.11332 15.34 0 -5.11332 10.2266 15.34 -5.11332 -5.11332 5.11332 -5.11332 10.2266 -5.11332 0 -5.11332 0 -15.34 0 0 15.34 5.11332 -5.11332 5.11332 0 0 5.11332 10.2266 0 0 5.11332 0 0 -5.11332 0 -5.11332 0 5.11332 0 0 -5.11332 0 10.2266 -5.11332 5.11332 10.2266 0 0 0 10.2266 0 10.2266 0 5.11332 5.11332 -5.11332 5.11332 10.2266 0 0 -10.2266 0 0 0 0 10.2266 5.11332 0 5.11332 0 5.11332 5.11332 -5.11332 5.11332 0 5.11332 5.11332 0 5.11332 0 10.2266 0 0 0 0 0 5.11332 5.11332 5.11332 0 0 5.11332 0 0 -5.11332 0 0 0 0 0 0 0 0 0 5.11332 20.4533 0 0 0 0 0 5.11332 0 0 0 0 0 0 0 0 0 0 0 0 0 -5.11332 0 0 0 0 5.11332 0 0 5.11332 0 10.2266 0 0 0 5.11332 0 5.11332 0 -5.11332 0 0 0 0 5.11332 0 0 0 -5.11332 0 0 0 0 0 0 0 0 0 0 0 0 0 5.11332 0 0 0 0 0 0 5.11332 0 0 0 0 0 0 0 0 0 0 0 0 0 0 0 0 0 0 0 0 0 0 0 0 0 0 0 0 0 0 0 0 0 0 0 0 0 -5.11332 0 0 0 0 0 0 0 0 0 0 0 0 0 0 0 0 0 0 0 0 0 0 0 0 0 5.11332 0 0 0 0 0 0 0 0 0 
124.302 31.6848 35.3407 35.3407 40.8246 35.3407 44.4806 44.4806 59.1043 48.1365 61.5416 40.8246 49.9645 56.667 58.495 54.839 50.5738 53.6204 67.0255 71.2908 71.2908 79.8213 68.2441 79.212 74.9467 82.2586 109.069 104.194 74.9467 96.273 92.0077 112.115 106.022 135.879 124.302 128.567 137.707 146.237 158.424 160.861 157.205 161.471 145.628 168.782 165.126 178.532 173.657 199.858 173.657 171.829 167.564 174.876 188.89 186.453 190.109 200.467 166.345 183.406 179.75 177.313 170.61 174.876 169.392 184.015 198.03 168.173 166.345 169.392 168.782 172.438 151.721 166.954 150.503 135.27 148.675 150.503 143.8 143.8 157.815 135.27 148.675 146.847 141.363 135.879 130.395 129.176 128.567 123.693 118.818 120.646 124.911 116.99 131.614 135.879 127.958 124.911 124.302 96.273 131.614 109.069 112.725 134.66 110.287 98.101 106.022 107.85 97.4916 99.3196 90.7891 88.3518 98.7103 77.9933 92.0077 93.8357 91.3984 84.0865 93.2264 79.212 84.0865 74.3374 82.8679 81.0399 68.2441 76.7747 73.7281 73.7281 76.7747 71.2908 67.0255 67.6348 62.1509 61.5416 63.3696 59.1043 70.6814 62.1509 55.4484 66.4162 56.0577 62.1509 56.0577 59.1043 51.7924 56.667 57.2763 50.5738 45.0899 62.7602 53.6204 56.667 45.6992 38.3873 46.3085 45.0899 49.3551 48.7458 35.3407 59.1043 43.8712 43.2619 42.0433 43.8712 35.3407 48.1365 40.8246 35.95 37.1687 38.3873 43.8712 40.8246 36.5594 35.3407 34.1221 34.1221 32.9034 29.2475 32.9034 38.3873 31.0755 28.6382 35.95 29.8568 34.1221 28.0288 28.0288 22.5449 31.0755 28.0288 31.0755 25.5916 32.9034 36.5594 31.6848 31.6848 27.4195 26.2009 19.4983 21.9356 29.8568 24.3729 26.8102 18.2797 21.9356 24.3729 20.1077 23.7636 22.5449 25.5916 21.3263 22.5449 21.3263 24.3729 21.3263 18.889 12.7958 15.2331 21.9356 18.889 15.8424 19.4983 14.6237 20.717 20.717 21.3263 16.4517 15.2331 19.4983 21.3263 12.7958 14.6237 13.4051 17.061 12.7958 13.4051 14.0144 10.3585 11.5771 10.9678 23.1543 9.74916 10.9678 10.9678 12.7958 12.1865 14.0144 14.0144 13.4051 10.9678 17.6704 11.5771 8.53052 10.9678 12.7958 16.4517 10.9678 13.4051 11.5771 15.8424 10.9678 10.9678 8.53052 10.3585 12.7958 11.5771 12.7958 8.53052 10.3585 11.5771 6.09323 4.87458 10.3585 8.53052 12.1865 6.70255 7.31187 12.7958 9.13984 8.53052 6.70255 10.9678 10.3585 6.70255 9.74916 7.9212 10.3585 7.9212 7.31187 3.65594 7.31187 7.9212 8.53052 7.31187 7.9212 9.13984 8.53052 7.31187 8.53052 4.87458 4.87458 7.9212 6.09323 6.70255 3.04661 5.4839 8.53052 6.09323 8.53052 5.4839 6.09323 4.87458 6.70255 5.4839 4.26526 3.04661 3.65594 3.65594 1.82797 4.87458 4.87458 4.26526 1.82797 2.43729 4.87458 4.87458 4.87458 8.53052 2.43729 1.21865 3.04661 4.87458 6.70255 4.26526 1.82797 4.26526 1.82797 3.04661 5.4839 5.4839 3.04661 5.4839 4.87458 3.65594 5.4839 3.04661 6.70255 3.04661 2.43729 3.04661 5.4839 4.26526 2.43729 4.87458 1.82797 5.4839 1.82797 1.21865 1.82797 2.43729 6.09323 5.4839 3.04661 6.70255 1.21865 1.21865 3.65594 3.65594 2.43729 3.65594 4.87458 3.65594 2.43729 2.43729 3.04661 3.65594 3.04661 1.21865 2.43729 1.21865 1.21865 2.43729 0.609323 2.43729 3.04661 3.04661 
7.89957 1.69277 3.38553 6.20681 1.12851 2.25702 2.25702 1.69277 4.51404 5.0783 6.20681 5.0783 5.64255 5.64255 4.51404 11.8494 3.38553 8.46383 11.2851 3.94979 8.46383 7.33532 7.33532 6.77106 11.2851 14.1064 10.1566 14.6706 18.6204 7.33532 12.9779 20.3132 18.0562 17.4919 19.7489 19.7489 18.6204 20.3132 26.52 18.0562 31.034 21.4417 30.4698 23.1345 33.8553 36.6766 29.9055 36.1123 34.4196 44.0119 42.8834 40.0621 44.0119 47.9617 44.0119 56.9898 56.9898 73.3532 69.9677 62.6323 69.4034 73.9174 108.337 94.7949 124.136 133.728 142.192 187.897 222.317 269.15 384.258 502.751 727.889 1064.75 1610.38 2429.68 3329.11 3251.24 2558.9 1599.1 937.228 633.094 393.85 287.77 199.746 153.477 132.6 101.002 82.3813 66.0179 66.0179 58.6825 66.0179 52.4757 49.0902 48.526 34.9838 38.9336 40.6264 30.4698 24.8272 25.9557 25.3915 23.1345 27.6485 22.5702 25.9557 22.5702 13.5421 14.1064 17.4919 15.2349 19.7489 11.8494 18.0562 20.8774 11.2851 14.6706 12.9779 9.02808 14.1064 10.7208 10.1566 16.9277 12.4136 8.46383 10.1566 11.2851 9.59234 6.77106 7.89957 8.46383 11.8494 8.46383 6.20681 10.7208 4.51404 5.64255 9.59234 4.51404 8.46383 7.89957 12.4136 6.77106 9.02808 14.6706 7.33532 5.64255 6.77106 6.20681 5.0783 7.33532 6.20681 5.64255 6.20681 3.94979 3.94979 6.20681 6.77106 6.20681 2.25702 3.38553 5.0783 5.0783 3.38553 2.82128 5.64255 5.0783 2.82128 6.77106 7.33532 6.20681 4.51404 2.82128 4.51404 6.77106 3.38553 2.25702 3.38553 3.94979 1.69277 3.38553 5.0783 3.38553 1.69277 2.82128 1.69277 2.25702 4.51404 5.0783 2.82128 3.38553 2.82128 5.0783 3.38553 3.94979 2.25702 2.82128 5.0783 3.38553 0.564255 2.25702 2.82128 3.94979 1.69277 1.69277 1.12851 0.564255 1.12851 2.25702 1.69277 2.82128 3.38553 3.94979 2.25702 2.25702 0.564255 2.82128 2.25702 1.69277 0.564255 2.82128 3.38553 3.38553 0.564255 3.94979 2.82128 2.25702 0.564255 2.25702 2.25702 0.564255 1.69277 2.25702 0.564255 2.25702 0 1.12851 1.69277 1.69277 2.82128 2.25702 1.69277 1.12851 1.69277 2.25702 1.12851 1.69277 1.12851 2.25702 2.82128 1.12851 1.12851 1.69277 1.12851 0 1.12851 2.25702 0.564255 2.25702 0 1.12851 1.12851 1.69277 1.69277 1.69277 0.564255 1.69277 0.564255 0.564255 2.82128 1.12851 1.12851 0.564255 0 1.69277 0.564255 1.12851 0.564255 1.12851 1.69277 0.564255 1.12851 0 0 0 1.12851 1.12851 0 0 1.69277 1.12851 0.564255 0 0.564255 1.12851 0.564255 0 0.564255 0.564255 1.69277 2.25702 0.564255 0 2.25702 1.12851 0 1.12851 0 1.12851 1.12851 0 1.12851 0 0 0.564255 0 0.564255 1.69277 0 1.69277 0.564255 0 0.564255 1.12851 1.12851 0.564255 1.69277 0 1.12851 0.564255 1.12851 0 1.12851 0 0 0 0 0 1.12851 0.564255 0 1.12851 0.564255 0 1.12851 0.564255 0 1.69277 0 0.564255 0.564255 0.564255 0.564255 0 0.564255 0.564255 1.12851 0 0 0.564255 0 1.12851 0 0 0 0.564255 0.564255 0 0.564255 0.564255 0 0 0 0 0 0 0.564255 0 0 0 0 0 0.564255 
78.3813 14.8449 13.6574 17.8139 10.6884 11.876 14.2511 14.8449 5.93798 9.50077 12.4698 13.0636 8.31317 8.31317 11.2822 5.34418 10.6884 4.15658 7.71937 7.12557 11.2822 8.31317 11.876 9.50077 8.31317 12.4698 6.53178 9.50077 8.31317 12.4698 7.71937 14.2511 10.6884 9.50077 11.876 11.2822 14.8449 10.6884 11.2822 15.4387 14.8449 13.6574 13.0636 21.3767 20.1891 16.0325 20.7829 17.8139 22.5643 16.0325 20.7829 19.0015 21.3767 34.4403 26.1271 30.8775 34.4403 30.8775 27.9085 26.7209 36.8155 53.4418 51.6604 67.693 67.693 81.3503 99.758 122.322 146.074 175.764 237.519 309.962 465.538 738.685 1116.93 1727.95 2165.58 2272.46 1670.35 1105.06 667.429 416.846 279.085 205.454 136.574 109.259 96.789 72.4433 61.1612 42.7534 43.3472 39.7845 29.0961 34.4403 26.7209 33.8465 16.6263 25.5333 25.5333 18.4077 15.4387 21.9705 10.0946 14.2511 12.4698 8.31317 8.90697 10.0946 11.876 12.4698 5.93798 10.0946 8.90697 8.31317 8.90697 10.0946 8.90697 4.15658 7.12557 4.15658 4.15658 5.93798 4.75038 9.50077 8.31317 5.34418 5.93798 7.12557 5.93798 6.53178 5.93798 5.34418 2.96899 3.56279 4.15658 1.1876 4.15658 4.15658 4.75038 4.75038 2.96899 2.96899 5.34418 2.37519 5.34418 2.96899 1.1876 2.37519 2.37519 3.56279 3.56279 2.96899 1.78139 2.37519 4.75038 1.78139 3.56279 4.15658 0.593798 1.78139 4.15658 3.56279 3.56279 4.75038 3.56279 1.78139 1.78139 0.593798 4.15658 1.78139 0.593798 2.37519 2.37519 3.56279 3.56279 4.15658 1.1876 1.1876 1.78139 0.593798 1.78139 1.1876 0.593798 2.37519 1.78139 2.37519 3.56279 0.593798 1.78139 0.593798 2.37519 2.37519 0 1.1876 3.56279 0 1.78139 1.1876 2.37519 1.1876 0 1.78139 0.593798 0.593798 1.78139 1.78139 0 1.78139 0 1.1876 2.37519 1.78139 1.1876 0.593798 0.593798 1.1876 0 1.1876 0 1.1876 0.593798 0.593798 0.593798 1.1876 0.593798 1.78139 2.37519 1.1876 0 1.1876 1.78139 0.593798 1.1876 0 0.593798 1.1876 1.1876 0.593798 0 1.1876 0 0.593798 0 0 0.593798 1.1876 0.593798 1.78139 0.593798 0 0 0.593798 0.593798 0 0.593798 1.1876 1.1876 0.593798 1.1876 1.1876 0 0 0.593798 1.78139 0.593798 0 0 0.593798 1.1876 1.1876 0 0.593798 1.1876 0 0.593798 0 2.37519 0 0.593798 0.593798 0 0 0.593798 0.593798 0.593798 1.1876 1.1876 0 0.593798 0 0 0 1.1876 0 1.1876 0.593798 1.1876 0.593798 0 0.593798 0 0.593798 0 0 1.1876 0 1.1876 0.593798 0 0 0.593798 0 2.96899 0 0 0 1.1876 0 0 0 0 0.593798 1.1876 0.593798 0.593798 0.593798 0.593798 0 0 0.593798 1.78139 0 0.593798 0.593798 1.1876 1.1876 0 0.593798 0 0 0.593798 0 0 1.1876 1.1876 0 0.593798 0 0 0 0.593798 0.593798 0 0.593798 1.1876 0 0 0 0.593798 0.593798 0 0 0 0 0.593798 0 0 0 0 0 0 0.593798 0 0 1.1876 0 0 0 0 0 0.593798 0 0.593798 0 
63.0574 17.0626 17.8044 20.9573 18.3608 18.7318 19.4736 19.2881 22.8119 20.9573 26.1503 30.9723 30.7869 29.3031 27.4485 29.8595 31.3432 30.7869 33.9397 30.2305 31.7142 31.3432 38.7618 33.5688 35.0525 40.9873 36.5362 43.3983 41.9146 44.1402 43.2129 43.9547 48.0349 48.7768 48.9622 51.7442 53.2279 54.3406 54.1552 58.9772 59.7191 57.1226 63.4283 54.3406 62.3156 62.3156 60.8319 56.1953 58.4208 62.8719 65.0975 62.3156 58.6063 65.0975 66.2103 63.9847 68.6213 61.9446 64.1702 61.0173 62.8719 65.283 66.9521 63.4283 66.2103 60.6464 62.6865 65.283 63.0574 58.7918 65.6539 63.9847 59.7191 55.268 64.912 67.8794 63.0574 55.4534 57.8644 58.9772 61.7592 58.7918 59.3481 60.2755 58.2354 60.2755 55.6389 53.7843 62.3156 52.1151 52.3006 53.2279 57.8644 60.2755 48.5913 53.5988 53.0424 50.8169 52.8569 46.7367 52.3006 48.0349 40.2455 49.7041 44.1402 46.9221 45.6239 44.3256 39.5036 47.664 44.6966 46.5512 46.1803 41.1728 43.2129 41.9146 41.9146 37.4635 38.3908 40.9873 43.2129 37.8344 30.2305 35.7944 36.7217 33.7543 36.1653 37.4635 30.9723 36.7217 33.5688 37.4635 33.5688 32.8269 33.7543 36.7217 32.6415 35.4234 30.9723 28.7468 28.3758 25.9648 25.7794 30.9723 32.0851 27.8194 32.0851 28.5613 29.3031 26.1503 24.2956 22.6265 26.8921 24.6666 28.7468 23.3683 20.9573 23.5538 23.1829 21.1428 25.223 23.9247 20.4009 20.7719 18.7318 22.2556 19.8445 20.9573 18.3608 17.619 17.619 21.3282 21.6992 17.619 18.9172 18.9172 17.4335 15.208 15.7644 16.6917 18.5463 17.619 12.6115 16.1353 14.6516 20.03 15.5789 16.8771 16.1353 13.9097 12.426 11.1278 14.837 16.5062 16.1353 14.6516 13.5388 13.1679 14.4661 13.5388 13.9097 14.0952 11.8696 16.5062 15.0225 14.0952 12.9824 9.64407 12.7969 12.426 11.1278 12.0551 9.27315 13.5388 10.5714 11.1278 7.60398 7.60398 7.97491 7.97491 10.3859 7.97491 5.74935 8.16037 10.3859 6.86213 10.9423 10.2005 7.97491 7.04759 8.90222 9.45861 7.78944 8.90222 5.56389 8.5313 6.67667 7.41852 7.60398 6.4912 7.04759 6.86213 6.30574 8.16037 7.60398 7.04759 7.23306 6.67667 5.19296 5.0075 6.86213 7.04759 4.82204 5.93481 5.19296 4.45111 6.4912 6.12028 5.19296 6.30574 4.26565 5.37843 7.23306 5.19296 6.67667 4.26565 3.70926 5.37843 6.4912 4.26565 4.26565 5.0075 4.63657 6.4912 3.89472 5.93481 4.63657 3.89472 4.08019 3.70926 5.0075 2.78194 3.33833 3.15287 3.15287 4.08019 3.15287 3.70926 2.59648 3.15287 4.45111 3.33833 2.96741 1.85463 2.59648 2.78194 2.59648 1.85463 2.59648 2.78194 3.89472 2.59648 2.78194 3.89472 2.96741 2.22556 2.78194 2.04009 1.66917 3.33833 2.59648 1.66917 3.70926 3.5238 3.33833 2.22556 2.04009 3.15287 2.96741 2.78194 2.78194 2.78194 2.41102 1.85463 2.96741 1.85463 1.66917 2.22556 3.33833 2.22556 2.04009 1.4837 1.29824 2.22556 1.29824 2.22556 1.85463 1.85463 2.78194 1.4837 1.66917 2.22556 2.04009 0.741852 2.04009 1.85463 1.29824 1.85463 2.78194 1.4837 0.741852 0.741852 2.41102 2.04009 1.11278 2.04009 2.41102 1.29824 0.927315 0.741852 1.4837 1.29824 1.11278 2.04009 0.741852 1.29824 2.22556 1.29824 1.4837 1.29824 1.4837 1.11278 1.4837 1.11278 1.11278 0.556389 1.4837 1.4837 2.04009 1.4837 1.85463 0.927315 0.185463 1.4837 
61.9537 17.384 20.1581 16.0895 17.1991 20.343 20.7129 19.4183 22.7472 25.1514 27.0007 24.0417 25.1514 26.6309 28.8501 30.5145 36.8024 30.1446 29.9597 32.5488 34.3982 36.6174 35.6927 41.0559 36.6174 40.1312 43.0902 41.9806 43.0902 45.1245 43.8299 44.3848 44.5697 52.1521 47.1588 44.3848 51.4123 50.6726 53.0768 49.9329 55.6659 55.8508 56.9604 62.1387 60.1044 59.3646 56.4056 57.1454 61.7688 55.6659 66.3922 63.8031 63.6182 61.3989 66.3922 61.9537 63.4332 67.1319 68.4265 61.214 63.988 65.8374 63.8031 62.5085 63.0633 61.7688 63.6182 61.7688 65.2826 66.2073 59.3646 60.6592 55.4809 58.9947 64.173 61.9537 63.6182 54.7412 64.173 62.6935 58.6249 59.5495 54.7412 60.8441 57.8851 59.5495 56.7755 49.7479 58.4399 58.4399 54.3713 55.6659 57.8851 55.6659 48.0835 51.7822 52.1521 51.2274 51.2274 51.2274 49.563 46.604 51.0425 56.7755 49.7479 45.8642 47.7136 46.7889 43.2751 42.1655 40.871 43.4601 36.8024 47.1588 48.8232 39.7613 39.5764 40.3162 41.9806 40.3162 39.5764 39.7613 37.727 36.6174 36.9873 35.8777 38.2819 38.0969 36.0626 33.4735 31.0693 35.1379 30.6995 33.4735 31.0693 33.2886 26.4459 33.6584 30.5145 28.8501 32.1789 28.8501 26.4459 31.4392 29.4049 25.1514 26.261 29.035 26.6309 22.7472 24.9664 23.302 22.7472 23.8568 24.2267 24.4116 24.7815 24.0417 23.302 21.4526 20.7129 24.9664 21.0828 23.1171 20.1581 24.0417 19.7882 19.9731 18.6786 17.9388 18.6786 18.8635 18.3087 16.8292 19.0485 18.4936 17.7539 16.4593 17.0142 16.2744 15.9045 14.7949 16.6443 17.9388 13.5004 19.2334 19.0485 14.7949 13.8702 12.7606 16.2744 12.5757 14.2401 14.425 14.61 14.7949 14.0552 16.0895 12.7606 14.61 14.0552 13.5004 12.7606 14.7949 13.6853 10.1715 12.9456 9.80163 11.4661 11.4661 12.0209 11.651 11.0962 9.80163 9.24682 11.4661 7.76733 10.3564 10.9113 10.3564 7.02759 11.8359 8.32214 7.76733 10.1715 8.69201 11.651 9.43176 6.1029 8.32214 9.24682 9.43176 7.76733 7.21252 7.39746 8.50708 9.24682 5.36316 9.43176 6.65771 9.6167 6.84265 8.32214 7.02759 6.65771 7.5824 5.54809 7.5824 5.73303 6.65771 5.36316 4.62341 6.65771 5.54809 7.5824 6.47278 3.88367 7.39746 7.95227 5.17822 6.47278 5.91797 7.5824 4.25354 4.80835 6.84265 5.54809 3.69873 6.84265 4.99329 5.91797 6.65771 4.43848 4.62341 3.88367 4.80835 3.88367 4.80835 5.54809 3.14392 4.62341 5.73303 3.51379 4.25354 4.0686 4.0686 4.25354 4.80835 3.14392 2.40417 2.58911 3.69873 4.43848 3.32886 4.99329 3.69873 3.69873 3.51379 3.51379 4.25354 3.14392 3.51379 2.40417 2.58911 2.40417 1.84936 3.88367 2.95898 3.51379 3.69873 4.25354 3.88367 2.58911 3.32886 2.77405 3.14392 2.40417 2.0343 2.0343 2.21924 3.32886 2.40417 1.66443 2.0343 1.66443 2.21924 2.58911 2.21924 1.47949 2.0343 2.0343 2.95898 2.58911 2.21924 2.0343 3.14392 1.10962 0.924682 1.66443 1.47949 1.29456 2.58911 2.0343 2.21924 0.369873 2.21924 1.47949 1.47949 2.77405 2.40417 1.84936 2.0343 0.924682 1.84936 2.21924 1.84936 1.47949 1.10962 1.29456 1.47949 1.84936 2.77405 2.40417 1.29456 1.84936 1.84936 2.0343 1.84936 0.554809 0.739746 0.554809 1.84936 0.924682 2.77405 1.29456 1.29456 1.84936 1.84936 0.554809 2.0343 1.29456 1.29456 0.739746 1.29456 
2342.99 358.229 386.869 423.883 417.783 460.132 494.688 504.744 510.171 551.407 566.153 575.815 618.745 615.917 649.655 680.881 658.254 704.353 734.319 770.86 763.362 806.294 839.428 851.545 851.809 854.697 886.189 913.882 935.265 959.244 959.835 1005.17 1016.19 1045.05 1057.82 1112.58 1125.76 1181.05 1170.77 1184.28 1228.59 1263.63 1275.8 1279.36 1288.63 1298.15 1322.03 1356.04 1363.98 1358.13 1368.25 1358.4 1374.96 1375.98 1369.69 1409.95 1451.3 1437.17 1430.09 1389.43 1409.3 1408.23 1402.62 1373.75 1410.84 1410.92 1393.04 1386.65 1388.17 1366.66 1379.63 1365.03 1353.83 1327.14 1327.02 1326.6 1296.1 1312.8 1290.44 1253.66 1280.59 1267.73 1214.79 1245.94 1216.57 1221.25 1180.33 1193.51 1151.97 1147.47 1153.32 1143.98 1120.46 1109.83 1117.62 1076.82 1083.94 1081.04 1035.31 1016.48 1013.37 988.095 1001.45 1005.82 969.992 962.662 937.287 931.935 923.489 909.426 925.28 874.231 879.969 879.622 846.132 835.006 834.161 822.752 799.666 790.889 792.671 796.349 755.198 741.231 748.548 736.701 721.757 727.587 699.364 701.509 677.261 683.39 661.809 647.711 644.757 613.793 645.271 626.013 610.69 607.423 595.03 592.005 583.433 568.206 561.49 534.558 535.913 528.808 527.486 522.431 511.637 503.239 501.092 491.247 481.845 487.272 465.972 461.222 448.437 447.914 434.511 423.792 437.119 428.453 410.376 416.943 413.197 394.258 386.305 378.512 369.501 378.703 366.373 350.883 371.414 352.11 345.319 329.502 333.689 332.456 327.525 315.067 331.207 305.038 298.971 305.655 291.409 289.158 279.066 289.447 274.84 267.342 288.712 269.077 259.928 262.666 255.454 244.236 246.853 243.91 238.625 236.267 232.625 231.06 226.284 230.339 216.005 218.036 209.325 215.517 206.379 204.206 198.901 197.318 185.529 192.4 190.03 185.839 178.962 183.06 186.034 176.411 165.22 171.061 176.395 168.707 164.28 161.434 153.991 149.803 148.8 153.121 155.633 137.607 152.246 145.59 141.065 130.07 130.319 134.01 126.615 127.234 124.633 119.657 126.201 122.788 111.94 114.315 117.55 119.048 113.501 113.049 106.759 108.068 110.811 106.595 106.158 102.222 104.042 93.6595 94.9816 102.581 94.9315 88.6776 88.6043 92.2458 90.4747 92.0245 90.2908 91.1832 89.6552 85.8486 77.3794 84.2464 79.859 78.5471 74.7183 73.6335 73.0896 84.7635 73.4645 70.5669 66.8851 68.8574 68.983 68.6783 68.0357 69.0941 63.784 68.3874 65.5721 59.2326 62.1696 64.247 61.5482 54.0131 63.6147 56.279 56.5431 58.6071 55.026 56.9265 54.2125 53.8814 50.7527 53.7676 56.1993 50.1037 47.0188 52.6268 49.5357 46.9344 45.5619 47.6022 45.5822 46.5775 46.9293 43.0359 45.6626 39.8569 38.8173 44.5279 42.1645 41.6885 43.0413 40.9775 43.1217 39.7056 41.842 38.0515 36.0839 34.8069 37.6 35.5553 34.817 36.803 35.1616 38.9067 33.9292 31.8602 33.7364 33.2316 27.9787 33.1912 34.8043 33.4795 29.4767 28.3947 30.2637 27.1401 30.3129 28.108 27.8813 27.2518 26.6088 27.3819 27.574 27.2401 24.1849 26.4717 24.0524 28.3628 26.9667 24.0699 20.2676 23.7795 22.8452 21.3248 26.0646 22.5298 21.6807 23.8735 22.9876 21.9311 20.913 22.304 20.7714 18.4165 18.9241 20.2904 18.4452 17.878 20.4977 18.5636 
166.531 -2.56754 15.5893 11.6459 2.56754 2.56754 -1.19175 1.37578 14.2135 3.94332 -5.13507 28.2429 7.70261 41.0806 37.3213 51.5348 38.5131 53.9183 57.8616 86.1045 52.7265 84.7287 88.672 92.4313 107.837 107.837 168.266 146.35 259.321 251.619 369.725 418.509 605.939 831.882 911.476 1234.99 1286.34 1561.06 1512.28 1771.6 1853.76 1763.9 1858.9 1979.57 1804.98 1848.63 1971.87 1799.84 1738.22 1602.14 1448.09 1612.41 1378.77 1265.8 1360.79 1139.99 1003.91 826.747 752.288 757.423 629.047 616.209 513.507 444.184 421.076 231.078 267.024 261.889 166.89 172.025 125.809 56.4858 92.4313 84.7287 51.3507 38.5131 43.6481 15.4052 43.6481 17.9728 28.2429 15.4052 38.5131 20.5403 46.2157 12.8377 10.2701 15.4052 20.5403 12.8377 20.5403 20.5403 12.8377 20.5403 23.1078 17.9728 5.13507 2.56754 5.13507 30.8104 10.2701 -2.56754 20.5403 5.13507 -5.13507 12.8377 0 5.13507 15.4052 5.13507 0 12.8377 5.13507 15.4052 10.2701 5.13507 2.56754 12.8377 10.2701 -7.70261 0 5.13507 5.13507 7.70261 7.70261 7.70261 7.70261 2.56754 12.8377 2.56754 2.56754 2.56754 5.13507 5.13507 5.13507 7.70261 -5.13507 0 2.56754 5.13507 2.56754 -2.56754 2.56754 2.56754 5.13507 7.70261 5.13507 2.56754 0 2.56754 2.56754 2.56754 -2.56754 5.13507 7.70261 0 2.56754 5.13507 0 2.56754 5.13507 0 0 0 2.56754 2.56754 0 2.56754 0 0 -2.56754 0 -2.56754 2.56754 0 0 0 2.56754 2.56754 2.56754 5.13507 0 0 0 2.56754 0 0 5.13507 2.56754 2.56754 7.70261 0 0 0 2.56754 0 2.56754 -2.56754 2.56754 0 0 0 0 2.56754 0 0 0 0 2.56754 2.56754 0 2.56754 0 2.56754 0 0 0 2.56754 -2.56754 0 0 0 -2.56754 0 0 0 0 0 0 0 0 2.56754 0 0 5.13507 2.56754 0 0 0 0 0 0 0 0 0 0 0 0 0 0 0 0 0 0 0 0 0 0 2.56754 0 0 0 0 0 0 0 0 0 0 0 0 2.56754 0 0 -2.56754 2.56754 0 5.13507 0 0 0 0 0 0 0 0 0 0 0 0 0 0 0 0 2.56754 0 0 0 0 0 0 0 0 0 2.56754 0 0 0 0 0 0 0 0 0 0 0 0 0 0 0 0 0 0 0 0 0 0 0 0 0 0 0 0 0 0 0 0 0 0 0 0 0 0 0 0 0 0 0 0 0 0 0 0 2.56754 0 0 0 0 0 0 0 0 0 0 0 0 0 0 0 0 0 0 0 0 0 0 0 0 0 0 0 0 0 0 
58562.9 10231.5 8600.56 8871.2 8110.52 7226.41 7085.39 6513.21 6993.63 6293.27 6282.47 6068.48 5781.33 5502.14 5786.82 4945.43 5033.48 5149.02 4945.59 4875.92 5063.67 5018.24 4683.28 4461.99 5020.89 5069.32 5263.29 5291.14 5498.93 6068.29 7059.02 8025.6 9331.12 10505.3 12767.2 13163.7 14480.4 16704.1 17990.3 20316.9 22157 24544.2 25921.3 27308.9 28411.6 29689.1 31104.1 32385.7 33382.6 34195.2 36067.5 38222.4 39896.4 41915 44477.7 47675 49961.2 53736.9 58559.7 64195.4 69155.8 76416.8 85223 96571.7 110969 127810 150499 180408 220658 275834 358686 482968 689558 1.02165e+06 1.6e+06 2.46905e+06 3.3097e+06 3.37205e+06 2.54704e+06 1.58905e+06 943032 577154 370541 256960 188173 142342 111942 90654.6 75560.3 64130 54094.1 47016.9 40995.2 36515.2 32757.3 29459 26254.9 24184.4 21999.6 20097.4 18477.1 17221.4 15831.6 14795.2 13779.2 12901.3 11955.8 11354.8 10751.9 10138.4 9570.48 9077.22 8400.78 8060.54 7784.96 7243 6910.33 6598.33 6299.41 6097.08 5804.74 5661.42 5284.77 5011.79 4986.39 4764.69 4456.22 4254.4 4102.5 4065.16 3843.19 3735.97 3560.88 3400.92 3381.83 3218.77 3088.77 3068.55 2927.3 2657.74 2630.4 2543.28 2579.15 2421.78 2442.62 2287.26 2220.47 2133.02 2212.07 2114.87 1898.7 1955.31 1942.4 1755.02 1759.28 1809.23 1653.28 1716.99 1663.9 1508.34 1521.52 1512.89 1459.92 1419.95 1366.01 1433.27 1328.65 1266.34 1346.8 1202.97 1111.2 1143.58 1127.6 1082.25 1132.47 1062.63 1036.65 941.272 935.312 935.032 933.11 924.067 855.711 883.225 870.914 847.352 830.944 799.539 781.418 770.228 741.369 737.384 725.879 713.908 724.153 686.12 670.586 678.181 663.763 628.756 647.532 593.511 577.506 593.469 565.631 572.574 537.773 547.253 523.642 529.064 504.209 495.376 477.474 479.017 465.886 448.61 476.832 448.323 449.609 430.808 434.364 414.633 414.422 396.206 381.388 407.997 396.935 374.011 371.616 347.73 369.328 349.66 331.37 338.888 329.42 321.991 329.253 310.404 316.776 294.657 307.262 298.721 293.61 273.218 287.729 273.288 280.069 268.612 255.338 262.861 248.287 249.906 235.833 235.919 232.275 218.566 215.429 235.563 236.065 221.688 229.217 230.578 214.809 207.412 205.102 198.42 194.016 195.851 192.779 187.202 177.161 181.605 188.34 189.277 177.11 177.081 168.969 180.504 166.317 169.513 165.796 156.107 151.505 151.283 145.972 159.876 152.212 129.829 146.166 149.683 141.696 142.594 144.454 138.848 133.109 137.704 142.262 125.566 117.793 126.795 118.139 138.153 118.402 112.246 121.129 114.802 120.493 116.791 114.429 116.371 106.86 97.3439 123.222 105.047 99.1158 115.784 93.1739 97.8623 100.523 101.452 92.2541 100.536 91.9298 96.8958 98.8975 92.6185 83.5436 80.4188 87.6102 86.8567 85.682 89.3319 82.803 85.8022 91.2352 82.035 71.3506 74.6849 87.0275 69.7287 82.9917 77.8285 75.7157 66.2162 65.0732 67.2098 66.5276 64.5951 70.2591 68.8317 69.9794 69.9179 61.4041 69.2111 60.5721 55.9821 67.968 57.4781 63.3014 54.705 57.3528 55.2748 53.0554 57.3498 48.0948 60.2148 62.7351 54.2315 56.166 57.7805 49.8872 54.9736 48.6049 51.5726 54.773 50.6357 54.4094 49.0615 46.9924 47.8967 41.2128 41.4959 45.452 42.4469 
65543 9203 8889 8625 8386 7809 7402 7203 7164 6714 6718 6492 6057 6005 5962 5858 5857 5826 5713 5630 5661 5653 5693 5996 5939 6018 6220 6431 6792 7398 8284 9495 11061 12321 13616 15401 16797 18296 20318 22294 24712 26750 28574 30129 31107 32052 33488 34274 35390 36581 38122 39272 41304 42996 45640 48003 51161 54994 58410 62910 68437 76028 83841 94760 107772 123964 145261 173687 212379 266461 344538 463803 655273 979858 1.53406e+06 2.38152e+06 3.22265e+06 3.29055e+06 2.47646e+06 1.53687e+06 908354 555455 361226 250327 182986 139939 110793 89950 74809 62567 53900 46862 41362 36987 33037 29648 26816 24411 22607 20636 19342 17942 16600 15798 14432 13738 12808 12068 11526 11086 10300 9764 9320 8984 8392 8002 7840 7527 7173 6939 6562 6404 6178 5906 5644 5478 5325 5062 5026 4714 4637 4529 4302 4139 4054 4072 3827 3687 3505 3602 3316 3288 3256 3239 3033 2876 2826 2800 2700 2629 2599 2570 2416 2489 2289 2281 2332 2189 2334 2072 2034 2071 1916 1893 1813 1804 1814 1771 1599 1587 1589 1526 1592 1543 1484 1409 1430 1428 1385 1398 1293 1265 1261 1251 1176 1297 1192 1145 1086 1048 1071 1067 996 1074 968 962 954 934 920 883 885 848 867 828 814 755 811 806 748 747 754 724 733 694 675 705 681 663 638 636 611 595 610 593 594 569 557 561 502 564 485 499 508 528 541 502 495 470 491 483 458 440 451 400 401 410 393 409 379 416 403 404 375 381 384 360 328 327 364 322 340 294 290 330 315 309 308 263 263 300 294 279 255 282 254 264 247 265 253 197 259 230 235 242 236 212 199 216 222 203 222 196 230 239 189 186 201 199 199 207 187 190 168 195 165 162 169 156 145 143 177 172 147 157 143 158 160 155 159 145 134 145 143 148 117 136 117 133 138 125 123 118 132 149 109 116 95 118 118 130 133 110 107 101 105 89 105 115 103 93 97 93 89 82 87 93 99 98 93 106 78 76 99 74 91 84 85 88 96 79 86 82 72 95 87 72 71 61 77 83 75 65 66 69 
_custom_bins
44
15 20 25 30 35 40 45 50 55 60 64 68 72 76 81 86 91 96 101 106 110 115 120 126 133 141 150 160 171 185 200 220 243 273 320 380 440 510 600 700 830 1000 1500 3000 
164.278 161.257 45.2187 0.583697 53.6177 0 0 0 1595.53 0.146383 0.0456012 1756.79 0 0 169.656 0 8.39901 0 0.146383 0 0 0 0 0 0 0 0 0 0 0 0 0 0 0 0 0.629299 0 8.40329 0 0.0456012 0.00854128 0 0.00427589 
46.0199 71.5865 20.4533 56.2465 76.6998 81.8131 71.5865 132.946 214.759 204.533 138.06 224.986 189.193 86.9265 122.72 122.72 132.946 71.5865 117.606 127.833 35.7932 112.493 46.0199 10.2266 92.0398 30.6799 56.2465 46.0199 -20.4533 35.7932 15.34 51.1332 56.2465 25.5666 25.5666 0 10.2266 5.11332 0 0 0 0 0 
124.302 178.532 257.744 260.79 313.801 384.483 476.49 606.885 760.435 819.539 719.001 717.782 740.327 702.549 885.955 829.288 728.75 732.406 665.38 605.057 520.362 573.982 556.921 552.656 617.853 607.495 584.95 571.545 527.064 589.215 475.272 533.157 444.806 391.185 391.795 243.12 144.409 87.1332 67.0255 33.5128 20.717 12.7958 7.31187 
7.89957 14.6706 19.7489 32.7268 35.5481 46.8332 63.7608 95.3591 114.544 145.578 144.449 174.919 231.345 275.921 603.189 1566.37 9161.81 8979.56 1167.44 374.101 216.11 169.841 124.7 108.901 109.466 91.9736 81.2528 83.5098 64.3251 68.8391 55.8613 61.5038 49.0902 46.2689 44.0119 31.5983 13.5421 12.4136 4.51404 2.82128 4.51404 1.69277 1.12851 
78.3813 68.8806 57.0046 46.3162 40.9721 50.4728 44.5348 57.5984 67.0992 84.3193 77.1937 95.6015 122.322 144.887 368.155 991.642 6214.69 6132.15 827.16 259.49 124.104 101.539 67.0992 59.3798 56.4108 48.0976 42.7534 39.7845 30.2837 36.8155 30.8775 29.0961 21.9705 20.7829 24.9395 25.5333 7.71937 7.71937 4.15658 5.34418 2.37519 0.593798 2.96899 
63.0574 92.9169 108.681 148.37 158.014 179.714 209.202 241.473 280.42 299.523 238.32 251.117 260.761 253.342 319.924 316.771 310.836 292.846 293.773 273.743 220.33 255.753 229.047 268.365 290.25 294.701 313.061 298.781 287.653 293.588 263.172 288.395 225.337 203.638 186.019 120.922 62.501 37.2781 19.4736 8.90222 4.63657 2.41102 0.370926 
61.9537 91.1737 115.03 135.189 163.854 190.115 217.115 232.65 260.76 294.419 230.986 255.212 258.911 259.466 314.762 313.282 304.221 299.782 289.795 276.665 213.417 255.397 250.034 264.274 294.419 305.145 302.371 292.939 272.966 297.933 257.062 283.878 231.356 215.636 204.355 131.49 60.8441 34.953 20.343 8.87695 4.80835 1.66443 0.924682 
2342.99 2046.9 2627.16 3141.01 3631.15 4203.77 4654.42 5236.81 5890.45 6405.58 5400.17 5477.59 5668.11 5637.05 6991.17 6886.13 6630.69 6405.24 6078.89 5790.26 4424.73 5230.13 4928.01 5501.65 5897.31 6083.34 6057.18 5924.12 5556.94 5850.54 5043.91 5157.3 4305.04 3759.45 3434.53 2164.9 1001.38 544.581 292.847 130.555 63.949 26.3536 9.97652 
166.531 29.8027 13.2057 165.882 289.124 481.505 1195.28 4002.79 7985.04 9255.97 7112.08 5705.07 4331.43 2754.97 1876.87 783.099 310.672 120.674 128.377 89.8638 74.4586 53.9183 30.8104 38.5131 61.6209 33.378 46.2157 20.5403 28.2429 17.9728 15.4052 25.6754 7.70261 12.8377 12.8377 2.56754 2.56754 0 2.56754 -2.56754 0 0 0 
58562.9 43040.2 33168 28084.2 25067.7 24253.7 29180.7 53792.9 91648.5 135875 131068 156101 195851 268328 571072 1.51855e+06 9.08996e+06 9.02832e+06 1.06996e+06 331456 139727 111013 74528.6 62848.6 51297.4 42067.1 33563.6 26646.8 21453.6 19858.8 14711.2 13702.5 10405.5 8548.02 7635.07 4906.82 2459.66 1523.64 1014.71 545.67 336.538 190.741 138.613 
65543 42912 35201 30374 28687 29299 35125 61894 102417 148612 139733 161694 199798 265785 555598 1.46087e+06 8.77336e+06 8.76769e+06 1.04527e+06 328088 141034 113812 78510 67552 57238 48436 40535 33629 27931 26486 20738 19297 15207 13049 11313 7230 3654 2197 1345 735 379 215 142 
