1
Photon_
#eta
eta_count
9
0
0
10
QCD W + Jets WW WZ ZZ #bar{t}W tW t#bar{t} Drell Yan #rightarrow #tau#tau Drell Yan #rightarrow #mu#mu 

100 -3 3
0 0 0 0 0 0 0 0 0 0.583697 0 0 0 0 0 0 0 0 0 0 0 0 0.583697 0 0 0 0 0 0 0 0 0 0 0 0 45.2187 0 0 0 0 0.00427589 0 0 0 0.00854128 0 0 0 0 0 0.583697 0 0 0 0 45.2187 0 0 0.0456012 0 0 0 0 0 0 0.146383 0 0 0 0 0 0 0 0.00427589 0 0 0 0 0 8.39901 0 0 8.39901 0.146383 0.583697 0 8.39901 0 0 0 0 0 0 0 0 0 0 0 0 0 
0 0 -5.11332 0 0 0 15.34 5.11332 0 -5.11332 10.2266 0 5.11332 5.11332 10.2266 10.2266 0 5.11332 -5.11332 0 10.2266 10.2266 -10.2266 -10.2266 15.34 20.4533 0 5.11332 10.2266 10.2266 -5.11332 10.2266 5.11332 5.11332 25.5666 10.2266 -5.11332 15.34 -10.2266 5.11332 0 0 5.11332 10.2266 0 10.2266 5.11332 5.11332 10.2266 10.2266 15.34 -5.11332 10.2266 -5.11332 5.11332 0 5.11332 15.34 5.11332 0 0 0 5.11332 0 5.11332 10.2266 0 15.34 -10.2266 5.11332 -5.11332 5.11332 20.4533 10.2266 -5.11332 0 5.11332 10.2266 5.11332 20.4533 -10.2266 10.2266 -5.11332 -5.11332 5.11332 15.34 5.11332 0 15.34 15.34 10.2266 5.11332 5.11332 5.11332 5.11332 0 -5.11332 5.11332 0 5.11332 
0 0 8.53052 17.6704 19.4983 10.9678 17.061 15.2331 16.4517 17.061 17.6704 14.6237 18.2797 18.889 26.2009 20.1077 19.4983 24.3729 23.7636 25.5916 24.9822 26.8102 20.1077 25.5916 27.4195 13.4051 16.4517 25.5916 20.717 31.6848 25.5916 29.8568 23.1543 20.1077 25.5916 31.0755 20.1077 26.2009 25.5916 23.7636 26.8102 20.717 28.0288 23.1543 34.1221 35.95 28.6382 24.9822 31.6848 24.9822 29.2475 30.4661 23.7636 26.8102 31.6848 28.6382 37.778 39.606 28.0288 23.7636 34.1221 19.4983 29.8568 17.6704 31.6848 28.0288 31.0755 26.8102 32.2941 20.1077 32.9034 28.6382 20.1077 23.7636 29.8568 21.3263 11.5771 28.0288 31.0755 23.7636 20.1077 26.8102 23.1543 23.7636 21.9356 26.8102 22.5449 22.5449 21.3263 17.6704 20.1077 18.889 17.6704 18.889 11.5771 23.1543 13.4051 17.061 20.1077 7.9212 
0 1.69277 37.8051 75.6102 59.8111 62.6323 76.1745 75.0459 63.1966 60.9396 67.7106 66.0179 71.0962 69.9677 55.297 68.2749 72.2247 75.0459 71.0962 80.1242 79.56 85.7668 78.4315 78.9957 90.8451 48.526 49.0902 96.4876 88.0238 69.9677 88.0238 89.7166 79.56 82.3813 89.1523 77.8672 84.074 82.9455 80.1242 78.4315 90.2808 85.7668 78.9957 84.6383 85.2025 91.4094 81.817 103.259 86.8953 90.2808 89.7166 85.2025 86.8953 92.5379 94.7949 102.694 102.13 105.516 89.7166 83.5098 89.1523 91.4094 84.074 84.6383 87.4596 78.4315 90.8451 93.6664 91.9736 77.8672 90.8451 90.8451 90.2808 88.0238 87.4596 59.2468 45.1404 78.9957 78.9957 91.4094 81.2528 67.1464 81.817 82.3813 78.9957 74.4817 75.6102 63.1966 79.56 76.1745 67.7106 65.4536 60.9396 75.0459 69.9677 63.1966 73.9174 58.6825 72.2247 40.0621 
0 1.1876 9.50077 34.4403 28.5023 25.5333 26.7209 35.0341 21.3767 33.8465 32.6589 27.9085 33.8465 33.8465 36.2217 34.4403 33.2527 40.9721 35.6279 38.5969 43.3472 42.7534 33.8465 42.1596 51.6604 21.9705 27.3147 45.1286 48.6914 50.4728 50.4728 54.6294 36.8155 40.9721 51.0666 42.7534 45.1286 45.1286 56.4108 49.879 51.0666 52.848 50.4728 51.6604 44.5348 59.9736 58.1922 57.5984 64.724 51.0666 46.3162 48.6914 60.5674 53.4418 54.0356 54.0356 51.0666 56.4108 48.6914 42.1596 62.3488 47.5038 49.2852 46.91 45.1286 57.5984 54.0356 47.5038 47.5038 48.6914 49.879 54.0356 43.941 59.3798 48.0976 41.5658 27.9085 46.3162 52.2542 35.0341 42.7534 45.1286 46.91 38.5969 39.1907 35.6279 40.3783 30.8775 45.1286 31.4713 29.0961 39.1907 26.7209 34.4403 33.2527 30.2837 21.9705 33.2527 33.8465 21.9705 
0 0.185463 4.45111 12.9824 14.837 9.82954 12.7969 11.4987 13.5388 11.3132 10.3859 12.426 13.5388 13.5388 11.3132 15.9498 18.5463 15.0225 17.4335 20.5864 20.03 21.8846 20.2155 25.9648 24.2956 12.9824 14.2806 30.045 30.4159 29.6741 30.4159 31.1578 31.7142 35.7944 31.7142 34.867 32.6415 27.634 28.0049 34.4961 36.3507 38.7618 37.8344 33.0124 38.5763 37.649 35.238 37.649 38.5763 40.4309 39.8745 34.1252 37.0926 36.9071 39.1327 36.9071 37.0926 35.238 35.7944 34.867 32.456 35.4234 32.456 32.0851 33.0124 29.3031 31.5287 31.3432 22.9974 34.3106 32.456 30.045 32.6415 30.9723 32.6415 15.0225 8.34583 23.5538 26.3357 24.1102 18.5463 21.3282 20.7719 19.2881 16.6917 16.3207 14.6516 13.9097 12.6115 15.7644 15.0225 11.3132 13.1679 11.4987 13.5388 12.426 12.426 12.2406 14.2806 7.04759 
0 0.369873 7.02759 14.9799 11.2811 12.0209 13.6853 14.425 11.0962 14.0552 14.425 13.6853 15.1648 15.9045 16.4593 13.1305 20.343 18.4936 16.8292 22.7472 21.4526 22.5623 21.6376 24.4116 20.343 11.8359 15.5347 35.1379 31.2543 26.4459 30.3296 29.4049 25.1514 34.7681 31.4392 32.5488 32.3639 28.1103 30.5145 30.1446 36.6174 38.2819 34.0283 32.9187 29.035 37.5421 40.5011 35.5078 31.0693 37.5421 34.3982 31.6241 36.2476 31.994 39.3915 36.2476 31.4392 38.0969 36.2476 32.1789 36.9873 35.3229 30.6995 30.6995 34.2132 31.0693 29.9597 28.2953 31.4392 29.035 27.0007 31.8091 32.1789 33.6584 28.2953 19.9731 13.6853 22.0074 24.5966 23.1171 22.1924 23.1171 19.9731 18.8635 16.4593 20.343 18.6786 15.7196 16.4593 14.0552 14.7949 12.5757 17.569 13.1305 12.3907 12.3907 12.2058 13.8702 13.1305 6.65771 
0 6.29905 134.153 302.212 262.606 248.862 291.996 305.58 280.787 302.172 301.55 322.719 368.422 341.769 386.455 392.238 408.692 436.668 473.744 479.329 516.107 543.57 600.623 593.649 623.855 318.52 410.062 789.167 796.954 759.8 769.48 784.967 772.41 832.584 844.613 808.794 832.466 801.105 776.163 875.055 904.64 930.087 906.939 886.87 880.429 937.607 937.712 953.616 919.888 949.397 902.192 879.871 976.386 952.402 958.867 935.456 955.68 923.48 896.447 905.421 898.553 886.933 889.937 821.782 826.688 815.6 783.969 799.983 805.646 758.912 780.679 781.444 780.581 809.041 780.389 468.15 257.767 601.888 617.612 553.026 513.223 473.723 480.858 483.64 451.877 421.759 387.028 400.435 364.912 359.423 341.521 308.799 311.86 285.144 304.243 291.401 242.206 250.97 302.508 163.136 
0 0 20.5403 30.8104 20.5403 46.2157 34.7538 59.0533 41.0806 28.2429 28.2429 59.0533 59.0533 60.4291 51.3507 30.8104 25.6754 41.0806 33.378 62.9967 51.3507 56.4858 56.4858 53.9183 51.3507 5.13507 21.732 56.4858 61.6209 48.7832 29.4347 94.9989 43.6481 77.0261 61.6209 28.2429 65.5642 68.1317 73.2668 43.6481 14.0294 32.1862 82.1612 48.7832 73.2668 74.4586 51.3507 43.6481 33.378 77.0261 52.7265 32.1862 74.4586 62.9967 48.7832 66.756 56.4858 43.6481 53.9183 46.2157 56.4858 62.9967 25.6754 59.0533 101.51 61.6209 70.5153 41.0806 51.3507 28.2429 69.3235 33.378 51.3507 92.4313 93.8071 23.1078 11.6459 48.7832 38.5131 38.5131 57.8616 29.4347 35.9455 47.5914 15.4052 23.1078 7.70261 33.378 25.6754 38.5131 50.159 28.2429 7.70261 28.2429 51.3507 51.3507 33.378 5.13507 30.9945 38.5131 
0 366.418 8077.72 20696.9 18132 16000.7 17674 17199.6 15585.9 16743.6 17966.9 18895.6 21037.1 19250.6 20174.3 19868 20122.9 20786.5 21716.8 21507.3 22125.6 23031.7 23503.3 25262.1 27259.4 13301 15299.9 26517.4 26884.3 24895.8 24979.6 24838.5 23743.6 25719.8 26134.1 24636.3 24395.2 24118.8 23730 25538.4 26622 26095.7 26296 25081.4 25098.4 26805.8 27255.8 26905.6 25984.3 27061.8 25676.4 25833.1 26763.7 26598.4 26526.3 27344.8 26969.2 25974.5 25721.1 26831.3 26790.8 26205.1 25761.9 25041.6 24563.3 25311.6 24317.7 24627 25059.7 23902.2 25424 25311.4 25215.8 25467.3 25630.9 17813.1 11039.4 26315.6 25223.2 22526 21510.2 21421.6 21611.9 22419.6 21947.6 21401.9 20026.8 20326.9 20393.4 21200.1 20568.5 17893.5 16513.8 16632.7 17592.7 17540.1 15701.3 17009.8 20350 9743.26 

100 -3 3
0 0 0 0 0 0 0 0 0 0 0 0 0 0 0 0.0456012 0 0 0 0 0 0 0 0 0 0 0 0 0.0456012 0.00427589 8.39901 0 0 0 0 0 0 0 0 0 0 0 0 0 0.0456012 0 0 0 0 0 0 0 0 0 0 0 0 0.0456012 0 0 0 0 0 0 0 45.2187 0 0.00427589 0 45.2187 0 0 0 322.513 0 0 0 0 0 0 0 0 0 0 0 8.39901 0 0 0 0 0 0 0 0 0 0 0 0 0 0 
0 0 0 -5.11332 0 0 0 10.2266 5.11332 -5.11332 0 5.11332 0 0 0 0 0 0 -5.11332 0 0 5.11332 0 -5.11332 0 0 0 0 0 0 0 10.2266 5.11332 5.11332 0 0 0 10.2266 0 10.2266 -5.11332 0 0 5.11332 -5.11332 10.2266 5.11332 0 5.11332 5.11332 5.11332 0 0 5.11332 0 5.11332 5.11332 -5.11332 5.11332 0 -10.2266 0 0 0 5.11332 0 0 0 0 0 0 0 5.11332 0 0 5.11332 10.2266 0 -5.11332 5.11332 0 0 0 0 0 5.11332 10.2266 -5.11332 0 5.11332 0 0 0 -5.11332 0 5.11332 5.11332 10.2266 0 0 
0 0 1.21865 7.31187 3.65594 6.70255 3.04661 4.87458 4.87458 5.4839 3.04661 2.43729 4.26526 4.87458 4.26526 3.04661 4.26526 6.09323 3.65594 7.31187 9.13984 4.87458 6.70255 5.4839 7.31187 4.26526 5.4839 6.70255 8.53052 7.31187 8.53052 6.09323 7.9212 6.70255 7.9212 2.43729 6.09323 4.26526 8.53052 7.31187 10.3585 5.4839 10.3585 6.09323 10.9678 13.4051 8.53052 13.4051 11.5771 6.09323 7.31187 4.26526 7.9212 9.13984 11.5771 7.31187 8.53052 11.5771 10.3585 5.4839 4.87458 7.31187 4.87458 9.74916 6.09323 9.13984 9.13984 12.1865 10.9678 10.9678 7.9212 9.74916 8.53052 9.74916 6.70255 8.53052 1.82797 13.4051 7.9212 3.65594 4.87458 6.09323 7.9212 7.9212 6.70255 4.26526 6.70255 4.26526 6.09323 4.26526 3.04661 3.65594 4.87458 6.09323 3.65594 3.04661 3.65594 4.87458 4.87458 3.65594 
0 0.564255 10.7208 23.1345 17.4919 19.7489 28.2128 29.9055 21.4417 23.6987 24.263 26.52 27.6485 25.3915 26.52 23.6987 24.8272 27.0843 21.4417 32.7268 33.2911 29.3413 38.3694 32.7268 29.3413 20.8774 24.263 38.9336 34.4196 33.2911 35.5481 33.8553 34.4196 32.1625 44.5762 36.1123 30.4698 38.3694 33.8553 26.52 37.2408 40.6264 34.9838 34.4196 35.5481 33.8553 38.3694 38.3694 38.3694 34.4196 40.0621 33.8553 41.7549 36.6766 42.8834 40.6264 35.5481 41.7549 41.7549 27.6485 27.0843 32.7268 43.4477 24.263 38.3694 44.0119 34.9838 37.2408 41.7549 39.4979 28.777 37.8051 41.7549 35.5481 37.8051 34.9838 13.5421 32.1625 37.2408 25.3915 27.6485 30.4698 30.4698 30.4698 26.52 27.6485 20.8774 30.4698 27.6485 24.8272 27.6485 22.006 24.263 24.263 23.1345 19.1847 18.6204 22.5702 23.1345 13.5421 
0 0.593798 2.96899 14.8449 13.0636 10.0946 15.4387 16.6263 11.876 19.5953 19.0015 19.0015 19.0015 20.1891 18.4077 21.3767 20.7829 21.9705 21.9705 15.4387 21.9705 25.5333 25.5333 36.2217 23.1581 16.0325 17.8139 32.0651 24.3457 26.7209 30.8775 40.3783 31.4713 32.0651 42.1596 29.6899 40.3783 35.0341 33.8465 33.2527 40.3783 39.7845 31.4713 33.8465 39.1907 36.2217 43.941 33.8465 33.8465 36.2217 44.5348 32.0651 35.6279 37.4093 44.5348 32.6589 36.2217 23.7519 25.5333 26.1271 36.2217 36.8155 37.4093 26.7209 36.2217 39.7845 33.8465 29.6899 36.2217 43.3472 32.6589 36.2217 37.4093 39.7845 34.4403 19.5953 8.31317 33.8465 23.1581 32.6589 24.3457 35.0341 20.7829 26.7209 17.8139 16.0325 24.3457 21.3767 18.4077 22.5643 18.4077 16.0325 14.8449 15.4387 20.7829 12.4698 11.2822 10.6884 19.5953 9.50077 
0 0 2.22556 6.4912 6.86213 2.96741 5.93481 5.37843 6.67667 7.23306 5.56389 5.74935 6.86213 6.67667 5.74935 6.12028 8.90222 9.45861 7.78944 9.45861 8.34583 10.015 11.4987 11.8696 13.9097 5.93481 6.12028 16.1353 16.6917 12.2406 17.619 17.2481 16.8771 16.5062 16.1353 18.3608 17.619 16.5062 17.2481 17.4335 17.0626 17.4335 18.3608 16.1353 17.2481 21.3282 20.03 17.0626 17.9899 20.2155 17.8044 15.3934 20.2155 22.0701 19.8445 18.1754 19.4736 19.4736 17.2481 18.1754 20.03 21.1428 21.3282 19.8445 13.7243 15.5789 15.7644 14.2806 20.7719 12.2406 16.3207 15.3934 18.3608 18.5463 17.2481 9.82954 5.56389 10.3859 12.426 12.6115 9.82954 11.3132 9.08769 8.71676 8.90222 8.5313 6.4912 10.015 5.74935 9.08769 5.37843 8.16037 8.34583 8.90222 7.04759 5.93481 6.67667 4.26565 6.86213 2.78194 
0 0 3.69873 5.91797 5.91797 6.28784 5.91797 8.69201 3.88367 4.80835 6.28784 5.54809 7.76733 9.24682 8.50708 7.95227 8.87695 8.32214 8.50708 10.5414 10.5414 9.80163 10.7263 13.8702 11.4661 4.80835 8.69201 18.8635 18.8635 17.9388 15.5347 16.2744 17.7539 16.6443 19.2334 17.384 17.569 16.4593 14.2401 14.0552 17.9388 17.1991 18.8635 17.9388 19.0485 20.8978 21.0828 21.2677 18.1238 19.4183 20.7129 16.8292 13.8702 21.2677 18.3087 18.8635 19.2334 16.6443 17.384 19.4183 18.4936 21.2677 18.3087 14.61 17.569 18.3087 15.1648 18.4936 17.9388 16.0895 15.5347 17.0142 13.6853 14.61 13.8702 10.7263 4.25354 9.06189 9.06189 10.3564 8.69201 11.8359 10.7263 9.06189 7.95227 7.5824 8.50708 7.95227 7.02759 8.87695 7.39746 8.87695 6.1029 6.28784 6.65771 5.17822 4.25354 6.28784 6.28784 3.51379 
0 1.47773 85.7744 194.256 173.354 162.753 188.324 200.063 186.157 202.573 203.092 198 234.933 211.469 253.561 256.175 267.937 296.485 323.167 333.985 349.488 370.093 378.797 433.022 421.204 216.146 292.719 569.71 597.774 588.185 566.116 579.245 564.713 597.153 613.198 585.156 597.208 579.966 559.854 627.537 643.957 644.434 633.055 616.701 620.108 678.179 653.283 679.323 629.223 659.952 624.316 629.525 661.004 663.68 689.513 684.894 673.69 649.902 635.987 657.96 651.363 639.155 629.153 599.921 591.423 611.689 577.078 604.56 596.196 563.775 577.259 585.401 584.327 592.28 576.753 337.763 174.937 414.158 408.839 384.321 350.395 338.175 320.027 335.665 301.074 296.17 274.986 270.176 245.989 238.841 222.685 203.212 206.682 181.749 195.364 192.552 158.16 169.424 195.824 95.9181 
0 0 5.13507 -2.56754 17.9728 2.56754 12.8377 7.70261 10.2701 10.2701 7.70261 5.13507 5.13507 5.13507 20.5403 25.6754 -5.13507 7.70261 5.13507 10.2701 5.13507 2.56754 15.4052 5.13507 -5.13507 5.13507 12.8377 48.7832 -5.13507 28.2429 -2.56754 10.2701 20.5403 29.6187 15.4052 14.0294 3.75929 7.70261 6.51086 5.13507 10.2701 20.5403 15.4052 5.13507 28.2429 17.9728 32.1862 7.70261 28.2429 28.2429 15.4052 12.8377 7.70261 15.4052 30.8104 38.5131 12.8377 2.56754 23.1078 39.8888 10.2701 25.6754 25.6754 24.4836 17.9728 10.2701 17.9728 10.2701 15.4052 25.6754 43.6481 17.9728 23.1078 28.2429 25.6754 -7.70261 10.2701 2.56754 16.781 10.2701 20.5403 28.2429 17.9728 17.9728 7.70261 20.5403 10.2701 10.2701 10.2701 10.2701 5.13507 6.32683 17.9728 7.70261 10.2701 20.5403 2.56754 5.13507 -6.51086 7.70261 
0 38.9259 1450.85 3636.47 3199.49 3111.16 3453.02 3533.52 3025.24 3276.3 3364.62 3263.82 3739.18 3663.04 3766.97 4007.34 4019.91 4385.13 4401.38 4352.68 4664.18 5181.22 5110.92 5106.5 5741.13 2402.97 3409.42 6422.35 6637.93 6751.67 6342.88 6392.44 6397.61 6432.22 6450.16 6254.66 6152.95 6229.86 5839.99 6168.32 6313.55 6390.88 5998.01 6101.62 5924.3 6236.04 6124.49 6257.66 6504.46 6595.46 6147.43 5990.62 6624.6 6628.25 6384.83 6279.04 6475.17 6185.11 6022.98 6535.25 6466.13 6672.61 6358.85 6302.23 6270.89 6391.61 6117.03 6434.75 6294.79 5956.47 6894.66 6731.44 6571.16 6550.87 6052.54 3922.46 2347.41 5708.85 5717.9 5269.24 4868.24 4369.12 4212.14 4334.72 4530.79 4285.52 4196.77 3972.5 4034.29 3835.53 3995.01 3540.9 3317.28 3176.49 3627.68 3473.32 2941.31 3162.01 3956.08 1820.84 

100 -3 3
0 0 0 0 0 0 0 0 0 0 0 0 0 0 0 0 0 0 0 0 0 0 0 0 0 0 0 0 0.0456012 0 0 0 0 0 0 0.0456012 0 0 0 0 0 0 0 0 0.0456012 0 0 0 0 0 0 0 0 0 0 0 0 0 0 0.583697 0 0 0 0 0 0 0 0 0 0 0 0 0 0 0 0 0 0.583697 0 0 0 0 0 0 0 0 0 0 0 0 0 0.583697 0 0 0 0 0 0 0 0 
0 0 0 0 0 0 -5.11332 0 -5.11332 0 0 0 0 0 0 0 0 0 0 0 5.11332 0 0 0 0 0 0 0 0 0 0 0 0 0 0 0 0 0 0 0 0 0 0 0 0 0 0 0 0 0 0 0 0 0 0 0 0 0 0 0 0 0 0 0 0 0 0 0 0 0 0 0 5.11332 5.11332 0 0 0 0 0 0 -5.11332 0 0 -5.11332 0 0 0 0 0 0 0 0 0 0 0 0 -5.11332 0 -5.11332 0 
0 0 0 0 0 0.609323 0 1.21865 0.609323 0.609323 0.609323 0 1.82797 1.21865 0.609323 1.21865 1.21865 1.82797 3.04661 3.04661 3.04661 2.43729 1.82797 3.04661 1.82797 0.609323 1.21865 1.82797 2.43729 3.65594 1.21865 1.82797 2.43729 1.21865 1.21865 1.82797 1.82797 1.82797 0.609323 0.609323 0.609323 0.609323 1.21865 1.82797 1.82797 2.43729 3.04661 3.04661 1.82797 2.43729 2.43729 3.04661 1.21865 2.43729 1.21865 1.21865 1.82797 1.21865 3.65594 3.04661 3.04661 1.82797 1.82797 0.609323 0 1.21865 1.82797 1.21865 6.09323 1.21865 2.43729 3.04661 0.609323 1.21865 1.82797 1.21865 0 1.82797 1.82797 3.04661 0.609323 1.82797 2.43729 1.82797 0 1.21865 1.82797 1.21865 1.82797 0.609323 0.609323 0 0 0.609323 1.21865 0 0 0.609323 0 1.21865 
0 0 1.12851 3.38553 4.51404 3.94979 3.94979 3.94979 3.94979 5.0783 4.51404 3.38553 6.20681 5.0783 5.0783 2.25702 6.20681 5.64255 3.38553 6.77106 6.77106 7.89957 9.02808 14.1064 9.02808 4.51404 6.77106 14.6706 9.59234 9.59234 6.20681 11.2851 10.1566 5.64255 6.77106 11.2851 9.59234 11.8494 11.8494 10.7208 7.89957 9.02808 9.59234 6.77106 5.64255 11.8494 10.7208 6.77106 10.7208 9.59234 5.64255 9.02808 7.89957 9.59234 10.7208 11.2851 14.6706 9.59234 9.02808 7.89957 8.46383 8.46383 11.2851 7.89957 7.33532 12.4136 9.59234 7.89957 8.46383 10.1566 11.2851 7.33532 12.9779 10.7208 7.89957 7.33532 4.51404 10.1566 9.02808 7.33532 6.20681 3.38553 2.82128 7.89957 6.20681 4.51404 3.38553 5.64255 3.94979 5.0783 2.25702 2.25702 3.94979 3.38553 5.0783 4.51404 2.25702 4.51404 2.82128 2.25702 
0 0.593798 1.1876 4.15658 4.75038 1.78139 5.93798 3.56279 4.75038 4.75038 3.56279 2.96899 8.31317 4.15658 4.75038 10.0946 5.34418 9.50077 3.56279 9.50077 3.56279 7.71937 4.75038 7.12557 4.75038 4.15658 1.1876 10.0946 13.0636 8.31317 7.12557 5.93798 8.90697 4.15658 8.31317 7.12557 8.31317 7.12557 7.12557 10.6884 6.53178 11.2822 6.53178 5.34418 6.53178 8.90697 8.31317 10.0946 5.93798 6.53178 7.12557 5.93798 10.0946 10.0946 10.6884 10.6884 11.2822 8.31317 11.876 4.15658 6.53178 12.4698 10.0946 6.53178 4.15658 4.15658 10.6884 9.50077 5.93798 13.6574 15.4387 11.2822 7.71937 10.0946 7.12557 1.78139 5.34418 5.34418 7.12557 4.15658 4.15658 7.71937 4.15658 6.53178 5.34418 4.15658 3.56279 2.96899 2.96899 4.15658 2.37519 2.96899 3.56279 3.56279 2.37519 3.56279 1.78139 0.593798 1.1876 1.1876 
0 0.185463 0.927315 1.85463 1.66917 1.4837 2.59648 2.04009 1.29824 1.85463 2.41102 2.22556 2.41102 1.4837 1.85463 2.04009 1.85463 3.33833 2.41102 3.70926 2.96741 3.15287 4.45111 2.78194 3.5238 1.66917 2.41102 3.33833 5.37843 6.4912 5.74935 6.4912 2.96741 6.12028 6.4912 5.56389 6.12028 3.15287 4.82204 6.12028 6.4912 4.63657 5.37843 3.89472 4.08019 7.04759 6.30574 3.33833 4.63657 5.19296 3.33833 5.74935 4.82204 6.30574 7.41852 6.86213 6.12028 7.60398 7.23306 6.4912 4.63657 5.19296 2.96741 6.30574 6.4912 6.4912 4.82204 5.37843 5.0075 5.0075 5.37843 5.0075 5.93481 8.16037 6.12028 2.78194 1.29824 3.5238 4.45111 3.5238 2.96741 2.59648 2.04009 2.78194 3.5238 1.4837 2.41102 2.04009 1.85463 1.66917 2.22556 1.4837 1.4837 3.89472 1.85463 0.741852 1.29824 1.11278 0.556389 0.370926 
0 0 0.554809 1.10962 1.84936 2.77405 1.10962 1.47949 2.95898 2.21924 1.10962 1.66443 2.40417 1.47949 3.14392 2.58911 2.58911 2.21924 2.58911 3.51379 3.69873 4.43848 2.58911 3.32886 2.0343 2.0343 2.40417 4.99329 5.91797 7.02759 4.25354 4.25354 5.36316 5.91797 5.17822 4.99329 6.84265 6.65771 5.17822 4.25354 3.88367 4.0686 2.58911 3.69873 4.62341 5.91797 6.28784 4.99329 6.65771 3.88367 4.43848 5.36316 4.62341 4.43848 5.73303 6.28784 5.36316 6.65771 5.91797 6.1029 5.54809 5.54809 5.54809 4.0686 6.65771 5.91797 4.99329 4.99329 5.91797 4.99329 5.54809 5.17822 5.91797 6.28784 4.25354 3.51379 1.47949 3.32886 3.69873 3.32886 3.14392 3.69873 3.51379 2.58911 3.14392 3.69873 2.77405 4.0686 2.0343 1.84936 2.58911 1.29456 1.66443 1.84936 0.924682 1.66443 1.47949 1.66443 1.66443 0.554809 
0 0.876471 30.754 65.9184 60.2579 58.3728 70.0174 70.7936 66.5236 71.3659 70.4928 82.4037 82.7808 84.6059 98.735 88.9468 95.828 112.104 118.726 125.734 138.142 143.829 156.654 148.595 167.486 77.0277 106.906 231.263 254.087 237.439 247.58 230.477 230.439 242.697 233.825 235.573 235.833 223.633 221.149 253.407 250.836 257.52 252.495 237.498 241.468 256.031 252.242 257.013 257.958 245.526 236.806 250.919 248.401 260.196 271.971 262.687 265.695 249.638 251.978 259.575 255.646 252.772 235.259 233.081 233.77 246.654 250.24 244.794 255.587 240.387 241.924 242.345 232.837 240.618 233.763 136.841 66.0489 142.334 152.003 152.649 133.578 118.152 119.58 125.818 122.767 111.581 96.2017 98.3581 94.0548 82.9572 84.1753 76.8362 74.5988 68.1508 71.0269 75.1326 60.5449 64.2972 75.0524 36.8418 
0 0 -2.56754 0 0 0 2.56754 -2.56754 2.56754 -5.13507 5.13507 0 2.56754 -5.13507 0 -2.56754 2.56754 7.70261 5.13507 2.56754 5.13507 0 5.13507 2.56754 2.56754 5.13507 2.56754 17.9728 5.13507 7.70261 0 12.8377 5.13507 5.13507 0 7.70261 0 5.13507 10.2701 11.6459 8.88178e-16 -2.56754 7.70261 12.8377 0 14.2135 2.56754 -2.56754 2.56754 0 14.2135 5.13507 5.13507 0 2.56754 0 -5.13507 0 5.13507 2.56754 -2.56754 2.56754 -5.13507 5.13507 10.2701 7.70261 0 0 10.2701 7.70261 2.56754 -2.56754 12.8377 2.56754 7.70261 12.8377 0 2.56754 -2.56754 -2.56754 2.56754 0 7.70261 5.13507 7.70261 5.13507 10.2701 2.56754 2.56754 5.13507 5.13507 2.56754 10.2701 0 -2.56754 2.56754 0 0 0 2.56754 
0 -10.0565 246.513 598.96 573.046 479.165 529.205 571.934 364.813 440.502 658.186 569.495 647.254 628.673 611.259 648.509 568.477 655.802 673.072 720.827 866.376 919.833 922.029 846.509 775.409 424.339 522.775 1108.79 1285.77 1195.46 1329.7 1170.24 1210.22 1266.08 1198.32 1184.9 1104.04 1232.96 1099.3 1274.78 1321.77 1351.77 1245.97 1164.73 1091.56 1230.03 1321.97 1127.59 1399.12 1335.84 1323.68 1330.74 1319.93 1286 1203.33 1358.81 1378.03 1281.62 1311.96 1240.36 1334.85 1222.66 1264.12 1296.72 1129.87 1262.54 1053.01 1368.48 1377.4 1177.47 1081.77 1257.36 1471.22 1593.18 1241.33 650.681 485.866 1024.28 1027.19 978.585 749.453 819.174 823.381 668.927 780.54 839.73 705.613 664.368 642.874 727.313 675.504 590.059 558.569 552.941 591.21 431.077 433.907 473.124 537.652 374.74 

100 -3 3
0 0 0 0 0 0 0 0 0 0 0 0 0 0 0 0 0 0 0 0 0 0 0 0 0 0 0 0 0 0 0 0 0 0 0 0 0 0 0 0 0 0 0 0 0 0 0 0 0 0 0 0 0 0 0 0 0 0 0 0 0 0 0 0 0 0 0 0 0 0 0 0 0 0 0 0 0 0 0 0 0 0 0 0 0 0 0 0 0 0 0 0 0 0 0 0 0 0 0 0 
0 0 0 0 0 0 0 0 0 0 0 0 0 0 0 0 0 0 0 0 0 0 0 0 0 0 0 0 0 0 0 0 0 0 0 0 0 0 0 0 0 5.11332 0 0 0 0 0 0 0 0 0 0 0 0 0 0 0 0 0 0 0 0 0 5.11332 0 0 0 0 0 0 0 0 0 0 0 0 0 0 0 0 0 5.11332 5.11332 0 0 0 0 0 0 0 0 0 0 0 0 0 0 0 0 0 
0 0 0 0 0 0 0.609323 0 0 0.609323 0 0 0.609323 0 0.609323 0.609323 0.609323 0.609323 0.609323 0 0.609323 1.82797 0.609323 0.609323 0.609323 0.609323 0 1.82797 0 0 0.609323 0 0 0 0 0 0.609323 1.21865 0.609323 0 0 0.609323 0.609323 0 0 0 0 0 0 0.609323 0 0 1.21865 0 1.21865 1.21865 0.609323 1.21865 1.21865 0 0 0.609323 0 0.609323 0.609323 0 0 0 0.609323 0 0.609323 1.21865 1.82797 0.609323 3.04661 1.21865 0 0.609323 0 0 0.609323 0.609323 0 0 1.21865 0 0 0 0 0 0.609323 0 0 1.21865 1.21865 0 0.609323 0.609323 0 0 
0 0 0.564255 0 0.564255 0.564255 0.564255 1.69277 1.12851 0 2.25702 0 1.69277 0.564255 0 1.12851 0 1.69277 1.12851 2.25702 1.12851 1.69277 2.82128 1.69277 0.564255 1.12851 2.25702 2.25702 1.12851 1.69277 3.38553 4.51404 1.12851 1.12851 0 2.25702 1.12851 1.69277 1.12851 0.564255 2.25702 2.25702 3.38553 2.82128 2.25702 0.564255 1.69277 3.38553 3.38553 1.69277 1.69277 1.69277 2.82128 1.69277 1.12851 5.0783 2.25702 0.564255 2.25702 1.69277 1.69277 1.69277 2.82128 3.38553 1.69277 0.564255 2.82128 0.564255 1.12851 1.12851 0.564255 1.12851 3.38553 2.25702 1.12851 0.564255 0 2.82128 2.25702 0 0.564255 1.69277 0.564255 1.12851 1.69277 0.564255 1.69277 1.12851 1.12851 1.12851 1.12851 0 0.564255 1.12851 1.12851 0.564255 2.25702 0.564255 0 0.564255 
0 0 0.593798 0 0.593798 0 0 0 0 0.593798 1.1876 1.1876 0 1.1876 0.593798 1.1876 1.78139 0.593798 0.593798 3.56279 1.1876 2.96899 0.593798 1.1876 2.37519 2.37519 1.78139 0.593798 1.1876 1.1876 1.1876 0 1.1876 1.78139 1.78139 1.1876 4.15658 1.78139 0.593798 0.593798 0.593798 2.37519 2.37519 1.1876 0 1.1876 0.593798 1.1876 0.593798 2.37519 2.96899 0 3.56279 2.37519 1.78139 2.37519 0.593798 1.1876 1.1876 1.1876 1.78139 1.78139 1.1876 1.78139 0.593798 2.96899 1.78139 2.37519 1.1876 4.15658 2.96899 1.78139 0 2.96899 2.37519 0 1.1876 1.78139 2.37519 1.1876 1.1876 4.15658 0.593798 2.37519 0.593798 1.78139 1.1876 1.1876 0 0 0.593798 0 1.78139 0.593798 0 0.593798 0.593798 1.1876 0.593798 0 
0 0 0.370926 0.370926 0.927315 0.370926 0.185463 0.185463 0.370926 0.370926 0.370926 0.370926 0.556389 0.185463 0.185463 0.370926 0.927315 0.741852 1.4837 0.741852 0.927315 0.927315 0.927315 2.04009 0.927315 1.11278 0.556389 1.85463 1.85463 1.29824 1.4837 1.4837 0.927315 1.4837 0.927315 0.927315 2.04009 2.22556 1.85463 2.41102 2.04009 1.11278 1.66917 1.85463 1.29824 1.85463 2.41102 2.59648 2.41102 0.927315 1.11278 1.11278 1.4837 1.85463 1.11278 2.41102 1.85463 1.29824 0.741852 1.29824 3.15287 1.29824 1.11278 1.85463 2.22556 2.04009 1.11278 2.04009 2.04009 0.556389 1.29824 2.41102 1.66917 0.927315 1.29824 0.927315 0.370926 0.927315 0.741852 0.741852 0.185463 0.185463 0.185463 0.556389 0.927315 0.927315 0.370926 0.556389 0.370926 0.927315 0.556389 0.556389 0.185463 0.370926 0.556389 0 0.185463 0.741852 0.556389 0.185463 
0 0 0.184936 0.554809 0.369873 0.739746 0.369873 0 0.184936 0.739746 0.554809 0.554809 0.554809 0.554809 0.554809 1.10962 0.369873 0.554809 1.10962 0.554809 0.184936 0.554809 1.10962 1.10962 0.184936 0 0.369873 1.29456 1.66443 2.77405 2.21924 1.47949 1.47949 1.10962 1.10962 0.924682 1.29456 1.29456 0.924682 1.47949 2.40417 1.29456 3.14392 0.739746 0.924682 2.0343 0.739746 0.739746 0.924682 1.10962 0.739746 1.47949 1.10962 1.10962 1.47949 1.29456 1.84936 0.924682 0.369873 1.66443 1.29456 1.84936 2.0343 0.924682 1.29456 1.47949 1.29456 1.29456 2.0343 1.10962 1.29456 1.47949 1.47949 1.29456 0.739746 0.369873 0.184936 1.10962 0.554809 0.554809 0.924682 0.924682 1.10962 0.554809 0.554809 0.184936 0.184936 0.554809 0.554809 0.369873 0.554809 0.184936 0.184936 0.554809 0.369873 0.739746 0.184936 0.184936 0.184936 0 
0 0.3876 7.86642 17.8566 17.5047 15.0672 15.8923 19.9337 18.5416 19.1259 18.293 19.4796 21.9893 22.7844 23.317 25.2507 27.9251 30.006 33.0371 26.1107 32.589 38.4118 44.503 44.9492 45.3944 19.9782 32.053 66.4361 74.591 69.5824 67.6159 62.0476 69.093 72.6281 72.2176 65.884 70.2245 67.786 64.9659 67.4917 72.7902 71.3079 71.2284 72.5919 61.6078 63.6916 66.4711 76.1956 69.7538 68.799 68.6498 68.0891 70.0827 68.183 80.6787 77.7999 69.838 74.276 74.1338 68.5453 79.4709 74.8454 64.615 72.1728 61.6533 71.1278 63.636 69.1277 70.3427 67.5489 79.1941 70.4448 76.7749 73.9916 63.2956 37.8928 16.4136 41.8007 40.3347 39.1724 39.4069 37.5454 32.073 36.1094 28.116 30.1572 27.2259 26.3858 22.878 25.0461 24.1061 25.3445 22.1297 16.7916 18.465 18.5513 16.3202 13.9915 21.2945 10.7725 
0 0 0 0 0 0 0 2.56754 2.56754 0 0 0 2.56754 0 2.56754 0 2.56754 0 0 0 0 0 0 -2.56754 0 0 0 0 0 0 0 2.56754 0 2.56754 2.56754 7.70261 2.56754 2.56754 0 0 0 0 0 2.56754 0 0 0 0 2.56754 2.56754 0 0 2.56754 0 5.13507 0 2.56754 0 0 0 2.56754 0 0 0 0 2.56754 2.56754 0 2.56754 0 0 0 0 0 2.56754 2.56754 0 0 2.56754 5.13507 2.56754 -2.56754 -2.56754 2.56754 0 0 0 0 0 0 0 0 0 0 0 0 0 0 0 0 
0 0 57.637 128.12 103.996 83.8288 64.111 88.0434 76.6863 83.8048 59.6288 77.1127 149.602 95.516 142.935 65.7963 119.296 116.202 121.999 118.931 117.216 110.174 182.819 193.605 102.58 45.7994 92.8845 260.679 156.386 187.295 221.64 283.96 188.664 150.996 233.372 234.506 268.529 216.656 246.919 171.371 158.257 212.138 222.415 284.713 225.198 190.115 180.622 238.982 224.73 227.754 173.847 212.434 197.523 100.81 239.456 298.258 263.958 290.249 148.841 163.31 247.978 178.723 251.105 191.774 144.184 217.682 280.607 236.421 128.081 202.942 243.18 344.308 265.761 247.737 278.087 154.766 25.1283 102.871 75.8838 136.035 83.5057 145.339 180.55 196.044 147.672 158.949 136.459 145.396 90.6463 92.6004 60.2118 82.9722 85.2739 48.1602 93.7605 97.2409 94.2621 120.742 67.1342 53.5804 

100 -3 3
0 0 0 0 0 0 0 0 0 0 0 0 0 0 0 0 0 0 0 0 0 0 0 0 0 0 0 0 0 0 0 0 0 0 0 0 0 0 0 0 0 0 0 0 0 0 0 0 0 0 0 0 0 0 0 0 0 0 0 0 0 0 0 0 0 0 0 0 0 0 0 0 0 0 0 0 0 0 0 0 0 0 0 0 0 0 0 0 0 0 0 0 0 0 0 0 0 0 0 0 
0 0 0 0 0 0 0 0 0 0 0 0 0 0 0 0 0 0 0 0 0 0 0 0 0 0 0 0 0 0 0 0 0 0 0 0 0 0 0 0 0 0 0 0 0 0 0 0 0 0 0 0 0 0 0 0 0 0 0 0 0 0 0 0 0 0 0 0 0 0 0 0 0 0 0 0 0 0 0 0 0 0 0 0 0 0 0 0 0 0 0 0 0 0 0 0 0 0 0 0 
0 0 0 0 0 0 0 0 0 0 0 0 0 0 0 0 0 0 0 0 0 0 0 0 0 0 0 0 0 0 0 0 0 0 0 0 0 0 0 0 0 0 0 0 0 0 0 0 0 0 0 0 0 0 0 0 0 0 0 0 0 0 0 0 0 0 0 0 0 0 0 0 0 0 0 0 0 0 0 0 0 0 0 0 0 0 0 0 0 0 0 0 0 0 0 0 0 0 0 0 
0 0 0 0 0 0.564255 1.69277 0 0 0 0 0 0 0 0 0.564255 0 0 0.564255 0.564255 0.564255 0 0 0.564255 0.564255 0 1.12851 0 0 0.564255 0.564255 0.564255 0.564255 0.564255 0.564255 1.12851 0.564255 1.69277 0.564255 0.564255 0 1.12851 0.564255 1.69277 0 0 0 1.12851 1.69277 0 1.12851 0.564255 0.564255 0 0 0.564255 0 0 0 0.564255 1.69277 1.69277 0 0.564255 0.564255 0 0 0 0.564255 1.12851 0.564255 0.564255 1.69277 1.12851 1.12851 0 0.564255 2.82128 0 0 0 0 0 0.564255 1.12851 0.564255 0 0 0 0 0 0 0.564255 0.564255 0 0 0 0 0 0 
0 0 0 0 0 0 0 0 0 0 0 0 0.593798 0.593798 1.1876 1.1876 0 0.593798 0 0 0 0 0 0 0 0 0 0 0 0 0 0 0 0 1.1876 0.593798 0 0 0.593798 1.78139 0 1.1876 0 0.593798 0 0 0.593798 0 0 0 0 0 0.593798 0.593798 1.1876 2.37519 0.593798 0.593798 0 0.593798 1.1876 0.593798 0 1.1876 0.593798 1.1876 1.1876 0 0 0 0.593798 0.593798 0 0 1.1876 0 0 0 0 0 0.593798 0 0 0 0 0 0 0 0 0 0 0 0 0 0 0 0 0.593798 0 0 
0 0 0.185463 0.185463 0 0 0 0.185463 0.185463 0.185463 0 0 0.185463 0.185463 0 0.185463 0.556389 0.185463 0 0.185463 0 0 0.185463 0 0.185463 0 0.556389 0.370926 0.370926 0 0.185463 0.556389 1.11278 0.927315 0.185463 0.370926 0.185463 0.185463 0.370926 0.185463 0.370926 0.370926 0 0.185463 0 0.185463 0.556389 0.370926 0.741852 0.741852 0.370926 0.185463 0.741852 0.185463 0 0 0.185463 0.370926 0.185463 0.370926 0.185463 0.556389 0.185463 0.185463 0.185463 0.370926 0.185463 0.185463 0.185463 0 0.185463 0.556389 0.370926 0.556389 0.185463 0.370926 0.185463 0.370926 0.185463 0 0 0.185463 0.185463 0.185463 0.185463 0.185463 0 0.185463 0 0.185463 0.370926 0 0 0 0 0.370926 0.185463 0.185463 0.185463 0 
0 0 0.369873 0 0 0 0.369873 0 0 0.184936 0.369873 0 0 0.369873 0.369873 0.369873 0.184936 0 0 0 0.184936 0.184936 0 0 0.184936 0 0.184936 0.184936 0 0.739746 0 0.184936 0.554809 0.184936 0.369873 0.924682 0.369873 0.184936 0.184936 0.739746 0.739746 0 0.184936 0.369873 0.369873 0.369873 0.184936 1.29456 0.924682 0.369873 0 0.369873 0.369873 0.554809 0.739746 0.369873 0.739746 0 0.369873 0 0.184936 0.369873 0.369873 0.184936 1.29456 0.924682 0.369873 0 0 0.369873 0.184936 0.369873 0.184936 0 0.369873 0.184936 0 0.369873 0.369873 0.554809 0.184936 0.184936 0.184936 0.184936 0.184936 0 0.369873 0.554809 0 0 0 0 0 0.184936 0 0 0 0 0 0 
0 0 2.6604 3.47439 3.90316 3.23068 4.54373 5.19728 3.93083 5.12606 6.84895 5.64354 6.71287 5.13336 4.68472 6.34896 8.66929 5.97502 7.29427 8.82684 8.8108 8.55639 8.86454 10.2618 11.7701 2.02288 5.8965 13.0405 20.4815 18.2475 17.7877 16.4335 17.5537 16.8424 19.7122 21.3042 18.4214 17.544 13.089 16.9397 19.168 17.5052 18.0211 19.8744 18.9068 21.6796 17.5541 18.9349 15.8869 19.093 15.027 13.8941 19.4205 17.9238 22.7643 21.0261 16.8244 19.3933 16.324 14.3749 21.1898 15.3026 14.9946 14.5062 18.4806 17.4752 18.3932 17.0672 21.2295 18.434 16.3836 20.6807 20.029 18.5833 13.4059 8.66055 3.56122 11.3621 11.5273 8.33067 11.4852 9.72844 7.50556 7.27059 6.41398 5.34847 7.30777 7.40335 5.08251 5.89888 2.38043 3.83194 5.8364 5.41001 6.45991 4.81113 3.4221 4.3596 3.83975 1.15023 
0 0 0 0 0 0 0 0 0 0 0 0 0 0 2.56754 0 0 0 0 5.13507 2.56754 0 0 0 0 0 0 0 0 0 0 0 0 0 0 0 0 0 0 0 0 -2.56754 0 -2.56754 0 0 0 0 0 0 -2.56754 -2.56754 0 0 0 0 0 0 0 0 0 0 0 0 0 0 0 0 0 0 0 0 0 0 0 0 0 0 0 0 0 0 0 0 0 0 0 0 0 0 0 0 0 -2.56754 0 0 0 0 0 2.56754 
0 0 10.44 18.3222 8.74468 14.7881 18.1332 -0.8449 8.73929 17.8037 -4.96801 17.9308 21.1857 1.041 5.13496 8.02506 -1.45983 5.55039 15.6334 26.3283 3.54508 11.7888 30.6437 27.5218 28.4505 16.6134 18.4205 46.7895 55.3564 4.48137 51.508 41.2774 22.9513 54.9959 36.1641 25.8342 44.3555 41.5153 35.3251 36.5478 32.5513 47.4355 27.3145 62.3161 29.3158 55.4516 35.5791 25.975 2.90511 49.5016 18.2735 -7.67476 4.62135 36.8329 43.7044 13.7411 54.3657 52.8561 51.939 49.254 44.8397 65.8271 28.6184 71.4482 93.8549 27.5689 48.6079 44.5596 57.3159 36.8166 48.6955 56.8609 50.1485 48.7668 48.1227 16.1083 17.9653 37.8392 27.1806 31.6715 45.6339 34.8639 19.5087 19.1131 16.2323 3.7949 23.4095 19.1662 7.01779 7.7143 4.4804 13.7065 23.1055 22.4204 12.9403 1.6547 2.55859 -4.60206 -3.84983 5.13436 

100 -3 3
0 0 0 0 0 0 0 0 0 0 0 0 0 0 0 0 0 0 0 0 0 0 0 0 0 0 0 0 0 0 0 0 0 0 0 0 0 0 0 0 0 0 0 0 0 0 0 0 0 0 0 0 0 0 0 0 0 0 0 0 0 0 0 0 0 0 0 0 0 0 0 0 0 0 0 0 0 0 0 0 0 0 0 0 0 0 0 0 0 0 0 0 0 0 0 0 0 0 0 0 
0 0 0 0 0 0 0 0 0 0 0 0 0 0 0 0 0 0 0 0 0 0 0 0 0 0 0 0 0 0 0 0 0 0 0 0 0 0 0 0 0 0 0 0 0 0 0 0 0 0 0 0 0 0 0 0 0 0 0 0 0 0 0 0 0 0 0 0 0 0 0 0 0 0 0 0 0 0 0 0 0 0 0 0 0 0 0 0 0 0 0 0 0 0 0 0 0 0 0 0 
0 0 0 0 0 0 0 0 0 0 0 0 0 0 0 0 0 0 0 0 0 0 0 0 0 0 0 0 0 0 0 0 0 0 0 0 0 0 0 0 0 0 0 0 0 0 0 0 0 0 0 0 0 0 0 0 0 0 0 0 0 0 0 0 0 0 0 0 0 0 0 0 0 0 0 0 0 0 0 0 0 0 0 0 0 0 0 0 0 0 0 0 0 0 0 0 0 0 0 0 
0 0 0 0 0 0 0 0 0 0 0 0 0 0 0 0 0 0 0 0 0 0 0 0 0 0 0 0 0 0 0 0 0 0 0 0 0 0 0 0 0 0 0 0 0 0 0 0 0 0 0 0 0 0 0 0 0 0 0 0 0 0 0 0 0 0 0 0 0 0 0 0 0 0 0 0 0 0 0 0 0 0 0 0 0 0 0 0 0 0 0 0 0 0 0 0 0 0 0 0 
0 0 0 0 0 0 0 0 0.593798 0 0 0 0 0 0 0 0 0 0 0 0 0 0 0 0.593798 0 0 0 0 0 0.593798 0 0 0 0 0 0 0 0 0 0 0 0 0 0 0 0 0 0 0 0 0 0 0 0 0 0 0 0 0 0 0 0 0 0 0 0 0 0 0 0.593798 0 0 0 0 0 0 0 0 0 0 0 0 0 0 0 0 0.593798 0 0 0 0 0 0 0 0.593798 0 0 0 0 
0 0 0 0 0 0 0 0.185463 0 0 0 0 0 0 0 0 0 0 0 0 0 0 0 0 0.185463 0 0 0 0 0.185463 0 0.185463 0 0 0 0 0.185463 0.185463 0 0 0 0 0.185463 0 0.185463 0 0.185463 0.370926 0 0 0 0 0 0 0 0 0 0.185463 0 0 0 0 0 0.370926 0 0.185463 0 0 0.185463 0 0 0 0 0 0 0 0 0 0 0 0 0.185463 0 0.185463 0 0 0 0 0 0 0 0 0 0 0 0 0 0 0 0 
0 0 0 0 0 0 0 0 0 0 0 0.184936 0 0 0 0 0 0 0 0 0 0 0.184936 0.184936 0.184936 0.184936 0 0 0 0 0.184936 0.184936 0 0 0.184936 0 0.184936 0 0 0 0 0 0.184936 0 0 0.184936 0 0 0 0 0.184936 0.184936 0.184936 0.369873 0.184936 0.184936 0 0.369873 0 0 0 0 0 0.184936 0.184936 0 0 0 0 0.184936 0 0 0.184936 0.369873 0 0 0 0 0.184936 0 0.184936 0 0 0.184936 0 0 0 0.184936 0 0 0 0 0 0 0 0 0 0 0 0 
0 0 0.723842 0.876471 0.825113 1.14149 0.967556 0.682671 0.773755 0.5814 1.40651 1.61924 1.14149 2.30429 1.15898 1.16042 1.95786 1.0577 1.82416 2.20938 1.72145 1.67153 1.44768 2.17059 1.4768 0.813992 1.97441 4.33736 4.53354 3.88236 3.38186 3.9299 3.27965 2.92304 2.18808 3.2569 3.49332 3.63338 1.91287 3.4642 4.63575 3.1081 4.33006 4.68999 5.0747 4.86053 5.21859 4.986 5.71714 3.86199 3.2884 3.60571 4.71809 4.27964 3.18713 2.4952 2.83051 3.69586 3.3906 3.28933 3.85087 4.69729 3.44102 2.38281 3.74722 4.08889 3.831 5.01129 3.29952 2.31303 3.10572 4.46232 4.51368 4.12608 4.11682 1.96661 0.977742 2.38426 1.65897 2.24037 1.33385 1.34403 1.47773 2.33196 1.28393 1.36534 0.742771 1.32417 1.12018 1.5577 1.69046 1.57026 1.43656 1.14149 1.52909 0.407463 1.14149 0.478685 0.396342 0.41765 
0 0 0 0 0 0 0 0 0 0 0 0 0 0 0 0 0 0 0 0 0 0 0 0 0 0 0 0 0 0 0 0 0 0 0 0 0 0 0 0 0 0 0 0 0 0 0 0 0 0 0 0 0 0 0 0 0 0 0 0 0 0 0 0 0 0 0 0 0 0 0 0 0 0 0 0 0 0 0 0 0 0 0 0 0 0 0 0 0 0 0 0 0 0 0 0 0 0 0 0 
0 2.56718 -0.171298 2.55878 7.70155 5.13398 2.56718 12.9441 2.55859 0 7.8679 0.0395364 2.67716 0.342597 -0.860591 5.13436 7.87375 5.13417 2.73848 1.7148 0.860783 11.9748 -0.860591 9.41815 4.28359 -0.000192169 5.13417 10.2888 2.06904 8.90473 10.3222 6.84076 2.56718 2.56718 17.809 7.70174 8.40085 5.82385 6.48206 3.46822 4.51857 40.3513 16.0334 9.16531 2.39608 8.93413 6.16645 4.12727 3.41208 21.3831 0.0992451 14.6425 6.00374 16.2285 5.13436 -1.69781 -0.852383 4.37354 16.778 10.3099 5.58551 4.37335 5.50308 13.2198 7.84328 11.1479 15.3523 -4.57937 0.881962 12.817 8.54828 8.97393 2.79766 5.19335 15.7233 15.4031 7.87304 9.46674 -15.173 -2.3453 5.13436 4.28875 6.85593 8.56304 12.1621 0.861499 7.70155 5.14205 10.2687 -1.33768 5.13436 7.70155 2.56718 5.19335 4.3973 2.56718 7.70155 -2.56718 -7.70155 2.56718 

100 -3 3
0 0 0 0 0 0 0 0 0 0 0 0 0 0 0 0 0 0 0 0 0 0 0 0 0 0 0 0 0 0 0 0 0 0 0 0 0 0 0 0 0 0 0 0 0 0 0 0 0 0 0 0 0 0 0 0 0 0 0 0 0 0 0 0 0 0 0 0 0 0 0 0 0 0 0 0 0 0 0 0 0 0 0 0 0 0 0 0 0 0 0 0 0 0 0 0 0 0 0 0 
0 0 0 0 0 0 0 0 0 0 0 0 0 0 0 0 0 0 0 0 0 0 0 0 0 0 0 0 0 0 0 0 0 0 0 0 0 0 0 0 0 0 0 0 0 0 0 0 0 0 0 0 0 0 0 0 0 0 0 0 0 0 0 0 0 0 0 0 0 0 0 0 0 0 0 0 0 0 0 0 0 0 0 0 0 0 0 0 0 0 0 0 0 0 0 0 0 0 0 0 
0 0 0 0 0 0 0 0 0 0 0 0 0 0 0 0 0 0 0 0 0 0 0 0 0 0 0 0 0 0 0 0 0 0 0 0 0 0 0 0 0 0 0 0 0 0 0 0 0 0 0 0 0 0 0 0 0 0 0 0 0 0 0 0 0 0 0 0 0 0 0 0 0 0 0 0 0 0 0 0 0 0 0 0 0 0 0 0 0 0 0 0 0 0 0 0 0 0 0 0 
0 0 0 0.564255 0 0 0 0 0 0 0 0 0 0 0 0 0 0 0 0 0 0 0 0 0 0 0 0 0 0 0 0 0 0 0 0 0 0 0 0 0 0 0 0 0 0 0 0 0.564255 0 0.564255 0.564255 0 0 0.564255 0 0 0 0 0 0 0 0 0 0 0 0 0.564255 0 0 0 0 0.564255 0 0 0 0 0 0 0 0 0 0 0 0 0 0 0 0 0 0 0 0 0 0 0 0 0 0 0 
0 0 0 0 0 0 0 0 0 0 0 0 0.593798 0 0 0 0 0 0 0 0 0 0 0 0 0 0 0 0 0 0 0 0 0 0 0 0 0 0 0 0 0 0 0 0 0 0 0 0 0 0 0 0 0 0 0 0 0 0 0 0 0 0 0.593798 0 0 0 0 0 0 0 0.593798 0.593798 0 0 0 0.593798 0 0 0 0 0 0 0 0 0 0 0 0 0.593798 0 0 0 0 0 0 0.593798 0 0 0 
0 0 0 0 0 0 0 0 0 0 0 0 0 0 0 0 0 0 0 0 0 0 0.185463 0 0 0 0 0 0 0.556389 0.370926 0.556389 0 0 0 0 0 0 0 0 0 0 0 0 0 0 0 0 0 0 0 0 0 0 0 0 0 0 0 0 0 0 0.185463 0.185463 0 0 0 0 0 0 0 0.185463 0 0 0.185463 0.185463 0 0 0 0 0 0 0 0 0 0 0 0 0 0 0 0 0 0 0 0 0 0 0 0 
0 0 0 0 0 0 0 0 0 0 0 0 0 0 0 0 0 0 0 0 0 0 0 0 0 0 0 0 0 0 0 0 0 0 0 0 0 0 0 0 0 0 0 0 0 0 0 0 0 0 0 0 0 0 0 0 0 0 0 0 0 0 0 0 0 0 0 0 0 0 0 0 0 0 0 0 0 0 0 0 0 0 0 0 0 0 0 0 0 0 0 0 0 0 0 0 0 0 0 0 
0 0 0 0.0300498 0 0.142442 0.265021 0.1938 0 0.41765 0 0.61145 0.825113 0.712721 0 0.22385 0.0300498 0.0300498 0.35517 0 0.6415 0.99905 0.5814 0.265021 0.855163 0.0300498 0.336242 0.549906 0.508734 1.06008 0.691413 1.01891 0.458821 0.723842 1.06008 0.773755 0.732584 0.723842 0.99905 0.917642 0.336242 0.896334 1.68172 0.652621 0.213663 0.753892 0.478685 0.366292 0.3876 0.458821 0.1938 0.6415 0.876471 0.488871 0.691413 0.917642 0.702534 0.530042 0.7752 1.17154 1.11144 1.43656 0.866285 0.41765 0.590142 0.601263 0.407463 0.652621 1.07027 1.0291 1.36534 1.8329 0.937506 1.37646 0.896334 0.488871 0 0.0300498 0.101271 0.4477 0.5814 0.488871 0.101271 0.6415 0.3876 0.265021 0 0.723842 0.101271 0.61145 0.61145 0.336242 0.0712211 0.3876 0.265021 0.101271 0.3876 0 0.0712211 0 
0 0 0 0 0 0 0 0 0 0 0 0 0 0 0 0 0 0 0 0 0 0 0 0 0 0 0 0 0 0 0 0 0 0 0 0 0 0 0 0 0 0 0 0 0 0 0 0 0 0 0 0 0 0 0 0 0 0 0 0 0 0 0 0 0 0 0 0 0 0 0 0 0 0 0 0 0 0 0 0 0 0 0 0 0 0 0 0 0 0 0 0 0 0 0 0 0 0 0 0 
0 0 0 0 0 2.56718 0 0 0 0 0 0 0 0 0 0 0 0 -2.56718 0 3.42797 1.72157 2.56718 0.860783 -2.56718 -10.2687 0 0 0.00494298 -5.13436 0 2.56718 0 0 0 1.7064 2.56718 -0.860783 0 2.56718 0 0.865726 5.13436 1.7064 5.13436 -2.56718 2.47216 2.57212 0 0 0.00494298 0.00494298 0.00988595 2.73848 0 5.13931 -0.0999606 2.47216 2.73848 0 2.56718 0.00494298 5.13436 0.00494298 2.56718 0 0.860783 -3.42797 -2.56224 2.73848 1.37468 2.56718 4.28875 0 0 0 2.56718 2.56718 0.00494298 0 -2.56718 0 0.171298 0 0 0 0 0 0 -2.56718 0.860783 -0.0999606 0 0.760823 0 0 -0.199921 0 -2.56718 0 

100 -3 3
0 0 0 0 0 0 0 0 0 0 0 0 0 0 0 0 0 0 0 0 0 0 0 0 0 0 0 0 0 0 0 0 0 0 0 0 0 0 0 0 0 0 0 0 0 0 0 0 0 0 0 0 0 0 0 0 0 0 0 0 0 0 0 0 0 0 0 0 0 0 0 0 0 0 0 0 0 0 0 0 0 0 0 0 0 0 0 0 0 0 0 0 0 0 0 0 0 0 0 0 
0 0 0 0 0 0 0 0 0 0 0 0 0 0 0 0 0 0 0 0 0 0 0 0 0 0 0 0 0 0 0 0 0 0 0 0 0 0 0 0 0 0 0 0 0 0 0 0 0 0 0 0 0 0 0 0 0 0 0 0 0 0 0 0 0 0 0 0 0 0 0 0 0 0 0 0 0 0 0 0 0 0 0 0 0 0 0 0 0 0 0 0 0 0 0 0 0 0 0 0 
0 0 0 0 0 0 0 0 0 0 0 0 0 0 0 0 0 0 0 0 0 0 0 0 0 0 0 0 0 0 0 0 0 0 0 0 0 0 0 0 0 0 0 0 0 0 0 0 0 0 0 0 0 0 0 0 0 0 0 0 0 0 0 0 0 0 0 0 0 0 0 0 0 0 0 0 0 0 0 0 0 0 0 0 0 0 0 0 0 0 0 0 0 0 0 0 0 0 0 0 
0 0 0 0 0 0 0 0 0 0 0 0 0 0 0 0 0 0 0 0 0 0 0 0 0 0 0 0 0 0 0 0 0 0 0 0 0 0 0 0 0 0 0 0 0 0 0 0 0 0 0 0 0 0 0 0 0 0 0 0 0 0 0 0 0 0 0 0 0 0 0 0 0 0 0 0 0 0 0 0 0 0 0 0 0 0 0 0 0 0 0 0 0 0 0 0 0 0 0 0 
0 0 0 0 0 0 0 0 0 0 0 0 0 0 0 0 0 0 0 0 0 0 0 0 0 0 0 0 0 0 0 0 0 0 0 0 0 0 0 0 0 0 0 0 0 0 0 0 0 0 0 0 0 0 0 0 0 0 0 0 0 0 0 0 0 0 0 0 0 0 0 0 0 0 0 0 0 0 0 0 0 0 0 0 0 0 0 0 0 0 0 0 0 0 0 0 0 0 0 0 
0 0 0 0 0 0 0 0 0 0 0 0 0 0 0 0 0 0 0 0 0 0 0 0 0 0 0 0 0 0 0 0 0 0 0 0 0 0 0 0 0 0 0 0.370926 0 0 0 0 0 0 0.185463 0 0 0 0 0 0 0.185463 0 0 0 0.185463 0.185463 0 0 0 0 0 0 0 0 0 0 0 0 0 0 0 0 0 0 0 0 0 0 0 0 0 0 0.185463 0 0.185463 0 0 0 0 0 0 0 0 
0 0 0 0 0 0 0 0 0 0 0 0 0 0 0 0 0 0 0 0 0 0 0 0 0 0 0 0 0 0 0 0 0 0 0 0 0 0 0 0 0 0 0 0 0 0 0 0 0 0 0 0 0 0 0 0 0 0 0 0 0 0 0 0 0 0 0 0 0 0 0 0 0 0 0 0 0 0 0 0 0 0 0 0 0 0 0 0 0 0 0 0 0 0 0 0 0 0 0 0 
0 0 0 0 0 0 0 0 0 0 0 0 0 0 0 0 0 0 0 0 0 0 0 0 0 0 0 0 0 0 0 0 0 0.0300498 0.0300498 0 0 0 0 0 0 0 0 0 0 0 0 0 0 0 0 0 0 0 0 0 0 0 0.0600995 0.0300498 0.0300498 0 0 0 0 0 0 0 0 0 0 0 0 0 0.0600995 0 0 0 0 0 0 0 0 0 0 0 0 0 0 0 0 0 0 0 0 0 0 0 0 0 
0 0 0 0 0 0 0 0 0 0 0 0 0 0 0 0 0 0 0 0 0 0 0 0 0 0 0 0 0 0 0 0 0 0 0 0 0 0 0 0 0 0 0 0 0 0 0 0 0 0 0 0 0 0 0 0 0 0 0 0 0 0 0 0 0 0 0 0 0 0 0 0 0 0 0 0 0 0 0 0 0 0 0 0 0 0 0 0 0 0 0 0 0 0 0 0 0 0 0 0 
0 0 0 0 0 0 0 2.56718 0 0 -0.0007155 0 0 0 0 0 0 0 0 -0.0007155 -0.0007155 2.56718 0 0 0 0 5.13436 2.56718 0 2.56718 5.13436 2.56718 0 0 5.13436 2.56718 0 -0.0007155 0 0 0 0 0 0 2.56718 0 0 0 0 0 0 0 0 0 0 0.001431 0.0007155 0 0 0 2.56718 2.5679 -0.0007155 0 0 -0.0007155 0 -0.0007155 0 0.0007155 0 0 2.5679 0 0.0007155 0 0 0 0 0 0 0 0 0 0 0 0 0 0 0 0 0 0 0 0 0 0 0 0 0 

100 -3 3
0 0 0 0 0 0 0 0 0 0 0 0 0 0 0 0 0 0 0 0 0 0 0 0 0 0 0 0 0 0 0 0 0 0 0 0 0 0 0 0 0 0 0 0 0 0 0 0 0 0 0 0 0 0 0 0 0 0 0 0 0 0 0 0 0 0 0 0 0 0 0 0 0 0 0 0 0 0 0 0 0 0 0 0 0 0 0 0 0 0 0 0 0 0 0 0 0 0 0 0 
0 0 0 0 0 0 0 0 0 0 0 0 0 0 0 0 0 0 0 0 0 0 0 0 0 0 0 0 0 0 0 0 0 0 0 0 0 0 0 0 0 0 0 0 0 0 0 0 0 0 0 0 0 0 0 0 0 0 0 0 0 0 0 0 0 0 0 0 0 0 0 0 0 0 0 0 0 0 0 0 0 0 0 0 0 0 0 0 0 0 0 0 0 0 0 0 0 0 0 0 
0 0 0 0 0 0 0 0 0 0 0 0 0 0 0 0 0 0 0 0 0 0 0 0 0 0 0 0 0 0 0 0 0 0 0 0 0 0 0 0 0 0 0 0 0 0 0 0 0 0 0 0 0 0 0 0 0 0 0 0 0 0 0 0 0 0 0 0 0 0 0 0 0 0 0 0 0 0 0 0 0 0 0 0 0 0 0 0 0 0 0 0 0 0 0 0 0 0 0 0 
0 0 0 0 0 0 0 0 0 0 0 0 0 0 0 0 0 0 0 0 0 0 0 0 0 0 0 0 0 0 0 0 0 0 0 0 0 0 0 0 0 0 0 0 0 0 0 0 0 0 0 0 0 0 0 0 0 0 0 0 0 0 0 0 0 0 0 0 0 0 0 0 0 0 0 0 0 0 0 0 0 0 0 0 0 0 0 0 0 0 0 0 0 0 0 0 0 0 0 0 
0 0 0 0 0 0 0 0 0 0 0 0 0 0 0 0 0 0 0 0 0 0 0 0 0 0 0 0 0 0 0 0 0 0 0 0 0 0 0 0 0 0 0 0 0 0 0 0 0 0 0 0 0 0 0 0 0 0 0 0 0 0 0 0 0 0 0 0 0 0 0 0 0 0 0 0 0 0 0 0 0 0 0 0 0 0 0 0 0 0 0 0 0 0 0 0 0 0 0 0 
0 0 0 0 0 0 0 0 0 0 0 0 0 0 0 0 0 0 0 0 0 0 0 0 0 0 0 0 0 0 0 0 0 0 0 0 0 0 0 0 0 0 0 0 0 0 0 0 0 0 0 0 0 0 0 0 0 0 0 0 0 0 0 0 0 0 0 0 0 0 0 0 0 0 0 0 0 0 0 0 0 0 0 0 0 0 0 0 0 0 0 0 0 0 0 0 0 0 0 0 
0 0 0 0 0 0 0 0 0 0 0 0 0 0 0 0 0 0 0 0 0 0 0 0 0 0 0 0 0 0 0 0 0 0 0 0 0 0 0 0 0 0 0 0 0 0 0 0 0 0 0 0 0 0 0 0 0 0 0 0 0 0 0 0 0 0 0 0 0 0 0 0 0 0 0 0 0 0 0 0 0 0 0 0 0 0 0 0 0 0 0 0 0 0 0 0 0 0 0 0 
0 0 0 0 0 0 0 0 0 0 0 0 0 0 0 0 0 0 0 0 0 0 0 0 0 0 0 0 0 0 0 0 0 0 0 0 0 0 0 0 0.0300498 0.0600995 0 0 0 0 0 0 0 0 0 0 0 0 0 0 0 0 0 0 0 0 0 0 0 0 0 0 0.0300498 0.0300498 0.0300498 0 0.0300498 0.0600995 0 0 0 0 0 0 0 0 0 0 0 0 0 0 0 0 0 0 0 0 0 0 0 0 0 0 
0 0 0 0 0 0 0 0 0 0 0 0 0 0 0 0 0 0 0 0 0 0 0 0 0 0 0 0 0 0 0 0 0 0 0 0 0 0 0 0 0 0 0 0 0 0 0 0 0 0 0 0 0 0 0 0 0 0 0 0 0 0 0 0 0 0 0 0 0 0 0 0 0 0 0 0 0 0 0 0 0 0 0 0 0 0 0 0 0 0 0 0 0 0 0 0 0 0 0 0 
0 0 0 0 0 0 0 0 0 0 0 0 0 0 0 0 0 0 0 0 0 0 0 0 0 0 0.00982117 0 0 0 0 0 0 0 0 0 0 0 0 0 0 0 0.0196423 0 0 0 0.00982117 0 0 0 0 0 0 0 0 0 0 0 0 0 0 0 0 0 0 0.00982117 0.00982117 0.00982117 0.00982117 0 0 0 0 0 0 0 0 0 0 0 0 0 0 0 0 0 0 0 0 0 0 0 0.00982117 0 0 0 0 0 0 0 
