1
Photon_
#phi
phi_dr_cut_high_pT_order
9
0
0
10
QCD W + Jets WW WZ ZZ #bar{t}W tW t#bar{t} Drell Yan #rightarrow #tau#tau Drell Yan #rightarrow #mu#mu 

100 -4 4
0 0 0 0 0 0 0 0 0 0 0 0 0 0 0 0 0 0 0 0 0 0 0 0 0 0 0.00427589 0 0 0 0 0 0 0 0 0 0 0 0 45.2187 0 0 0 0 0 0 0 0 0 0 0 0 0 0 0 0 0 0 0 0 0 0 0 0 0 0 0 0 0 0 0 0 0 0 0 0 0 0 0 0 0 0 0 0 0 0 0 0 0 0 0 0 0 0 0 0 0 0 0 0 
0 0 0 0 0 0 0 0 0 0 0 0 0 0 0 0 0 -5.11332 0 0 0 0 0 5.11332 5.11332 5.11332 0 0 0 0 5.11332 5.11332 5.11332 0 5.11332 0 0 -5.11332 0 0 0 0 0 0 0 0 0 0 0 -5.11332 0 0 0 0 5.11332 0 5.11332 0 0 0 0 0 0 0 5.11332 0 10.2266 0 5.11332 -5.11332 -5.11332 0 0 0 0 0 0 0 0 0 0 0 -5.11332 0 0 0 0 0 5.11332 0 0 0 0 0 0 0 0 0 0 0 
0 0 0 0 0 0 0 0 0 0 0 0.609323 0 3.65594 4.87458 1.21865 0 3.04661 3.65594 3.04661 4.26526 6.70255 5.4839 6.09323 4.87458 5.4839 3.04661 4.26526 3.65594 1.21865 2.43729 3.04661 3.04661 2.43729 5.4839 1.82797 5.4839 4.87458 1.82797 2.43729 4.87458 3.65594 3.04661 6.09323 2.43729 3.65594 4.87458 2.43729 3.04661 7.31187 3.04661 6.09323 3.65594 2.43729 3.65594 4.87458 7.31187 3.65594 3.04661 5.4839 1.82797 3.04661 3.65594 2.43729 4.87458 3.04661 5.4839 4.26526 3.04661 4.26526 3.04661 2.43729 5.4839 2.43729 4.26526 1.82797 6.09323 3.65594 5.4839 4.26526 2.43729 5.4839 2.43729 3.65594 4.87458 1.82797 1.82797 3.04661 1.82797 3.04661 0.609323 0 0 0 0 0 0 0 0 0 
0 0 0 0 0 0 0 0 0 0 0 1.12851 9.02808 7.33532 6.20681 8.46383 12.4136 7.33532 3.94979 9.59234 11.2851 13.5421 12.4136 9.02808 8.46383 15.7991 11.8494 14.6706 9.59234 13.5421 12.4136 14.6706 10.1566 9.59234 11.8494 11.2851 12.4136 11.8494 11.2851 17.4919 9.02808 12.4136 7.33532 7.89957 13.5421 10.1566 14.6706 13.5421 14.6706 9.02808 9.02808 9.02808 12.9779 11.2851 9.02808 12.9779 11.8494 7.89957 17.4919 13.5421 13.5421 11.2851 7.33532 9.59234 8.46383 10.7208 9.59234 16.9277 13.5421 15.2349 15.7991 12.4136 10.7208 14.1064 10.7208 11.8494 11.8494 9.59234 11.2851 9.59234 16.3634 10.7208 12.9779 10.1566 9.02808 11.2851 12.4136 3.38553 4.51404 5.0783 4.51404 0 0 0 0 0 0 0 0 0 
0 0 0 0 0 0 0 0 0 0 0 0.593798 4.15658 4.15658 5.93798 9.50077 5.34418 3.56279 7.71937 8.90697 7.71937 10.6884 9.50077 8.90697 10.0946 14.8449 12.4698 8.31317 12.4698 9.50077 9.50077 7.12557 8.90697 11.2822 10.6884 8.31317 8.31317 10.0946 6.53178 10.6884 8.31317 9.50077 9.50077 10.6884 9.50077 11.876 14.2511 9.50077 8.90697 14.2511 8.90697 4.75038 9.50077 10.0946 11.2822 7.71937 11.876 7.12557 10.6884 8.31317 10.0946 4.75038 8.31317 7.71937 8.31317 8.31317 8.90697 17.2201 11.876 10.6884 15.4387 4.15658 7.71937 7.71937 11.876 5.93798 8.31317 13.0636 11.2822 8.31317 8.90697 9.50077 11.2822 10.6884 4.75038 3.56279 5.93798 12.4698 6.53178 4.75038 1.78139 0 0 0 0 0 0 0 0 0 
0 0 0 0 0 0 0 0 0 0 0 0.185463 4.08019 2.22556 2.96741 2.96741 3.89472 4.08019 3.70926 4.63657 5.0075 3.89472 5.37843 7.97491 5.37843 5.37843 4.08019 4.63657 4.63657 4.82204 5.37843 4.08019 5.56389 3.5238 4.82204 3.33833 4.45111 4.63657 5.56389 5.74935 6.67667 4.82204 5.74935 6.67667 3.5238 5.0075 6.4912 4.82204 4.63657 5.93481 5.0075 5.37843 4.63657 5.19296 6.4912 6.67667 3.70926 6.4912 4.45111 4.63657 3.70926 5.19296 4.08019 5.19296 5.74935 4.82204 4.63657 6.12028 4.45111 5.37843 4.26565 4.26565 7.04759 4.45111 5.74935 4.26565 5.56389 3.70926 6.30574 6.67667 6.30574 5.19296 4.26565 5.93481 3.15287 3.70926 3.70926 2.04009 2.22556 4.08019 1.11278 0 0 0 0 0 0 0 0 0 
0 0 0 0 0 0 0 0 0 0 0 0.924682 3.14392 2.0343 3.14392 3.32886 2.40417 4.80835 3.69873 4.99329 4.25354 4.99329 6.65771 6.28784 5.54809 4.99329 4.80835 6.47278 5.17822 4.80835 6.47278 5.54809 4.80835 5.91797 7.21252 7.21252 4.25354 4.25354 4.80835 4.43848 5.91797 6.1029 5.54809 3.88367 4.99329 4.25354 6.84265 4.43848 4.62341 5.73303 3.14392 8.50708 3.88367 4.43848 4.99329 4.0686 5.73303 5.36316 4.99329 4.80835 6.84265 5.17822 5.91797 7.02759 6.84265 4.99329 5.73303 4.43848 3.88367 5.73303 6.1029 3.88367 5.36316 2.95898 4.80835 4.25354 4.62341 6.84265 5.36316 4.62341 4.80835 4.43848 4.43848 4.25354 4.0686 2.95898 2.77405 2.95898 3.32886 3.88367 0.924682 0 0 0 0 0 0 0 0 0 
0 0 0 0 0 0 0 0 0 0 0 26.2462 106.183 115.258 120.267 125.567 136.291 146.2 146.624 163.256 168.175 178.449 183.174 198.158 193.16 194.912 193.391 200.511 196.477 193.726 212.864 199.75 194.46 195.455 203.984 198.944 194.323 208.153 210.961 204.292 198.342 194.43 208.693 198.975 195.66 196.508 202.764 195.662 193.038 207.208 203.633 206.105 197.292 186.074 198.918 196.003 212.26 194.766 178.051 188.427 193.167 193.449 190.842 193.047 203.822 196.201 192.112 199.013 203.245 203.288 188.036 199.174 185.276 191.295 194.407 191.44 208.423 194.496 192.399 185.664 187.385 167.291 163.151 146.109 147.213 130.973 119.225 118.927 121.372 108.772 27.0404 0 0 0 0 0 0 0 0 0 
0 0 0 0 0 0 0 0 0 0 0 0 7.70261 10.2701 5.13507 -2.56754 5.13507 7.70261 15.4052 7.70261 2.56754 0 2.56754 5.13507 5.13507 7.70261 10.2701 12.8377 12.8377 0 5.13507 -2.56754 5.13507 -5.13507 5.13507 12.8377 7.70261 2.56754 10.2701 15.4052 5.13507 5.13507 5.13507 5.13507 0 7.70261 12.8377 2.56754 2.56754 5.13507 2.56754 2.56754 5.13507 10.2701 25.6754 7.70261 2.56754 28.2429 15.4052 12.8377 2.56754 7.70261 -2.56754 12.8377 12.8377 10.2701 7.70261 -2.56754 10.2701 2.56754 7.70261 17.9728 5.13507 15.4052 2.56754 5.13507 2.56754 15.4052 2.56754 5.13507 2.56754 15.4052 -2.56754 15.4052 15.4052 7.70261 2.56754 0 10.2701 0 0 0 0 0 0 0 0 0 0 0 
0 0 0 0 0 0 0 0 0 0 0 680.6 2248.84 2604.9 2506.69 2844.72 2931.69 3054.68 3452.91 3485.9 3809.19 3863.54 4095.2 4309.96 4253.48 4562.39 4275.76 4211.23 4463.46 4296.98 4282 4136.86 4362.2 4322.25 4685.16 4105.3 4385.48 4565.56 4667.95 4270.63 4425.36 4280.04 4238.76 4421.62 4196.73 4412.9 4558.64 4673.48 4204.51 4703.54 4586.75 4613.27 4252.09 4421.32 4317.23 4451.57 4374.95 4361.7 4346.95 4485.87 4528.97 4063.51 4193.59 4241.99 4238.89 4401.5 4251.16 4314.74 4333.85 4445.32 4435.95 4375.56 4246.03 4148.23 4424.62 4098 4468.95 4086.87 4354.76 4118.11 4296.6 3785.66 3848.15 3573.8 3112.76 2945.72 2764.65 2687 2467.53 2564.8 482.458 0 0 0 0 0 0 0 0 0 

100 -4 4
0 0 0 0 0 0 0 0 0 0 0 0 0 0 0 0 0 0 0 0 0 0 0 0 0 0 0 0 0 0.0456012 0 0 0 0 0 0 0 0 0 0 0 0 0 0 0 0 0 0 0 0 0 0 8.39901 0 0 0 0 0 0 0 0 0 0 0 0 0 0 0 0 0 0 0 0 0 0 0 0 0 0 0 0 0 0 0 0 0 0 0 0 0 0 0 0 0 0 0 0 0 0 0 
0 0 0 0 0 0 0 0 0 0 0 0 0 0 0 0 0 0 0 0 0 0 0 10.2266 0 0 0 0 -5.11332 0 0 0 0 0 0 0 0 0 0 0 0 0 0 0 0 0 0 0 0 0 0 0 0 0 0 0 0 0 0 0 0 0 0 0 0 0 0 0 0 0 0 0 0 0 0 0 0 0 0 0 0 0 0 0 0 0 5.11332 0 0 0 0 0 0 0 0 0 0 0 0 0 
0 0 0 0 0 0 0 0 0 0 0 0.609323 0.609323 0 1.21865 0.609323 0 1.21865 0 0 0 0.609323 0.609323 1.21865 0.609323 0 0 1.82797 0 0 0.609323 0 0 0 0.609323 0.609323 1.21865 0.609323 1.21865 0 0.609323 1.21865 0 1.82797 0.609323 0 1.21865 0 0.609323 1.82797 0.609323 1.21865 0 0.609323 0 0.609323 0 0.609323 1.82797 1.21865 0.609323 1.21865 0.609323 1.21865 0.609323 1.21865 1.21865 0.609323 0 0 0 0.609323 1.21865 0 0.609323 0 0 0.609323 0.609323 0 0 0.609323 0 0 1.21865 1.21865 0 0.609323 0 0 0 0 0 0 0 0 0 0 0 0 
0 0 0 0 0 0 0 0 0 0 0 0 2.25702 2.25702 1.12851 2.82128 2.82128 1.69277 2.25702 2.82128 2.82128 0.564255 3.94979 3.38553 0.564255 3.38553 3.38553 3.94979 2.25702 2.82128 4.51404 2.25702 2.82128 1.69277 3.38553 1.12851 1.12851 0.564255 5.0783 0 2.25702 6.20681 2.82128 3.38553 2.82128 2.25702 3.94979 2.82128 1.69277 6.20681 3.94979 2.82128 3.94979 3.38553 3.94979 6.20681 2.82128 2.82128 2.25702 0.564255 0 1.69277 3.38553 2.25702 2.82128 1.12851 2.82128 2.25702 0.564255 3.38553 3.38553 2.25702 1.69277 3.38553 1.12851 1.69277 6.20681 2.82128 2.25702 2.25702 2.25702 2.82128 0.564255 1.12851 2.82128 0.564255 1.12851 0.564255 1.12851 2.25702 0.564255 0 0 0 0 0 0 0 0 0 
0 0 0 0 0 0 0 0 0 0 0 0 3.56279 2.37519 0.593798 2.37519 2.37519 0.593798 3.56279 2.96899 1.1876 2.37519 2.37519 1.78139 4.75038 2.37519 2.96899 4.15658 2.37519 1.78139 3.56279 3.56279 6.53178 4.15658 2.96899 1.78139 4.75038 2.37519 3.56279 1.78139 2.96899 1.1876 4.15658 2.96899 3.56279 5.34418 1.1876 2.37519 3.56279 2.96899 2.37519 5.34418 2.96899 2.37519 2.37519 4.15658 2.37519 3.56279 2.37519 1.78139 5.93798 2.37519 3.56279 4.15658 4.15658 5.93798 4.15658 2.37519 3.56279 2.96899 1.78139 5.34418 2.96899 4.75038 4.15658 4.75038 3.56279 2.96899 2.37519 1.1876 3.56279 2.96899 2.96899 3.56279 2.37519 1.78139 1.78139 1.78139 3.56279 1.78139 0.593798 0 0 0 0 0 0 0 0 0 
0 0 0 0 0 0 0 0 0 0 0 0.556389 0.185463 0.556389 0.556389 1.66917 1.11278 0.370926 0.927315 0.741852 1.29824 1.66917 1.4837 1.29824 1.29824 0.927315 1.29824 1.29824 0.927315 1.85463 0.556389 1.66917 1.85463 0.370926 0.741852 1.29824 1.29824 1.29824 0.556389 1.11278 1.29824 0.927315 1.29824 1.85463 0.556389 1.66917 1.4837 1.11278 2.22556 1.29824 0.741852 0.556389 2.22556 0.927315 2.41102 0.741852 2.04009 0.741852 0.927315 1.11278 1.29824 1.4837 2.22556 0.927315 1.11278 2.59648 1.66917 1.66917 1.85463 0.927315 0.741852 2.22556 1.66917 0.927315 0.927315 1.85463 1.85463 1.4837 1.29824 1.85463 1.29824 1.66917 0.927315 0.370926 1.11278 0.741852 0.370926 0.370926 0.741852 1.66917 0.185463 0 0 0 0 0 0 0 0 0 
0 0 0 0 0 0 0 0 0 0 0 0 0.369873 1.10962 1.47949 0.554809 0.184936 0.924682 0.554809 1.10962 2.21924 1.47949 2.21924 1.84936 2.58911 0.369873 0.369873 1.66443 1.47949 1.84936 1.10962 2.0343 0.739746 2.40417 2.40417 1.47949 2.0343 1.47949 1.29456 1.47949 1.29456 0.739746 2.0343 1.10962 1.84936 1.47949 0.924682 1.10962 0.739746 1.10962 1.66443 1.29456 1.66443 1.10962 1.47949 1.29456 1.84936 0.924682 1.47949 2.0343 1.29456 0.369873 1.47949 2.21924 1.29456 1.47949 1.84936 1.29456 0.739746 1.47949 1.10962 0.739746 1.29456 1.66443 0.924682 1.29456 1.10962 1.29456 2.0343 0.554809 0.924682 0.554809 0.739746 1.10962 1.84936 0.369873 0.924682 0.369873 1.10962 0.554809 0.369873 0 0 0 0 0 0 0 0 0 
0 0 0 0 0 0 0 0 0 0 0 7.77058 37.0275 37.2411 35.8114 41.5882 45.2181 48.9555 46.925 53.1282 61.3726 60.218 58.0363 59.3368 65.9383 66.0647 67.6876 64.3267 64.3328 60.2059 69.0055 62.4539 69.7332 64.6838 65.612 66.9254 71.3063 69.3437 70.4167 62.9011 65.7281 60.4283 61.3468 63.27 62.2464 62.558 56.6645 59.643 67.7423 66.0288 65.3184 72.6931 61.908 62.5819 64.9468 61.3477 67.2941 63.7573 62.2137 56.1186 62.128 65.77 57.407 65.8024 61.8973 61.7525 65.738 60.1445 65.5492 67.2059 69.6687 60.7907 62.5223 66.4458 66.2451 65.7168 63.5825 66.5159 66.8501 60.06 63.4992 56.4419 59.5701 49.5225 42.0751 41.3625 43.9908 43.6566 38.1289 34.8687 9.47361 0 0 0 0 0 0 0 0 0 
0 0 0 0 0 0 0 0 0 0 0 0 0 0 2.56754 0 2.56754 0 2.56754 0 2.56754 -2.56754 0 0 0 0 2.56754 -2.56754 -2.56754 9.07839 0 2.56754 0 -5.13507 2.56754 0 2.56754 2.56754 -5.13507 2.56754 0 -2.56754 0 0 2.56754 0 2.56754 0 -2.56754 0 2.56754 0 2.56754 0 2.56754 2.56754 0 -2.56754 2.56754 2.56754 2.56754 0 0 2.56754 0 2.56754 -2.56754 0 2.56754 0 -2.56754 2.56754 0 0 0 -2.56754 -5.13507 0 2.56754 6.51086 0 -2.56754 0 2.56754 0 0 0 0 0 2.56754 0 0 0 0 0 0 0 0 0 0 
0 0 0 0 0 0 0 0 0 0 0 49.4591 272.515 269.243 363.997 301.706 286.279 379.213 219.543 403.668 432.176 440.929 364.083 444.213 443.185 508.467 485.257 405.994 441.231 444.357 482.31 448.87 524.074 459.898 470.86 476.25 452.924 452.515 431.043 463.848 398.249 549.778 506.866 433.803 372.348 486.941 329.186 368.212 478.932 454.691 450.891 514.451 496.593 518.198 381.286 366.632 491.042 467.127 423.235 433.653 436.176 376.901 490.441 459.431 447.942 399.75 517.092 496.485 525.182 527.952 498.427 550.787 454.277 438.129 375.33 434.953 529.399 452.954 395.376 347.33 474.535 392.04 354.263 406.331 319.134 364.894 313.68 254.608 242.112 229.946 70.316 0 0 0 0 0 0 0 0 0 

100 -4 4
0 0 0 0 0 0 0 0 0 0 0 0 0 0 0 0 0 0 0 0 0 0 0 0 0 0 0 0 0 0 0 0 0 0 0 0 0 0 0 0 0 0 0 0 0 0 0 0 0 0 0 0 0 0.583697 0 0 0 0 0 0 0 0 0 0 0 0 0 0 0 0 0 0 0 0 0 0 0 0 0 0 0 0 0 0 0 0 0 0 0 0 0 0 0 0 0 0 0 0 0 0 
0 0 0 0 0 0 0 0 0 0 0 0 0 0 0 0 0 0 0 0 0 0 0 0 0 0 0 0 0 0 0 0 0 0 0 0 0 0 0 0 0 0 0 0 0 0 0 0 0 0 0 0 0 0 0 0 0 0 0 0 0 0 0 0 0 0 0 0 0 0 0 0 0 0 0 0 0 0 0 0 0 0 0 0 0 0 0 0 0 0 0 0 0 0 0 0 0 0 0 0 
0 0 0 0 0 0 0 0 0 0 0 0 0 0 0 0 0 0 0 0 0.609323 0 0 0 0.609323 0 0.609323 0 0 0 0 0 0 0 0 0 0 0 0 0 0 0 0 0 0 0 0 0 0 0 0 0 0 0 0 0 0 0.609323 0 0 0 0 0 0 0 0 0 0 0 0 0 0.609323 0 0 0 0 0 0 0 0 0 0 0 0 0 0 0 0 0 0 0 0 0 0 0 0 0 0 0 0 
0 0 0 0 0 0 0 0 0 0 0 0 0 0.564255 0 0.564255 0 0.564255 0.564255 0.564255 0.564255 0 0 1.12851 0.564255 0.564255 1.12851 1.12851 0.564255 0 0 0.564255 1.12851 0 0.564255 1.12851 0.564255 0 0.564255 0 1.12851 0 0.564255 0.564255 0 0 0 0.564255 0.564255 0.564255 0 0 0 1.12851 0.564255 0 0.564255 0.564255 1.12851 0 0 0 0 0 0.564255 0 0.564255 0 0 0 0 0 0.564255 0.564255 0.564255 0.564255 0.564255 0 0.564255 0 0 0 0 0 0 0 0 0 0 0 0 0 0 0 0 0 0 0 0 0 
0 0 0 0 0 0 0 0 0 0 0 0 0 1.78139 0.593798 0.593798 0 0.593798 0 0.593798 0 0.593798 0 0.593798 0 1.1876 0.593798 0.593798 0 0.593798 0 0.593798 0.593798 0.593798 0.593798 0 0 0.593798 0 0 0 1.1876 0 0 1.1876 0 0.593798 0 0 0 0 0.593798 0.593798 0 0.593798 0.593798 0.593798 0.593798 1.1876 0.593798 0 0.593798 0 1.78139 0 0.593798 1.1876 0.593798 0 0.593798 0.593798 0 0 0.593798 0.593798 2.37519 0 0 0 0.593798 0 0.593798 0 1.1876 0 0 0 0.593798 0 0 0 0 0 0 0 0 0 0 0 0 
0 0 0 0 0 0 0 0 0 0 0 0 0.185463 0 0.185463 0.370926 0.370926 0.185463 0.185463 0 0.185463 0 0.556389 0.185463 0.185463 0.741852 0.370926 0.556389 0 0 0.185463 0.185463 0.741852 0.370926 0 0.370926 0.556389 0 0.370926 0.185463 0.370926 0.185463 0 0.556389 0.185463 0.185463 0.741852 0.370926 0.927315 0.185463 0 0.556389 0 0.185463 0.556389 0 0.185463 0.185463 0.556389 0.741852 0 0 0.185463 0.185463 0.185463 0.185463 0 0.556389 0 0 0.556389 0.185463 0.185463 0.556389 0 0.370926 0.185463 0 0.556389 0.185463 0.185463 0.370926 0 0.370926 0 0.556389 0.185463 0.556389 0.185463 0.185463 0 0 0 0 0 0 0 0 0 0 
0 0 0 0 0 0 0 0 0 0 0 0 0.184936 0.184936 0.184936 0.369873 0 0.369873 0 0.184936 0.739746 0 0.369873 0.184936 0.184936 0.554809 0.554809 0.184936 0.184936 0.554809 0.369873 0.369873 0.369873 0.184936 0.554809 0.739746 0.554809 0.369873 0.554809 0 0 0.184936 0.184936 0.184936 0.924682 0.184936 0.554809 0 0.554809 0 0.184936 0.369873 0.184936 0.184936 0.184936 0.554809 0.554809 0.554809 0 0.184936 0 0 0.369873 0 0 0.184936 0.184936 0 0.554809 0.369873 0.184936 1.10962 0.369873 0.184936 0.369873 0.369873 0.184936 0 0.369873 0.184936 0.184936 0.369873 0.369873 0 0.739746 0 0.554809 0 0.369873 0 0 0 0 0 0 0 0 0 0 0 
0 0 0 0 0 0 0 0 0 0 0 2.84163 7.81175 8.91301 9.21003 7.39995 12.4236 13.9757 8.38839 11.3018 15.3599 15.6404 15.7368 15.8836 14.2621 15.8294 18.8149 16.2984 15.2958 14.2615 18.4926 14.8177 17.6342 16.3725 15.7906 19.5542 16.8923 13.748 16.6012 15.7407 16.6985 15.9501 17.6613 14.5755 13.9423 14.5121 15.5168 14.4432 18.014 17.9635 18.3076 16.5774 15.0208 15.9389 14.0507 16.2752 16.1254 15.0168 13.433 13.5178 14.9418 16.1069 15.3895 16.0682 16.2518 15.4408 14.1356 16.7068 15.7233 15.7054 13.2504 17.8449 15.4912 13.3197 14.5246 14.3666 16.7484 14.0755 16.2189 14.7711 17.9777 15.8419 14.8268 13.7314 12.4404 10.3971 11.5012 10.8113 10.1286 7.56515 3.40317 0 0 0 0 0 0 0 0 0 
0 0 0 0 0 0 0 0 0 0 0 0 0 0 0 2.56754 0 0 0 0 0 0 2.56754 0 0 0 0 0 0 0 0 0 0 0 0 0 0 0 0 0 0 0 0 0 0 0 0 0 0 2.56754 0 0 0 0 0 2.56754 0 0 0 0 0 0 0 0 0 0 0 0 0 0 0 0 0 2.56754 0 0 0 0 0 0 0 0 0 2.56754 0 0 0 0 0 0 0 0 0 0 0 0 0 0 0 0 
0 0 0 0 0 0 0 0 0 0 0 5.32902 7.88801 29.4029 51.4711 50.6736 46.9183 5.61237 49.8837 26.6675 48.1668 67.2727 28.1552 45.0469 26.4034 25.2203 58.8682 39.886 54.8774 58.1123 55.1869 71.6592 50.472 52.4001 79.5635 69.9425 50.6733 42.2994 29.0049 56.1301 65.9408 55.3522 40.0785 37.668 47.6625 64.6808 60.9914 71.0749 18.9065 49.5734 56.6291 68.3804 59.5468 28.2174 4.90573 26.1132 77.59 87.0076 71.1385 50.6736 52.1914 84.5073 40.9126 48.8654 57.144 96.1743 21.9674 50.5919 51.2106 56.191 50.5297 63.3138 39.4313 47.1264 36.5363 -11.2396 62.0878 30.2213 59.4949 72.7352 64.1631 47.7872 47.4988 56.6467 70.2386 45.7091 37.3732 58.2915 38.5304 26.4705 7.70226 0 0 0 0 0 0 0 0 0 

100 -4 4
0 0 0 0 0 0 0 0 0 0 0 0 0 0 0 0 0 0 0 0 0 0 0 0 0 0 0 0 0 0 0 0 0 0 0 0 0 0 0 0 0 0 0 0 0 0 0 0 0 0 0 0 0 0 0 0 0 0 0 0 0 0 0 0 0 0 0 0 0 0 0 0 0 0 0 0 0 0 0 0 0 0 0 0 0 0 0 0 0 0 0 0 0 0 0 0 0 0 0 0 
0 0 0 0 0 0 0 0 0 0 0 0 0 0 0 0 0 0 0 0 0 0 0 0 0 0 0 0 0 0 0 0 0 0 0 0 0 0 0 0 0 0 0 0 0 0 0 0 0 0 0 0 0 0 0 0 0 0 0 0 0 0 0 0 0 0 0 0 0 0 0 0 0 0 0 0 0 0 0 0 0 0 0 0 0 0 0 0 0 0 0 0 0 0 0 0 0 0 0 0 
0 0 0 0 0 0 0 0 0 0 0 0 0 0 0 0 0 0 0 0 0 0 0 0 0 0 0 0 0 0 0 0 0 0 0 0 0 0 0 0 0 0 0 0 0 0 0 0 0 0 0 0 0 0 0 0 0 0 0 0 0 0 0 0 0 0 0.609323 0 0 0 0 0 0 0 0 0 0 0 0 0 0 0 0 0 0 0 0 0 0 0 0 0 0 0 0 0 0 0 0 0 
0 0 0 0 0 0 0 0 0 0 0 0 0 0 0 0 0 0 0 0 0 0 0.564255 0 0 0 0 0 0 0 0 0 0 0.564255 0 0 0 0 0 0 0 0 0 0 0 0 0 0 0 0 0 0 0 0 0 0 0 0 0 0 0 0 0 0.564255 0 0 0 0 0.564255 0 0.564255 0 0 0.564255 0.564255 0 0 0 0 0 0.564255 0 0 0.564255 0 0 0 0 0 0 0 0 0 0 0 0 0 0 0 0 
0 0 0 0 0 0 0 0 0 0 0 0 0 0 0 0 0 0 0 0 0 0.593798 0 0 0 0 0 0.593798 0.593798 0 0 0 0 0 0 0 0 0 0 0 0 0 0 0.593798 0 0 0.593798 0.593798 0 0 0 0 0 0 0 0 0 0 0 0 0 0 0.593798 0.593798 0 0 0 0 0 0 0 0 0 0 0 0 0.593798 0 0 0.593798 0 0 0 0 0 0 0 0 0 0.593798 0 0 0 0 0 0 0 0 0 0 
0 0 0 0 0 0 0 0 0 0 0 0 0 0 0 0 0 0 0 0 0.185463 0.185463 0 0.185463 0 0 0 0.185463 0 0 0 0.185463 0 0.185463 0 0 0.185463 0 0 0 0 0 0.185463 0 0 0 0 0.370926 0 0 0 0 0 0.185463 0 0.185463 0 0 0 0 0 0.185463 0 0 0 0 0.185463 0 0 0 0 0 0 0.185463 0 0 0 0.370926 0 0 0 0 0 0 0 0 0 0.185463 0 0 0 0 0 0 0 0 0 0 0 0 
0 0 0 0 0 0 0 0 0 0 0 0 0.184936 0 0.184936 0 0.184936 0 0 0 0 0 0 0 0.184936 0 0 0.184936 0 0 0 0 0.369873 0 0.184936 0.184936 0 0.369873 0 0 0 0 0 0 0 0 0.184936 0 0 0 0 0 0 0.184936 0.184936 0 0.184936 0 0 0 0 0 0 0.184936 0.184936 0.184936 0 0.554809 0 0 0.369873 0 0 0 0 0 0 0.184936 0 0 0 0 0.184936 0 0.184936 0 0 0 0 0 0 0 0 0 0 0 0 0 0 0 
0 0 0 0 0 0 0 0 0 0 0 0.1938 2.79078 1.40651 3.57711 3.56598 2.0655 3.66819 1.90413 3.08585 2.0655 3.38186 3.10334 3.17932 3.31208 3.12465 3.14689 3.71861 4.73608 3.63576 4.47344 2.48553 4.04373 4.6585 3.79077 4.07472 2.7884 3.31794 3.94195 3.51556 4.14594 3.676 2.65802 3.44102 3.0345 2.1469 4.69635 3.02575 3.91335 4.5248 2.85088 2.89299 3.21905 4.5984 3.34069 2.64877 3.04706 3.75834 2.9744 3.81844 3.68712 4.58583 2.81845 3.20699 3.89985 4.14687 3.26947 4.33338 2.59792 3.43084 2.60811 2.20887 0.986484 2.95215 3.26802 2.36057 3.0558 2.88187 4.67743 3.78694 3.20063 3.658 2.80335 1.38521 2.35183 2.57806 2.34402 1.98791 1.84403 1.91431 0.969 0 0 0 0 0 0 0 0 0 
0 0 0 0 0 0 0 0 0 0 0 0 0 0 0 0 0 0 0 0 0 0 0 0 0 0 2.56754 0 0 0 0 0 0 0 0 0 0 0 0 0 0 0 0 0 0 0 0 0 0 0 0 0 0 0 0 0 0 0 0 0 0 0 0 0 0 0 0 0 0 0 0 0 0 0 0 0 0 0 0 0 0 0 0 0 0 0 0 0 0 0 0 0 0 0 0 0 0 0 0 0 
0 0 0 0 0 0 0 0 0 0 0 0 5.1373 5.13436 9.4317 13.9366 0.351189 20.5113 1.72247 3.77056 2.74342 8.73876 15.5753 15.0443 9.59513 7.71014 6.37118 3.59926 -0.0150211 22.555 -1.69202 13.8568 0.860783 12.8359 5.12506 7.04076 11.9987 13.5254 23.976 4.63135 5.13931 15.5795 7.63021 13.1787 5.13456 12.1469 10.2587 13.1072 13.9717 6.00503 0.871585 7.30708 1.45979 12.0495 1.03351 -9.91754 4.42647 0.00494298 -2.1656 7.70174 15.5031 9.5937 7.86478 17.8076 5.14419 18.7997 8.74697 12.8231 3.79649 1.20338 -6.74121 11.4015 19.7794 12.0001 3.27869 8.56233 7.50907 13.1785 21.794 4.45145 4.79542 7.69172 9.4043 20.826 4.90084 1.69658 -1.33768 1.7064 2.62617 5.23432 10.2687 0 0 0 0 0 0 0 0 0 

100 -4 4
0 0 0 0 0 0 0 0 0 0 0 0 0 0 0 0 0 0 0 0 0 0 0 0 0 0 0 0 0 0 0 0 0 0 0 0 0 0 0 0 0 0 0 0 0 0 0 0 0 0 0 0 0 0 0 0 0 0 0 0 0 0 0 0 0 0 0 0 0 0 0 0 0 0 0 0 0 0 0 0 0 0 0 0 0 0 0 0 0 0 0 0 0 0 0 0 0 0 0 0 
0 0 0 0 0 0 0 0 0 0 0 0 0 0 0 0 0 0 0 0 0 0 0 0 0 0 0 0 0 0 0 0 0 0 0 0 0 0 0 0 0 0 0 0 0 0 0 0 0 0 0 0 0 0 0 0 0 0 0 0 0 0 0 0 0 0 0 0 0 0 0 0 0 0 0 0 0 0 0 0 0 0 0 0 0 0 0 0 0 0 0 0 0 0 0 0 0 0 0 0 
0 0 0 0 0 0 0 0 0 0 0 0 0 0 0 0 0 0 0 0 0 0 0 0 0 0 0 0 0 0 0 0 0 0 0 0 0 0 0 0 0 0 0 0 0 0 0 0 0 0 0 0 0 0 0 0 0 0 0 0 0 0 0 0 0 0 0 0 0 0 0 0 0 0 0 0 0 0 0 0 0 0 0 0 0 0 0 0 0 0 0 0 0 0 0 0 0 0 0 0 
0 0 0 0 0 0 0 0 0 0 0 0 0 0 0 0 0 0 0 0 0 0 0 0 0 0 0 0 0 0 0 0 0 0 0 0 0 0 0 0 0 0 0 0 0 0 0 0 0 0 0 0 0 0 0 0 0 0 0 0 0 0 0.564255 0 0 0 0 0 0 0 0 0 0 0 0.564255 0 0 0 0 0 0 0 0 0 0 0 0 0 0 0 0 0 0 0 0 0 0 0 0 0 
0 0 0 0 0 0 0 0 0 0 0 0 0 0 0 0 0 0 0 0 0 0 0 0 0 0 0 0 0 0 0 0 0 0 0 0.593798 0 0 0 0 0 0 0 0 0 0 0 0 0 0 0 0 0 0 0 0 0 0 0 0 0 0 0 0 0 0 0 0 0 0 0 0 0 0 0 0 0 0 0 0 0 0 0 0 0 0 0 0 0 0 0 0 0 0 0 0 0 0 0 0 
0 0 0 0 0 0 0 0 0 0 0 0 0 0 0 0 0 0 0 0 0 0 0 0 0 0 0 0 0 0 0 0 0 0 0 0 0 0 0 0 0 0 0 0 0 0 0 0.185463 0 0 0 0 0 0 0 0 0 0 0 0 0 0 0 0 0 0 0 0 0 0 0 0 0 0 0 0 0 0 0 0 0 0 0 0 0 0 0 0 0 0 0 0 0 0 0 0 0 0 0 0 
0 0 0 0 0 0 0 0 0 0 0 0 0 0 0 0 0 0 0.184936 0 0 0 0 0 0 0 0 0 0 0 0 0 0 0 0 0 0 0 0 0 0 0 0 0 0 0 0 0 0 0 0 0 0 0 0 0 0 0.184936 0 0 0 0 0 0 0 0 0 0 0 0 0 0 0 0 0 0 0 0 0 0 0 0 0 0.184936 0.184936 0 0 0.184936 0 0 0 0 0 0 0 0 0 0 0 0 
0 0 0 0 0 0 0 0 0 0 0 0.1938 0.458821 0.518921 0.458821 0.5814 0.712721 0.273763 0.661363 0.336242 0.61145 0.844041 0.661363 0.284884 0.41765 1.11144 0.41765 0.682671 1.09013 0.325121 0.620192 0.947692 0.61145 0 0.549906 0.530042 0.458821 1.30524 0.336242 0.54897 0.80525 0.80525 0.0712211 0.997605 0.80525 0.295071 0.846421 1.17154 0.712721 0.61145 0.344984 0.712721 0.7752 0.4477 0.795063 0.530042 0.926384 0.753892 0.753892 0.142442 0.795063 0.876471 0.936571 0.0901493 0.560092 0.458821 0.560092 0.488871 0.682671 0.560092 0.947692 0.651177 0.35517 0.682671 0.712721 1.79411 0.560092 1.06008 0.313999 0.265021 0.265021 1.01891 0.41765 0.969 0.54897 0.396342 0.0300498 0.477749 0.407463 0.682671 0 0 0 0 0 0 0 0 0 0 
0 0 0 0 0 0 0 0 0 0 0 0 0 0 0 0 0 0 0 0 0 0 0 0 0 0 0 0 0 0 0 0 0 0 0 0 0 0 0 0 0 0 0 0 0 0 0 0 0 0 0 0 0 0 0 0 0 0 0 0 0 0 0 0 0 0 0 0 0 0 0 0 0 0 0 0 0 0 0 0 0 0 0 0 0 0 0 0 0 0 0 0 0 0 0 0 0 0 0 0 
0 0 0 0 0 0 0 0 0 0 0 0 0.0589866 0.860783 2.56718 0.00494298 -0.0007155 2.39588 0 0 0.00494298 0 0 2.56718 -0.859876 0 0 0 5.13436 0.0589866 7.70155 0 0 2.56718 0 0.171298 10.2687 0.969336 -0.0997684 1.7064 0 0 -2.39588 0 0.0999606 -2.56718 0 0.860783 -0.518187 2.56718 0.00859238 -0.860783 5.14419 6.47204 5.13436 -2.56718 2.56718 2.56718 0 2.66714 6.47204 0 -3.42797 0.870604 0 0.860783 2.56718 -2.62617 -0.0491654 6.37208 0 -2.56718 2.56718 -2.56718 7.70155 0 0 -5.99586 0.171298 -0.000192169 2.56224 0 2.56718 2.39588 -2.56718 -5.13436 2.55859 3.25667 -2.5679 5.30566 0 0 0 0 0 0 0 0 0 0 

100 -4 4
0 0 0 0 0 0 0 0 0 0 0 0 0 0 0 0 0 0 0 0 0 0 0 0 0 0 0 0 0 0 0 0 0 0 0 0 0 0 0 0 0 0 0 0 0 0 0 0 0 0 0 0 0 0 0 0 0 0 0 0 0 0 0 0 0 0 0 0 0 0 0 0 0 0 0 0 0 0 0 0 0 0 0 0 0 0 0 0 0 0 0 0 0 0 0 0 0 0 0 0 
0 0 0 0 0 0 0 0 0 0 0 0 0 0 0 0 0 0 0 0 0 0 0 0 0 0 0 0 0 0 0 0 0 0 0 0 0 0 0 0 0 0 0 0 0 0 0 0 0 0 0 0 0 0 0 0 0 0 0 0 0 0 0 0 0 0 0 0 0 0 0 0 0 0 0 0 0 0 0 0 0 0 0 0 0 0 0 0 0 0 0 0 0 0 0 0 0 0 0 0 
0 0 0 0 0 0 0 0 0 0 0 0 0 0 0 0 0 0 0 0 0 0 0 0 0 0 0 0 0 0 0 0 0 0 0 0 0 0 0 0 0 0 0 0 0 0 0 0 0 0 0 0 0 0 0 0 0 0 0 0 0 0 0 0 0 0 0 0 0 0 0 0 0 0 0 0 0 0 0 0 0 0 0 0 0 0 0 0 0 0 0 0 0 0 0 0 0 0 0 0 
0 0 0 0 0 0 0 0 0 0 0 0 0 0 0 0 0 0 0 0 0 0 0 0 0 0 0 0 0 0 0 0 0 0 0 0 0 0 0 0 0 0 0 0 0 0 0 0 0 0 0 0 0 0 0 0 0 0 0 0 0 0 0 0 0 0 0 0 0 0 0 0 0 0 0 0 0 0 0 0 0 0 0 0 0 0 0 0 0 0 0 0 0 0 0 0 0 0 0 0 
0 0 0 0 0 0 0 0 0 0 0 0 0 0 0 0 0 0 0 0 0 0 0 0 0 0 0 0 0 0 0 0 0 0 0 0 0 0 0 0 0 0 0 0 0 0 0 0 0 0 0 0 0 0 0 0 0 0 0 0 0 0 0 0 0 0 0 0 0 0 0 0 0 0 0 0 0 0 0 0 0 0 0 0 0 0 0 0 0 0 0 0 0 0 0 0 0 0 0 0 
0 0 0 0 0 0 0 0 0 0 0 0 0 0 0 0 0 0 0 0 0 0 0 0 0 0 0 0 0 0 0 0 0 0 0 0 0 0 0 0 0 0 0 0 0 0 0 0 0 0.185463 0 0 0 0 0 0 0 0 0 0 0 0 0 0 0 0 0 0 0 0 0 0 0 0 0 0 0 0 0 0 0 0 0 0 0 0 0 0 0 0 0 0 0 0 0 0 0 0 0 0 
0 0 0 0 0 0 0 0 0 0 0 0 0 0 0 0 0 0 0 0 0 0 0 0 0 0 0 0 0 0 0 0 0 0 0 0 0 0 0 0 0 0 0 0 0 0 0 0 0 0 0 0 0 0 0 0 0 0 0 0 0 0 0 0 0 0 0 0 0 0 0 0 0 0 0 0 0 0 0 0 0 0 0 0 0 0 0 0 0 0 0 0 0 0 0 0 0 0 0 0 
0 0 0 0 0 0 0 0 0 0 0 0 0 0 0.22385 0.0712211 0 0 0.295071 0 0.265021 0.0300498 0.0600995 0.0300498 0.265021 0 0.0300498 0 0 0 0 0 0.131321 0.1938 0.0600995 0.336242 0 0 0.1938 0 0.1938 0.336242 0.0712211 0.1938 0 0.0600995 0.1938 0.41765 0.0712211 0.0300498 0 0.142442 0.3876 0 0.3876 0 0 0.265021 0.0600995 0.0600995 0.0712211 0 0 0.0300498 0.295071 0.0300498 0 0 0.1938 0.1938 0.1938 0.1938 0 0 0.1938 0 0.265021 0.3876 0.1938 0 0.265021 0.3876 0 0.1938 0.3876 0.3876 0 0 0.0712211 0 0 0 0 0 0 0 0 0 0 0 
0 0 0 0 0 0 0 0 0 0 0 0 0 0 0 0 0 0 0 0 0 0 0 0 0 0 0 0 0 0 0 0 0 0 0 0 0 0 0 0 0 0 0 0 0 0 0 0 0 0 0 0 0 0 0 0 0 0 0 0 0 0 0 0 0 0 0 0 0 0 0 0 0 0 0 0 0 0 0 0 0 0 0 0 0 0 0 0 0 0 0 0 0 0 0 0 0 0 0 0 
0 0 0 0 0 0 0 0 0 0 0 0 0 0.000192169 0 0 0 0 0 0 2.56718 0 0 0.0999606 2.56718 0 0 2.56718 -0.960744 0 -0.00494298 0 0 0 0 0 0 0 0 0 0 0 0 0 0 0 0 0 0 0 0.171298 0 0 0 0 0 0 0 0 0 0 0 0.171298 0 0 0 0 0 0 0 0 2.56718 0 0 0 0 0 2.56718 0 2.56718 0 -2.56718 0 0 0 -2.56718 0 0 -0.860783 0 0 0 0 0 0 0 0 0 0 0 

100 -4 4
0 0 0 0 0 0 0 0 0 0 0 0 0 0 0 0 0 0 0 0 0 0 0 0 0 0 0 0 0 0 0 0 0 0 0 0 0 0 0 0 0 0 0 0 0 0 0 0 0 0 0 0 0 0 0 0 0 0 0 0 0 0 0 0 0 0 0 0 0 0 0 0 0 0 0 0 0 0 0 0 0 0 0 0 0 0 0 0 0 0 0 0 0 0 0 0 0 0 0 0 
0 0 0 0 0 0 0 0 0 0 0 0 0 0 0 0 0 0 0 0 0 0 0 0 0 0 0 0 0 0 0 0 0 0 0 0 0 0 0 0 0 0 0 0 0 0 0 0 0 0 0 0 0 0 0 0 0 0 0 0 0 0 0 0 0 0 0 0 0 0 0 0 0 0 0 0 0 0 0 0 0 0 0 0 0 0 0 0 0 0 0 0 0 0 0 0 0 0 0 0 
0 0 0 0 0 0 0 0 0 0 0 0 0 0 0 0 0 0 0 0 0 0 0 0 0 0 0 0 0 0 0 0 0 0 0 0 0 0 0 0 0 0 0 0 0 0 0 0 0 0 0 0 0 0 0 0 0 0 0 0 0 0 0 0 0 0 0 0 0 0 0 0 0 0 0 0 0 0 0 0 0 0 0 0 0 0 0 0 0 0 0 0 0 0 0 0 0 0 0 0 
0 0 0 0 0 0 0 0 0 0 0 0 0 0 0 0 0 0 0 0 0 0 0 0 0 0 0 0 0 0 0 0 0 0 0 0 0 0 0 0 0 0 0 0 0 0 0 0 0 0 0 0 0 0 0 0 0 0 0 0 0 0 0 0 0 0 0 0 0 0 0 0 0 0 0 0 0 0 0 0 0 0 0 0 0 0 0 0 0 0 0 0 0 0 0 0 0 0 0 0 
0 0 0 0 0 0 0 0 0 0 0 0 0 0 0 0 0 0 0 0 0 0 0 0 0 0 0 0 0 0 0 0 0 0 0 0 0 0 0 0 0 0 0 0 0 0 0 0 0 0 0 0 0 0 0 0 0 0 0 0 0 0 0 0 0 0 0 0 0 0 0 0 0 0 0 0 0 0 0 0 0 0 0 0 0 0 0 0 0 0 0 0 0 0 0 0 0 0 0 0 
0 0 0 0 0 0 0 0 0 0 0 0 0 0 0 0 0 0 0 0 0 0 0 0 0 0 0 0 0 0 0 0 0 0 0 0 0 0 0 0 0 0 0 0 0 0 0 0 0 0 0 0 0 0 0 0 0 0 0 0 0 0 0 0 0 0 0 0 0 0 0 0 0 0 0 0 0 0 0 0 0 0 0 0 0 0 0 0 0 0 0 0 0 0 0 0 0 0 0 0 
0 0 0 0 0 0 0 0 0 0 0 0 0 0 0 0 0 0 0 0 0 0 0 0 0 0 0 0 0 0 0 0 0 0 0 0 0 0 0 0 0 0 0 0 0 0 0 0 0 0 0 0 0 0 0 0 0 0 0 0 0 0 0 0 0 0 0 0 0 0 0 0 0 0 0 0 0 0 0 0 0 0 0 0 0 0 0 0 0 0 0 0 0 0 0 0 0 0 0 0 
0 0 0 0 0 0 0 0 0 0 0 0 0 0 0 0 0 0.1938 0 0 0 0 0 0 0 0 0.0712211 0 0 0 0.0300498 0 0 0.0712211 0.0300498 0 0 0 0 0 0 0 0 0 0 0 0 0 0 0 0 0 0 0 0 0 0 0 0 0 0 0 0 0 0 0 0.0712211 0 0 0 0 0.0712211 0 0.1938 0 0 0 0 0 0 0 0 0 0 0 0 0 0 0.0712211 0.0712211 0 0 0 0 0 0 0 0 0 0 
0 0 0 0 0 0 0 0 0 0 0 0 0 0 0 0 0 0 0 0 0 0 0 0 0 0 0 0 0 0 0 0 0 0 0 0 0 0 0 0 0 0 0 0 0 0 0 0 0 0 0 0 0 0 0 0 0 0 0 0 0 0 0 0 0 0 0 0 0 0 0 0 0 0 0 0 0 0 0 0 0 0 0 0 0 0 0 0 0 0 0 0 0 0 0 0 0 0 0 0 
0 0 0 0 0 0 0 0 0 0 0 0 0 0 0 0 0 -2.56718 0 0 0 0 0 0 0 0 0 0 0 0 0 0 0 0 0 0 0 0 0 0 0 0 0 0 0 0 0 0 0 0 0 0 0 0 0 0 0 0 0.171298 0 0 0 0 0 0 0 0 0 0.00494298 0 0 0 0 0 0 0 0 0 0 0 0 0 0 0 0 0 0 0 0 0 0 0 0 0 0 0 0 0 0 0 

100 -4 4
0 0 0 0 0 0 0 0 0 0 0 0 0 0 0 0 0 0 0 0 0 0 0 0 0 0 0 0 0 0 0 0 0 0 0 0 0 0 0 0 0 0 0 0 0 0 0 0 0 0 0 0 0 0 0 0 0 0 0 0 0 0 0 0 0 0 0 0 0 0 0 0 0 0 0 0 0 0 0 0 0 0 0 0 0 0 0 0 0 0 0 0 0 0 0 0 0 0 0 0 
0 0 0 0 0 0 0 0 0 0 0 0 0 0 0 0 0 0 0 0 0 0 0 0 0 0 0 0 0 0 0 0 0 0 0 0 0 0 0 0 0 0 0 0 0 0 0 0 0 0 0 0 0 0 0 0 0 0 0 0 0 0 0 0 0 0 0 0 0 0 0 0 0 0 0 0 0 0 0 0 0 0 0 0 0 0 0 0 0 0 0 0 0 0 0 0 0 0 0 0 
0 0 0 0 0 0 0 0 0 0 0 0 0 0 0 0 0 0 0 0 0 0 0 0 0 0 0 0 0 0 0 0 0 0 0 0 0 0 0 0 0 0 0 0 0 0 0 0 0 0 0 0 0 0 0 0 0 0 0 0 0 0 0 0 0 0 0 0 0 0 0 0 0 0 0 0 0 0 0 0 0 0 0 0 0 0 0 0 0 0 0 0 0 0 0 0 0 0 0 0 
0 0 0 0 0 0 0 0 0 0 0 0 0 0 0 0 0 0 0 0 0 0 0 0 0 0 0 0 0 0 0 0 0 0 0 0 0 0 0 0 0 0 0 0 0 0 0 0 0 0 0 0 0 0 0 0 0 0 0 0 0 0 0 0 0 0 0 0 0 0 0 0 0 0 0 0 0 0 0 0 0 0 0 0 0 0 0 0 0 0 0 0 0 0 0 0 0 0 0 0 
0 0 0 0 0 0 0 0 0 0 0 0 0 0 0 0 0 0 0 0 0 0 0 0 0 0 0 0 0 0 0 0 0 0 0 0 0 0 0 0 0 0 0 0 0 0 0 0 0 0 0 0 0 0 0 0 0 0 0 0 0 0 0 0 0 0 0 0 0 0 0 0 0 0 0 0 0 0 0 0 0 0 0 0 0 0 0 0 0 0 0 0 0 0 0 0 0 0 0 0 
0 0 0 0 0 0 0 0 0 0 0 0 0 0 0 0 0 0 0 0 0 0 0 0 0 0 0 0 0 0 0 0 0 0 0 0 0 0 0 0 0 0 0 0 0 0 0 0 0 0 0 0 0 0 0 0 0 0 0 0 0 0 0 0 0 0 0 0 0 0 0 0 0 0 0 0 0 0 0 0 0 0 0 0 0 0 0 0 0 0 0 0 0 0 0 0 0 0 0 0 
0 0 0 0 0 0 0 0 0 0 0 0 0 0 0 0 0 0 0 0 0 0 0 0 0 0 0 0 0 0 0 0 0 0 0 0 0 0 0 0 0 0 0 0 0 0 0 0 0 0 0 0 0 0 0 0 0 0 0 0 0 0 0 0 0 0 0 0 0 0 0 0 0 0 0 0 0 0 0 0 0 0 0 0 0 0 0 0 0 0 0 0 0 0 0 0 0 0 0 0 
0 0 0 0 0 0 0 0 0 0 0 0 0 0 0 0 0 0 0 0 0 0 0 0 0 0 0 0 0 0 0 0 0 0 0 0 0 0 0 0 0 0 0 0 0 0 0 0 0 0 0 0 0 0 0 0 0 0 0 0 0 0 0 0 0 0 0 0 0 0 0 0 0 0 0 0 0 0 0 0 0 0 0 0 0 0 0 0 0 0 0 0 0 0 0 0 0 0 0 0 
0 0 0 0 0 0 0 0 0 0 0 0 0 0 0 0 0 0 0 0 0 0 0 0 0 0 0 0 0 0 0 0 0 0 0 0 0 0 0 0 0 0 0 0 0 0 0 0 0 0 0 0 0 0 0 0 0 0 0 0 0 0 0 0 0 0 0 0 0 0 0 0 0 0 0 0 0 0 0 0 0 0 0 0 0 0 0 0 0 0 0 0 0 0 0 0 0 0 0 0 
0 0 0 0 0 0 0 0 0 0 0 0 0 0 0 0 0 0 -0.0007155 0 0 0 0 0 0 0 0 0 0 0 0 0 0 0 0 0 0 0 0 0 0 0 0 0 0 0 0 0 0 0 0 0 0 0 0 0 0 0 0 0 0 0 0 0 0 0 0 0 0 0 0 0 0 0 0 0 0 0 0 0 0 0 0 0 0 0 0 0 0 0 0 0 0 0 0 0 0 0 0 0 

100 -4 4
0 0 0 0 0 0 0 0 0 0 0 0 0 0 0 0 0 0 0 0 0 0 0 0 0 0 0 0 0 0 0 0 0 0 0 0 0 0 0 0 0 0 0 0 0 0 0 0 0 0 0 0 0 0 0 0 0 0 0 0 0 0 0 0 0 0 0 0 0 0 0 0 0 0 0 0 0 0 0 0 0 0 0 0 0 0 0 0 0 0 0 0 0 0 0 0 0 0 0 0 
0 0 0 0 0 0 0 0 0 0 0 0 0 0 0 0 0 0 0 0 0 0 0 0 0 0 0 0 0 0 0 0 0 0 0 0 0 0 0 0 0 0 0 0 0 0 0 0 0 0 0 0 0 0 0 0 0 0 0 0 0 0 0 0 0 0 0 0 0 0 0 0 0 0 0 0 0 0 0 0 0 0 0 0 0 0 0 0 0 0 0 0 0 0 0 0 0 0 0 0 
0 0 0 0 0 0 0 0 0 0 0 0 0 0 0 0 0 0 0 0 0 0 0 0 0 0 0 0 0 0 0 0 0 0 0 0 0 0 0 0 0 0 0 0 0 0 0 0 0 0 0 0 0 0 0 0 0 0 0 0 0 0 0 0 0 0 0 0 0 0 0 0 0 0 0 0 0 0 0 0 0 0 0 0 0 0 0 0 0 0 0 0 0 0 0 0 0 0 0 0 
0 0 0 0 0 0 0 0 0 0 0 0 0 0 0 0 0 0 0 0 0 0 0 0 0 0 0 0 0 0 0 0 0 0 0 0 0 0 0 0 0 0 0 0 0 0 0 0 0 0 0 0 0 0 0 0 0 0 0 0 0 0 0 0 0 0 0 0 0 0 0 0 0 0 0 0 0 0 0 0 0 0 0 0 0 0 0 0 0 0 0 0 0 0 0 0 0 0 0 0 
0 0 0 0 0 0 0 0 0 0 0 0 0 0 0 0 0 0 0 0 0 0 0 0 0 0 0 0 0 0 0 0 0 0 0 0 0 0 0 0 0 0 0 0 0 0 0 0 0 0 0 0 0 0 0 0 0 0 0 0 0 0 0 0 0 0 0 0 0 0 0 0 0 0 0 0 0 0 0 0 0 0 0 0 0 0 0 0 0 0 0 0 0 0 0 0 0 0 0 0 
0 0 0 0 0 0 0 0 0 0 0 0 0 0 0 0 0 0 0 0 0 0 0 0 0 0 0 0 0 0 0 0 0 0 0 0 0 0 0 0 0 0 0 0 0 0 0 0 0 0 0 0 0 0 0 0 0 0 0 0 0 0 0 0 0 0 0 0 0 0 0 0 0 0 0 0 0 0 0 0 0 0 0 0 0 0 0 0 0 0 0 0 0 0 0 0 0 0 0 0 
0 0 0 0 0 0 0 0 0 0 0 0 0 0 0 0 0 0 0 0 0 0 0 0 0 0 0 0 0 0 0 0 0 0 0 0 0 0 0 0 0 0 0 0 0 0 0 0 0 0 0 0 0 0 0 0 0 0 0 0 0 0 0 0 0 0 0 0 0 0 0 0 0 0 0 0 0 0 0 0 0 0 0 0 0 0 0 0 0 0 0 0 0 0 0 0 0 0 0 0 
0 0 0 0 0 0 0 0 0 0 0 0 0 0 0 0 0 0 0 0 0 0 0 0 0 0 0 0 0 0 0 0 0 0 0 0 0 0 0 0 0 0 0 0 0 0 0 0 0 0 0 0 0 0 0 0 0 0 0 0 0 0 0 0 0 0 0 0 0 0 0 0 0 0 0 0 0 0 0 0 0 0 0 0 0 0 0 0 0 0 0 0 0 0 0 0 0 0 0 0 
0 0 0 0 0 0 0 0 0 0 0 0 0 0 0 0 0 0 0 0 0 0 0 0 0 0 0 0 0 0 0 0 0 0 0 0 0 0 0 0 0 0 0 0 0 0 0 0 0 0 0 0 0 0 0 0 0 0 0 0 0 0 0 0 0 0 0 0 0 0 0 0 0 0 0 0 0 0 0 0 0 0 0 0 0 0 0 0 0 0 0 0 0 0 0 0 0 0 0 0 
0 0 0 0 0 0 0 0 0 0 0 0 0 0 0 0 0 0 0 0 0 0 0 0 0 0 0 0 0 0 0 0 0 0 0 0 0 0 0 0 0 0 0 0 0 0 0 0 0 0 0 0 0 0 0 0 0 0 0 0 0 0 0 0 0 0 0 0 0 0 0 0 0 0 0 0 0 0 0 0 0 0 0 0 0 0 0 0 0 0 0 0 0 0 0 0 0 0 0 0 
