1
Photon_
#Delta R
high_dr
9
0
9
10
QCD W + Jets WW WZ ZZ #bar{t}W tW t#bar{t} Drell Yan #rightarrow #tau#tau Drell Yan #rightarrow #mu#mu 

100
0.00402555 0.00436083 0.00472403 0.00511748 0.0055437 0.00600542 0.00650559 0.00704742 0.00763438 0.00827023 0.00895903 0.0097052 0.0105135 0.0113892 0.0123377 0.0133653 0.0144785 0.0156843 0.0169906 0.0184057 0.0199387 0.0215993 0.0233983 0.025347 0.0274581 0.029745 0.0322224 0.0349061 0.0378133 0.0409627 0.0443744 0.0480702 0.0520738 0.0564109 0.0611092 0.0661988 0.0717123 0.077685 0.0841551 0.0911642 0.098757 0.106982 0.115892 0.125545 0.136001 0.147328 0.159599 0.172891 0.187291 0.20289 0.219788 0.238093 0.257923 0.279405 0.302676 0.327885 0.355193 0.384776 0.416823 0.451539 0.489146 0.529886 0.574019 0.621827 0.673617 0.729721 0.790497 0.856335 0.927657 1.00492 1.08862 1.17928 1.2775 1.3839 1.49916 1.62402 1.75928 1.90581 2.06454 2.23649 2.42276 2.62454 2.84313 3.07993 3.33645 3.61433 3.91536 4.24146 4.59471 4.97739 5.39195 5.84103 6.32751 6.85451 7.4254 8.04384 8.71379 9.43953 10.2257 11.0774 
0 0 0 0 0 0 0 0 0 0 0 0 0 0 0 0 0 0 0 0 0 0 0 0 0 0 0 0 0 0 0 0 0 0 0 0 0 0 0 0 0 0 0 0 0 0 0 0 0 0 0 0 0 0 0 0 0 0 0 0 0 0.583697 0 0 0 0.00427589 0 0 0 0 45.2187 0 0 0 0 0 0 0 0 0.146383 0 0 8.39901 0 0 0 0.00854128 8.98271 0.00427589 53.6633 1.16739 0.146383 0 0 0 0 0 0 0 
0 0 0 0 0 0 0 0 0 0 0 0 0 0 0 0 0 0 0 0 0 0 0 0 0 0 0 0 0 0 0 0 0 0 0 0 0 0 0 0 0 0 0 0 0 0 0 0 0 0 0 0 0 0 0 0 0 0 0 0 0 0 0 0 0 0 0 0 0 0 0 0 -5.11332 5.11332 10.2266 10.2266 5.11332 0 10.2266 10.2266 25.5666 25.5666 35.7932 35.7932 10.2266 35.7932 71.5865 97.1531 30.6799 5.11332 20.4533 10.2266 5.11332 -5.11332 0 0 0 0 0 
0 0 0 0 0 0 0 0 0 0 0 0 0 0 0 0 0 0 0 0 0 0 0 0 0 0 0 0 0 0 0 0 0 0 0 0 0 0 0 0 0 0 0 0 0 0 0 0 0 0 0 0 0 0 0 0 0.609323 0 0.609323 0 0.609323 1.21865 0 0 1.21865 1.21865 0.609323 4.26526 2.43729 0.609323 3.04661 3.04661 6.09323 5.4839 8.53052 10.9678 17.061 26.8102 31.0755 57.2763 73.1187 93.2264 129.786 203.514 226.668 242.51 273.586 229.105 184.015 189.499 133.442 90.7891 40.2153 15.8424 3.65594 0.609323 0 0 0 
0 0 0 0 0 0 0 0 0 0 0 0 0 0 0 0 0 0 0 0 0 0 0 0 0 0 0 0 0 0 0 0 0 0 0 0 0 0 0 0 0 0 0 0 0 0.564255 0 0 0 0 0 0 0 0.564255 0.564255 0 0.564255 0 0 0.564255 1.69277 0 0.564255 3.38553 1.69277 2.82128 1.69277 3.38553 3.94979 6.20681 13.5421 12.9779 9.59234 19.7489 31.5983 36.6766 59.2468 67.1464 98.7447 163.07 225.702 313.162 405.7 558.048 725.632 809.706 885.881 910.708 766.259 632.53 439.555 306.955 137.114 33.8553 7.89957 0.564255 0 0 0 
0 0 0 0 0 0 0 0 0 0 0 0 0 0 0 0 0 0 0 0 0 0 0 0 0 0 0 0 0 0 0 0 0 0 0 0 0 0 0 0 0 0 0 0 0 0 0 0 0 0 0 0 0 0 0 0 0 0.593798 0.593798 0 1.1876 0.593798 0.593798 1.78139 1.78139 1.1876 4.15658 2.37519 4.75038 7.12557 7.12557 9.50077 11.876 13.6574 21.9705 26.1271 42.1596 52.2542 64.724 119.353 159.732 176.358 235.144 315.307 395.469 450.693 478.007 441.192 396.063 314.713 213.173 122.916 58.1922 14.2511 0.593798 0.593798 0 0 0 
0 0 0 0 0 0 0 0 0 0 0 0 0 0 0 0 0 0 0 0 0 0 0 0 0 0 0 0 0 0 0 0 0 0 0 0 0 0 0 0 0 0 0 0 0 0 0 0 0 0 0 0 0 0 0 0 0 0 0 0.370926 0.185463 0.185463 0 0.741852 0.185463 0.556389 2.41102 1.4837 1.29824 2.41102 4.82204 5.0075 6.4912 8.90222 11.4987 16.6917 25.4084 30.6014 47.1076 62.6865 89.2077 125.002 153.563 200.115 238.32 247.964 249.262 233.498 211.242 173.037 121.107 74.5561 37.8344 8.16037 1.66917 0.185463 0 0 0 
0 0 0 0 0 0 0 0 0 0 0 0 0 0 0 0 0 0 0 0 0 0 0 0 0 0 0 0 0 0 0 0 0 0 0 0 0 0 0 0 0 0 0 0 0 0 0 0 0 0 0.184936 0 0 0 0 0.184936 0 0 0 0 0.369873 0.369873 0.369873 0.554809 0.924682 0.554809 1.29456 1.66443 2.95898 1.66443 2.95898 4.80835 6.47278 8.87695 13.8702 19.2334 23.4869 33.2886 49.1931 68.0566 92.6532 130.75 148.134 194.183 235.424 238.383 253.918 248.185 212.492 164.224 115.955 73.7897 30.6995 8.50708 2.21924 0.554809 0 0 0 
0 0 0 0 0 0 0 0 0 0 0 0 0 0 0 0 0 0 0 0 0 0 0 0 0 0 0 0 0 0 0 0 0 0 0 0 0 0 0 0 0 0 0 0 0 0 0 0 0 0 0 0 0.3876 0 0.7752 0.7752 1.04022 1.30524 2.3857 4.29365 2.88569 6.18904 7.94342 13.5336 15.3088 22.8457 37.043 44.7853 63.4298 87.3332 127.328 184.817 255.503 370.414 485.31 683.889 882.819 1175.62 1516.42 1968.11 2519.4 3178.26 3918.75 4692.03 5366.04 5740.44 5848.16 5527.44 5014.48 4226.44 3251 2087.11 888.574 194.3 39.3138 2.22831 0 0 0 
0 0 0 0 0 0 0 0 0 0 0 0 0 0 0 0 0 0 0 0 0 0 0 0 0 0 0 0 0 0 0 0 0 0 0 0 0 0 0 0 0 0 0 0 0 0 0 0 0 0 0 0 0 0 0 0 0 0 0 0 0 -2.56754 -2.56754 0 0 2.56754 5.13507 0 0 2.56754 7.70261 10.2701 10.2701 23.1078 5.13507 33.378 20.5403 23.1078 59.0533 143.782 147.541 233.646 249.051 366.334 454.822 509.748 491.959 476.186 432.722 345.61 233.646 136.079 100.134 25.6754 7.70261 0 0 0 0 
0 0 0 0 0 0 0 0 0 0 0 0 0 0 0 0 0 0 0 0 0 0 0 0 0 0 0 0 0 0 0 0 0 0 0 0 0 0 0 0 0 0 0 0 0 0 0 0 0 0 0 0 3.42797 18.0785 8.56233 21.4912 -5.13436 22.8441 64.1354 72.2208 105.795 139.169 132.082 243.805 234.49 327.755 511.066 491.142 611.227 835.878 1183.66 1609.95 2349.38 2969.74 4501.26 7020.81 10688.5 18892.2 29231.5 44030.5 66845.8 93119 127546 174494 234743 253497 249899 228778 199966 162730 128035 88531 46074.3 14762.7 3484.43 424.321 5.13436 0 0 
0 0 0 0 0 0 0 0 0 0 0 0 0 0 0 0 0 0 0 0 0 0 0 0 0 0 0 0 0 0 0 0 0 0 0 0 0 0 0 0 0 0 0 1 0 0 0 1 1 2 2 2 2 3 9 12 27 30 46 66 71 118 142 198 252 308 459 591 729 1017 1298 1692 2327 3175 4614 6757 11058 18136 28769 43575 63962 90936 125856 170565 226585 249547 249075 229518 202510 171139 133405 91407 47556 15924 4447 671 3 0 0 

100
0.00402555 0.00436083 0.00472403 0.00511748 0.0055437 0.00600542 0.00650559 0.00704742 0.00763438 0.00827023 0.00895903 0.0097052 0.0105135 0.0113892 0.0123377 0.0133653 0.0144785 0.0156843 0.0169906 0.0184057 0.0199387 0.0215993 0.0233983 0.025347 0.0274581 0.029745 0.0322224 0.0349061 0.0378133 0.0409627 0.0443744 0.0480702 0.0520738 0.0564109 0.0611092 0.0661988 0.0717123 0.077685 0.0841551 0.0911642 0.098757 0.106982 0.115892 0.125545 0.136001 0.147328 0.159599 0.172891 0.187291 0.20289 0.219788 0.238093 0.257923 0.279405 0.302676 0.327885 0.355193 0.384776 0.416823 0.451539 0.489146 0.529886 0.574019 0.621827 0.673617 0.729721 0.790497 0.856335 0.927657 1.00492 1.08862 1.17928 1.2775 1.3839 1.49916 1.62402 1.75928 1.90581 2.06454 2.23649 2.42276 2.62454 2.84313 3.07993 3.33645 3.61433 3.91536 4.24146 4.59471 4.97739 5.39195 5.84103 6.32751 6.85451 7.4254 8.04384 8.71379 9.43953 10.2257 11.0774 
0 0 0 0 0 0 0 0 0 0 0 0 0 0 0 0 0 0 0 0 0 0 0 0 0 0 0 0 0 0 0 0 0 0 0 0 0 0 0 0 0 0 0 0 0 0 0 0 0 0 0 0 0 0 0 0 0 0 0 0 0 0 0 0 0 0 0 8.39901 0 0 0 0 0 0 0 0 0 0 0 0 0 0 45.2643 0 0.054153 0.0456012 0 0 0 376.176 0 0 0 0 0 0 0 0 0 
0 0 0 0 0 0 0 0 0 0 0 0 0 0 0 0 0 0 0 0 0 0 0 0 0 0 0 0 0 0 0 0 0 0 0 0 0 0 0 0 0 0 0 0 0 0 0 0 0 0 0 0 0 0 0 0 0 0 0 0 0 0 0 0 0 0 0 0 -5.11332 0 0 0 0 -5.11332 10.2266 0 0 0 0 0 0 15.34 10.2266 25.5666 15.34 -10.2266 25.5666 20.4533 15.34 -5.11332 10.2266 10.2266 -5.11332 5.11332 0 0 0 0 0 
0 0 0 0 0 0 0 0 0 0 0 0 0 0 0 0 0 0 0 0 0 0 0 0 0 0 0 0 0 0 0 0 0 0 0 0 0 0 0 0 0 0 0 0 0 0 0 0 0 0 0 0 0 0 0 0 0 0 0 0 0 0 0 0 0 0 0 1.21865 1.21865 0 1.82797 0.609323 1.21865 3.04661 1.82797 4.26526 3.04661 15.2331 7.9212 11.5771 20.1077 29.8568 38.9967 55.4484 60.9323 76.7747 74.9467 63.3696 60.323 42.0433 29.8568 29.8568 16.4517 3.04661 0.609323 0 0 0 0 
0 0 0 0 0 0 0 0 0 0 0 0 0 0 0 0 0 0 0 0 0 0 0 0 0 0 0 0 0 0 0 0 0 0 0 0 0 0 0 0 0 0 0 0 0 0 0 0 0 0 0 0 0 0 0 0 0 0 0.564255 0.564255 0 0.564255 1.12851 2.82128 0.564255 1.69277 1.69277 2.82128 4.51404 8.46383 7.33532 7.89957 7.33532 14.1064 17.4919 25.3915 32.7268 37.8051 48.526 66.0179 80.1242 108.901 145.578 213.288 288.334 330.089 343.631 350.967 282.128 233.602 177.176 116.237 53.6042 11.2851 3.94979 0 0 0 0 
0 0 0 0 0 0 0 0 0 0 0 0 0 0 0 0 0 0 0 0 0 0 0 0 0 0 0 0 0 0 0 0 0 0 0 0 0 0 0 0 0 0 0 0 0 0 0 0 0 0 0 0 0 0 0 0 0 0.593798 0.593798 1.1876 0 0 0.593798 1.78139 0.593798 1.78139 0.593798 2.37519 4.75038 1.78139 5.34418 7.71937 12.4698 11.2822 9.50077 19.0015 24.9395 43.941 57.5984 65.3178 94.4139 127.667 162.107 217.33 258.896 263.052 298.68 270.772 227.425 180.515 126.479 85.5069 42.1596 10.0946 0 0 0 0 0 
0 0 0 0 0 0 0 0 0 0 0 0 0 0 0 0 0 0 0 0 0 0 0 0 0 0 0 0 0 0 0 0 0 0 0 0 0 0 0 0 0 0 0 0 0 0 0 0 0 0 0 0 0 0 0 0 0 0 0 0 0 0.370926 0.185463 0 0.741852 0.185463 0.370926 0.927315 0.741852 2.41102 3.89472 3.15287 3.89472 4.08019 7.41852 9.64407 12.6115 17.9899 24.2956 34.3106 48.0349 61.9446 82.1601 92.9169 133.533 129.082 128.526 121.293 97.1826 81.0473 62.1301 44.6966 20.9573 3.33833 0.741852 0 0 0 0 
0 0 0 0 0 0 0 0 0 0 0 0 0 0 0 0 0 0 0 0 0 0 0 0 0 0 0 0 0 0 0 0 0 0 0 0 0 0 0 0 0 0 0 0 0 0 0 0 0 0 0 0 0 0 0 0 0 0 0 0 0 0.369873 0.184936 0 0.369873 0.554809 0.924682 0.924682 2.40417 1.84936 2.95898 3.88367 4.99329 6.47278 6.28784 7.21252 12.0209 18.8635 28.1103 28.6652 46.7889 67.6868 77.8583 96.9067 117.25 132.045 136.113 117.805 104.859 83.7762 62.1387 39.9463 18.8635 5.17822 1.10962 0 0 0 0 
0 0 0 0 0 0 0.1938 0 0 0 0 0 0 0 0 0 0 0 0 0 0 0 0 0 0 0 0 0 0 0 0 0 0.1938 0 0 0 0 0 0 0 0 0 0 0 0 0.1938 0 0 0.1938 0 0 0 0 0 0 0.61145 1.42782 1.58045 1.44675 1.77425 3.23212 4.55867 7.63816 9.58491 14.5035 19.9978 29.5551 39.5008 57.5843 83.0017 115.299 160.899 218.676 308.264 379.871 513.527 663.791 875.107 1092.61 1393.14 1776.37 2211.39 2734.47 3298.94 3703.28 4000.08 4063.31 3814.7 3376.28 2948.96 2308.22 1556.32 635.522 136.187 24.8486 1.24132 0 0 0 
0 0 0 0 0 0 0 0 0 0 0 0 0 0 0 0 0 0 0 0 0 0 0 0 0 0 0 0 0 0 0 0 0 0 0 0 0 0 0 0 0 0 0 0 0 0 0 0 0 0 0 0 0 0 0 0 0 0 0 0 0 0 0 0 2.56754 0 2.56754 -2.56754 5.13507 11.6459 7.70261 7.70261 5.13507 0 -12.8377 10.2701 15.4052 20.5403 21.9161 23.1078 17.9728 61.6209 74.4586 120.674 88.488 193.757 208.155 173.401 101.326 100.134 64.1884 25.6754 -5.13507 7.70261 2.56754 0 0 0 0 
0 0 0 0 0 0 0 0 0 0 0 0 0 0 0 0 0 0 0 0 0 0 0 0 0 0 0 0 0 0 0 0 0 0 0 0 0 0 0 0 0 0 0 0 12.9441 6.47204 -0.860783 0 0 0 0 7.70155 10.2687 9.03923 -0.476897 50.4387 25.4113 36.6969 43.0128 38.2472 79.9223 83.6831 128.714 134.798 171.698 192.297 337.04 441.22 463.207 598.067 726.976 1166.56 1257.48 1643.28 1887.95 3047.79 4109.35 5822.73 8225.86 11149.6 15629.1 20705.9 27724.3 36885.8 46477.3 54020.2 56039.9 53274.1 45772.9 37495.4 28437.8 19592.9 10067.6 3341.3 773.14 120.214 0 0 0 
0 0 0 0 0 0 0 0 0 0 0 0 0 0 0 0 1 0 0 0 0 0 0 0 0 0 0 0 0 0 0 0 0 0 0 0 0 0 0 0 0 0 0 1 0 1 1 0 0 2 0 1 1 4 5 13 15 16 37 36 63 64 96 133 158 225 285 370 553 639 868 1148 1485 1944 2735 3495 4865 6829 9297 12762 17291 23768 31326 41126 52107 61684 63794 60120 53073 44088 33808 23161 11592 3655 952 112 1 0 0 

100
0.00402555 0.00436083 0.00472403 0.00511748 0.0055437 0.00600542 0.00650559 0.00704742 0.00763438 0.00827023 0.00895903 0.0097052 0.0105135 0.0113892 0.0123377 0.0133653 0.0144785 0.0156843 0.0169906 0.0184057 0.0199387 0.0215993 0.0233983 0.025347 0.0274581 0.029745 0.0322224 0.0349061 0.0378133 0.0409627 0.0443744 0.0480702 0.0520738 0.0564109 0.0611092 0.0661988 0.0717123 0.077685 0.0841551 0.0911642 0.098757 0.106982 0.115892 0.125545 0.136001 0.147328 0.159599 0.172891 0.187291 0.20289 0.219788 0.238093 0.257923 0.279405 0.302676 0.327885 0.355193 0.384776 0.416823 0.451539 0.489146 0.529886 0.574019 0.621827 0.673617 0.729721 0.790497 0.856335 0.927657 1.00492 1.08862 1.17928 1.2775 1.3839 1.49916 1.62402 1.75928 1.90581 2.06454 2.23649 2.42276 2.62454 2.84313 3.07993 3.33645 3.61433 3.91536 4.24146 4.59471 4.97739 5.39195 5.84103 6.32751 6.85451 7.4254 8.04384 8.71379 9.43953 10.2257 11.0774 
0 0 0 0 0 0 0 0 0 0 0 0 0 0 0 0 0 0 0 0 0 0 0 0 0 0 0 0 0 0 0 0 0 0 0 0 0 0 0 0 0 0 0 0 0 0 0 0 0 0 0 0 0 0 0 0 0 0 0 0 0 0 0 0 0 0 0 0 0.583697 0 0 0 0 0 0 0 0 0 0 0.583697 0 0 0 0 0 0 0.629299 0.0456012 0.0456012 0 0 0 0 0 0 0 0 0 0 
0 0 0 0 0 0 0 0 0 0 0 0 0 0 0 0 0 0 0 0 0 0 0 0 0 0 0 0 0 0 0 0 0 0 0 0 0 0 0 0 0 0 0 0 0 0 0 0 0 0 0 0 0 0 0 0 0 0 0 0 0 0 0 0 0 0 0 0 0 0 -5.11332 0 0 0 0 0 0 0 0 0 0 0 0 0 -5.11332 -10.2266 0 0 0 0 -5.11332 0 10.2266 0 0 0 0 0 0 
0 0 0 0 0 0 0 0 0 0 0 0 0 0 0 0 0 0 0 0 0 0 0 0 0 0 0 0 0 0 0 0 0 0 0 0 0 0 0 0 0 0 0 0 0 0 0 0 0 0 0 0 0 0 0 0 0 0 0 0 0 0 0 0 0 0 0 0 0 0 0 0 0 0 1.21865 1.21865 3.04661 0 1.82797 3.04661 2.43729 7.31187 11.5771 14.0144 18.889 17.6704 17.061 12.7958 7.9212 10.3585 12.1865 4.87458 0.609323 0 0 0 0 0 0 
0 0 0 0 0 0 0 0 0 0 0 0 0 0 0 0 0 0 0 0 0 0 0 0 0 0 0 0 0 0 0 0 0 0 0 0 0 0 0 0 0 0 0 0 0 0 0 0 0 0 0 0 0 0 0 0 0 0 0 0 0 1.12851 0.564255 0.564255 1.69277 0 1.12851 1.12851 1.69277 1.69277 1.12851 2.25702 3.38553 1.69277 3.38553 7.33532 7.89957 8.46383 13.5421 22.006 28.2128 27.6485 43.4477 45.7047 65.4536 84.6383 79.56 68.2749 63.7608 54.1685 36.1123 20.3132 12.9779 1.12851 0 0.564255 0 0 0 
0 0 0 0 0 0 0 0 0 0 0 0 0 0 0 0 0 0 0 0 0 0 0 0 0 0 0 0 0 0 0 0 0 0 0 0 0 0 0 0 0 0 0 0 0 0 0 0 0 0 0 0 0 0 0 0 0 0 0 0.593798 0 0.593798 0 1.78139 0.593798 0.593798 0 1.78139 0 1.78139 1.78139 1.1876 4.15658 5.34418 2.96899 5.34418 13.0636 8.90697 11.876 14.2511 23.1581 35.0341 37.4093 49.879 55.2232 72.4433 67.693 54.6294 53.4418 38.0031 26.7209 22.5643 9.50077 4.75038 0 0 0 0 0 
0 0 0 0 0 0 0 0 0 0 0 0 0 0 0 0 0 0 0 0 0 0 0 0 0 0 0 0 0 0 0 0 0 0 0 0 0 0 0 0 0 0 0 0 0 0 0 0 0 0 0 0 0 0 0 0 0 0 0.185463 0 0 0 0 0 0.185463 0 0 0.185463 1.11278 0.185463 0.556389 0.741852 1.4837 1.85463 2.41102 4.63657 5.19296 5.74935 7.60398 7.78944 13.9097 18.1754 25.0375 33.1979 36.7217 37.4635 35.6089 36.1653 34.1252 25.223 19.6591 14.2806 5.74935 2.04009 0 0 0 0 0 
0 0 0 0 0 0 0 0 0 0 0 0 0 0 0 0 0 0 0 0 0 0 0 0 0 0 0 0 0 0 0 0 0 0 0 0 0 0 0 0 0 0 0 0 0 0 0 0 0 0 0 0 0 0 0 0 0.184936 0 0.184936 0.184936 0 0 0.184936 0.369873 0 0.184936 0 0.554809 0.369873 0.369873 0.369873 1.47949 1.10962 1.66443 1.84936 4.0686 4.62341 5.54809 5.91797 9.80163 10.9113 15.7196 27.7405 36.2476 33.4735 32.9187 39.9463 33.8434 33.8434 27.5555 20.1581 12.7606 6.47278 2.21924 0 0 0 0 0 
0 0 0 0 0 0 0 0 0 0 0 0 0 0 0 0 0 0 0 0 0 0 0 0 0 0 0 0 0 0 0 0 0 0 0 0 0 0 0 0 0 0 0 0 0 0 0 0 0 0 0 0 0 0 0.1938 0.3876 0.3876 0.3876 0.41765 0.7752 1.14149 2.16185 2.37551 3.33433 6.44531 7.85183 10.9638 20.3161 25.5463 36.2867 51.688 66.4401 91.2983 134.718 158.486 213.032 276.584 341.514 441.184 541.32 694.64 859.166 1041.54 1275.38 1448.67 1538.07 1529.07 1452.34 1313.35 1137.25 930.293 629.187 260.176 62.0438 10.6834 1.40651 0 0 0 
0 0 0 0 0 0 0 0 0 0 0 0 0 0 0 0 0 0 0 0 0 0 0 0 0 0 0 0 0 0 0 0 0 0 0 0 0 0 0 0 0 0 0 0 0 0 0 0 0 0 0 0 0 0 0 0 0 0 0 0 0 0 0 0 0 0 0 0 2.56754 2.56754 2.56754 2.56754 -2.56754 0 -7.70261 0 2.56754 5.13507 7.70261 9.07839 10.2701 15.4052 54.1023 8.88178e-16 12.8377 43.6481 51.3507 41.0806 41.0806 12.8377 10.2701 12.8377 0 -2.56754 0 0 0 0 0 
0 0 0 0 0 0 0 0 0 0 0 0 0 0 0 0 0 0 0 0 0 0 0 0 0 0 0 0 0 0 0 0 0 0 0 0 0 0 0 0 0 0 0 0 0 0 0 0 0 0 0 0 0 0 0.860783 2.56718 5.13436 9.03923 11.4982 4.76565 36.649 28.7159 -6.96411 11.0882 48.0239 80.5364 108.131 140.52 128.083 228.357 170.645 302.51 479.305 377.092 627.2 798.618 925.354 1301.27 1889.83 2374.19 2988.53 3842.29 5548.56 6066.06 8256.46 9307.26 10202.8 9133 8161.97 6987.48 5671.86 3645.36 2031.84 619.742 125.903 8.0595 0 0 0 
0 0 0 0 0 0 0 0 0 0 0 0 0 1 0 0 0 0 0 0 0 0 0 0 0 0 0 0 0 0 0 0 0 0 0 0 0 0 0 0 0 0 0 0 0 0 1 0 0 0 0 0 0 0 2 6 6 5 12 7 10 24 33 42 53 63 109 125 169 237 355 358 493 619 832 1080 1415 1956 2527 3166 4102 5495 6887 8934 10698 12746 13181 12461 11405 9639 7489 4924 2509 738 199 31 1 0 0 

100
0.00402555 0.00436083 0.00472403 0.00511748 0.0055437 0.00600542 0.00650559 0.00704742 0.00763438 0.00827023 0.00895903 0.0097052 0.0105135 0.0113892 0.0123377 0.0133653 0.0144785 0.0156843 0.0169906 0.0184057 0.0199387 0.0215993 0.0233983 0.025347 0.0274581 0.029745 0.0322224 0.0349061 0.0378133 0.0409627 0.0443744 0.0480702 0.0520738 0.0564109 0.0611092 0.0661988 0.0717123 0.077685 0.0841551 0.0911642 0.098757 0.106982 0.115892 0.125545 0.136001 0.147328 0.159599 0.172891 0.187291 0.20289 0.219788 0.238093 0.257923 0.279405 0.302676 0.327885 0.355193 0.384776 0.416823 0.451539 0.489146 0.529886 0.574019 0.621827 0.673617 0.729721 0.790497 0.856335 0.927657 1.00492 1.08862 1.17928 1.2775 1.3839 1.49916 1.62402 1.75928 1.90581 2.06454 2.23649 2.42276 2.62454 2.84313 3.07993 3.33645 3.61433 3.91536 4.24146 4.59471 4.97739 5.39195 5.84103 6.32751 6.85451 7.4254 8.04384 8.71379 9.43953 10.2257 11.0774 
0 0 0 0 0 0 0 0 0 0 0 0 0 0 0 0 0 0 0 0 0 0 0 0 0 0 0 0 0 0 0 0 0 0 0 0 0 0 0 0 0 0 0 0 0 0 0 0 0 0 0 0 0 0 0 0 0 0 0 0 0 0 0 0 0 0 0 0 0 0 0 0 0 0 0 0 0 0 0 0 0 0 0 0 0 0 0 0 0 0 0 0 0 0 0 0 0 0 0 
0 0 0 0 0 0 0 0 0 0 0 0 0 0 0 0 0 0 0 0 0 0 0 0 0 0 0 0 0 0 0 0 0 0 0 0 0 0 0 0 0 0 0 0 0 0 0 0 0 0 0 0 0 0 0 0 0 0 0 0 0 0 0 0 0 0 0 0 0 0 0 0 0 0 0 0 0 0 0 0 0 0 0 0 5.11332 10.2266 0 0 0 5.11332 0 0 0 0 0 0 0 0 0 
0 0 0 0 0 0 0 0 0 0 0 0 0 0 0 0 0 0 0 0 0 0 0 0 0 0 0 0 0 0 0 0 0 0 0 0 0 0 0 0 0 0 0 0 0 0 0 0 0 0 0 0 0 0 0 0 0 0 0 0 0 0 0 0 0 0 0 0 0 0 0 0 0 0.609323 0.609323 0 0 0.609323 0.609323 0.609323 1.82797 1.82797 3.04661 1.21865 1.82797 2.43729 3.65594 3.65594 3.65594 3.04661 6.70255 2.43729 3.04661 0 0 0 0 0 0 
0 0 0 0 0 0 0 0 0 0 0 0 0 0 0 0 0 0 0 0 0 0 0 0 0 0 0 0 0 0 0 0 0 0 0 0 0 0 0 0 0 0 0 0 0 0 0 0 0 0 0 0 0 0 0.564255 0 0 0 0 0 0 0 0 0.564255 0 0.564255 0.564255 0 0 0 0 1.12851 1.69277 0 1.12851 0 0.564255 2.25702 1.69277 3.38553 3.94979 7.33532 7.33532 12.9779 17.4919 14.1064 17.4919 16.3634 10.7208 9.59234 7.89957 3.38553 0.564255 0 0.564255 0.564255 0 0 0 
0 0 0 0 0 0 0 0 0 0 0 0 0 0 0 0 0 0 0 0 0 0 0 0 0 0 0 0 0 0 0 0 0 0 0 0 0 0 0 0 0 0 0 0 0 0 0 0 0 0 0 0 0 0 0 0 0 0 0 0 0 0 0 0 0 0 0 0 0 0 0.593798 0.593798 0 0 1.1876 0 4.15658 1.1876 1.78139 4.75038 7.71937 4.15658 9.50077 8.90697 11.2822 13.0636 14.2511 10.6884 4.75038 9.50077 10.0946 7.12557 2.37519 0.593798 0 0 0 0 0 
0 0 0 0 0 0 0 0 0 0 0 0 0 0 0 0 0 0 0 0 0 0 0 0 0 0 0 0 0 0 0 0 0 0 0 0 0 0 0 0 0 0 0 0 0 0 0 0 0 0 0 0 0 0 0 0 0 0 0 0 0 0 0 0 0 0.556389 0.185463 0 0 0.185463 0.185463 0.370926 0.185463 0.370926 1.29824 0.370926 1.11278 1.29824 3.5238 4.26565 3.5238 6.30574 5.93481 5.37843 10.7569 10.2005 12.426 11.1278 9.08769 7.60398 4.82204 4.82204 1.11278 0.556389 0 0 0 0 0 
0 0 0 0 0 0 0 0 0 0 0 0 0 0 0 0 0 0 0 0 0 0 0 0 0 0 0 0 0 0 0 0 0 0 0 0 0 0 0 0 0 0 0 0 0 0 0 0 0 0 0 0 0 0 0 0 0 0 0 0 0 0 0.184936 0 0 0 0.184936 0.369873 0 0.369873 0 0.369873 0.184936 0.369873 1.29456 1.29456 1.29456 2.0343 1.66443 2.0343 3.32886 4.0686 7.21252 6.28784 7.95227 12.0209 8.87695 9.80163 6.28784 4.43848 4.99329 2.77405 1.10962 0.184936 0 0 0 0 0 
0 0 0 0 0 0 0 0 0 0 0 0 0 0 0 0 0 0 0 0 0 0 0 0 0 0 0 0 0 0 0 0 0 0 0 0 0 0 0 0 0 0 0 0 0 0 0 0 0 0 0 0 0 0 0 0.1938 0 0 0.265021 0.22385 0.80525 0.1938 0.3876 0.652621 2.00922 2.59062 4.02718 8.0059 8.44341 11.5854 17.8568 20.7512 30.8312 43.9719 51.7307 64.2512 81.1893 97.7831 126.605 158.396 181.653 239.452 293.946 350.092 382.708 413.156 441.553 417.672 369.342 306.02 260.331 189.641 73.811 14.9124 2.69587 0.5814 0 0 0 
0 0 0 0 0 0 0 0 0 0 0 0 0 0 0 0 0 0 0 0 0 0 0 0 0 0 0 0 0 0 0 0 0 0 0 0 0 0 0 0 0 0 0 0 0 0 0 0 0 0 0 0 0 0 0 0 0 0 0 0 0 0 0 0 0 0 0 0 0 0 2.56754 0 0 2.56754 0 0 2.56754 0 -2.56754 0 -2.56754 0 7.70261 7.70261 -2.56754 2.56754 0 10.2701 15.4052 10.2701 15.4052 -2.56754 0 5.13507 0 0 0 0 0 
0 0 0 0 0 0 0 0 0 0 0 0 0 0 0 0 0 0 0 0 0 0 0 0 0 0 0 0 0 0 0 0 0 0 0 0 0 0 0 0 0 0 0 0 0 0 0 0 0 0 0 0 0 0 -2.56718 2.56718 0.860783 2.56718 9.03923 2.56718 10.2687 0 13.6967 19.308 31.7751 6.66946 21.0295 15.4031 25.3031 50.5801 46.1983 26.0296 96.1203 100.768 75.5378 165.98 243.47 249.172 326.832 417.723 392.474 596.747 998.217 1042.36 1233.19 1746.77 1615.78 1655.99 1387.3 1169.54 1002.31 498.979 385.454 119.579 9.35906 0 0 0 0 
0 0 0 0 0 0 0 0 0 0 0 0 0 0 0 0 0 0 0 0 0 0 0 0 0 0 0 0 0 0 0 0 0 0 0 0 0 0 0 1 0 0 0 0 1 0 0 0 0 0 0 0 0 0 0 1 0 2 2 7 9 4 11 14 20 20 23 24 52 73 108 112 158 173 228 289 362 478 564 755 859 1154 1383 1866 2260 2580 2663 2610 2334 1879 1618 1075 492 150 43 3 0 0 0 

100
0.00402555 0.00436083 0.00472403 0.00511748 0.0055437 0.00600542 0.00650559 0.00704742 0.00763438 0.00827023 0.00895903 0.0097052 0.0105135 0.0113892 0.0123377 0.0133653 0.0144785 0.0156843 0.0169906 0.0184057 0.0199387 0.0215993 0.0233983 0.025347 0.0274581 0.029745 0.0322224 0.0349061 0.0378133 0.0409627 0.0443744 0.0480702 0.0520738 0.0564109 0.0611092 0.0661988 0.0717123 0.077685 0.0841551 0.0911642 0.098757 0.106982 0.115892 0.125545 0.136001 0.147328 0.159599 0.172891 0.187291 0.20289 0.219788 0.238093 0.257923 0.279405 0.302676 0.327885 0.355193 0.384776 0.416823 0.451539 0.489146 0.529886 0.574019 0.621827 0.673617 0.729721 0.790497 0.856335 0.927657 1.00492 1.08862 1.17928 1.2775 1.3839 1.49916 1.62402 1.75928 1.90581 2.06454 2.23649 2.42276 2.62454 2.84313 3.07993 3.33645 3.61433 3.91536 4.24146 4.59471 4.97739 5.39195 5.84103 6.32751 6.85451 7.4254 8.04384 8.71379 9.43953 10.2257 11.0774 
0 0 0 0 0 0 0 0 0 0 0 0 0 0 0 0 0 0 0 0 0 0 0 0 0 0 0 0 0 0 0 0 0 0 0 0 0 0 0 0 0 0 0 0 0 0 0 0 0 0 0 0 0 0 0 0 0 0 0 0 0 0 0 0 0 0 0 0 0 0 0 0 0 0 0 0 0 0 0 0 0 0 0 0 0 0 0 0 0 0 0 0 0 0 0 0 0 0 0 
0 0 0 0 0 0 0 0 0 0 0 0 0 0 0 0 0 0 0 0 0 0 0 0 0 0 0 0 0 0 0 0 0 0 0 0 0 0 0 0 0 0 0 0 0 0 0 0 0 0 0 0 0 0 0 0 0 0 0 0 0 0 0 0 0 0 0 0 0 0 0 0 0 0 0 0 0 0 0 0 0 0 0 0 0 0 0 0 0 0 0 0 0 0 0 0 0 0 0 
0 0 0 0 0 0 0 0 0 0 0 0 0 0 0 0 0 0 0 0 0 0 0 0 0 0 0 0 0 0 0 0 0 0 0 0 0 0 0 0 0 0 0 0 0 0 0 0 0 0 0 0 0 0 0 0 0 0 0 0 0 0 0 0 0 0 0 0 0 0 0 0 0 0 0 0 0 0 0 0 0 0 0 0 0 0 0 0 0 0 0 0 0 0 0 0 0 0 0 
0 0 0 0 0 0 0 0 0 0 0 0 0 0 0 0 0 0 0 0 0 0 0 0 0 0 0 0 0 0 0 0 0 0 0 0 0 0 0 0 0 0 0 0 0 0 0 0 0 0 0 0 0 0 0 0 0 0 0 0 0 0 0 0 0 0 0 0 0 0 0 0 0 1.12851 0.564255 1.12851 0 0.564255 1.12851 1.12851 1.12851 2.25702 1.69277 2.25702 1.12851 3.94979 6.77106 5.0783 4.51404 2.25702 1.69277 3.38553 0.564255 0 0 0 0 0 0 
0 0 0 0 0 0 0 0 0 0 0 0 0 0 0 0 0 0 0 0 0 0 0 0 0 0 0 0 0 0 0 0 0 0 0 0 0 0 0 0 0 0 0 0 0 0 0 0 0 0 0 0 0 0 0 0 0 0 0 0 0 0 0 0 0.593798 1.1876 0.593798 0 0 0.593798 0 2.37519 0.593798 0.593798 0 0 0 0.593798 0 0 0.593798 0.593798 0.593798 2.96899 2.96899 0.593798 2.96899 1.1876 2.37519 1.78139 0.593798 1.1876 1.1876 0 0 0 0 0 0 
0 0 0 0 0 0 0 0 0 0 0 0 0 0 0 0 0 0 0 0 0 0 0 0 0 0 0 0 0 0 0 0 0 0 0 0 0 0 0 0 0 0 0 0 0 0 0 0 0 0 0 0 0 0 0 0 0 0 0 0 0 0 0 0 0 0 0.185463 0 0 0.185463 0.185463 0.185463 0 0.185463 0 0.185463 0 0.556389 0 0 0.185463 1.11278 0.556389 1.4837 2.04009 2.22556 2.96741 2.22556 2.22556 2.41102 1.4837 1.11278 0.556389 0 0 0 0 0 0 
0 0 0 0 0 0 0 0 0 0 0 0 0 0 0 0 0 0 0 0 0 0 0 0 0 0 0 0 0 0 0 0 0 0 0 0 0 0 0 0 0 0 0 0 0 0 0 0 0 0 0 0 0 0 0 0 0 0 0 0 0 0 0 0 0 0 0 0 0 0 0 0 0 0 0 0.554809 0.924682 0.924682 0 0.184936 0.554809 1.10962 1.29456 2.0343 3.14392 1.84936 2.95898 2.21924 0.554809 0.739746 3.14392 1.66443 1.10962 0 0 0 0 0 0 
0 0 0 0 0 0 0 0 0 0 0 0 0 0 0 0 0 0 0 0 0 0 0 0 0 0 0 0 0 0 0 0 0 0 0 0 0 0 0 0 0 0 0 0 0 0 0 0 0 0 0 0 0 0 0 0 0 0.1938 0.0300498 0 0.3876 0 0 0.80525 0.5814 0.969 1.52909 2.15166 2.1318 6.10907 4.13958 7.26169 7.90319 13.2894 13.8994 18.2143 20.5167 27.4064 32.3676 35.5238 47.9597 69.4455 68.2025 86.2679 99.7811 104.41 101.338 92.9017 91.9778 77.214 63.4669 48.3336 19.3906 3.27677 0.426392 0.1938 0 0 0 
0 0 0 0 0 0 0 0 0 0 0 0 0 0 0 0 0 0 0 0 0 0 0 0 0 0 0 0 0 0 0 0 0 0 0 0 0 0 0 0 0 0 0 0 0 0 0 0 0 0 0 0 0 0 0 0 0 0 0 0 0 0 0 0 0 0 0 0 0 -2.56754 0 -2.56754 0 0 0 0 0 0 0 0 0 0 0 2.56754 2.56754 0 0 0 0 0 0 -2.56754 2.56754 0 0 0 0 0 0 
0 0 0 0 0 0 0 0 0 0 0 0 0 0 0 0 0 0 0 0 0 0 0 0 0 0 0 0 0 0 0 0 0 0 0 0 0 0 0 0 0 0 0 0 0 0 0 0 0 0 0 0 0 -2.56718 0 0 0 0 0 0 0 2.56718 -5.13436 2.56718 0 -0.860783 16.8489 9.03923 16.2639 14.1736 23.1046 14.0654 0.383887 5.86085 48.1021 9.39449 21.0263 59.2176 107.722 56.2882 134.626 120.823 134.675 157.86 336.038 206.362 273.023 238.556 221.544 192.997 120.91 97.3808 51.6528 0.609753 2.57232 0 0 0 0 
0 0 0 0 0 0 0 0 0 0 0 0 0 0 0 0 0 0 0 0 0 0 0 0 0 0 0 0 0 0 0 0 0 0 0 0 0 0 0 0 0 0 0 0 0 0 0 0 0 0 0 0 0 0 0 0 0 0 2 4 1 0 1 5 4 6 7 8 9 11 14 21 37 42 45 52 87 87 140 156 198 242 297 327 427 545 493 502 529 369 303 200 85 31 13 0 0 0 0 

100
0.00402555 0.00436083 0.00472403 0.00511748 0.0055437 0.00600542 0.00650559 0.00704742 0.00763438 0.00827023 0.00895903 0.0097052 0.0105135 0.0113892 0.0123377 0.0133653 0.0144785 0.0156843 0.0169906 0.0184057 0.0199387 0.0215993 0.0233983 0.025347 0.0274581 0.029745 0.0322224 0.0349061 0.0378133 0.0409627 0.0443744 0.0480702 0.0520738 0.0564109 0.0611092 0.0661988 0.0717123 0.077685 0.0841551 0.0911642 0.098757 0.106982 0.115892 0.125545 0.136001 0.147328 0.159599 0.172891 0.187291 0.20289 0.219788 0.238093 0.257923 0.279405 0.302676 0.327885 0.355193 0.384776 0.416823 0.451539 0.489146 0.529886 0.574019 0.621827 0.673617 0.729721 0.790497 0.856335 0.927657 1.00492 1.08862 1.17928 1.2775 1.3839 1.49916 1.62402 1.75928 1.90581 2.06454 2.23649 2.42276 2.62454 2.84313 3.07993 3.33645 3.61433 3.91536 4.24146 4.59471 4.97739 5.39195 5.84103 6.32751 6.85451 7.4254 8.04384 8.71379 9.43953 10.2257 11.0774 
0 0 0 0 0 0 0 0 0 0 0 0 0 0 0 0 0 0 0 0 0 0 0 0 0 0 0 0 0 0 0 0 0 0 0 0 0 0 0 0 0 0 0 0 0 0 0 0 0 0 0 0 0 0 0 0 0 0 0 0 0 0 0 0 0 0 0 0 0 0 0 0 0 0 0 0 0 0 0 0 0 0 0 0 0 0 0 0 0 0 0 0 0 0 0 0 0 0 0 
0 0 0 0 0 0 0 0 0 0 0 0 0 0 0 0 0 0 0 0 0 0 0 0 0 0 0 0 0 0 0 0 0 0 0 0 0 0 0 0 0 0 0 0 0 0 0 0 0 0 0 0 0 0 0 0 0 0 0 0 0 0 0 0 0 0 0 0 0 0 0 0 0 0 0 0 0 0 0 0 0 0 0 0 0 0 0 0 0 0 0 0 0 0 0 0 0 0 0 
0 0 0 0 0 0 0 0 0 0 0 0 0 0 0 0 0 0 0 0 0 0 0 0 0 0 0 0 0 0 0 0 0 0 0 0 0 0 0 0 0 0 0 0 0 0 0 0 0 0 0 0 0 0 0 0 0 0 0 0 0 0 0 0 0 0 0 0 0 0 0 0 0 0 0 0 0 0 0 0 0 0 0 0 0 0 0 0 0 0 0 0 0 0 0 0 0 0 0 
0 0 0 0 0 0 0 0 0 0 0 0 0 0 0 0 0 0 0 0 0 0 0 0 0 0 0 0 0 0 0 0 0 0 0 0 0 0 0 0 0 0 0 0 0 0 0 0 0 0 0 0 0 0 0 0 0 0 0 0 0 0 0 0 0 0 0 0 0 0 0 0 0 0 0 0 0 0 0 0 0 0 0 0 0 0 0 0 0 0 0 0 0 0 0 0 0 0 0 
0 0 0 0 0 0 0 0 0 0 0 0 0 0 0 0 0 0 0 0 0 0 0 0 0 0 0 0 0 0 0 0 0 0 0 0 0 0 0 0 0 0 0 0 0 0 0 0 0 0 0 0 0 0 0 0 0 0 0 0 0 0 0 0 0 0 0 0 0 0 0 0 0 0 0 0 0 0 0 0 1.1876 0 0.593798 0 0 0 0 0.593798 0 0 1.1876 0 0 0 0 0 0 0 0 
0 0 0 0 0 0 0 0 0 0 0 0 0 0 0 0 0 0 0 0 0 0 0 0 0 0 0 0 0 0 0 0 0 0 0 0 0 0 0 0 0 0 0 0 0 0 0 0 0 0 0 0 0 0 0 0 0 0 0 0 0 0 0 0 0 0 0 0 0 0 0 0 0 0 0.185463 0 0 0 0.185463 0.185463 0 0 0.185463 0.185463 0.185463 0.927315 0.370926 0 0.185463 0.556389 0 0 0.185463 0 0 0 0 0 0 
0 0 0 0 0 0 0 0 0 0 0 0 0 0 0 0 0 0 0 0 0 0 0 0 0 0 0 0 0 0 0 0 0 0 0 0 0 0 0 0 0 0 0 0 0 0 0 0 0 0 0 0 0 0 0 0 0 0 0 0 0 0 0 0 0 0 0 0 0 0 0 0 0 0 0 0.184936 0.369873 0 0 0.369873 0 0.184936 0.184936 0.369873 0.184936 0.369873 1.10962 1.10962 0.184936 0.184936 0 0.554809 0.184936 0 0 0 0 0 0 
0 0 0 0 0 0 0 0 0 0 0 0 0 0 0 0 0 0 0 0 0 0 0 0 0 0 0 0 0 0 0 0 0 0 0 0 0 0 0 0 0 0 0 0 0 0 0 0 0 0 0 0 0 0 0 0 0.1938 0 0 0 0 0 0 0 0.1938 0.3876 0.7752 0.969 0.3876 0.5814 1.1628 1.5504 0.652621 2.907 2.78442 3.33433 5.29219 4.72098 4.93464 9.70171 11.0166 13.3308 15.2925 18.6506 19.1726 21.8858 24.5164 20.2317 17.3892 17.1637 15.9659 7.77983 5.2472 1.42544 0.0712211 0 0 0 0 
0 0 0 0 0 0 0 0 0 0 0 0 0 0 0 0 0 0 0 0 0 0 0 0 0 0 0 0 0 0 0 0 0 0 0 0 0 0 0 0 0 0 0 0 0 0 0 0 0 0 0 0 0 0 0 0 0 0 0 0 0 0 0 0 0 0 0 0 0 0 0 0 0 0 0 0 0 0 0 0 0 0 0 0 0 0 0 0 0 0 0 0 0 0 0 0 0 0 0 
0 0 0 0 0 0 0 0 0 0 0 0 0 0 0 0 0 0 0 0 0 0 0 0 0 0 0 0 0 0 0 0 0 0 0 0 0 0 0 0 0 0 0 0 0 0 0 0 0 0 0 0 0 0 0 0 0 0 0 0 0 2.56718 0 -6.47204 3.42797 0 2.56718 2.56718 0 0 -1.7064 6.85593 4.28875 2.56718 9.40794 8.56233 7.22322 -3.36898 17.9703 23.355 20.7648 46.3576 37.8635 30.4841 24.9489 2.77456 64.4332 95.2599 103.837 43.674 48.3028 -3.19229 0.0587944 3.08108 -2.56718 0 0 0 0 
0 0 0 0 0 0 0 0 0 0 0 0 0 0 0 0 0 0 0 0 0 0 0 0 0 0 0 0 0 0 0 0 0 0 0 0 0 0 0 0 0 0 0 0 0 0 0 0 0 0 0 0 0 0 0 0 0 0 0 0 0 2 0 0 0 2 0 2 2 1 6 7 4 7 7 20 22 10 24 38 41 38 55 77 99 116 96 83 82 80 56 40 15 3 2 1 0 0 0 

100
0.00402555 0.00436083 0.00472403 0.00511748 0.0055437 0.00600542 0.00650559 0.00704742 0.00763438 0.00827023 0.00895903 0.0097052 0.0105135 0.0113892 0.0123377 0.0133653 0.0144785 0.0156843 0.0169906 0.0184057 0.0199387 0.0215993 0.0233983 0.025347 0.0274581 0.029745 0.0322224 0.0349061 0.0378133 0.0409627 0.0443744 0.0480702 0.0520738 0.0564109 0.0611092 0.0661988 0.0717123 0.077685 0.0841551 0.0911642 0.098757 0.106982 0.115892 0.125545 0.136001 0.147328 0.159599 0.172891 0.187291 0.20289 0.219788 0.238093 0.257923 0.279405 0.302676 0.327885 0.355193 0.384776 0.416823 0.451539 0.489146 0.529886 0.574019 0.621827 0.673617 0.729721 0.790497 0.856335 0.927657 1.00492 1.08862 1.17928 1.2775 1.3839 1.49916 1.62402 1.75928 1.90581 2.06454 2.23649 2.42276 2.62454 2.84313 3.07993 3.33645 3.61433 3.91536 4.24146 4.59471 4.97739 5.39195 5.84103 6.32751 6.85451 7.4254 8.04384 8.71379 9.43953 10.2257 11.0774 
0 0 0 0 0 0 0 0 0 0 0 0 0 0 0 0 0 0 0 0 0 0 0 0 0 0 0 0 0 0 0 0 0 0 0 0 0 0 0 0 0 0 0 0 0 0 0 0 0 0 0 0 0 0 0 0 0 0 0 0 0 0 0 0 0 0 0 0 0 0 0 0 0 0 0 0 0 0 0 0 0 0 0 0 0 0 0 0 0 0 0 0 0 0 0 0 0 0 0 
0 0 0 0 0 0 0 0 0 0 0 0 0 0 0 0 0 0 0 0 0 0 0 0 0 0 0 0 0 0 0 0 0 0 0 0 0 0 0 0 0 0 0 0 0 0 0 0 0 0 0 0 0 0 0 0 0 0 0 0 0 0 0 0 0 0 0 0 0 0 0 0 0 0 0 0 0 0 0 0 0 0 0 0 0 0 0 0 0 0 0 0 0 0 0 0 0 0 0 
0 0 0 0 0 0 0 0 0 0 0 0 0 0 0 0 0 0 0 0 0 0 0 0 0 0 0 0 0 0 0 0 0 0 0 0 0 0 0 0 0 0 0 0 0 0 0 0 0 0 0 0 0 0 0 0 0 0 0 0 0 0 0 0 0 0 0 0 0 0 0 0 0 0 0 0 0 0 0 0 0 0 0 0 0 0 0 0 0 0 0 0 0 0 0 0 0 0 0 
0 0 0 0 0 0 0 0 0 0 0 0 0 0 0 0 0 0 0 0 0 0 0 0 0 0 0 0 0 0 0 0 0 0 0 0 0 0 0 0 0 0 0 0 0 0 0 0 0 0 0 0 0 0 0 0 0 0 0 0 0 0 0 0 0 0 0 0 0 0 0 0.564255 0 0 0 0 0 0 0 0 0 0 0 0 0 0.564255 2.82128 0 0 0 0 0 0 0 0 0 0 0 0 
0 0 0 0 0 0 0 0 0 0 0 0 0 0 0 0 0 0 0 0 0 0 0 0 0 0 0 0 0 0 0 0 0 0 0 0 0 0 0 0 0 0 0 0 0 0 0 0 0 0 0 0 0 0 0 0 0 0 0 0 0 0 0 0 0 0 0 0 0 0 0 0.593798 0 0 0 0 0 0 0.593798 0 0 0 0 0 0 1.1876 0 0 1.78139 0 0 0 0 0 0 0 0 0 0 
0 0 0 0 0 0 0 0 0 0 0 0 0 0 0 0 0 0 0 0 0 0 0 0 0 0 0 0 0 0 0 0 0 0 0 0 0 0 0 0 0 0 0 0 0 0 0 0 0 0 0 0 0 0 0 0 0 0 0 0 0 0 0 0 0 0 0 0 0 0 0 0 0 0 0 0.185463 0.185463 0 0 0 0.556389 0.556389 0 0.185463 0.185463 0.370926 0 0 0.370926 0 0 0 0 0 0 0 0 0 0 
0 0 0 0 0 0 0 0 0 0 0 0 0 0 0 0 0 0 0 0 0 0 0 0 0 0 0 0 0 0 0 0 0 0 0 0 0 0 0 0 0 0 0 0 0 0 0 0 0 0 0 0 0 0 0 0 0 0 0 0 0 0 0 0 0 0 0 0 0 0 0 0 0 0 0 0 0 0 0 0 0 0 0 0 0 0 0 0 0 0 0 0 0 0 0 0 0 0 0 
0 0 0 0 0 0 0 0 0 0 0 0 0 0 0 0 0 0 0 0 0 0 0 0 0 0 0 0 0 0 0 0 0 0 0 0 0 0 0 0 0 0 0 0 0 0 0 0 0 0 0 0 0 0 0 0 0 0 0 0 0 0 0 0 0 0 0 0 0 0.2539 0.22385 0 0 0.5814 1.42782 1.38665 0.366292 0.795063 0.407463 1.95786 2.13036 2.59936 2.90318 4.2394 5.90949 4.93082 5.92987 3.86835 2.8092 3.39985 3.60809 2.34164 0.437513 0.265021 0 0 0 0 0 
0 0 0 0 0 0 0 0 0 0 0 0 0 0 0 0 0 0 0 0 0 0 0 0 0 0 0 0 0 0 0 0 0 0 0 0 0 0 0 0 0 0 0 0 0 0 0 0 0 0 0 0 0 0 0 0 0 0 0 0 0 0 0 0 0 0 0 0 0 0 0 0 0 0 0 0 0 0 0 0 0 0 0 0 0 0 0 0 0 0 0 0 0 0 0 0 0 0 0 
0 0 0 0 0 0 0 0 0 0 0 0 0 0 0 0 0 0 0 0 0 0 0 0 0 0 0 0 0 0 0 0 0 0 0 0 0 0 0 0 0 0 0 0 0 0 0 0 0 0 0 0 0 0 0 0 0 0 0 0 0 0 0 0 2.56718 0 0 0 0 0 1.72157 2.56718 0 2.57212 2.56718 -0.860783 0 0 5.13436 -4.95318 -0.0999606 4.2499 7.70649 0.00988595 0.850558 2.74342 -0.825505 19.707 -2.04834 -4.31243 -1.89643 5.13436 0 2.56718 -2.56718 0 0 0 0 
0 0 0 0 0 0 0 0 0 0 0 0 0 0 0 0 0 0 0 0 0 0 0 0 0 0 0 0 0 0 0 0 0 0 0 0 0 0 0 0 0 0 0 0 0 0 0 0 0 0 0 0 0 0 0 0 0 0 0 0 0 0 0 1 0 0 0 2 2 1 2 0 1 0 2 1 4 3 3 7 7 9 4 13 21 22 29 11 11 15 19 7 6 0 0 0 0 0 0 

100
0.00402555 0.00436083 0.00472403 0.00511748 0.0055437 0.00600542 0.00650559 0.00704742 0.00763438 0.00827023 0.00895903 0.0097052 0.0105135 0.0113892 0.0123377 0.0133653 0.0144785 0.0156843 0.0169906 0.0184057 0.0199387 0.0215993 0.0233983 0.025347 0.0274581 0.029745 0.0322224 0.0349061 0.0378133 0.0409627 0.0443744 0.0480702 0.0520738 0.0564109 0.0611092 0.0661988 0.0717123 0.077685 0.0841551 0.0911642 0.098757 0.106982 0.115892 0.125545 0.136001 0.147328 0.159599 0.172891 0.187291 0.20289 0.219788 0.238093 0.257923 0.279405 0.302676 0.327885 0.355193 0.384776 0.416823 0.451539 0.489146 0.529886 0.574019 0.621827 0.673617 0.729721 0.790497 0.856335 0.927657 1.00492 1.08862 1.17928 1.2775 1.3839 1.49916 1.62402 1.75928 1.90581 2.06454 2.23649 2.42276 2.62454 2.84313 3.07993 3.33645 3.61433 3.91536 4.24146 4.59471 4.97739 5.39195 5.84103 6.32751 6.85451 7.4254 8.04384 8.71379 9.43953 10.2257 11.0774 
0 0 0 0 0 0 0 0 0 0 0 0 0 0 0 0 0 0 0 0 0 0 0 0 0 0 0 0 0 0 0 0 0 0 0 0 0 0 0 0 0 0 0 0 0 0 0 0 0 0 0 0 0 0 0 0 0 0 0 0 0 0 0 0 0 0 0 0 0 0 0 0 0 0 0 0 0 0 0 0 0 0 0 0 0 0 0 0 0 0 0 0 0 0 0 0 0 0 0 
0 0 0 0 0 0 0 0 0 0 0 0 0 0 0 0 0 0 0 0 0 0 0 0 0 0 0 0 0 0 0 0 0 0 0 0 0 0 0 0 0 0 0 0 0 0 0 0 0 0 0 0 0 0 0 0 0 0 0 0 0 0 0 0 0 0 0 0 0 0 0 0 0 0 0 0 0 0 0 0 0 0 0 0 0 0 0 0 0 0 0 0 0 0 0 0 0 0 0 
0 0 0 0 0 0 0 0 0 0 0 0 0 0 0 0 0 0 0 0 0 0 0 0 0 0 0 0 0 0 0 0 0 0 0 0 0 0 0 0 0 0 0 0 0 0 0 0 0 0 0 0 0 0 0 0 0 0 0 0 0 0 0 0 0 0 0 0 0 0 0 0 0 0 0 0 0 0 0 0 0 0 0 0 0 0 0 0 0 0 0 0 0 0 0 0 0 0 0 
0 0 0 0 0 0 0 0 0 0 0 0 0 0 0 0 0 0 0 0 0 0 0 0 0 0 0 0 0 0 0 0 0 0 0 0 0 0 0 0 0 0 0 0 0 0 0 0 0 0 0 0 0 0 0 0 0 0 0 0 0 0 0 0 0 0 0 0 0 0 0 0 0 0 0 0 0 0 0 0 0 0 0 0 0 0 0 0 0 0 0 0 0 0 0 0 0 0 0 
0 0 0 0 0 0 0 0 0 0 0 0 0 0 0 0 0 0 0 0 0 0 0 0 0 0 0 0 0 0 0 0 0 0 0 0 0 0 0 0 0 0 0 0 0 0 0 0 0 0 0 0 0 0 0 0 0 0 0 0 0 0 0 0 0 0 0 0 0 0 0 0 0 0 0 0 0 0 0 0 0 0 0 0 0 0 0 0 0 0 0 0 0 0 0 0 0 0 0 
0 0 0 0 0 0 0 0 0 0 0 0 0 0 0 0 0 0 0 0 0 0 0 0 0 0 0 0 0 0 0 0 0 0 0 0 0 0 0 0 0 0 0 0 0 0 0 0 0 0 0 0 0 0 0 0 0 0 0 0 0 0 0 0 0 0 0 0 0 0 0 0 0 0 0 0 0 0 0 0 0 0.185463 0.185463 0 0 0.370926 0 0 0.556389 0 0 0.185463 0 0 0 0 0 0 0 
0 0 0 0 0 0 0 0 0 0 0 0 0 0 0 0 0 0 0 0 0 0 0 0 0 0 0 0 0 0 0 0 0 0 0 0 0 0 0 0 0 0 0 0 0 0 0 0 0 0 0 0 0 0 0 0 0 0 0 0 0 0 0 0 0 0 0 0 0 0 0 0 0 0 0 0 0 0 0 0 0 0 0 0 0 0 0 0 0 0 0 0 0 0 0 0 0 0 0 
0 0 0 0 0 0 0 0 0 0 0 0 0 0 0 0 0 0 0 0 0 0 0 0 0 0 0 0 0 0 0 0 0 0 0 0 0 0 0 0 0 0 0 0 0 0 0 0 0 0 0 0 0 0 0 0 0 0 0 0 0 0 0 0 0 0 0 0 0 0 0 0 0 0 0 0 0 0 0 0 0 0 0 0.120199 0 0 0 0 0.0600995 0 0.0300498 0.0300498 0 0 0 0 0 0 0 
0 0 0 0 0 0 0 0 0 0 0 0 0 0 0 0 0 0 0 0 0 0 0 0 0 0 0 0 0 0 0 0 0 0 0 0 0 0 0 0 0 0 0 0 0 0 0 0 0 0 0 0 0 0 0 0 0 0 0 0 0 0 0 0 0 0 0 0 0 0 0 0 0 0 0 0 0 0 0 0 0 0 0 0 0 0 0 0 0 0 0 0 0 0 0 0 0 0 0 
0 0 0 0 0 0 0 0 0 0 0 0 0 0 0 0 0 0 0 0 0 0 0 0 0 0 0 0 0 0 0 0 0 0 0 0 0 0 0 0 0 0 0 0 0 0 0 0 0 0 0 0 0 0 0 0 0 0 0 0 0 0 0 0 0 0 0 0 0 0 0 0 0 0 0 0 0 0 0.001431 0 2.56647 2.5679 2.56718 7.70083 -0.0007155 7.70083 0 0 2.56718 7.70155 5.13723 -0.001431 2.56647 0 0 0 0 0 0 
0 0 0 0 0 0 0 0 0 0 0 0 0 0 0 0 0 0 0 0 0 0 0 0 0 0 0 0 0 0 0 0 0 0 0 0 0 0 0 0 0 0 0 0 0 0 0 0 0 0 0 0 0 0 0 0 0 0 0 0 0 0 0 0 0 0 0 0 0 0 0 0 0 0 0 0 1 1 0 3 2 1 3 0 1 8 0 6 1 3 0 1 1 0 0 0 0 0 0 

100
0.00402555 0.00436083 0.00472403 0.00511748 0.0055437 0.00600542 0.00650559 0.00704742 0.00763438 0.00827023 0.00895903 0.0097052 0.0105135 0.0113892 0.0123377 0.0133653 0.0144785 0.0156843 0.0169906 0.0184057 0.0199387 0.0215993 0.0233983 0.025347 0.0274581 0.029745 0.0322224 0.0349061 0.0378133 0.0409627 0.0443744 0.0480702 0.0520738 0.0564109 0.0611092 0.0661988 0.0717123 0.077685 0.0841551 0.0911642 0.098757 0.106982 0.115892 0.125545 0.136001 0.147328 0.159599 0.172891 0.187291 0.20289 0.219788 0.238093 0.257923 0.279405 0.302676 0.327885 0.355193 0.384776 0.416823 0.451539 0.489146 0.529886 0.574019 0.621827 0.673617 0.729721 0.790497 0.856335 0.927657 1.00492 1.08862 1.17928 1.2775 1.3839 1.49916 1.62402 1.75928 1.90581 2.06454 2.23649 2.42276 2.62454 2.84313 3.07993 3.33645 3.61433 3.91536 4.24146 4.59471 4.97739 5.39195 5.84103 6.32751 6.85451 7.4254 8.04384 8.71379 9.43953 10.2257 11.0774 
0 0 0 0 0 0 0 0 0 0 0 0 0 0 0 0 0 0 0 0 0 0 0 0 0 0 0 0 0 0 0 0 0 0 0 0 0 0 0 0 0 0 0 0 0 0 0 0 0 0 0 0 0 0 0 0 0 0 0 0 0 0 0 0 0 0 0 0 0 0 0 0 0 0 0 0 0 0 0 0 0 0 0 0 0 0 0 0 0 0 0 0 0 0 0 0 0 0 0 
0 0 0 0 0 0 0 0 0 0 0 0 0 0 0 0 0 0 0 0 0 0 0 0 0 0 0 0 0 0 0 0 0 0 0 0 0 0 0 0 0 0 0 0 0 0 0 0 0 0 0 0 0 0 0 0 0 0 0 0 0 0 0 0 0 0 0 0 0 0 0 0 0 0 0 0 0 0 0 0 0 0 0 0 0 0 0 0 0 0 0 0 0 0 0 0 0 0 0 
0 0 0 0 0 0 0 0 0 0 0 0 0 0 0 0 0 0 0 0 0 0 0 0 0 0 0 0 0 0 0 0 0 0 0 0 0 0 0 0 0 0 0 0 0 0 0 0 0 0 0 0 0 0 0 0 0 0 0 0 0 0 0 0 0 0 0 0 0 0 0 0 0 0 0 0 0 0 0 0 0 0 0 0 0 0 0 0 0 0 0 0 0 0 0 0 0 0 0 
0 0 0 0 0 0 0 0 0 0 0 0 0 0 0 0 0 0 0 0 0 0 0 0 0 0 0 0 0 0 0 0 0 0 0 0 0 0 0 0 0 0 0 0 0 0 0 0 0 0 0 0 0 0 0 0 0 0 0 0 0 0 0 0 0 0 0 0 0 0 0 0 0 0 0 0 0 0 0 0 0 0 0 0 0 0 0 0 0 0 0 0 0 0 0 0 0 0 0 
0 0 0 0 0 0 0 0 0 0 0 0 0 0 0 0 0 0 0 0 0 0 0 0 0 0 0 0 0 0 0 0 0 0 0 0 0 0 0 0 0 0 0 0 0 0 0 0 0 0 0 0 0 0 0 0 0 0 0 0 0 0 0 0 0 0 0 0 0 0 0 0 0 0 0 0 0 0 0 0 0 0 0 0 0 0 0 0 0 0 0 0 0 0 0 0 0 0 0 
0 0 0 0 0 0 0 0 0 0 0 0 0 0 0 0 0 0 0 0 0 0 0 0 0 0 0 0 0 0 0 0 0 0 0 0 0 0 0 0 0 0 0 0 0 0 0 0 0 0 0 0 0 0 0 0 0 0 0 0 0 0 0 0 0 0 0 0 0 0 0 0 0 0 0 0 0 0 0 0 0 0 0 0 0 0 0 0 0 0 0 0 0 0 0 0 0 0 0 
0 0 0 0 0 0 0 0 0 0 0 0 0 0 0 0 0 0 0 0 0 0 0 0 0 0 0 0 0 0 0 0 0 0 0 0 0 0 0 0 0 0 0 0 0 0 0 0 0 0 0 0 0 0 0 0 0 0 0 0 0 0 0 0 0 0 0 0 0 0 0 0 0 0 0 0 0 0 0 0 0 0 0 0 0 0 0 0 0 0 0 0 0 0 0 0 0 0 0 
0 0 0 0 0 0 0 0 0 0 0 0 0 0 0 0 0 0 0 0 0 0 0 0 0 0 0 0 0 0 0 0 0 0 0 0 0 0 0 0 0 0 0 0 0 0 0 0 0 0 0 0 0 0 0 0 0 0 0 0 0 0 0 0 0 0 0 0 0 0 0 0 0 0 0 0 0.0300498 0.0600995 0 0 0 0 0.0300498 0.150249 0 0 0 0 0 0 0 0 0 0 0 0 0 0 0 
0 0 0 0 0 0 0 0 0 0 0 0 0 0 0 0 0 0 0 0 0 0 0 0 0 0 0 0 0 0 0 0 0 0 0 0 0 0 0 0 0 0 0 0 0 0 0 0 0 0 0 0 0 0 0 0 0 0 0 0 0 0 0 0 0 0 0 0 0 0 0 0 0 0 0 0 0 0 0 0 0 0 0 0 0 0 0 0 0 0 0 0 0 0 0 0 0 0 0 
0 0 0 0 0 0 0 0 0 0 0 0 0 0 0 0 0 0 0 0 0 0 0 0 0 0 0 0 0 0 0 0 0 0 0 0 0 0 0 0 0 0 0 0 0 0 0 0 0 0 0 0 0 0 0 0 0 0 0 0 0 0 0 0 0 0 0 0 0 0 0 0 0 0 0 0 0 0 0 0 0 0.0294635 0 0 0 0 0.00982117 0.00982117 0 0.0294635 0.00982117 0 0 0 0 0 0 0 0 
0 0 0 0 0 0 0 0 0 0 0 0 0 0 0 0 0 0 0 0 0 0 0 0 0 0 0 0 0 0 0 0 0 0 0 0 0 0 0 0 0 0 0 0 0 0 0 0 0 0 0 0 0 0 0 0 0 0 0 0 0 0 0 0 0 0 0 0 0 0 0 0 0 0 0 0 0 0 3 0 1 0 1 0 0 0 0 3 0 0 0 0 1 0 0 0 0 0 0 
